# SDSS CID:  14258 IAU: 2006lq   RA:  34.143341 DEC:  -0.122962  (J2000)
# GALAXY_SB [ugriz] = [ 24.53 25.14 24.78 24.21 22.67 ] +/- [  0.26  0.12  0.09  0.08  0.08 ] (asinh mag/square arcsec)
# GALAXY_SB_FLUX [ugriz] = [  1.021E-01 -1.298E-02  1.531E-02  1.862E-01  7.516E-01 ] +/- [  2.493E-01  7.293E-02  7.561E-02  9.802E-02  3.953E-01 ] (microJy per square arcsec)
#FLAG  MJD       FILT  MAG     MERR  MSKYERR MGALERR  FLUX       FLUXERR    SKYERR     GALERR    NPRE TELE   RUN  STRIP  IDCCD
    1  53989.407870  1  25.126  1.563  0.419  0.443  -4.491e-03   1.272e+00   2.469e-01   2.610e-01  21  sdss  6314  82N  3 
    1  53989.404553  2  23.505  0.988  0.470  0.172   1.300e+00   1.301e+00   6.766e-01   2.481e-01  23  sdss  6314  82N  3 
    1  53989.405382  3  22.819  0.588  0.133  0.100   2.508e+00   1.441e+00   3.460e-01   2.589e-01  22  sdss  6314  82N  3 
    0  53989.407041  4  22.248  0.638  0.254  0.178   2.989e+00   3.655e+00   1.421e+00   9.980e-01  23  sdss  6314  82N  3 
    1  53989.406211  0  25.249  1.986  0.902  1.020  -5.930e-01   3.239e+00   9.982e-01   1.129e+00  18  sdss  6314  82N  3 
   32  53995.446977  1  24.417  0.662  0.323  0.454   4.421e-01   4.790e-01   2.313e-01   3.244e-01  21  sdss  6363  82N  3 
    0  53995.443660  2  22.687  0.248  0.124  0.096   2.980e+00   6.990e-01   3.542e-01   2.747e-01  23  sdss  6363  82N  3 
    0  53995.444489  3  22.225  0.248  0.066  0.066   4.512e+00   1.055e+00   2.838e-01   2.842e-01  22  sdss  6363  82N  3 
    0  53995.446148  4  21.690  0.415  0.241  0.162   6.662e+00   3.193e+00   1.890e+00   1.274e+00  23  sdss  6363  82N  3 
    0  53995.445318  0  24.819  1.170  0.346  1.109  -1.490e-01   1.371e+00   3.380e-01   1.085e+00  18  sdss  6363  82N  3 
    0  54000.383891  1  23.043  0.279  0.081  0.344   2.114e+00   5.555e-01   1.650e-01   6.988e-01  21  sdss  6383  82N  3 
    0  54000.380574  2  21.918  0.143  0.050  0.088   6.147e+00   8.143e-01   2.839e-01   5.041e-01  23  sdss  6383  82N  3 
    0  54000.381403  3  21.672  0.185  0.114  0.091   7.604e+00   1.305e+00   8.085e-01   6.477e-01  22  sdss  6383  82N  3 
    0  54000.383062  4  21.082  0.375  0.334  0.218   1.275e+01   4.636e+00   4.247e+00   2.778e+00  23  sdss  6383  82N  3 
    0  54000.382233  0  23.951  1.305  0.617  2.124   7.435e-01   1.704e+00   7.277e-01   2.504e+00  18  sdss  6383  82N  3 
    0  54007.434124  1  22.113  0.110  0.069  0.085   5.071e+00   5.164e-01   3.238e-01   3.967e-01  21  sdss  6414  82N  3 
    0  54007.430807  2  21.320  0.079  0.041  0.033   1.070e+01   7.824e-01   4.055e-01   3.258e-01  23  sdss  6414  82N  3 
    0  54007.431636  3  21.508  0.148  0.067  0.049   8.860e+00   1.215e+00   5.518e-01   4.040e-01  22  sdss  6414  82N  3 
    0  54007.433295  4  21.184  0.333  0.097  0.121   1.151e+01   3.807e+00   1.134e+00   1.408e+00  23  sdss  6414  82N  3 
    8  54007.432466  0  22.711  0.575  0.362  0.493   3.095e+00   1.584e+00   1.071e+00   1.459e+00  18  sdss  6414  82N  3 
    8  54009.358214  1  21.997  0.089  0.049  0.052   5.647e+00   4.646e-01   2.577e-01   2.699e-01  21  sdss  6421  82N  3 
    0  54009.354897  2  21.417  0.078  0.029  0.027   9.779e+00   7.002e-01   2.601e-01   2.468e-01  23  sdss  6421  82N  3 
    0  54009.355726  3  21.554  0.141  0.047  0.045   8.489e+00   1.110e+00   3.750e-01   3.573e-01  22  sdss  6421  82N  3 
    0  54009.357385  4  21.295  0.317  0.226  0.124   1.027e+01   3.312e+00   2.407e+00   1.319e+00  23  sdss  6421  82N  3 
    8  54009.356555  0  23.231  0.773  0.443  0.638   1.832e+00   1.368e+00   8.498e-01   1.224e+00  18  sdss  6421  82N  3 
    8  54011.422420  1  21.995  0.085  0.039  0.041   5.657e+00   4.437e-01   2.017e-01   2.135e-01  21  sdss  6430  82N  3 
    0  54011.419102  2  21.368  0.073  0.014  0.019   1.023e+01   6.895e-01   1.316e-01   1.807e-01  23  sdss  6430  82N  3 
    0  54011.419932  3  21.491  0.129  0.025  0.025   9.001e+00   1.074e+00   2.101e-01   2.095e-01  22  sdss  6430  82N  3 
    0  54011.421590  4  21.698  0.408  0.069  0.111   6.599e+00   3.124e+00   5.417e-01   8.684e-01  23  sdss  6430  82N  3 
    0  54011.420761  0  23.454  1.054  0.195  0.523   1.433e+00   1.588e+00   3.149e-01   8.457e-01  18  sdss  6430  82N  3 
 1177  54021.426886  1  21.863  0.142  0.604  0.061   6.393e+00   8.311e-01   3.566e+00   3.606e-01  21  sdss  6450  82N  3 
    0  54021.423569  2  21.692  0.120  0.038  0.037   7.581e+00   8.403e-01   2.647e-01   2.584e-01  23  sdss  6450  82N  3 
  152  54021.424398  3  22.895  0.495  2.980  0.140   2.317e+00   1.161e+00   7.282e+00   3.425e-01  22  sdss  6450  82N  3 
 1176  54021.426057  4  20.134  0.151  0.795  0.049   3.157e+01   4.420e+00   2.347e+01   1.458e+00  23  sdss  6450  82N  3 
  137  54021.425228  0  22.528  0.699  0.740  0.370   3.695e+00   2.180e+00   2.572e+00   1.285e+00  18  sdss  6450  82N  3 
    0  54025.421748  1  22.480  0.182  0.092  0.168   3.603e+00   6.072e-01   3.092e-01   5.637e-01  21  sdss  6461  82N  3 
    0  54025.418431  2  21.838  0.147  0.082  0.072   6.621e+00   8.971e-01   5.038e-01   4.443e-01  23  sdss  6461  82N  3 
    0  54025.419260  3  21.859  0.229  0.060  0.096   6.382e+00   1.357e+00   3.618e-01   5.795e-01  22  sdss  6461  82N  3 
    0  54025.420919  4  22.953  0.867  0.614  0.517  -5.861e-01   4.706e+00   3.012e+00   2.539e+00  23  sdss  6461  82N  3 
   32  54025.420090  0  24.389  1.466  0.720  2.251   2.712e-01   1.907e+00   7.198e-01   2.249e+00  18  sdss  6461  82N  3 
    0  54029.431906  1  22.941  0.236  0.073  0.162   2.331e+00   5.171e-01   1.627e-01   3.600e-01  21  sdss  6476  82N  3 
    0  54029.428589  2  21.951  0.149  0.031  0.053   5.960e+00   8.212e-01   1.744e-01   2.954e-01  23  sdss  6476  82N  3 
    0  54029.429418  3  22.345  0.324  0.108  0.084   4.020e+00   1.230e+00   4.214e-01   3.254e-01  22  sdss  6476  82N  3 
    0  54029.431077  4  22.447  0.765  0.369  0.258   1.920e+00   4.209e+00   1.912e+00   1.340e+00  23  sdss  6476  82N  3 
    0  54029.430247  0  23.400  1.115  0.444  0.836   1.524e+00   1.724e+00   7.480e-01   1.407e+00  18  sdss  6476  82N  3 
    0  54031.339322  1  22.862  0.198  0.066  0.123   2.514e+00   4.682e-01   1.568e-01   2.919e-01  21  sdss  6484  82N  3 
    0  54031.336005  2  22.303  0.193  0.066  0.064   4.289e+00   7.698e-01   2.651e-01   2.576e-01  23  sdss  6484  82N  3 
    0  54031.336835  3  22.476  0.371  0.142  0.099   3.539e+00   1.249e+00   4.932e-01   3.430e-01  22  sdss  6484  82N  3 
    0  54031.338493  4  23.396  0.681  0.319  0.223  -2.874e+00   3.886e+00   1.772e+00   1.236e+00  23  sdss  6484  82N  3 
    0  54031.337664  0  25.295  1.167  0.299  1.117  -6.443e-01   1.450e+00   3.374e-01   1.262e+00  18  sdss  6484  82N  3 
    0  54036.344094  1  23.297  0.376  0.233  0.446   1.650e+00   5.923e-01   3.790e-01   7.257e-01  21  sdss  6504  82N  3 
    0  54036.340776  2  22.536  0.314  0.208  0.202   3.442e+00   9.996e-01   6.784e-01   6.591e-01  23  sdss  6504  82N  3 
    0  54036.341606  3  23.072  0.708  0.410  0.317   1.914e+00   1.420e+00   8.725e-01   6.731e-01  22  sdss  6504  82N  3 
  160  54036.343264  4  22.774  0.925  0.773  0.592   2.872e-01   5.081e+00   3.775e+00   2.891e+00  23  sdss  6504  82N  3 
    0  54036.342435  0  23.218  1.088  0.182  1.372   1.858e+00   1.861e+00   3.518e-01   2.659e+00  18  sdss  6504  82N  3 
    0  54039.341978  1  24.356  0.678  0.191  0.576   4.865e-01   5.038e-01   1.412e-01   4.259e-01  21  sdss  6513  82N  3 
    0  54039.338661  2  23.005  0.395  0.208  0.175   2.187e+00   8.281e-01   4.493e-01   3.785e-01  23  sdss  6513  82N  3 
    0  54039.339491  3  22.877  0.532  0.210  0.165   2.361e+00   1.259e+00   5.203e-01   4.081e-01  22  sdss  6513  82N  3 
    0  54039.341149  4  22.178  0.687  0.323  0.269   3.393e+00   4.055e+00   1.869e+00   1.557e+00  23  sdss  6513  82N  3 
    0  54039.340320  0  23.203  0.930  0.385  0.854   1.887e+00   1.638e+00   7.544e-01   1.674e+00  18  sdss  6513  82N  3 
    1  54041.312674  1  23.364  0.725  0.150  0.149   1.544e+00   1.009e+00   2.307e-01   2.292e-01  21  sdss  6524  82N  3 
    1  54041.309357  2  23.699  0.852  0.196  0.156   1.041e+00   1.016e+00   2.446e-01   1.943e-01  23  sdss  6524  82N  3 
    1  54041.310186  3  23.109  0.656  0.290  0.115   1.836e+00   1.292e+00   5.985e-01   2.379e-01  22  sdss  6524  82N  3 
    0  54041.311845  4  21.822  0.535  0.215  0.143   5.674e+00   3.755e+00   1.541e+00   1.020e+00  23  sdss  6524  82N  3 
    1  54041.311015  0  25.782  1.663  0.212  0.658  -1.283e+00   2.588e+00   3.204e-01   9.933e-01  18  sdss  6524  82N  3 
    1  54048.336374  1  23.278  0.539  0.102  0.146   1.682e+00   8.380e-01   1.682e-01   2.419e-01  21  sdss  6533  82N  3 
    1  54048.333057  2  23.312  0.565  0.067  0.137   1.600e+00   8.984e-01   1.116e-01   2.295e-01  23  sdss  6533  82N  3 
    0  54048.333886  3  23.485  0.736  0.113  0.161   1.154e+00   1.160e+00   1.806e-01   2.564e-01  22  sdss  6533  82N  3 
    0  54048.335544  4  22.153  0.535  0.216  0.168   3.539e+00   3.160e+00   1.268e+00   9.867e-01  23  sdss  6533  82N  3 
    1  54048.334715  0  23.156  1.427  0.340  0.533   1.981e+00   2.476e+00   6.920e-01   1.084e+00  18  sdss  6533  82N  3 
   35  54052.340519  1  24.580  1.263  1.161  1.546   3.297e-01   9.621e-01   7.686e-01   1.023e+00  21  sdss  6552  82N  3 
    0  54052.337203  2  24.208  1.145  1.645  0.906   4.990e-01   1.161e+00   1.516e+00   8.346e-01  23  sdss  6552  82N  3 
    0  54052.338032  3  23.867  1.177  1.191  0.856   6.067e-01   1.752e+00   1.560e+00   1.121e+00  22  sdss  6552  82N  3 
    0  54052.339690  4  23.813  0.964  1.096  0.682  -5.456e+00   6.606e+00   7.678e+00   4.776e+00  23  sdss  6552  82N  3 
    2  54052.338861  0  25.728  1.738  0.680  2.497  -1.201e+00   2.726e+00   9.892e-01   3.633e+00  18  sdss  6552  82N  3 
    0  54055.352072  1  24.094  0.633  0.466  0.515   6.969e-01   5.370e-01   4.052e-01   4.475e-01  21  sdss  6565  82N  3 
    0  54055.348755  2  23.863  0.885  0.334  0.582   8.479e-01   9.726e-01   3.737e-01   6.496e-01  23  sdss  6565  82N  3 
    0  54055.349584  3  23.430  0.889  0.640  0.497   1.244e+00   1.445e+00   1.056e+00   8.192e-01  22  sdss  6565  82N  3 
    0  54055.351243  4  23.014  0.798  0.528  0.414  -8.861e-01   4.286e+00   2.613e+00   2.047e+00  23  sdss  6565  82N  3 
    0  54055.350413  0  25.510  1.497  0.540  2.061  -9.025e-01   2.106e+00   6.838e-01   2.609e+00  18  sdss  6565  82N  3 
    0  54058.335064  1  24.070  0.678  0.512  0.741   7.179e-01   5.823e-01   4.521e-01   6.553e-01  21  sdss  6577  82N  3 
    0  54058.331747  2  23.642  0.743  0.539  0.422   1.113e+00   9.201e-01   7.001e-01   5.481e-01  23  sdss  6577  82N  3 
    0  54058.332576  3  23.936  1.046  0.831  0.603   5.176e-01   1.491e+00   1.061e+00   7.699e-01  22  sdss  6577  82N  3 
    0  54058.334235  4  24.114  0.600  0.309  0.297  -7.802e+00   4.987e+00   2.682e+00   2.582e+00  23  sdss  6577  82N  3 
    0  54058.333405  0  25.288  1.511  1.145  2.539  -6.363e-01   2.059e+00   1.290e+00   2.860e+00  18  sdss  6577  82N  3 
  128  54060.356646  1  25.218  0.995  0.659  1.592  -5.889e-02   6.731e-01   3.896e-01   9.413e-01  21  sdss  6584  82N  3 
    2  54060.353329  2  24.009  1.091  0.617  0.998   6.920e-01   1.153e+00   6.307e-01   1.020e+00  23  sdss  6584  82N  3 
    2  54060.354158  3  25.547  1.130  0.754  0.943  -1.698e+00   2.070e+00   1.481e+00   1.851e+00  22  sdss  6584  82N  3 
  128  54060.355816  4  20.874  0.473  0.483  0.327   1.564e+01   6.848e+00   7.360e+00   4.973e+00  23  sdss  6584  82N  3 
  130  54060.354987  0  25.158  1.820  1.043  4.380  -4.933e-01   2.750e+00   1.112e+00   4.671e+00  18  sdss  6584  82N  3 
 1180  54063.325093  1  26.650  1.008  4.731  0.489  -1.233e+00   1.127e+00   6.041e+00   6.236e-01  21  sdss  6600  82N  3 
    0  54063.321777  2  24.044  0.969  0.507  0.379   6.565e-01   9.973e-01   5.075e-01   3.801e-01  23  sdss  6600  82N  3 
   12  54063.322606  3  23.934  1.182  1.381  0.272   5.202e-01   1.742e+00   1.764e+00   3.474e-01  22  sdss  6600  82N  3 
    4  54063.324264  4  23.424  1.075  0.666  0.362  -3.029e+00   6.555e+00   3.746e+00   2.035e+00  23  sdss  6600  82N  3 
    4  54063.323435  0  24.926  1.480  0.357  1.357  -2.546e-01   1.935e+00   3.552e-01   1.351e+00  18  sdss  6600  82N  3 
    0  54065.332834  1  26.122  0.801  0.774  0.630  -6.788e-01   6.680e-01   6.634e-01   5.402e-01  21  sdss  6609  82N  3 
   12  54065.329517  2  23.154  0.704  0.944  0.228   1.883e+00   1.231e+00   1.801e+00   4.345e-01  23  sdss  6609  82N  3 
    0  54065.330346  3  22.716  0.595  0.413  0.174   2.786e+00   1.578e+00   1.170e+00   4.917e-01  22  sdss  6609  82N  3 
    0  54065.332005  4  23.785  0.858  0.229  0.312  -5.263e+00   5.793e+00   1.574e+00   2.149e+00  23  sdss  6609  82N  3 
    4  54065.331175  0  23.397  1.402  0.217  1.067   1.529e+00   2.189e+00   3.655e-01   1.799e+00  18  sdss  6609  82N  3 
