# SDSS CID:  11304 IAU: 2005js   RA:  23.613014 DEC:  -0.561860  (J2000)
# GALAXY_SB [ugriz] = [ 22.66 20.76 19.82 19.39 19.07 ] +/- [  0.13  0.01  0.00  0.00  0.01 ] (asinh mag/square arcsec)
# GALAXY_SB_FLUX [ugriz] = [  3.158E+00  1.755E+01  4.256E+01  6.249E+01  8.412E+01 ] +/- [  3.858E-01  1.446E-01  1.524E-01  1.691E-01  5.725E-01 ] (microJy per square arcsec)
#FLAG  MJD       FILT  MAG     MERR  MSKYERR MGALERR  FLUX       FLUXERR    SKYERR     GALERR    NPRE TELE   RUN  STRIP  IDCCD
    8  53616.379528  1  26.852  0.641  0.472  1.054  -1.514e+00   8.952e-01   7.132e-01   1.592e+00  18  sdss  5566  82N  2 
    0  53616.376211  2  26.909  0.557  0.201  0.584  -2.958e+00   1.462e+00   5.660e-01   1.646e+00  23  sdss  5566  82N  2 
   32  53616.377040  3  22.229  0.465  0.237  0.415   4.496e+00   1.882e+00   1.007e+00   1.767e+00  24  sdss  5566  82N  2 
   32  53616.378699  4  22.471  0.980  0.552  0.748   1.799e+00   5.592e+00   2.832e+00   3.842e+00  25  sdss  5566  82N  2 
   36  53616.377869  0  24.205  1.596  0.271  4.182   4.596e-01   2.204e+00   2.848e-01   4.401e+00  13  sdss  5566  82N  2 
   40  53626.356686  1  23.207  0.555  0.324  0.835   1.804e+00   9.139e-01   5.693e-01   1.468e+00  18  sdss  5603  82N  2 
 1176  53626.353368  2  26.622  0.886  5.626  0.894  -2.238e+00   1.690e+00   1.235e+01   1.962e+00  23  sdss  5603  82N  2 
    0  53626.354198  3  26.026  0.704  0.371  0.721  -2.838e+00   1.832e+00   1.055e+00   2.049e+00  24  sdss  5603  82N  2 
   32  53626.355856  4  20.865  0.347  0.237  0.218   1.578e+01   5.027e+00   3.532e+00   3.241e+00  25  sdss  5603  82N  2 
    0  53626.355027  0  25.126  1.542  0.211  3.995  -4.593e-01   2.087e+00   2.222e-01   4.204e+00  13  sdss  5603  82N  2 
   33  53628.341356  1  22.286  0.354  0.109  0.255   4.318e+00   1.372e+00   4.358e-01   1.024e+00  18  sdss  5610  82N  2 
   33  53628.338039  2  23.009  0.760  0.245  0.383   2.178e+00   1.463e+00   5.255e-01   8.205e-01  23  sdss  5610  82N  2 
    0  53628.338868  3  25.211  1.079  0.420  0.691  -1.110e+00   1.714e+00   6.539e-01   1.076e+00  24  sdss  5610  82N  2 
   32  53628.340527  4  21.603  0.658  0.289  0.372   7.364e+00   5.151e+00   2.364e+00   3.041e+00  25  sdss  5610  82N  2 
   41  53628.339698  0  23.893  1.901  1.254  2.520   8.129e-01   3.030e+00   1.518e+00   3.052e+00  13  sdss  5610  82N  2 
   33  53635.350427  1  23.666  1.162  0.289  0.573   1.133e+00   1.214e+00   3.455e-01   6.852e-01  18  sdss  5622  82N  2 
   33  53635.347110  2  23.505  0.940  0.141  0.316   1.301e+00   1.239e+00   2.016e-01   4.525e-01  23  sdss  5622  82N  2 
   32  53635.347939  3  21.492  0.187  0.037  0.064   8.991e+00   1.532e+00   3.030e-01   5.262e-01  24  sdss  5622  82N  2 
   32  53635.349598  4  21.222  0.451  0.126  0.232   1.108e+01   4.786e+00   1.393e+00   2.551e+00  25  sdss  5622  82N  2 
    9  53635.348768  0  25.452  1.867  0.907  1.868  -8.300e-01   2.941e+00   1.108e+00   2.280e+00  13  sdss  5622  82N  2 
   33  53637.343441  1  23.658  1.002  0.091  0.786   1.143e+00   1.070e+00   1.092e-01   9.458e-01  18  sdss  5633  82N  2 
   32  53637.340124  2  24.049  1.622  0.483  1.163   6.513e-01   1.926e+00   4.814e-01   1.159e+00  23  sdss  5633  82N  2 
   32  53637.340953  3  21.918  0.324  0.125  0.164   6.036e+00   1.769e+00   7.035e-01   9.195e-01  24  sdss  5633  82N  2 
   32  53637.342612  4  21.335  0.565  0.046  0.297   9.855e+00   5.391e+00   4.630e-01   2.980e+00  25  sdss  5633  82N  2 
   33  53637.341783  0  22.516  0.938  0.165  0.947   3.737e+00   2.732e+00   5.725e-01   3.294e+00  13  sdss  5633  82N  2 
   32  53639.388841  1  24.526  1.049  0.301  0.974   3.660e-01   7.684e-01   2.041e-01   6.602e-01  18  sdss  5642  82N  2 
   32  53639.385524  2  24.454  1.137  0.282  0.709   2.825e-01   1.106e+00   2.371e-01   5.949e-01  23  sdss  5642  82N  2 
   32  53639.386353  3  21.352  0.149  0.039  0.058   1.024e+01   1.390e+00   3.693e-01   5.402e-01  24  sdss  5642  82N  2 
   32  53639.388012  4  22.221  0.723  0.221  0.394   3.144e+00   4.188e+00   1.240e+00   2.218e+00  25  sdss  5642  82N  2 
   32  53639.387182  0  23.569  1.275  0.100  1.583   1.252e+00   1.836e+00   1.478e-01   2.344e+00  13  sdss  5642  82N  2 
   32  53641.388071  1  22.611  0.270  0.016  0.253   3.187e+00   7.902e-01   4.670e-02   7.552e-01  18  sdss  5658  82N  2 
   32  53641.384753  2  22.304  0.267  0.051  0.123   4.288e+00   1.049e+00   2.033e-01   4.915e-01  23  sdss  5658  82N  2 
  160  53641.385583  3  22.148  0.318  0.020  0.171   4.858e+00   1.419e+00   8.925e-02   7.831e-01  24  sdss  5658  82N  2 
    0  53641.387241  4  22.948  0.827  0.105  0.493  -5.607e-01   4.452e+00   5.149e-01   2.416e+00  25  sdss  5658  82N  2 
    0  53641.386412  0  25.178  1.322  0.041  1.799  -5.150e-01   1.675e+00   4.448e-02   1.929e+00  13  sdss  5658  82N  2 
   32  53644.336279  1  24.661  0.997  0.209  1.065   2.774e-01   7.026e-01   1.340e-01   6.835e-01  18  sdss  5670  82N  2 
   32  53644.332962  2  22.762  0.439  0.068  0.252   2.774e+00   1.115e+00   1.794e-01   6.707e-01  23  sdss  5670  82N  2 
  160  53644.333792  3  21.425  0.173  0.013  0.107   9.569e+00   1.511e+00   1.099e-01   9.384e-01  24  sdss  5670  82N  2 
   32  53644.335450  4  21.282  0.397  0.043  0.207   1.040e+01   4.042e+00   4.494e-01   2.174e+00  25  sdss  5670  82N  2 
  128  53644.334621  0  25.789  1.082  0.087  1.401  -1.293e+00   1.557e+00   1.311e-01   2.113e+00  13  sdss  5670  82N  2 
   35  53657.347127  1  23.535  2.213  1.345  2.555   1.299e+00   2.720e+00   1.790e+00   3.400e+00  18  sdss  5731  82N  2 
   35  53657.343810  2  23.894  1.875  1.375  2.397   8.129e-01   2.481e+00   1.500e+00   2.615e+00  23  sdss  5731  82N  2 
    3  53657.344639  3  24.804  1.606  1.189  2.064  -5.383e-01   2.719e+00   1.524e+00   2.645e+00  24  sdss  5731  82N  2 
   32  53657.346298  4  22.455  1.251  0.726  1.259   1.879e+00   7.692e+00   3.742e+00   6.494e+00  25  sdss  5731  82N  2 
   43  53657.345469  0  24.268  2.552  3.061  8.055   3.942e-01   5.481e+00   3.156e+00   8.304e+00  13  sdss  5731  82N  2 
   33  53663.331605  1  23.521  1.040  0.160  0.408   1.319e+00   1.209e+00   2.149e-01   5.491e-01  18  sdss  5744  82N  2 
   33  53663.328288  2  22.981  0.634  0.096  0.209   2.240e+00   1.284e+00   2.101e-01   4.598e-01  23  sdss  5744  82N  2 
   33  53663.329118  3  22.748  0.631  0.155  0.269   2.696e+00   1.604e+00   4.228e-01   7.317e-01  24  sdss  5744  82N  2 
   32  53663.330776  4  21.742  0.593  0.171  0.233   6.261e+00   4.281e+00   1.267e+00   1.725e+00  25  sdss  5744  82N  2 
    9  53663.329947  0  25.945  1.974  0.714  1.385  -1.546e+00   3.463e+00   1.206e+00   2.338e+00  13  sdss  5744  82N  2 
   33  53666.401689  1  22.440  0.346  0.078  0.269   3.740e+00   1.168e+00   2.704e-01   9.389e-01  18  sdss  5765  82N  2 
   33  53666.398372  2  21.976  0.240  0.061  0.113   5.827e+00   1.270e+00   3.291e-01   6.088e-01  23  sdss  5765  82N  2 
   32  53666.399202  3  23.372  0.932  0.213  0.361   1.342e+00   1.548e+00   3.618e-01   6.149e-01  24  sdss  5765  82N  2 
   32  53666.400860  4  21.424  0.573  0.166  0.287   8.963e+00   5.119e+00   1.554e+00   2.685e+00  25  sdss  5765  82N  2 
    1  53666.400031  0  26.729  1.313  0.233  0.883  -3.439e+00   3.220e+00   7.502e-01   2.846e+00  13  sdss  5765  82N  2 
   32  53668.321425  1  23.505  0.874  0.499  1.231   1.340e+00   1.059e+00   6.808e-01   1.679e+00  18  sdss  5770  82N  2 
    0  53668.318108  2  25.704  1.359  0.143  1.650  -8.063e-01   1.549e+00   1.550e-01   1.793e+00  23  sdss  5770  82N  2 
    0  53668.318937  3  25.303  1.123  0.433  1.207  -1.260e+00   1.852e+00   7.132e-01   1.989e+00  24  sdss  5770  82N  2 
    0  53668.320595  4  22.913  1.031  0.917  0.957  -3.938e-01   5.826e+00   4.483e+00   4.681e+00  25  sdss  5770  82N  2 
    0  53668.319766  0  24.920  1.726  0.175  5.086  -2.490e-01   2.482e+00   1.744e-01   5.056e+00  13  sdss  5770  82N  2 
   40  53670.326019  1  23.370  0.574  0.250  0.746   1.535e+00   8.211e-01   3.822e-01   1.139e+00  18  sdss  5781  82N  2 
   32  53670.322702  2  21.637  0.202  0.023  0.144   7.976e+00   1.463e+00   1.706e-01   1.059e+00  23  sdss  5781  82N  2 
   32  53670.323531  3  22.841  0.667  0.226  0.332   2.451e+00   1.570e+00   5.707e-01   8.389e-01  24  sdss  5781  82N  2 
   32  53670.325189  4  22.140  0.909  0.553  0.679   3.612e+00   5.515e+00   3.231e+00   3.966e+00  25  sdss  5781  82N  2 
   40  53670.324360  0  22.541  0.628  0.575  1.121   3.648e+00   1.954e+00   1.956e+00   3.814e+00  13  sdss  5781  82N  2 
   40  53673.294055  1  23.220  0.417  0.176  0.378   1.781e+00   6.968e-01   3.053e-01   6.569e-01  18  sdss  5792  82N  2 
   32  53673.290738  2  22.584  0.385  0.024  0.225   3.290e+00   1.155e+00   7.612e-02   6.988e-01  23  sdss  5792  82N  2 
    0  53673.291567  3  25.440  0.826  0.206  0.356  -1.497e+00   1.433e+00   3.711e-01   6.422e-01  24  sdss  5792  82N  2 
   32  53673.293225  4  21.404  0.456  0.048  0.214   9.158e+00   4.195e+00   4.587e-01   2.034e+00  25  sdss  5792  82N  2 
   32  53673.292396  0  24.382  1.353  0.135  2.142   2.782e-01   1.693e+00   1.347e-01   2.143e+00  13  sdss  5792  82N  2 
   32  53675.290771  1  23.920  0.789  0.053  0.784   8.572e-01   7.339e-01   5.189e-02   7.705e-01  18  sdss  5800  82N  2 
   32  53675.287454  2  23.460  0.917  0.080  0.356   1.367e+00   1.244e+00   1.189e-01   5.286e-01  23  sdss  5800  82N  2 
   32  53675.288283  3  21.179  0.137  0.043  0.058   1.202e+01   1.498e+00   4.782e-01   6.338e-01  24  sdss  5800  82N  2 
   32  53675.289942  4  21.844  0.702  0.341  0.369   5.514e+00   4.763e+00   2.361e+00   2.552e+00  25  sdss  5800  82N  2 
   32  53675.289113  0  24.011  1.292  0.098  1.947   6.738e-01   1.661e+00   1.121e-01   2.221e+00  13  sdss  5800  82N  2 
   40  53677.311876  1  23.348  0.519  0.284  0.629   1.569e+00   7.648e-01   4.429e-01   9.794e-01  18  sdss  5813  82N  2 
   32  53677.308559  2  22.070  0.240  0.040  0.131   5.338e+00   1.166e+00   1.998e-01   6.483e-01  23  sdss  5813  82N  2 
    0  53677.309388  3  25.399  0.838  0.214  0.372  -1.423e+00   1.424e+00   3.753e-01   6.536e-01  24  sdss  5813  82N  2 
   32  53677.311047  4  22.692  0.764  0.264  0.447   6.867e-01   4.063e+00   1.296e+00   2.196e+00  25  sdss  5813  82N  2 
   32  53677.310218  0  24.631  1.349  0.142  2.210   3.363e-02   1.670e+00   1.378e-01   2.142e+00  13  sdss  5813  82N  2 
   40  53680.298270  1  23.105  0.381  0.154  0.351   1.991e+00   7.079e-01   2.960e-01   6.743e-01  18  sdss  5823  82N  2 
   32  53680.294953  2  22.133  0.234  0.058  0.112   5.033e+00   1.077e+00   2.689e-01   5.249e-01  23  sdss  5823  82N  2 
   32  53680.295783  3  20.449  0.074  0.019  0.039   2.360e+01   1.583e+00   4.193e-01   8.418e-01  24  sdss  5823  82N  2 
   32  53680.297441  4  21.286  0.416  0.088  0.213   1.036e+01   4.218e+00   9.231e-01   2.230e+00  25  sdss  5823  82N  2 
   32  53680.296612  0  24.074  1.324  0.135  2.140   6.020e-01   1.697e+00   1.499e-01   2.371e+00  13  sdss  5823  82N  2 
   33  53686.297496  1  22.943  1.031  0.267  0.532   2.327e+00   1.855e+00   5.924e-01   1.179e+00  18  sdss  5866  82N  2 
   33  53686.294179  2  23.310  1.527  0.772  0.919   1.604e+00   2.182e+00   1.288e+00   1.533e+00  23  sdss  5866  82N  2 
    1  53686.295008  3  25.092  1.478  0.857  1.296  -9.308e-01   2.478e+00   1.247e+00   1.887e+00  24  sdss  5866  82N  2 
   32  53686.296667  4  20.957  0.495  0.186  0.337   1.443e+01   6.462e+00   2.562e+00   4.632e+00  25  sdss  5866  82N  2 
  131  53686.295837  0  26.293  2.529  1.141  2.957  -2.238e+00   5.762e+00   2.536e+00   6.571e+00  13  sdss  5866  82N  2 
   33  53693.299456  1  22.448  0.405  0.098  0.246   3.712e+00   1.343e+00   3.401e-01   8.524e-01  18  sdss  5878  82N  2 
   33  53693.296140  2  21.982  0.280  0.063  0.133   5.795e+00   1.468e+00   3.391e-01   7.129e-01  23  sdss  5878  82N  2 
   32  53693.296969  3  21.991  0.324  0.117  0.176   5.634e+00   1.661e+00   6.157e-01   9.273e-01  24  sdss  5878  82N  2 
   32  53693.298627  4  20.662  0.281  0.100  0.155   1.920e+01   4.900e+00   1.781e+00   2.755e+00  25  sdss  5878  82N  2 
    1  53693.297798  0  27.474  0.602  0.139  0.378  -6.947e+00   3.451e+00   8.757e-01   2.377e+00  13  sdss  5878  82N  2 
   32  53698.296543  1  24.227  0.994  0.240  1.044   5.858e-01   7.922e-01   1.915e-01   8.327e-01  18  sdss  5898  82N  2 
    0  53698.293226  2  26.482  0.826  0.173  0.329  -1.945e+00   1.435e+00   3.368e-01   6.417e-01  23  sdss  5898  82N  2 
   32  53698.294056  3  24.256  1.057  0.262  0.505   1.258e-01   1.462e+00   3.119e-01   6.011e-01  24  sdss  5898  82N  2 
   32  53698.295714  4  22.617  0.857  0.191  0.525   1.059e+00   4.673e+00   9.485e-01   2.607e+00  25  sdss  5898  82N  2 
   32  53698.294885  0  24.551  1.428  0.201  2.605   1.117e-01   1.822e+00   1.961e-01   2.537e+00  13  sdss  5898  82N  2 
   32  53704.282006  1  23.879  0.981  0.177  1.612   8.983e-01   9.210e-01   1.794e-01   1.634e+00  18  sdss  5918  82N  2 
   32  53704.278690  2  22.382  0.398  0.222  0.388   3.985e+00   1.426e+00   8.262e-01   1.445e+00  23  sdss  5918  82N  2 
    0  53704.279519  3  25.425  1.116  0.573  1.274  -1.470e+00   1.927e+00   1.023e+00   2.275e+00  24  sdss  5918  82N  2 
   32  53704.281177  4  20.917  0.436  0.394  0.303   1.500e+01   5.958e+00   5.607e+00   4.307e+00  25  sdss  5918  82N  2 
   32  53704.280348  0  23.199  1.280  0.062  2.028   1.895e+00   2.170e+00   1.207e-01   3.957e+00  13  sdss  5918  82N  2 
