# SDSS CID:   1275 IAU:          RA:  50.482430 DEC:   0.834275  (J2000)
# GALAXY_SB [ugriz] = [ 23.79 23.49 23.25 23.18 22.26 ] +/- [  0.13  0.04  0.04  0.05  0.07 ] (asinh mag/square arcsec)
# GALAXY_SB_FLUX [ugriz] = [  9.031E-01  1.361E+00  1.701E+00  1.693E+00  2.890E+00 ] +/- [  1.630E-01  5.912E-02  7.239E-02  9.848E-02  3.757E-01 ] (microJy per square arcsec)
#FLAG  MJD       FILT  MAG     MERR  MSKYERR MGALERR  FLUX       FLUXERR    SKYERR     GALERR    NPRE TELE   RUN  STRIP  IDCCD
   32  53616.451969  1  23.215  0.324  0.088  0.213   1.790e+00   5.487e-01   1.522e-01   3.692e-01  34  sdss  5566  82N  5 
   32  53616.448651  2  23.350  0.566  0.159  0.345   1.539e+00   8.757e-01   2.584e-01   5.608e-01  32  sdss  5566  82N  5 
   32  53616.449481  3  22.977  0.624  0.305  0.262   2.123e+00   1.349e+00   6.971e-01   5.984e-01  37  sdss  5566  82N  5 
    0  53616.451139  4  21.858  0.601  0.323  0.310   5.422e+00   4.121e+00   2.257e+00   2.167e+00  34  sdss  5566  82N  5 
    0  53616.450310  0  25.542  1.216  0.267  1.067  -9.441e-01   1.616e+00   3.421e-01   1.366e+00  28  sdss  5566  82N  5 
    0  53622.465692  1  23.106  0.249  0.057  0.094   1.989e+00   4.691e-01   1.087e-01   1.802e-01  34  sdss  5582  82S  6 
    0  53622.462374  2  22.621  0.228  0.031  0.069   3.176e+00   6.842e-01   9.325e-02   2.092e-01  32  sdss  5582  82S  6 
    0  53622.463204  3  22.605  0.358  0.129  0.094   3.117e+00   1.080e+00   4.000e-01   2.924e-01  37  sdss  5582  82S  6 
    0  53622.464862  4  21.888  0.472  0.233  0.202   5.214e+00   3.193e+00   1.598e+00   1.384e+00  34  sdss  5582  82S  6 
  128  53622.464033  0  23.794  0.991  0.438  0.465   9.379e-01   1.278e+00   5.598e-01   5.935e-01  28  sdss  5582  82S  6 
 1164  53626.428995  1  22.858  0.726  0.654  0.121   2.523e+00   1.532e+00   1.555e+00   2.878e-01  34  sdss  5603  82N  5 
   32  53626.425678  2  23.315  0.605  0.292  0.267   1.597e+00   9.551e-01   4.883e-01   4.464e-01  32  sdss  5603  82N  5 
   36  53626.426507  3  23.425  1.015  0.913  0.307   1.253e+00   1.661e+00   1.509e+00   5.072e-01  37  sdss  5603  82N  5 
  160  53626.428166  4  22.519  0.697  0.272  0.364   1.555e+00   3.742e+00   1.384e+00   1.852e+00  34  sdss  5603  82N  5 
 1164  53626.427337  0  25.309  1.820  3.138  1.406  -6.606e-01   2.777e+00   3.553e+00   1.592e+00  28  sdss  5603  82N  5 
    0  53627.423041  1  22.582  0.186  0.141  0.128   3.273e+00   5.606e-01   4.297e-01   3.887e-01  34  sdss  5607  82S  6 
   32  53627.419723  2  22.729  0.293  0.134  0.140   2.864e+00   7.910e-01   3.683e-01   3.873e-01  32  sdss  5607  82S  6 
    0  53627.420553  3  22.617  0.414  0.193  0.169   3.080e+00   1.227e+00   5.932e-01   5.200e-01  37  sdss  5607  82S  6 
   32  53627.422211  4  22.125  0.643  0.552  0.364   3.700e+00   3.864e+00   3.286e+00   2.166e+00  34  sdss  5607  82S  6 
    0  53627.421382  0  22.762  0.592  0.134  0.365   2.945e+00   1.532e+00   3.734e-01   1.016e+00  28  sdss  5607  82S  6 
   32  53628.414132  1  22.657  0.250  0.209  0.223   3.050e+00   6.993e-01   5.953e-01   6.333e-01  34  sdss  5610  82N  5 
   32  53628.410815  2  23.194  0.558  0.409  0.311   1.810e+00   9.748e-01   7.572e-01   5.750e-01  32  sdss  5610  82N  5 
    0  53628.411644  3  22.582  0.613  0.438  0.298   3.189e+00   1.798e+00   1.385e+00   9.416e-01  37  sdss  5610  82N  5 
    0  53628.413303  4  23.919  0.690  0.422  0.428  -6.227e+00   5.026e+00   3.179e+00   3.225e+00  34  sdss  5610  82N  5 
   10  53628.412474  0  24.858  1.495  2.799  2.632  -1.875e-01   1.957e+00   2.752e+00   2.587e+00  28  sdss  5610  82N  5 
    1  53634.416096  1  26.228  1.581  0.529  0.396  -7.736e-01   1.467e+00   4.862e-01   3.645e-01  34  sdss  5619  82S  6 
 1185  53634.412778  2  22.848  0.812  0.098  0.217   2.552e+00   1.767e+00   2.434e-01   5.383e-01  32  sdss  5619  82S  6 
    1  53634.413608  3  22.691  0.807  0.453  0.283   2.858e+00   2.082e+00   1.307e+00   8.167e-01  37  sdss  5619  82S  6 
  128  53634.415266  4  21.576  0.581  0.462  0.326   7.594e+00   4.762e+00   3.943e+00   2.785e+00  34  sdss  5619  82S  6 
  161  53634.414437  0  24.660  2.297  0.677  1.919   5.721e-03   4.299e+00   6.563e-01   1.859e+00  28  sdss  5619  82S  6 
    1  53635.423027  1  22.217  0.258  0.076  0.045   4.603e+00   1.075e+00   3.217e-01   1.920e-01  34  sdss  5622  82N  5 
  129  53635.419710  2  22.556  0.359  0.040  0.058   3.379e+00   1.117e+00   1.288e-01   1.858e-01  32  sdss  5622  82N  5 
    1  53635.420539  3  22.641  0.464  0.076  0.073   3.007e+00   1.336e+00   2.288e-01   2.185e-01  37  sdss  5622  82N  5 
    0  53635.422198  4  22.854  0.661  0.263  0.217  -1.026e-01   3.424e+00   1.281e+00   1.057e+00  34  sdss  5622  82N  5 
    1  53635.421369  0  22.889  1.025  0.152  0.203   2.599e+00   2.170e+00   3.794e-01   5.066e-01  28  sdss  5622  82N  5 
    1  53638.457758  1  22.718  0.287  0.105  0.146   2.880e+00   7.563e-01   2.825e-01   3.932e-01  34  sdss  5637  82S  6 
   32  53638.454441  2  23.354  0.761  0.362  0.405   1.532e+00   1.137e+00   5.880e-01   6.579e-01  32  sdss  5637  82S  6 
    0  53638.455270  3  22.450  0.505  0.317  0.239   3.631e+00   1.693e+00   1.124e+00   8.457e-01  37  sdss  5637  82S  6 
    0  53638.456929  4  21.521  0.588  0.388  0.266   8.073e+00   5.003e+00   3.460e+00   2.367e+00  34  sdss  5637  82S  6 
    1  53638.456099  0  26.284  1.257  0.517  0.721  -2.216e+00   2.310e+00   1.133e+00   1.579e+00  28  sdss  5637  82S  6 
   32  53639.461994  1  23.943  0.699  0.146  0.355   8.352e-01   6.440e-01   1.406e-01   3.424e-01  34  sdss  5642  82N  5 
   32  53639.458677  2  23.163  0.439  0.192  0.173   1.868e+00   8.023e-01   3.636e-01   3.279e-01  32  sdss  5642  82N  5 
   32  53639.459506  3  23.033  0.593  0.203  0.212   1.998e+00   1.238e+00   4.439e-01   4.642e-01  37  sdss  5642  82N  5 
    0  53639.461165  4  21.578  0.388  0.149  0.156   7.577e+00   3.246e+00   1.271e+00   1.327e+00  34  sdss  5642  82N  5 
    1  53639.460335  0  23.833  1.254  0.117  0.780   8.880e-01   1.658e+00   1.464e-01   9.733e-01  28  sdss  5642  82N  5 
   32  53640.421868  1  23.287  0.394  0.117  0.219   1.668e+00   6.224e-01   1.916e-01   3.569e-01  34  sdss  5646  82S  6 
    0  53640.418551  2  22.513  0.264  0.149  0.121   3.520e+00   8.651e-01   4.970e-01   4.035e-01  32  sdss  5646  82S  6 
    0  53640.419380  3  22.359  0.348  0.184  0.140   3.967e+00   1.297e+00   7.068e-01   5.359e-01  37  sdss  5646  82S  6 
    0  53640.421039  4  23.277  0.740  0.584  0.444  -2.227e+00   4.116e+00   3.092e+00   2.350e+00  34  sdss  5646  82S  6 
 1152  53640.420210  0  22.196  0.402  0.167  0.213   5.062e+00   1.769e+00   7.660e-01   9.778e-01  28  sdss  5646  82S  6 
   32  53641.461297  1  23.188  0.365  0.122  0.247   1.838e+00   6.290e-01   2.173e-01   4.398e-01  34  sdss  5658  82N  5 
   32  53641.457980  2  22.720  0.333  0.271  0.207   2.888e+00   9.009e-01   7.532e-01   5.753e-01  32  sdss  5658  82N  5 
    0  53641.458810  3  22.425  0.378  0.174  0.192   3.721e+00   1.326e+00   6.300e-01   6.938e-01  37  sdss  5658  82N  5 
    0  53641.460468  4  23.565  0.587  0.326  0.330  -3.850e+00   3.559e+00   1.966e+00   1.990e+00  34  sdss  5658  82N  5 
  128  53641.459639  0  24.821  1.417  0.266  1.491  -1.508e-01   1.801e+00   2.597e-01   1.458e+00  28  sdss  5658  82N  5 
   32  53643.464550  1  22.995  0.276  0.044  0.207   2.213e+00   5.704e-01   9.280e-02   4.353e-01  34  sdss  5666  82S  6 
   32  53643.461232  2  22.613  0.300  0.212  0.191   3.200e+00   8.963e-01   6.470e-01   5.829e-01  32  sdss  5666  82S  6 
    0  53643.462061  3  22.436  0.432  0.388  0.259   3.681e+00   1.484e+00   1.391e+00   9.301e-01  37  sdss  5666  82S  6 
    0  53643.463720  4  21.955  0.688  0.577  0.418   4.759e+00   4.470e+00   3.789e+00   2.743e+00  34  sdss  5666  82S  6 
  128  53643.462891  0  23.547  1.433  0.701  1.309   1.287e+00   2.121e+00   1.048e+00   1.958e+00  28  sdss  5666  82S  6 
    0  53644.409211  1  23.103  0.254  0.115  0.120   1.994e+00   4.779e-01   2.193e-01   2.293e-01  34  sdss  5670  82N  5 
    0  53644.405893  2  22.914  0.298  0.063  0.094   2.394e+00   6.857e-01   1.467e-01   2.216e-01  32  sdss  5670  82N  5 
    0  53644.406723  3  22.819  0.440  0.141  0.121   2.508e+00   1.102e+00   3.653e-01   3.137e-01  37  sdss  5670  82N  5 
   32  53644.408381  4  22.695  0.598  0.046  0.296   6.730e-01   3.083e+00   2.285e-01   1.456e+00  34  sdss  5670  82N  5 
    0  53644.407552  0  23.791  1.037  0.124  0.595   9.419e-01   1.345e+00   1.583e-01   7.607e-01  28  sdss  5670  82N  5 
 1184  53646.483527  1  23.546  0.485  0.341  0.328   1.284e+00   6.097e-01   4.475e-01   4.302e-01  34  sdss  5681  82S  6 
   32  53646.480210  2  22.936  0.399  0.248  0.187   2.342e+00   8.869e-01   5.714e-01   4.293e-01  32  sdss  5681  82S  6 
  156  53646.481039  3  22.148  0.343  0.728  0.104   4.858e+00   1.541e+00   3.366e+00   4.829e-01  37  sdss  5681  82S  6 
   32  53646.482698  4  22.534  0.811  0.690  0.401   1.473e+00   4.433e+00   3.493e+00   2.030e+00  34  sdss  5681  82S  6 
 1152  53646.481868  0  22.760  0.777  0.484  0.505   2.950e+00   1.925e+00   1.350e+00   1.408e+00  28  sdss  5681  82S  6 
   35  53657.302924  1  22.652  0.920  0.533  0.429   3.064e+00   2.182e+00   1.523e+00   1.225e+00  34  sdss  5730  82S  6 
  130  53657.300436  3  21.878  0.475  0.346  0.267   6.271e+00   2.643e+00   2.036e+00   1.573e+00  37  sdss  5730  82S  6 
   40  53657.421000  1  23.294  0.439  0.608  0.411   1.656e+00   6.838e-01   9.863e-01   6.675e-01  34  sdss  5731  82N  5 
   32  53657.417683  2  22.976  0.533  0.467  0.369   2.252e+00   1.118e+00   1.039e+00   8.200e-01  32  sdss  5731  82N  5 
   32  53657.418512  3  22.921  0.734  0.377  0.362   2.253e+00   1.623e+00   9.007e-01   8.650e-01  37  sdss  5731  82N  5 
   32  53657.420170  4  22.157  0.810  0.486  0.534   3.512e+00   4.867e+00   2.848e+00   3.125e+00  34  sdss  5731  82N  5 
  130  53657.419341  0  25.926  1.321  0.554  1.474  -1.515e+00   2.029e+00   9.167e-01   2.440e+00  28  sdss  5731  82N  5 
   32  53657.466890  1  24.132  0.732  0.602  0.657   6.640e-01   6.047e-01   5.089e-01   5.549e-01  34  sdss  5732  82S  6 
   32  53657.463573  2  22.958  0.398  0.271  0.227   2.292e+00   8.685e-01   6.119e-01   5.127e-01  32  sdss  5732  82S  6 
   32  53657.464402  3  22.885  0.588  0.320  0.297   2.342e+00   1.368e+00   7.871e-01   7.308e-01  37  sdss  5732  82S  6 
    0  53657.466061  4  23.224  0.793  0.675  0.544  -1.950e+00   4.394e+00   3.509e+00   2.827e+00  34  sdss  5732  82S  6 
    8  53657.465232  0  21.859  0.321  0.485  0.263   6.934e+00   1.944e+00   3.019e+00   1.633e+00  28  sdss  5732  82S  6 
   33  53663.405738  1  22.986  0.831  0.184  0.177   2.232e+00   1.524e+00   3.910e-01   3.758e-01  34  sdss  5744  82N  5 
    1  53663.402421  2  22.743  0.511  0.064  0.121   2.825e+00   1.311e+00   1.757e-01   3.308e-01  32  sdss  5744  82N  5 
    1  53663.403250  3  22.956  0.815  0.261  0.222   2.171e+00   1.737e+00   6.046e-01   5.152e-01  37  sdss  5744  82N  5 
    0  53663.404909  4  23.020  0.853  0.291  0.490  -9.199e-01   4.641e+00   1.442e+00   2.423e+00  34  sdss  5744  82N  5 
 1153  53663.404079  0  24.917  2.131  0.725  1.145  -2.461e-01   3.677e+00   7.198e-01   1.137e+00  28  sdss  5744  82N  5 
    1  53663.484638  1  25.863  1.919  0.673  0.605  -4.734e-01   1.870e+00   4.915e-01   4.417e-01  34  sdss  5745  82S  6 
   33  53663.481320  2  22.749  0.703  0.178  0.168   2.809e+00   1.712e+00   4.821e-01   4.542e-01  32  sdss  5745  82S  6 
   33  53663.482149  3  22.859  1.002  0.600  0.296   2.406e+00   2.215e+00   1.505e+00   7.431e-01  37  sdss  5745  82S  6 
    0  53663.483808  4  23.719  0.808  0.272  0.312  -4.820e+00   5.285e+00   1.796e+00   2.057e+00  34  sdss  5745  82S  6 
  129  53663.482979  0  21.459  0.576  0.140  0.131   1.006e+01   4.733e+00   1.251e+00   1.174e+00  28  sdss  5745  82S  6 
 1053  53664.420213  1  22.257  2.338 10.624  0.088   4.435e+00   5.067e+00   4.344e+01   3.579e-01  34  sdss  5754  82S  6 
   13  53664.416896  2  22.643  1.772  1.571  0.116   3.110e+00   3.587e+00   4.673e+00   3.443e-01  32  sdss  5754  82S  6 
   13  53664.417725  3  22.619  1.929  3.335  0.169   3.073e+00   4.693e+00   1.022e+01   5.187e-01  37  sdss  5754  82S  6 
   29  53664.419384  4  21.058  1.494  5.630  0.150   1.306e+01   1.513e+01   7.320e+01   1.945e+00  34  sdss  5754  82S  6 
   33  53665.484592  1  23.225  0.695  0.070  0.166   1.773e+00   1.085e+00   1.206e-01   2.861e-01  34  sdss  5760  82S  6 
    1  53665.481275  2  22.449  0.394  0.189  0.118   3.740e+00   1.339e+00   6.694e-01   4.168e-01  32  sdss  5760  82S  6 
  161  53665.482104  3  23.294  1.077  0.437  0.295   1.479e+00   1.868e+00   7.875e-01   5.313e-01  37  sdss  5760  82S  6 
    0  53665.483763  4  23.148  0.931  0.717  0.308  -1.560e+00   5.229e+00   3.646e+00   1.566e+00  34  sdss  5760  82S  6 
    1  53665.482933  0  22.071  0.701  0.289  0.170   5.688e+00   3.195e+00   1.481e+00   8.718e-01  28  sdss  5760  82S  6 
    1  53666.475957  1  22.806  0.379  0.118  0.103   2.650e+00   9.097e-01   2.943e-01   2.553e-01  34  sdss  5765  82N  5 
   33  53666.472639  2  23.006  0.496  0.149  0.133   2.186e+00   1.021e+00   3.237e-01   2.879e-01  32  sdss  5765  82N  5 
    0  53666.473469  3  22.492  0.412  0.120  0.094   3.484e+00   1.357e+00   4.100e-01   3.221e-01  37  sdss  5765  82N  5 
   32  53666.475127  4  22.821  0.724  0.228  0.212   5.801e-02   3.801e+00   1.113e+00   1.033e+00  34  sdss  5765  82N  5 
  129  53666.474298  0  24.492  1.769  0.803  0.824   1.685e-01   2.584e+00   7.874e-01   8.079e-01  28  sdss  5765  82N  5 
   34  53668.395364  1  23.229  0.616  0.599  0.538   1.766e+00   9.766e-01   1.028e+00   9.229e-01  34  sdss  5770  82N  5 
   32  53668.392047  2  22.488  0.361  0.155  0.275   3.604e+00   1.195e+00   5.309e-01   9.383e-01  32  sdss  5770  82N  5 
   32  53668.392876  3  22.732  0.628  0.439  0.375   2.742e+00   1.630e+00   1.223e+00   1.044e+00  37  sdss  5770  82N  5 
    0  53668.394534  4  21.637  0.707  0.200  0.567   7.086e+00   5.493e+00   1.629e+00   4.628e+00  34  sdss  5770  82N  5 
    3  53668.393705  0  22.038  0.521  0.360  0.509   5.867e+00   2.572e+00   1.905e+00   2.694e+00  28  sdss  5770  82N  5 
   33  53668.473346  1  23.039  0.520  0.159  0.337   2.121e+00   9.889e-01   3.222e-01   6.826e-01  34  sdss  5771  82S  6 
    0  53668.470029  2  22.412  0.356  0.273  0.193   3.873e+00   1.260e+00   9.976e-01   7.044e-01  32  sdss  5771  82S  6 
  128  53668.470858  3  22.458  0.569  0.360  0.263   3.602e+00   1.867e+00   1.268e+00   9.237e-01  37  sdss  5771  82S  6 
    0  53668.472517  4  23.403  1.038  0.317  0.607  -2.909e+00   6.253e+00   1.766e+00   3.377e+00  34  sdss  5771  82S  6 
 1155  53668.471687  0  22.271  0.855  0.530  0.528   4.716e+00   3.117e+00   2.271e+00   2.264e+00  28  sdss  5771  82S  6 
   32  53669.379440  1  23.184  0.404  0.204  0.278   1.845e+00   6.953e-01   3.640e-01   4.960e-01  34  sdss  5776  82S  6 
   32  53669.376123  2  22.652  0.339  0.100  0.198   3.083e+00   9.716e-01   2.949e-01   5.841e-01  32  sdss  5776  82S  6 
   32  53669.376953  3  23.636  0.971  0.696  0.563   9.249e-01   1.466e+00   1.014e+00   8.206e-01  37  sdss  5776  82S  6 
    0  53669.378611  4  21.267  0.439  0.341  0.289   1.058e+01   4.629e+00   3.717e+00   3.148e+00  34  sdss  5776  82S  6 
  128  53669.377782  0  23.669  1.326  0.951  0.920   1.107e+00   1.858e+00   1.311e+00   1.268e+00  28  sdss  5776  82S  6 
   33  53669.483038  1  22.879  0.417  0.043  0.229   2.472e+00   9.317e-01   9.930e-02   5.351e-01  34  sdss  5777  82N  5 
   32  53669.479721  2  23.144  0.730  0.481  0.363   1.904e+00   1.282e+00   9.274e-01   7.000e-01  32  sdss  5777  82N  5 
   32  53669.480550  3  23.111  0.990  0.738  0.455   1.832e+00   1.882e+00   1.520e+00   9.370e-01  37  sdss  5777  82N  5 
    0  53669.482209  4  23.355  0.883  0.470  0.438  -2.645e+00   5.117e+00   2.564e+00   2.389e+00  34  sdss  5777  82N  5 
  129  53669.481380  0  27.294  0.607  0.117  0.350  -5.876e+00   2.934e+00   6.218e-01   1.851e+00  28  sdss  5777  82N  5 
   32  53670.400461  1  22.923  0.358  0.326  0.267   2.371e+00   7.791e-01   7.316e-01   5.992e-01  34  sdss  5781  82N  5 
   40  53670.397143  2  23.459  0.934  1.365  0.437   1.369e+00   1.272e+00   2.038e+00   6.520e-01  32  sdss  5781  82N  5 
   32  53670.397972  3  24.056  1.104  0.993  0.577   3.675e-01   1.570e+00   1.223e+00   7.111e-01  37  sdss  5781  82N  5 
    0  53670.399631  4  22.849  0.843  0.571  0.520  -7.826e-02   4.539e+00   2.783e+00   2.538e+00  34  sdss  5781  82N  5 
  128  53670.398802  0  24.961  1.591  0.532  1.799  -2.896e-01   2.170e+00   5.331e-01   1.803e+00  28  sdss  5781  82N  5 
  162  53670.479397  1  23.063  0.559  0.566  0.476   2.073e+00   1.032e+00   1.122e+00   9.426e-01  34  sdss  5782  82S  6 
   32  53670.476080  2  23.517  0.939  0.681  0.494   1.284e+00   1.235e+00   9.723e-01   7.053e-01  32  sdss  5782  82S  6 
    0  53670.476909  3  22.398  0.485  0.296  0.208   3.820e+00   1.707e+00   1.099e+00   7.697e-01  37  sdss  5782  82S  6 
   32  53670.478568  4  22.221  1.014  0.270  0.607   3.144e+00   6.146e+00   1.534e+00   3.447e+00  34  sdss  5782  82S  6 
    8  53670.477739  0  21.658  0.384  0.521  0.243   8.361e+00   2.759e+00   3.892e+00   1.812e+00  28  sdss  5782  82S  6 
   32  53671.464183  1  23.645  0.496  0.143  0.170   1.159e+00   5.769e-01   1.726e-01   2.063e-01  34  sdss  5786  82S  6 
   32  53671.460866  2  23.292  0.537  0.090  0.144   1.635e+00   8.716e-01   1.531e-01   2.459e-01  32  sdss  5786  82S  6 
    0  53671.461695  3  22.681  0.481  0.151  0.120   2.887e+00   1.336e+00   4.389e-01   3.503e-01  37  sdss  5786  82S  6 
    0  53671.463354  4  22.012  0.649  0.249  0.195   4.393e+00   4.100e+00   1.580e+00   1.234e+00  34  sdss  5786  82S  6 
    0  53671.462524  0  24.812  1.446  0.521  0.716  -1.427e-01   1.858e+00   5.087e-01   6.991e-01  28  sdss  5786  82S  6 
   32  53673.368216  1  23.822  0.493  0.175  0.260   9.582e-01   5.036e-01   1.848e-01   2.746e-01  34  sdss  5792  82N  5 
    0  53673.364899  2  22.932  0.324  0.031  0.099   2.352e+00   7.303e-01   7.048e-02   2.291e-01  32  sdss  5792  82N  5 
    0  53673.365728  3  23.550  0.709  0.126  0.166   1.054e+00   1.085e+00   1.928e-01   2.538e-01  37  sdss  5792  82N  5 
    0  53673.367387  4  21.931  0.467  0.108  0.161   4.918e+00   3.081e+00   7.213e-01   1.073e+00  34  sdss  5792  82N  5 
    0  53673.366558  0  24.027  1.091  0.452  0.487   6.551e-01   1.333e+00   5.102e-01   5.502e-01  28  sdss  5792  82N  5 
   32  53674.363579  1  22.952  0.285  0.304  0.274   2.306e+00   6.105e-01   6.649e-01   5.996e-01  34  sdss  5797  82S  6 
   32  53674.360262  2  22.598  0.377  0.339  0.279   3.247e+00   1.128e+00   1.050e+00   8.630e-01  32  sdss  5797  82S  6 
    0  53674.361091  3  22.179  0.398  0.526  0.237   4.716e+00   1.722e+00   2.365e+00   1.065e+00  37  sdss  5797  82S  6 
   32  53674.362750  4  21.956  0.813  0.275  0.540   4.753e+00   5.293e+00   1.803e+00   3.540e+00  34  sdss  5797  82S  6 
    2  53674.361920  0  26.160  1.176  0.397  1.122  -1.950e+00   2.029e+00   7.859e-01   2.222e+00  28  sdss  5797  82S  6 
   32  53675.365434  1  23.543  0.407  0.299  0.250   1.289e+00   5.196e-01   3.932e-01   3.291e-01  34  sdss  5800  82N  5 
   32  53675.362117  2  23.036  0.413  0.138  0.183   2.122e+00   8.422e-01   2.917e-01   3.870e-01  32  sdss  5800  82N  5 
    0  53675.362947  3  22.826  0.527  0.088  0.190   2.490e+00   1.294e+00   2.276e-01   4.900e-01  37  sdss  5800  82N  5 
   32  53675.364605  4  22.533  0.658  0.266  0.284   1.478e+00   3.500e+00   1.345e+00   1.437e+00  34  sdss  5800  82N  5 
    0  53675.363776  0  24.994  1.201  0.417  0.948  -3.231e-01   1.438e+00   4.211e-01   9.579e-01  28  sdss  5800  82N  5 
   32  53676.453033  1  23.053  0.358  0.262  0.290   2.093e+00   6.949e-01   5.228e-01   5.788e-01  34  sdss  5807  82S  6 
   34  53676.449716  2  22.889  0.664  0.349  0.517   2.452e+00   1.452e+00   8.360e-01   1.240e+00  32  sdss  5807  82S  6 
    0  53676.450546  3  22.379  0.426  0.201  0.180   3.891e+00   1.541e+00   7.557e-01   6.802e-01  37  sdss  5807  82S  6 
  128  53676.452204  4  21.870  0.659  0.499  0.295   5.338e+00   4.483e+00   3.463e+00   2.044e+00  34  sdss  5807  82S  6 
    0  53676.451375  0  25.123  1.419  0.475  0.982  -4.568e-01   1.841e+00   4.982e-01   1.031e+00  28  sdss  5807  82S  6 
    4  53676.484917  1  22.113  0.448  0.418  0.120   5.069e+00   1.983e+00   1.951e+00   5.618e-01  34  sdss  5808  82N  5 
    5  53676.481600  2  22.364  0.815  0.546  0.101   4.052e+00   2.673e+00   2.086e+00   3.867e-01  32  sdss  5808  82N  5 
    4  53676.482429  3  23.075  1.585  0.640  0.190   1.907e+00   3.127e+00   1.353e+00   4.023e-01  37  sdss  5808  82N  5 
    4  53676.484088  4  21.025  0.857  0.228  0.092   1.349e+01   1.003e+01   3.048e+00   1.237e+00  34  sdss  5808  82N  5 
    4  53676.483259  0  21.621  0.651  0.078  0.118   8.653e+00   4.516e+00   6.045e-01   9.084e-01  28  sdss  5808  82N  5 
   32  53679.425302  1  22.925  0.257  0.156  0.182   2.366e+00   5.654e-01   3.487e-01   4.068e-01  34  sdss  5820  82S  6 
    0  53679.421985  2  22.418  0.279  0.200  0.144   3.851e+00   9.959e-01   7.290e-01   5.240e-01  32  sdss  5820  82S  6 
    0  53679.422815  3  22.614  0.520  0.275  0.222   3.089e+00   1.514e+00   8.457e-01   6.843e-01  37  sdss  5820  82S  6 
    0  53679.424473  4  21.645  0.613  0.313  0.300   7.021e+00   4.784e+00   2.540e+00   2.434e+00  34  sdss  5820  82S  6 
  136  53679.423644  0  22.241  0.439  0.455  0.305   4.852e+00   1.843e+00   2.003e+00   1.342e+00  28  sdss  5820  82S  6 
    0  53680.373158  1  23.240  0.288  0.026  0.121   1.747e+00   4.809e-01   4.400e-02   2.055e-01  34  sdss  5823  82N  5 
    0  53680.369841  2  22.769  0.290  0.117  0.095   2.755e+00   7.554e-01   3.126e-01   2.525e-01  32  sdss  5823  82N  5 
    0  53680.370670  3  22.920  0.496  0.151  0.126   2.256e+00   1.140e+00   3.618e-01   3.021e-01  37  sdss  5823  82N  5 
    0  53680.372329  4  22.236  0.558  0.053  0.204   3.059e+00   3.193e+00   2.985e-01   1.148e+00  34  sdss  5823  82N  5 
    0  53680.371499  0  23.390  0.871  0.068  0.394   1.540e+00   1.359e+00   1.134e-01   6.590e-01  28  sdss  5823  82N  5 
   32  53681.416785  1  23.707  0.557  0.238  0.375   1.085e+00   6.125e-01   2.748e-01   4.325e-01  34  sdss  5836  82S  6 
   32  53681.413468  2  22.512  0.302  0.241  0.163   3.523e+00   9.854e-01   8.045e-01   5.445e-01  32  sdss  5836  82S  6 
   32  53681.414297  3  23.144  0.739  0.494  0.347   1.765e+00   1.406e+00   9.928e-01   6.964e-01  37  sdss  5836  82S  6 
    0  53681.415956  4  21.459  0.516  0.252  0.291   8.638e+00   4.637e+00   2.352e+00   2.721e+00  34  sdss  5836  82S  6 
    0  53681.415126  0  23.538  1.376  0.518  0.875   1.300e+00   2.024e+00   7.792e-01   1.317e+00  28  sdss  5836  82S  6 
    4  53683.431438  1  25.302  1.271  0.423  0.400  -1.090e-01   9.350e-01   2.526e-01   2.389e-01  34  sdss  5842  82N  5 
    4  53683.428121  2  22.820  0.685  0.243  0.109   2.622e+00   1.579e+00   6.180e-01   2.762e-01  32  sdss  5842  82N  5 
    4  53683.428950  3  22.135  0.572  0.163  0.067   4.918e+00   2.475e+00   7.607e-01   3.143e-01  37  sdss  5842  82N  5 
    5  53683.430609  4  21.388  0.916  0.274  0.110   9.318e+00   8.152e+00   2.712e+00   1.084e+00  34  sdss  5842  82N  5 
  132  53683.429779  0  22.464  0.808  0.424  0.197   3.926e+00   2.535e+00   1.532e+00   7.117e-01  28  sdss  5842  82N  5 
   32  53684.378006  1  23.117  0.336  0.137  0.161   1.968e+00   6.190e-01   2.584e-01   3.040e-01  34  sdss  5847  82S  6 
 1212  53684.374689  2  22.944  0.825  4.148  0.191   2.324e+00   1.658e+00   9.480e+00   4.376e-01  32  sdss  5847  82S  6 
 1164  53684.375518  3  22.331  0.693  1.077  0.152   4.076e+00   2.456e+00   4.232e+00   5.972e-01  37  sdss  5847  82S  6 
  140  53684.377177  4  21.684  0.822  0.901  0.294   6.710e+00   6.157e+00   7.109e+00   2.322e+00  34  sdss  5847  82S  6 
   12  53684.376348  0  23.230  1.485  1.631  0.686   1.834e+00   2.476e+00   3.085e+00   1.298e+00  28  sdss  5847  82S  6 
   33  53686.372648  1  23.492  0.940  0.302  0.249   1.358e+00   1.130e+00   4.141e-01   3.415e-01  34  sdss  5866  82N  5 
   33  53686.369331  2  22.904  0.535  0.235  0.163   2.417e+00   1.189e+00   5.559e-01   3.853e-01  32  sdss  5866  82N  5 
    0  53686.370160  3  22.673  0.571  0.062  0.184   2.911e+00   1.571e+00   1.825e-01   5.382e-01  37  sdss  5866  82N  5 
    0  53686.371819  4  21.753  0.546  0.166  0.253   6.180e+00   3.996e+00   1.248e+00   1.901e+00  34  sdss  5866  82N  5 
    1  53686.370990  0  24.767  1.778  1.314  1.166  -9.816e-02   2.604e+00   1.278e+00   1.134e+00  28  sdss  5866  82N  5 
   33  53687.319285  1  22.577  0.787  0.364  0.245   3.288e+00   2.083e+00   1.114e+00   7.498e-01  34  sdss  5871  82S  6 
  161  53687.315968  2  23.182  1.582  0.932  0.632   1.832e+00   2.410e+00   1.742e+00   1.181e+00  32  sdss  5871  82S  6 
  129  53687.316797  3  25.566  1.280  0.828  0.573  -1.736e+00   2.374e+00   1.646e+00   1.138e+00  37  sdss  5871  82S  6 
   32  53687.318456  4  22.754  1.069  0.714  0.790   3.843e-01   6.105e+00   3.490e+00   3.861e+00  34  sdss  5871  82S  6 
    9  53687.429754  1  22.134  2.205  2.211  0.342   4.971e+00   5.328e+00   1.012e+01   1.566e+00  34  sdss  5872  82N  5 
   43  53687.426437  2  23.930  2.365 10.373  1.727   7.746e-01   3.856e+00   1.112e+01   1.850e+00  32  sdss  5872  82N  5 
   43  53687.427266  3  22.895  1.974  4.363  0.952   2.316e+00   4.435e+00   1.063e+01   2.321e+00  37  sdss  5872  82N  5 
  131  53687.428925  4  23.290  1.558  2.114  1.670  -2.296e+00   1.069e+01   1.124e+01   8.881e+00  34  sdss  5872  82N  5 
  129  53687.428095  0  20.431  0.544  0.305  0.203   2.598e+01   1.158e+01   7.018e+00   4.681e+00  28  sdss  5872  82N  5 
   33  53693.374913  1  24.745  1.814  1.215  0.784   2.243e-01   1.652e+00   7.572e-01   4.886e-01  34  sdss  5878  82N  5 
   33  53693.371596  2  22.675  0.723  0.294  0.270   3.016e+00   1.864e+00   8.504e-01   7.805e-01  32  sdss  5878  82N  5 
    1  53693.372425  3  24.607  1.402  0.860  0.814  -2.920e-01   2.176e+00   1.044e+00   9.887e-01  37  sdss  5878  82N  5 
   32  53693.374084  4  22.051  0.827  0.468  0.492   4.149e+00   5.178e+00   2.899e+00   3.052e+00  34  sdss  5878  82N  5 
  131  53693.373254  0  26.479  2.349  0.334  0.971  -2.696e+00   5.173e+00   8.615e-01   2.502e+00  28  sdss  5878  82N  5 
   33  53696.382180  1  23.091  0.443  0.220  0.154   2.018e+00   8.192e-01   4.255e-01   2.975e-01  34  sdss  5889  82S  6 
    0  53696.378863  2  22.631  0.341  0.157  0.117   3.146e+00   9.978e-01   4.724e-01   3.530e-01  32  sdss  5889  82S  6 
  128  53696.379692  3  22.767  0.560  0.326  0.159   2.646e+00   1.433e+00   8.828e-01   4.292e-01  37  sdss  5889  82S  6 
  160  53696.381351  4  22.514  0.771  0.219  0.286   1.579e+00   4.196e+00   1.113e+00   1.457e+00  34  sdss  5889  82S  6 
    1  53696.380521  0  22.279  0.598  0.276  0.188   4.680e+00   2.336e+00   1.173e+00   8.001e-01  28  sdss  5889  82S  6 
   33  53697.373680  1  23.597  0.591  0.146  0.217   1.219e+00   7.022e-01   1.840e-01   2.734e-01  34  sdss  5895  82S  6 
  160  53697.370363  2  23.025  0.463  0.250  0.179   2.145e+00   9.435e-01   5.331e-01   3.819e-01  32  sdss  5895  82S  6 
    0  53697.371192  3  22.664  0.503  0.194  0.169   2.937e+00   1.412e+00   5.732e-01   4.973e-01  37  sdss  5895  82S  6 
    0  53697.372851  4  21.692  0.549  0.287  0.218   6.647e+00   4.178e+00   2.252e+00   1.705e+00  34  sdss  5895  82S  6 
    0  53697.372021  0  24.274  1.529  1.111  0.869   3.881e-01   2.049e+00   1.142e+00   8.930e-01  28  sdss  5895  82S  6 
   32  53699.395681  1  23.302  0.429  0.090  0.182   1.643e+00   6.648e-01   1.452e-01   2.928e-01  34  sdss  5902  82N  5 
   32  53699.392363  2  22.961  0.396  0.118  0.151   2.286e+00   8.616e-01   2.660e-01   3.402e-01  32  sdss  5902  82N  5 
   32  53699.393193  3  23.193  0.663  0.273  0.196   1.667e+00   1.233e+00   5.293e-01   3.805e-01  37  sdss  5902  82N  5 
   32  53699.394851  4  22.257  0.590  0.104  0.235   2.941e+00   3.356e+00   5.818e-01   1.313e+00  34  sdss  5902  82N  5 
  128  53699.394022  0  23.561  1.295  0.767  0.611   1.265e+00   1.871e+00   1.136e+00   9.044e-01  28  sdss  5902  82N  5 
   32  53700.372503  1  22.967  0.279  0.264  0.217   2.273e+00   5.906e-01   5.690e-01   4.688e-01  34  sdss  5905  82S  6 
   32  53700.369186  2  22.618  0.310  0.092  0.161   3.185e+00   9.212e-01   2.812e-01   4.902e-01  32  sdss  5905  82S  6 
   32  53700.370015  3  23.261  0.814  0.373  0.295   1.539e+00   1.438e+00   6.889e-01   5.452e-01  37  sdss  5905  82S  6 
   32  53700.371674  4  22.164  0.834  0.452  0.392   3.471e+00   5.015e+00   2.637e+00   2.285e+00  34  sdss  5905  82S  6 
    0  53700.370844  0  21.973  0.346  0.184  0.228   6.235e+00   1.880e+00   1.035e+00   1.278e+00  28  sdss  5905  82S  6 
   32  53704.357911  1  22.910  0.267  0.244  0.216   2.400e+00   5.945e-01   5.544e-01   4.891e-01  34  sdss  5918  82N  5 
   32  53704.354594  2  23.155  0.478  0.324  0.268   1.883e+00   8.736e-01   6.188e-01   5.111e-01  32  sdss  5918  82N  5 
   32  53704.355423  3  23.148  0.749  0.422  0.352   1.757e+00   1.421e+00   8.450e-01   7.057e-01  37  sdss  5918  82N  5 
    0  53704.357082  4  21.504  0.508  0.066  0.262   8.225e+00   4.421e+00   5.954e-01   2.363e+00  34  sdss  5918  82N  5 
    0  53704.356253  0  22.957  0.797  0.170  0.582   2.427e+00   1.687e+00   4.016e-01   1.373e+00  28  sdss  5918  82N  5 
  160  53705.358799  1  23.099  0.336  0.328  0.271   2.002e+00   6.276e-01   6.304e-01   5.212e-01  34  sdss  5924  82S  6 
   32  53705.355482  2  22.989  0.544  0.227  0.425   2.223e+00   1.126e+00   4.991e-01   9.354e-01  32  sdss  5924  82S  6 
   32  53705.356311  3  22.573  0.518  0.396  0.286   3.217e+00   1.562e+00   1.262e+00   9.129e-01  37  sdss  5924  82S  6 
    0  53705.357970  4  21.528  0.571  0.302  0.321   8.011e+00   4.848e+00   2.678e+00   2.848e+00  34  sdss  5924  82S  6 
    0  53705.357140  0  22.729  0.872  0.367  0.684   3.042e+00   2.163e+00   1.052e+00   1.958e+00  28  sdss  5924  82S  6 
