# SDSS CID:   3126 IAU: 2006nl   RA:  30.415346 DEC:  -0.939769  (J2000)
# GALAXY_SB [ugriz] = [ 24.04 24.17 23.97 23.58 22.58 ] +/- [  0.00  0.00  0.00  0.00  0.00 ] (asinh mag/square arcsec)
# GALAXY_SB_FLUX [ugriz] = [  6.075E-01  6.251E-01  7.294E-01  1.007E+00  1.229E+00 ] +/- [  0.000E+00  0.000E+00  0.000E+00  0.000E+00  0.000E+00 ] (microJy per square arcsec)
#FLAG  MJD       FILT  MAG     MERR  MSKYERR MGALERR  FLUX       FLUXERR    SKYERR     GALERR    NPRE TELE   RUN  STRIP  IDCCD
  256  53616.398124  1  22.726  0.244  0.189  0.000   2.859e+00   6.404e-01   5.043e-01   0.000e+00  23  sdss  5566  82N  1 
  288  53616.394807  2  23.436  0.633  0.257  0.000   1.403e+00   9.109e-01   3.903e-01   0.000e+00  23  sdss  5566  82N  1 
  256  53616.395636  3  22.508  0.432  0.240  0.000   3.429e+00   1.400e+00   8.096e-01   0.000e+00  25  sdss  5566  82N  1 
  256  53616.397295  4  23.255  0.866  0.851  0.000  -2.110e+00   4.891e+00   4.465e+00   0.000e+00  26  sdss  5566  82N  1 
  288  53616.396465  0  24.604  1.431  0.702  0.000   5.941e-02   1.825e+00   6.807e-01   0.000e+00  15  sdss  5566  82N  1 
 1416  53626.374955  1  23.275  0.415  0.744  0.000   1.686e+00   6.563e-01   1.223e+00   0.000e+00  23  sdss  5603  82N  1 
 1452  53626.371638  2  23.381  0.902  2.485  0.000   1.488e+00   1.296e+00   3.947e+00   0.000e+00  23  sdss  5603  82N  1 
  256  53626.372467  3  22.016  0.284  0.275  0.000   5.504e+00   1.449e+00   1.432e+00   0.000e+00  25  sdss  5603  82N  1 
  256  53626.374126  4  22.197  0.747  0.781  0.000   3.280e+00   4.395e+00   4.476e+00   0.000e+00  26  sdss  5603  82N  1 
  296  53626.373296  0  22.920  0.791  0.982  0.000   2.521e+00   1.719e+00   2.382e+00   0.000e+00  15  sdss  5603  82N  1 
  257  53628.360049  1  22.888  0.536  0.251  0.000   2.451e+00   1.154e+00   5.800e-01   0.000e+00  23  sdss  5610  82N  1 
  289  53628.356731  2  24.305  1.196  0.807  0.000   4.115e-01   1.206e+00   7.135e-01   0.000e+00  23  sdss  5610  82N  1 
  288  53628.357561  3  23.759  1.101  0.490  0.000   7.518e-01   1.643e+00   6.728e-01   0.000e+00  25  sdss  5610  82N  1 
  256  53628.359219  4  22.042  0.701  0.443  0.000   4.208e+00   4.365e+00   2.754e+00   0.000e+00  26  sdss  5610  82N  1 
  265  53628.358390  0  25.384  1.711  1.373  0.000  -7.478e-01   2.521e+00   1.610e+00   0.000e+00  15  sdss  5610  82N  1 
  257  53635.368775  1  22.981  0.521  0.083  0.000   2.243e+00   1.039e+00   1.765e-01   0.000e+00  23  sdss  5622  82N  1 
  257  53635.365457  2  22.606  0.345  0.103  0.000   3.220e+00   1.030e+00   3.174e-01   0.000e+00  23  sdss  5622  82N  1 
  257  53635.366287  3  22.568  0.415  0.108  0.000   3.232e+00   1.282e+00   3.456e-01   0.000e+00  25  sdss  5622  82N  1 
  256  53635.367946  4  21.946  0.521  0.190  0.000   4.825e+00   3.397e+00   1.252e+00   0.000e+00  26  sdss  5622  82N  1 
  385  53635.367116  0  21.951  0.437  0.112  0.000   6.364e+00   2.369e+00   6.375e-01   0.000e+00  15  sdss  5622  82N  1 
  289  53637.362216  1  23.427  0.864  0.294  0.000   1.450e+00   1.104e+00   4.244e-01   0.000e+00  23  sdss  5633  82N  1 
  288  53637.358899  2  23.996  1.006  0.430  0.000   7.049e-01   1.058e+00   4.435e-01   0.000e+00  23  sdss  5633  82N  1 
  256  53637.359728  3  22.568  0.488  0.183  0.000   3.232e+00   1.489e+00   5.868e-01   0.000e+00  25  sdss  5633  82N  1 
  256  53637.361387  4  23.991  0.620  0.074  0.000  -6.781e+00   4.723e+00   5.832e-01   0.000e+00  26  sdss  5633  82N  1 
  289  53637.360558  0  22.962  1.307  0.143  0.000   2.417e+00   2.506e+00   3.344e-01   0.000e+00  15  sdss  5633  82N  1 
  256  53639.407636  1  22.839  0.239  0.045  0.000   2.569e+00   5.684e-01   1.079e-01   0.000e+00  23  sdss  5642  82N  1 
  256  53639.404319  2  22.816  0.298  0.093  0.000   2.632e+00   7.463e-01   2.373e-01   0.000e+00  23  sdss  5642  82N  1 
  256  53639.405148  3  22.683  0.389  0.051  0.000   2.881e+00   1.097e+00   1.471e-01   0.000e+00  25  sdss  5642  82N  1 
  256  53639.406807  4  23.473  0.585  0.294  0.000  -3.309e+00   3.405e+00   1.689e+00   0.000e+00  26  sdss  5642  82N  1 
  288  53639.405978  0  23.181  0.877  0.072  0.000   1.931e+00   1.556e+00   1.401e-01   0.000e+00  15  sdss  5642  82N  1 
  256  53641.406885  1  22.884  0.241  0.075  0.000   2.462e+00   5.502e-01   1.735e-01   0.000e+00  23  sdss  5658  82N  1 
  256  53641.403568  2  22.861  0.297  0.105  0.000   2.519e+00   7.156e-01   2.591e-01   0.000e+00  23  sdss  5658  82N  1 
  256  53641.404398  3  22.277  0.317  0.112  0.000   4.292e+00   1.279e+00   4.618e-01   0.000e+00  25  sdss  5658  82N  1 
  256  53641.406056  4  22.007  0.528  0.310  0.000   4.429e+00   3.338e+00   1.967e+00   0.000e+00  26  sdss  5658  82N  1 
  256  53641.405227  0  26.211  0.831  0.104  0.000  -2.056e+00   1.548e+00   2.136e-01   0.000e+00  15  sdss  5658  82N  1 
  256  53644.354714  1  22.908  0.226  0.079  0.000   2.406e+00   5.061e-01   1.797e-01   0.000e+00  23  sdss  5670  82N  1 
  256  53644.351397  2  22.947  0.347  0.183  0.000   2.315e+00   7.705e-01   4.171e-01   0.000e+00  23  sdss  5670  82N  1 
  256  53644.352226  3  22.510  0.341  0.107  0.000   3.422e+00   1.120e+00   3.600e-01   0.000e+00  25  sdss  5670  82N  1 
  256  53644.353885  4  22.117  0.530  0.335  0.000   3.749e+00   3.177e+00   1.996e+00   0.000e+00  26  sdss  5670  82N  1 
  288  53644.353055  0  22.633  0.498  0.075  0.000   3.339e+00   1.460e+00   2.322e-01   0.000e+00  15  sdss  5670  82N  1 
  257  53657.366109  1  22.881  0.847  0.412  0.000   2.469e+00   1.684e+00   9.568e-01   0.000e+00  23  sdss  5731  82N  1 
  289  53657.362792  2  24.589  1.509  1.291  0.000   1.711e-01   1.641e+00   1.051e+00   0.000e+00  23  sdss  5731  82N  1 
  256  53657.363621  3  25.442  1.165  0.775  0.000  -1.500e+00   2.041e+00   1.411e+00   0.000e+00  25  sdss  5731  82N  1 
  256  53657.365279  4  21.772  0.833  0.777  0.000   6.035e+00   5.917e+00   5.732e+00   0.000e+00  26  sdss  5731  82N  1 
  299  53657.364450  0  23.136  2.084  1.399  0.000   2.023e+00   3.968e+00   2.841e+00   0.000e+00  15  sdss  5731  82N  1 
  257  53663.350652  1  25.870  1.475  0.281  0.000  -4.787e-01   1.233e+00   2.061e-01   0.000e+00  23  sdss  5744  82N  1 
  257  53663.347335  2  23.468  0.741  0.131  0.000   1.354e+00   1.027e+00   1.948e-01   0.000e+00  23  sdss  5744  82N  1 
  257  53663.348164  3  23.644  1.099  0.222  0.000   9.140e-01   1.688e+00   3.233e-01   0.000e+00  25  sdss  5744  82N  1 
  256  53663.349823  4  23.005  0.729  0.389  0.000  -8.416e-01   3.863e+00   1.921e+00   0.000e+00  26  sdss  5744  82N  1 
  385  53663.348994  0  22.134  0.681  0.042  0.000   5.365e+00   2.941e+00   2.026e-01   0.000e+00  15  sdss  5744  82N  1 
  257  53666.420770  1  23.435  0.724  0.112  0.000   1.439e+00   9.478e-01   1.608e-01   0.000e+00  23  sdss  5765  82N  1 
  257  53666.417453  2  23.338  0.590  0.100  0.000   1.557e+00   9.179e-01   1.645e-01   0.000e+00  23  sdss  5765  82N  1 
  256  53666.418282  3  22.664  0.452  0.086  0.000   2.937e+00   1.281e+00   2.545e-01   0.000e+00  25  sdss  5765  82N  1 
  256  53666.419940  4  21.687  0.511  0.220  0.000   6.684e+00   3.897e+00   1.723e+00   0.000e+00  26  sdss  5765  82N  1 
  257  53666.419111  0  21.805  0.435  0.031  0.000   7.292e+00   2.693e+00   2.029e-01   0.000e+00  15  sdss  5765  82N  1 
  256  53668.340110  1  23.128  0.415  0.237  0.000   1.947e+00   7.452e-01   4.422e-01   0.000e+00  23  sdss  5770  82N  1 
  256  53668.336793  2  22.997  0.452  0.181  0.000   2.204e+00   9.449e-01   3.950e-01   0.000e+00  23  sdss  5770  82N  1 
  256  53668.337623  3  23.370  0.853  0.259  0.000   1.345e+00   1.423e+00   4.443e-01   0.000e+00  25  sdss  5770  82N  1 
  288  53668.339281  4  22.755  0.858  0.793  0.000   3.772e-01   4.638e+00   3.878e+00   0.000e+00  26  sdss  5770  82N  1 
  256  53668.338452  0  22.299  0.528  0.088  0.000   4.592e+00   2.055e+00   3.673e-01   0.000e+00  15  sdss  5770  82N  1 
  289  53669.427749  1  24.420  1.177  0.338  0.000   4.398e-01   9.058e-01   2.406e-01   0.000e+00  23  sdss  5777  82N  1 
  256  53669.424432  2  22.910  0.512  0.086  0.000   2.401e+00   1.138e+00   2.033e-01   0.000e+00  23  sdss  5777  82N  1 
  256  53669.425261  3  23.112  0.792  0.224  0.000   1.830e+00   1.532e+00   4.614e-01   0.000e+00  25  sdss  5777  82N  1 
  256  53669.426919  4  22.010  0.790  0.530  0.000   4.410e+00   5.009e+00   3.359e+00   0.000e+00  26  sdss  5777  82N  1 
  387  53669.426090  0  22.013  0.626  0.247  0.000   6.005e+00   3.061e+00   1.330e+00   0.000e+00  15  sdss  5777  82N  1 
  256  53670.345142  1  22.764  0.227  0.050  0.000   2.758e+00   5.777e-01   1.285e-01   0.000e+00  23  sdss  5781  82N  1 
  256  53670.341825  2  22.570  0.298  0.147  0.000   3.332e+00   9.253e-01   4.662e-01   0.000e+00  23  sdss  5781  82N  1 
  256  53670.342654  3  23.109  0.640  0.237  0.000   1.836e+00   1.261e+00   4.900e-01   0.000e+00  25  sdss  5781  82N  1 
  256  53670.344313  4  23.707  0.632  0.639  0.000  -4.741e+00   4.093e+00   4.175e+00   0.000e+00  26  sdss  5781  82N  1 
  288  53670.343484  0  24.553  1.422  0.652  0.000   1.091e-01   1.810e+00   6.353e-01   0.000e+00  15  sdss  5781  82N  1 
  256  53673.312794  1  23.176  0.269  0.097  0.000   1.858e+00   4.737e-01   1.734e-01   0.000e+00  23  sdss  5792  82N  1 
  256  53673.309476  2  22.528  0.220  0.040  0.000   3.467e+00   7.155e-01   1.307e-01   0.000e+00  23  sdss  5792  82N  1 
  256  53673.310306  3  23.000  0.503  0.139  0.000   2.070e+00   1.089e+00   3.117e-01   0.000e+00  25  sdss  5792  82N  1 
  288  53673.311964  4  22.731  0.617  0.290  0.000   4.952e-01   3.186e+00   1.419e+00   0.000e+00  26  sdss  5792  82N  1 
  288  53673.311135  0  23.604  0.973  0.082  0.000   1.201e+00   1.352e+00   1.183e-01   0.000e+00  15  sdss  5792  82N  1 
  256  53675.309948  1  22.998  0.248  0.081  0.000   2.208e+00   5.109e-01   1.687e-01   0.000e+00  23  sdss  5800  82N  1 
  256  53675.306631  2  22.766  0.304  0.096  0.000   2.761e+00   7.925e-01   2.555e-01   0.000e+00  23  sdss  5800  82N  1 
  288  53675.307460  3  23.782  0.857  0.304  0.000   7.204e-01   1.219e+00   4.132e-01   0.000e+00  25  sdss  5800  82N  1 
  256  53675.309119  4  23.067  0.712  0.434  0.000  -1.151e+00   3.789e+00   2.165e+00   0.000e+00  26  sdss  5800  82N  1 
  288  53675.308289  0  24.032  1.171  0.227  0.000   6.498e-01   1.454e+00   2.557e-01   0.000e+00  15  sdss  5800  82N  1 
  256  53677.330657  1  22.714  0.184  0.056  0.000   2.892e+00   4.916e-01   1.503e-01   0.000e+00  23  sdss  5813  82N  1 
  256  53677.327340  2  22.948  0.315  0.093  0.000   2.313e+00   7.014e-01   2.122e-01   0.000e+00  23  sdss  5813  82N  1 
  256  53677.328170  3  22.699  0.382  0.079  0.000   2.835e+00   1.065e+00   2.278e-01   0.000e+00  25  sdss  5813  82N  1 
  256  53677.329828  4  23.125  0.584  0.073  0.000  -1.444e+00   3.070e+00   3.682e-01   0.000e+00  26  sdss  5813  82N  1 
  264  53677.328999  0  25.152  1.150  0.988  0.000  -4.876e-01   1.384e+00   1.048e+00   0.000e+00  15  sdss  5813  82N  1 
  256  53680.317501  1  22.787  0.209  0.065  0.000   2.698e+00   5.218e-01   1.645e-01   0.000e+00  23  sdss  5823  82N  1 
  256  53680.314184  2  23.165  0.418  0.081  0.000   1.863e+00   7.656e-01   1.532e-01   0.000e+00  23  sdss  5823  82N  1 
  256  53680.315013  3  23.114  0.651  0.202  0.000   1.826e+00   1.278e+00   4.150e-01   0.000e+00  25  sdss  5823  82N  1 
  256  53680.316671  4  22.850  0.669  0.480  0.000  -8.368e-02   3.473e+00   2.342e+00   0.000e+00  26  sdss  5823  82N  1 
  288  53680.315842  0  24.271  1.177  0.448  0.000   3.910e-01   1.408e+00   4.610e-01   0.000e+00  15  sdss  5823  82N  1 
  256  53683.375674  1  22.666  0.216  0.110  0.000   3.025e+00   6.018e-01   3.105e-01   0.000e+00  23  sdss  5842  82N  1 
  256  53683.372357  2  22.983  0.475  0.100  0.000   2.234e+00   1.000e+00   2.211e-01   0.000e+00  23  sdss  5842  82N  1 
  256  53683.373186  3  22.382  0.410  0.083  0.000   3.878e+00   1.484e+00   3.121e-01   0.000e+00  25  sdss  5842  82N  1 
  257  53683.374845  4  23.878  0.795  0.296  0.000  -5.919e+00   5.610e+00   2.158e+00   0.000e+00  26  sdss  5842  82N  1 
  264  53683.374015  0  22.002  0.338  0.199  0.000   6.067e+00   1.786e+00   1.081e+00   0.000e+00  15  sdss  5842  82N  1 
  259  53686.316789  1  21.799  0.334  0.175  0.000   6.785e+00   2.012e+00   1.086e+00   0.000e+00  23  sdss  5866  82N  1 
  289  53686.313472  2  24.001  1.399  0.576  0.000   6.998e-01   1.573e+00   5.920e-01   0.000e+00  23  sdss  5866  82N  1 
  257  53686.314301  3  22.484  0.609  0.280  0.000   3.511e+00   1.943e+00   9.660e-01   0.000e+00  25  sdss  5866  82N  1 
  256  53686.315959  4  21.813  0.721  0.510  0.000   5.736e+00   5.028e+00   3.660e+00   0.000e+00  26  sdss  5866  82N  1 
  385  53686.315130  0  20.935  0.300  0.088  0.000   1.632e+01   4.228e+00   1.267e+00   0.000e+00  15  sdss  5866  82N  1 
  257  53687.373856  1  22.216  3.861  3.084  0.000   4.608e+00   1.207e+01   1.306e+01   0.000e+00  23  sdss  5872  82N  1 
  259  53687.370539  2  22.197  1.953  1.810  0.000   4.737e+00   5.163e+00   8.042e+00   0.000e+00  23  sdss  5872  82N  1 
  299  53687.371368  3  23.284  2.142  5.731  0.000   1.497e+00   4.756e+00   1.042e+01   0.000e+00  25  sdss  5872  82N  1 
  267  53687.373026  4  20.553  0.812  2.239  0.000   2.129e+01   1.412e+01   4.508e+01   0.000e+00  26  sdss  5872  82N  1 
  257  53693.318819  1  22.771  0.703  0.180  0.000   2.740e+00   1.605e+00   4.617e-01   0.000e+00  23  sdss  5878  82N  1 
  257  53693.315502  2  22.781  0.610  0.302  0.000   2.721e+00   1.479e+00   7.951e-01   0.000e+00  23  sdss  5878  82N  1 
  288  53693.316332  3  24.094  1.324  0.761  0.000   3.201e-01   2.005e+00   9.282e-01   0.000e+00  25  sdss  5878  82N  1 
  256  53693.317990  4  21.414  0.532  0.300  0.000   9.068e+00   4.911e+00   2.895e+00   0.000e+00  26  sdss  5878  82N  1 
  257  53693.317161  0  22.121  1.131  0.075  0.000   5.432e+00   4.256e+00   3.690e-01   0.000e+00  15  sdss  5878  82N  1 
  256  53698.315953  1  22.967  0.303  0.091  0.000   2.273e+00   6.382e-01   1.958e-01   0.000e+00  23  sdss  5898  82N  1 
  260  53698.312637  2  22.896  0.479  0.338  0.000   2.434e+00   1.086e+00   8.053e-01   0.000e+00  23  sdss  5898  82N  1 
  264  53698.313466  3  22.661  0.428  0.380  0.000   2.946e+00   1.222e+00   1.125e+00   0.000e+00  25  sdss  5898  82N  1 
  256  53698.315124  4  21.885  0.574  0.301  0.000   5.230e+00   3.869e+00   2.057e+00   0.000e+00  26  sdss  5898  82N  1 
  416  53698.314295  0  22.849  0.780  0.074  0.000   2.704e+00   1.795e+00   1.901e-01   0.000e+00  15  sdss  5898  82N  1 
  256  53704.301470  1  22.832  0.236  0.101  0.000   2.586e+00   5.648e-01   2.441e-01   0.000e+00  23  sdss  5918  82N  1 
  256  53704.298153  2  22.955  0.388  0.165  0.000   2.297e+00   8.499e-01   3.734e-01   0.000e+00  23  sdss  5918  82N  1 
  256  53704.298983  3  23.218  0.729  0.506  0.000   1.620e+00   1.329e+00   9.650e-01   0.000e+00  25  sdss  5918  82N  1 
  256  53704.300641  4  21.759  0.602  0.380  0.000   6.133e+00   4.356e+00   2.827e+00   0.000e+00  26  sdss  5918  82N  1 
  256  53704.299812  0  26.215  0.852  0.061  0.000  -2.065e+00   1.584e+00   1.252e-01   0.000e+00  15  sdss  5918  82N  1 
