# SDSS CID:   3650 IAU:          RA:  30.440451 DEC:   1.170306  (J2000)
# GALAXY_SB [ugriz] = [ 21.92 21.52 21.41 21.43 21.47 ] +/- [  0.00  0.00  0.00  0.00  0.00 ] (asinh mag/square arcsec)
# GALAXY_SB_FLUX [ugriz] = [  6.377E+00  8.763E+00  9.865E+00  9.553E+00  8.460E+00 ] +/- [  0.000E+00  0.000E+00  0.000E+00  0.000E+00  0.000E+00 ] (microJy per square arcsec)
#FLAG  MJD       FILT  MAG     MERR  MSKYERR MGALERR  FLUX       FLUXERR    SKYERR     GALERR    NPRE TELE   RUN  STRIP  IDCCD
  256  53616.398098  1  25.785  0.996  0.199  0.000  -4.180e-01   7.375e-01   1.403e-01   0.000e+00  21  sdss  5566  82N  6 
  256  53616.394781  2  24.932  1.100  0.986  0.000  -1.043e-01   1.041e+00   7.937e-01   0.000e+00  23  sdss  5566  82N  6 
  416  53616.395610  3  22.834  0.640  0.331  0.000   2.467e+00   1.539e+00   8.525e-01   0.000e+00  25  sdss  5566  82N  6 
  288  53616.397269  4  21.599  0.686  0.663  0.000   7.402e+00   5.456e+00   5.546e+00   0.000e+00  21  sdss  5566  82N  6 
 1440  53616.396439  0  23.914  1.541  0.969  0.000   7.875e-01   2.157e+00   1.161e+00   0.000e+00  10  sdss  5566  82N  6 
 1464  53626.374942  1  22.026  0.202  0.411  0.000   5.496e+00   1.023e+00   2.104e+00   0.000e+00  21  sdss  5603  82N  6 
 1450  53626.371625  2  22.665  0.466  0.836  0.000   3.046e+00   1.299e+00   2.452e+00   0.000e+00  23  sdss  5603  82N  6 
  416  53626.372454  3  24.283  1.120  1.180  0.000   9.408e-02   1.576e+00   1.401e+00   0.000e+00  25  sdss  5603  82N  6 
  256  53626.374112  4  23.739  0.769  0.805  0.000  -4.948e+00   5.060e+00   5.367e+00   0.000e+00  21  sdss  5603  82N  6 
  296  53626.373283  0  23.207  1.214  1.252  0.000   1.878e+00   2.058e+00   2.431e+00   0.000e+00  10  sdss  5603  82N  6 
  257  53628.360039  1  27.191  0.632  0.282  0.000  -2.109e+00   1.178e+00   5.757e-01   0.000e+00  21  sdss  5610  82N  6 
  257  53628.356721  2  25.540  1.234  0.523  0.000  -6.360e-01   1.319e+00   5.197e-01   0.000e+00  23  sdss  5610  82N  6 
  288  53628.357551  3  22.951  0.804  0.354  0.000   2.182e+00   1.730e+00   8.282e-01   0.000e+00  25  sdss  5610  82N  6 
  288  53628.359209  4  21.663  0.644  0.283  0.000   6.877e+00   4.937e+00   2.258e+00   0.000e+00  21  sdss  5610  82N  6 
  289  53628.358380  0  21.935  0.511  0.282  0.000   6.459e+00   2.803e+00   1.654e+00   0.000e+00  10  sdss  5610  82N  6 
  289  53635.368775  1  23.763  1.065  0.239  0.000   1.021e+00   1.065e+00   2.661e-01   0.000e+00  21  sdss  5622  82N  6 
  257  53635.365458  2  22.504  0.356  0.160  0.000   3.550e+00   1.168e+00   5.414e-01   0.000e+00  23  sdss  5622  82N  6 
  289  53635.366287  3  24.059  1.046  0.388  0.000   3.637e-01   1.465e+00   4.771e-01   0.000e+00  25  sdss  5622  82N  6 
  256  53635.367946  4  22.000  0.659  0.336  0.000   4.469e+00   4.184e+00   2.139e+00   0.000e+00  21  sdss  5622  82N  6 
  289  53635.367116  0  23.907  1.677  0.821  0.000   7.962e-01   2.455e+00   9.884e-01   0.000e+00  10  sdss  5622  82N  6 
  289  53637.362219  1  23.225  0.741  0.058  0.000   1.772e+00   1.155e+00   1.005e-01   0.000e+00  21  sdss  5633  82N  6 
  288  53637.358902  2  22.709  0.438  0.054  0.000   2.920e+00   1.180e+00   1.530e-01   0.000e+00  23  sdss  5633  82N  6 
  288  53637.359731  3  22.350  0.456  0.198  0.000   4.001e+00   1.689e+00   7.718e-01   0.000e+00  25  sdss  5633  82N  6 
  288  53637.361390  4  21.549  0.646  0.470  0.000   7.829e+00   5.332e+00   4.075e+00   0.000e+00  21  sdss  5633  82N  6 
  289  53637.360561  0  23.217  1.604  0.348  0.000   1.858e+00   2.725e+00   6.710e-01   0.000e+00  10  sdss  5633  82N  6 
  288  53639.407642  1  23.322  0.413  0.154  0.000   1.611e+00   6.371e-01   2.465e-01   0.000e+00  21  sdss  5642  82N  6 
  288  53639.404325  2  23.830  0.748  0.230  0.000   8.848e-01   8.369e-01   2.637e-01   0.000e+00  23  sdss  5642  82N  6 
  256  53639.405154  3  24.460  0.925  0.343  0.000  -1.158e-01   1.236e+00   4.082e-01   0.000e+00  25  sdss  5642  82N  6 
  256  53639.406813  4  21.430  0.420  0.232  0.000   8.905e+00   3.885e+00   2.212e+00   0.000e+00  21  sdss  5642  82N  6 
  384  53639.405984  0  24.729  1.324  0.298  0.000  -6.110e-02   1.626e+00   2.897e-01   0.000e+00  10  sdss  5642  82N  6 
  416  53641.406895  1  23.657  0.538  0.288  0.000   1.144e+00   6.222e-01   3.493e-01   0.000e+00  21  sdss  5658  82N  6 
  256  53641.403578  2  25.092  0.899  0.099  0.000  -2.346e-01   8.196e-01   8.197e-02   0.000e+00  23  sdss  5658  82N  6 
  256  53641.404407  3  24.809  0.892  0.244  0.000  -5.442e-01   1.236e+00   3.145e-01   0.000e+00  25  sdss  5658  82N  6 
  288  53641.406066  4  22.098  0.615  0.387  0.000   3.866e+00   3.729e+00   2.335e+00   0.000e+00  21  sdss  5658  82N  6 
  296  53641.405236  0  22.468  0.515  0.368  0.000   3.911e+00   1.760e+00   1.340e+00   0.000e+00  10  sdss  5658  82N  6 
  256  53644.354726  1  25.466  0.862  0.387  0.000  -2.086e-01   5.790e-01   2.397e-01   0.000e+00  21  sdss  5670  82N  6 
  288  53644.351409  2  23.741  0.761  0.231  0.000   9.891e-01   8.926e-01   2.805e-01   0.000e+00  23  sdss  5670  82N  6 
  288  53644.352238  3  23.355  0.717  0.327  0.000   1.371e+00   1.211e+00   5.678e-01   0.000e+00  25  sdss  5670  82N  6 
  416  53644.353897  4  22.422  0.670  0.262  0.000   2.049e+00   3.658e+00   1.370e+00   0.000e+00  21  sdss  5670  82N  6 
  296  53644.353067  0  23.684  1.206  1.241  0.000   1.086e+00   1.659e+00   1.705e+00   0.000e+00  10  sdss  5670  82N  6 
  289  53657.366142  1  23.173  1.183  0.470  0.000   1.865e+00   1.713e+00   8.567e-01   0.000e+00  21  sdss  5731  82N  6 
  289  53657.362824  2  22.326  0.480  0.217  0.000   4.200e+00   1.798e+00   8.624e-01   0.000e+00  23  sdss  5731  82N  6 
  288  53657.363654  3  22.956  1.068  0.581  0.000   2.170e+00   2.213e+00   1.355e+00   0.000e+00  25  sdss  5731  82N  6 
  288  53657.365312  4  21.499  0.770  0.619  0.000   8.273e+00   6.477e+00   5.585e+00   0.000e+00  21  sdss  5731  82N  6 
 1411  53657.364483  0  25.405  2.205  1.035  0.000  -7.736e-01   4.007e+00   1.233e+00   0.000e+00  10  sdss  5731  82N  6 
  289  53663.350691  1  24.338  1.439  0.321  0.000   4.996e-01   1.200e+00   2.403e-01   0.000e+00  21  sdss  5744  82N  6 
  289  53663.347374  2  23.867  1.106  0.301  0.000   8.433e-01   1.232e+00   3.367e-01   0.000e+00  23  sdss  5744  82N  6 
  289  53663.348203  3  23.655  1.049  0.373  0.000   8.982e-01   1.594e+00   5.393e-01   0.000e+00  25  sdss  5744  82N  6 
  256  53663.349861  4  22.901  0.844  0.450  0.000  -3.335e-01   4.546e+00   2.201e+00   0.000e+00  21  sdss  5744  82N  6 
  257  53663.349032  0  25.929  1.751  0.419  0.000  -1.520e+00   2.878e+00   6.999e-01   0.000e+00  10  sdss  5744  82N  6 
  289  53666.420813  1  24.714  1.236  0.245  0.000   2.433e-01   9.168e-01   1.544e-01   0.000e+00  21  sdss  5765  82N  6 
  289  53666.417496  2  24.132  1.050  0.390  0.000   5.703e-01   1.066e+00   3.734e-01   0.000e+00  23  sdss  5765  82N  6 
  256  53666.418325  3  24.797  1.027  0.436  0.000  -5.289e-01   1.459e+00   5.586e-01   0.000e+00  25  sdss  5765  82N  6 
  256  53666.419984  4  23.231  0.748  0.338  0.000  -1.987e+00   4.114e+00   1.759e+00   0.000e+00  21  sdss  5765  82N  6 
  289  53666.419155  0  22.887  1.364  0.552  0.000   2.604e+00   2.742e+00   1.393e+00   0.000e+00  10  sdss  5765  82N  6 
  288  53668.340156  1  23.891  0.848  0.382  0.000   8.863e-01   8.012e-01   3.857e-01   0.000e+00  21  sdss  5770  82N  6 
  288  53668.336839  2  23.761  0.948  0.456  0.000   9.652e-01   1.096e+00   5.465e-01   0.000e+00  23  sdss  5770  82N  6 
  256  53668.337668  3  25.550  0.851  0.502  0.000  -1.706e+00   1.582e+00   9.914e-01   0.000e+00  25  sdss  5770  82N  6 
  256  53668.339327  4  23.159  1.052  0.921  0.000  -1.615e+00   6.088e+00   4.691e+00   0.000e+00  21  sdss  5770  82N  6 
  296  53668.338497  0  23.263  1.482  1.665  0.000   1.769e+00   2.446e+00   3.093e+00   0.000e+00  10  sdss  5770  82N  6 
  257  53669.427796  1  25.874  1.172  0.148  0.000  -4.820e-01   9.165e-01   1.096e-01   0.000e+00  21  sdss  5777  82N  6 
  256  53669.424479  2  25.039  1.209  0.276  0.000  -1.904e-01   1.188e+00   2.259e-01   0.000e+00  23  sdss  5777  82N  6 
  256  53669.425308  3  24.743  1.151  0.500  0.000  -4.607e-01   1.672e+00   6.289e-01   0.000e+00  25  sdss  5777  82N  6 
  288  53669.426967  4  21.885  0.782  0.281  0.000   5.232e+00   5.250e+00   1.922e+00   0.000e+00  21  sdss  5777  82N  6 
  416  53669.426137  0  23.577  1.919  2.373  0.000   1.240e+00   3.199e+00   3.498e+00   0.000e+00  10  sdss  5777  82N  6 
  288  53670.345189  1  23.877  0.674  0.207  0.000   9.004e-01   6.542e-01   2.108e-01   0.000e+00  21  sdss  5781  82N  6 
  288  53670.341872  2  23.268  0.596  0.409  0.000   1.677e+00   9.803e-01   7.149e-01   0.000e+00  23  sdss  5781  82N  6 
  288  53670.342701  3  22.514  0.448  0.240  0.000   3.410e+00   1.447e+00   8.100e-01   0.000e+00  25  sdss  5781  82N  6 
  256  53670.344360  4  23.747  0.650  0.519  0.000  -5.002e+00   4.296e+00   3.477e+00   0.000e+00  21  sdss  5781  82N  6 
  288  53670.343531  0  22.428  0.599  0.473  0.000   4.063e+00   2.074e+00   1.780e+00   0.000e+00  10  sdss  5781  82N  6 
  256  53673.312845  1  26.130  0.639  0.117  0.000  -6.855e-01   5.400e-01   1.014e-01   0.000e+00  21  sdss  5792  82N  6 
  256  53673.309528  2  25.629  0.771  0.144  0.000  -7.261e-01   8.037e-01   1.505e-01   0.000e+00  23  sdss  5792  82N  6 
  288  53673.310357  3  23.324  0.722  0.305  0.000   1.426e+00   1.242e+00   5.411e-01   0.000e+00  25  sdss  5792  82N  6 
  256  53673.312015  4  21.695  0.478  0.056  0.000   6.624e+00   3.644e+00   4.333e-01   0.000e+00  21  sdss  5792  82N  6 
  256  53673.311186  0  26.370  0.694  0.029  0.000  -2.419e+00   1.510e+00   6.864e-02   0.000e+00  10  sdss  5792  82N  6 
  288  53675.310002  1  25.003  0.878  0.515  0.000   6.780e-02   5.773e-01   3.049e-01   0.000e+00  21  sdss  5800  82N  6 
  256  53675.306685  2  26.164  0.624  0.291  0.000  -1.397e+00   9.000e-01   4.431e-01   0.000e+00  23  sdss  5800  82N  6 
  288  53675.307514  3  23.036  0.672  0.217  0.000   1.990e+00   1.389e+00   4.746e-01   0.000e+00  25  sdss  5800  82N  6 
  288  53675.309172  4  21.537  0.506  0.185  0.000   7.934e+00   4.284e+00   1.618e+00   0.000e+00  21  sdss  5800  82N  6 
  296  53675.308343  0  23.129  0.884  0.762  0.000   2.037e+00   1.639e+00   1.575e+00   0.000e+00  10  sdss  5800  82N  6 
  296  53677.330713  1  23.487  0.419  0.230  0.000   1.366e+00   5.644e-01   3.206e-01   0.000e+00  21  sdss  5813  82N  6 
  288  53677.327396  2  22.920  0.367  0.136  0.000   2.377e+00   8.353e-01   3.176e-01   0.000e+00  23  sdss  5813  82N  6 
  288  53677.328225  3  23.296  0.702  0.125  0.000   1.476e+00   1.228e+00   2.258e-01   0.000e+00  25  sdss  5813  82N  6 
  288  53677.329883  4  22.752  0.673  0.101  0.000   3.964e-01   3.501e+00   4.937e-01   0.000e+00  21  sdss  5813  82N  6 
  384  53677.329054  0  25.576  1.182  0.283  0.000  -9.894e-01   1.583e+00   3.712e-01   0.000e+00  10  sdss  5813  82N  6 
  256  53680.317560  1  25.348  0.882  0.117  0.000  -1.363e-01   5.858e-01   7.036e-02   0.000e+00  21  sdss  5823  82N  6 
  256  53680.314243  2  25.838  0.765  0.082  0.000  -9.591e-01   8.854e-01   9.744e-02   0.000e+00  23  sdss  5823  82N  6 
  256  53680.315072  3  25.084  0.853  0.410  0.000  -9.190e-01   1.271e+00   5.985e-01   0.000e+00  25  sdss  5823  82N  6 
  288  53680.316731  4  22.003  0.601  0.310  0.000   4.450e+00   3.806e+00   1.970e+00   0.000e+00  21  sdss  5823  82N  6 
  296  53680.315902  0  24.242  1.295  1.065  0.000   4.209e-01   1.611e+00   1.108e+00   0.000e+00  10  sdss  5823  82N  6 
  288  53683.375735  1  24.089  0.787  0.284  0.000   7.009e-01   6.671e-01   2.488e-01   0.000e+00  21  sdss  5842  82N  6 
  288  53683.372418  2  23.957  1.048  0.427  0.000   7.450e-01   1.123e+00   4.507e-01   0.000e+00  23  sdss  5842  82N  6 
  256  53683.373247  3  25.919  0.704  0.492  0.000  -2.544e+00   1.711e+00   1.297e+00   0.000e+00  25  sdss  5842  82N  6 
  257  53683.374906  4  21.842  0.832  0.368  0.000   5.531e+00   5.706e+00   2.591e+00   0.000e+00  21  sdss  5842  82N  6 
  264  53683.374077  0  24.670  1.524  1.682  0.000  -4.303e-03   2.013e+00   1.630e+00   0.000e+00  10  sdss  5842  82N  6 
  289  53686.316853  1  24.396  1.944  1.256  0.000   4.571e-01   1.912e+00   9.106e-01   0.000e+00  21  sdss  5866  82N  6 
  257  53686.313538  2  25.378  1.563  0.594  0.000  -4.818e-01   1.780e+00   5.432e-01   0.000e+00  23  sdss  5866  82N  6 
  289  53686.314367  3  23.405  1.285  0.725  0.000   1.285e+00   2.184e+00   1.217e+00   0.000e+00  25  sdss  5866  82N  6 
  256  53686.316024  4  23.729  0.855  0.809  0.000  -4.882e+00   5.611e+00   5.360e+00   0.000e+00  21  sdss  5866  82N  6 
  257  53686.315194  0  27.109  1.364  0.689  0.000  -4.938e+00   4.423e+00   3.120e+00   0.000e+00  10  sdss  5866  82N  6 
  387  53687.370604  2  28.276  0.546  0.397  0.000  -1.062e+01   4.984e+00   3.922e+00   0.000e+00  23  sdss  5872  82N  6 
  395  53687.371434  3  26.505  1.528  3.364  0.000  -4.540e+00   4.742e+00   1.469e+01   0.000e+00  25  sdss  5872  82N  6 
  267  53687.373092  4  24.890  1.246  3.340  0.000  -1.720e+01   1.589e+01   5.517e+01   0.000e+00  21  sdss  5872  82N  6 
  257  53693.318890  1  25.345  1.737  1.100  0.000  -1.345e-01   1.524e+00   6.620e-01   0.000e+00  21  sdss  5878  82N  6 
  257  53693.315573  2  27.095  0.516  0.199  0.000  -3.530e+00   1.628e+00   6.719e-01   0.000e+00  23  sdss  5878  82N  6 
  288  53693.316402  3  24.036  1.274  0.537  0.000   3.920e-01   1.908e+00   6.646e-01   0.000e+00  25  sdss  5878  82N  6 
  288  53693.318061  4  22.119  0.851  0.539  0.000   3.740e+00   5.194e+00   3.214e+00   0.000e+00  21  sdss  5878  82N  6 
  257  53693.317231  0  26.099  2.259  0.399  0.000  -1.829e+00   4.491e+00   7.589e-01   0.000e+00  10  sdss  5878  82N  6 
  256  53698.316027  1  25.590  1.008  0.106  0.000  -2.867e-01   7.141e-01   6.869e-02   0.000e+00  21  sdss  5898  82N  6 
  292  53698.312711  2  22.384  0.368  0.187  0.000   3.976e+00   1.342e+00   7.044e-01   0.000e+00  23  sdss  5898  82N  6 
  256  53698.313540  3  24.783  1.028  0.391  0.000  -5.111e-01   1.458e+00   4.986e-01   0.000e+00  25  sdss  5898  82N  6 
  256  53698.315198  4  23.253  0.740  0.456  0.000  -2.103e+00   4.087e+00   2.392e+00   0.000e+00  21  sdss  5898  82N  6 
  420  53698.314369  0  22.945  1.062  0.285  0.000   2.459e+00   2.164e+00   6.853e-01   0.000e+00  10  sdss  5898  82N  6 
  256  53704.301548  1  25.943  0.818  0.490  0.000  -5.338e-01   6.295e-01   3.765e-01   0.000e+00  21  sdss  5918  82N  6 
  264  53704.298231  2  25.070  1.016  0.987  0.000  -2.166e-01   9.491e-01   8.125e-01   0.000e+00  23  sdss  5918  82N  6 
  256  53704.299060  3  24.683  1.050  1.050  0.000  -3.863e-01   1.475e+00   1.299e+00   0.000e+00  25  sdss  5918  82N  6 
  256  53704.300718  4  22.899  0.857  0.637  0.000  -3.237e-01   4.631e+00   3.110e+00   0.000e+00  21  sdss  5918  82N  6 
  424  53704.299889  0  24.357  1.452  2.245  0.000   3.033e-01   1.884e+00   2.259e+00   0.000e+00  10  sdss  5918  82N  6 
