# SDSS CID:  15509 IAU:          RA:  36.122162 DEC:  -0.943311  (J2000)
# GALAXY_SB [ugriz] = [ 24.32 24.01 23.80 23.51 22.18 ] +/- [  0.37  0.08  0.07  0.07  0.08 ] (asinh mag/square arcsec)
# GALAXY_SB_FLUX [ugriz] = [  3.053E-01  7.696E-01  9.160E-01  1.120E+00  3.362E+00 ] +/- [  3.699E-01  7.085E-02  8.126E-02  1.072E-01  4.759E-01 ] (microJy per square arcsec)
#FLAG  MJD       FILT  MAG     MERR  MSKYERR MGALERR  FLUX       FLUXERR    SKYERR     GALERR    NPRE TELE   RUN  STRIP  IDCCD
    1  53989.413126  1  22.732  0.513  0.107  0.094   2.843e+00   1.275e+00   2.851e-01   2.501e-01  21  sdss  6314  82N  1 
    1  53989.409809  2  23.123  0.780  0.305  0.150   1.943e+00   1.377e+00   5.982e-01   2.940e-01  23  sdss  6314  82N  1 
    1  53989.410638  3  22.913  0.693  0.276  0.137   2.274e+00   1.554e+00   6.650e-01   3.298e-01  24  sdss  6314  82N  1 
    0  53989.412297  4  22.410  0.712  0.360  0.318   2.115e+00   3.916e+00   1.889e+00   1.670e+00  24  sdss  6314  82N  1 
    1  53989.411468  0  26.360  1.554  0.356  0.821  -2.395e+00   2.912e+00   8.250e-01   1.905e+00  15  sdss  6314  82N  1 
    0  53995.452242  1  23.051  0.257  0.036  0.160   2.097e+00   5.051e-01   7.281e-02   3.191e-01  21  sdss  6363  82N  1 
    0  53995.448924  2  23.066  0.352  0.164  0.147   2.057e+00   7.050e-01   3.382e-01   3.028e-01  23  sdss  6363  82N  1 
    0  53995.449754  3  23.499  0.684  0.238  0.218   1.132e+00   1.071e+00   3.764e-01   3.447e-01  24  sdss  6363  82N  1 
    0  53995.451412  4  22.133  0.552  0.265  0.323   3.655e+00   3.285e+00   1.567e+00   1.910e+00  24  sdss  6363  82N  1 
  160  53995.450583  0  24.268  1.154  0.374  2.267   3.937e-01   1.373e+00   3.851e-01   2.333e+00  15  sdss  6363  82N  1 
   32  54000.389168  1  24.377  0.787  0.337  1.121   4.711e-01   5.820e-01   2.451e-01   8.163e-01  21  sdss  6383  82N  1 
   32  54000.385851  2  23.152  0.461  0.399  0.350   1.887e+00   8.473e-01   7.644e-01   6.702e-01  23  sdss  6383  82N  1 
    0  54000.386680  3  23.099  0.687  0.394  0.416   1.855e+00   1.356e+00   8.196e-01   8.665e-01  24  sdss  6383  82N  1 
    0  54000.388339  4  21.583  0.595  0.423  0.537   7.537e+00   4.825e+00   3.578e+00   4.542e+00  24  sdss  6383  82N  1 
  162  54000.387509  0  22.885  0.752  0.507  2.170   2.610e+00   1.692e+00   1.264e+00   5.411e+00  15  sdss  6383  82N  1 
    0  54007.439414  1  23.236  0.309  0.061  0.231   1.752e+00   5.137e-01   1.030e-01   3.931e-01  21  sdss  6414  82N  1 
    0  54007.436096  2  23.388  0.483  0.222  0.204   1.477e+00   7.354e-01   3.505e-01   3.226e-01  23  sdss  6414  82N  1 
    0  54007.436926  3  23.119  0.598  0.136  0.214   1.814e+00   1.176e+00   2.796e-01   4.389e-01  24  sdss  6414  82N  1 
    0  54007.438584  4  23.682  0.615  0.408  0.351  -4.579e+00   3.930e+00   2.628e+00   2.258e+00  24  sdss  6414  82N  1 
  136  54007.437755  0  25.835  1.096  0.984  2.165  -1.365e+00   1.601e+00   1.520e+00   3.343e+00  15  sdss  6414  82N  1 
    0  54009.363510  1  23.045  0.235  0.045  0.146   2.109e+00   4.658e-01   9.096e-02   2.928e-01  21  sdss  6421  82N  1 
    0  54009.360192  2  23.311  0.422  0.050  0.161   1.602e+00   6.865e-01   8.421e-02   2.711e-01  23  sdss  6421  82N  1 
    0  54009.361022  3  23.216  0.585  0.184  0.191   1.623e+00   1.080e+00   3.509e-01   3.641e-01  24  sdss  6421  82N  1 
    0  54009.362680  4  23.066  0.622  0.380  0.344  -1.147e+00   3.259e+00   1.897e+00   1.715e+00  24  sdss  6421  82N  1 
 1152  54009.361851  0  25.617  0.964  0.227  1.407  -1.044e+00   1.276e+00   3.037e-01   1.880e+00  15  sdss  6421  82N  1 
    0  54011.428128  1  23.527  0.348  0.037  0.174   1.310e+00   4.515e-01   4.965e-02   2.310e-01  21  sdss  6430  82N  1 
    0  54011.424810  2  23.173  0.358  0.036  0.098   1.848e+00   6.564e-01   6.752e-02   1.836e-01  23  sdss  6430  82N  1 
    0  54011.425640  3  23.029  0.478  0.105  0.089   2.005e+00   1.017e+00   2.305e-01   1.959e-01  24  sdss  6430  82N  1 
    0  54011.427298  4  22.562  0.606  0.117  0.255   1.336e+00   3.186e+00   5.900e-01   1.284e+00  24  sdss  6430  82N  1 
   40  54011.426469  0  23.618  0.922  0.525  1.204   1.180e+00   1.272e+00   7.465e-01   1.710e+00  15  sdss  6430  82N  1 
    1  54021.432208  1  22.579  0.267  0.113  0.131   3.284e+00   7.978e-01   3.448e-01   3.990e-01  21  sdss  6450  82N  1 
    0  54021.428891  2  22.662  0.291  0.034  0.097   3.052e+00   8.333e-01   1.008e-01   2.838e-01  23  sdss  6450  82N  1 
    0  54021.429721  3  22.544  0.376  0.159  0.116   3.311e+00   1.195e+00   5.225e-01   3.784e-01  24  sdss  6450  82N  1 
    0  54021.431379  4  21.966  0.589  0.116  0.336   4.689e+00   3.801e+00   7.567e-01   2.183e+00  24  sdss  6450  82N  1 
   33  54021.430550  0  22.878  1.016  0.181  1.060   2.629e+00   2.164e+00   4.535e-01   2.660e+00  15  sdss  6450  82N  1 
    0  54025.427492  1  22.544  0.219  0.128  0.231   3.393e+00   6.784e-01   4.038e-01   7.273e-01  21  sdss  6461  82N  1 
    0  54025.424175  2  22.270  0.234  0.080  0.147   4.427e+00   9.587e-01   3.331e-01   6.106e-01  23  sdss  6461  82N  1 
    0  54025.425004  3  22.900  0.584  0.330  0.278   2.305e+00   1.347e+00   8.028e-01   6.770e-01  24  sdss  6461  82N  1 
   32  54025.426663  4  22.658  0.829  0.701  0.644   8.560e-01   4.483e+00   3.463e+00   3.180e+00  24  sdss  6461  82N  1 
  128  54025.425833  0  22.594  0.648  0.396  1.442   3.465e+00   1.893e+00   1.269e+00   4.616e+00  15  sdss  6461  82N  1 
    0  54029.437250  1  22.888  0.241  0.112  0.174   2.452e+00   5.489e-01   2.585e-01   4.015e-01  21  sdss  6476  82N  1 
    0  54029.433933  2  22.889  0.353  0.102  0.138   2.451e+00   8.227e-01   2.454e-01   3.306e-01  23  sdss  6476  82N  1 
    0  54029.434762  3  22.741  0.479  0.171  0.150   2.717e+00   1.270e+00   4.750e-01   4.171e-01  24  sdss  6476  82N  1 
    0  54029.436420  4  23.366  0.739  0.113  0.363  -2.708e+00   4.204e+00   6.208e-01   1.986e+00  24  sdss  6476  82N  1 
   32  54029.435591  0  23.801  1.296  0.194  2.261   9.291e-01   1.740e+00   2.463e-01   2.867e+00  15  sdss  6476  82N  1 
    0  54031.344672  1  22.672  0.180  0.106  0.124   3.008e+00   4.998e-01   2.971e-01   3.480e-01  21  sdss  6484  82N  1 
    0  54031.341355  2  22.861  0.328  0.123  0.125   2.519e+00   7.857e-01   3.017e-01   3.081e-01  23  sdss  6484  82N  1 
    0  54031.342184  3  22.348  0.331  0.118  0.104   4.009e+00   1.251e+00   4.586e-01   4.032e-01  24  sdss  6484  82N  1 
    0  54031.343843  4  23.922  0.571  0.374  0.282  -6.248e+00   4.184e+00   2.814e+00   2.125e+00  24  sdss  6484  82N  1 
 1184  54031.343014  0  22.744  0.560  0.104  0.850   2.998e+00   1.473e+00   2.918e-01   2.389e+00  15  sdss  6484  82N  1 
    0  54036.349456  1  22.918  0.283  0.318  0.346   2.383e+00   6.225e-01   7.153e-01   7.774e-01  21  sdss  6504  82N  1 
    0  54036.346139  2  22.410  0.307  0.190  0.233   3.877e+00   1.097e+00   6.958e-01   8.547e-01  23  sdss  6504  82N  1 
    0  54036.346968  3  24.757  0.991  0.669  0.519  -4.777e-01   1.387e+00   8.450e-01   6.552e-01  24  sdss  6504  82N  1 
  128  54036.348627  4  21.663  0.635  0.167  0.419   6.877e+00   4.867e+00   1.332e+00   3.341e+00  24  sdss  6504  82N  1 
    0  54036.347797  0  22.206  0.401  0.097  0.911   5.013e+00   1.739e+00   4.396e-01   4.117e+00  15  sdss  6504  82N  1 
    0  54039.347765  1  23.347  0.350  0.231  0.288   1.572e+00   5.271e-01   3.569e-01   4.447e-01  21  sdss  6513  82N  1 
    0  54039.344448  2  23.024  0.386  0.052  0.166   2.145e+00   7.976e-01   1.110e-01   3.539e-01  23  sdss  6513  82N  1 
    0  54039.345277  3  23.066  0.617  0.217  0.215   1.925e+00   1.255e+00   4.639e-01   4.595e-01  24  sdss  6513  82N  1 
    0  54039.346936  4  21.795  0.623  0.318  0.359   5.868e+00   4.407e+00   2.312e+00   2.609e+00  24  sdss  6513  82N  1 
  128  54039.346106  0  25.171  1.237  0.807  2.714  -5.073e-01   1.527e+00   8.611e-01   2.896e+00  15  sdss  6513  82N  1 
   33  54041.318049  1  23.998  1.311  0.607  0.292   7.833e-01   1.169e+00   5.615e-01   2.696e-01  21  sdss  6524  82N  1 
    9  54041.314732  2  22.418  0.338  0.430  0.065   3.848e+00   1.195e+00   1.563e+00   2.371e-01  23  sdss  6524  82N  1 
    9  54041.315561  3  23.104  0.749  0.754  0.147   1.845e+00   1.463e+00   1.562e+00   3.051e-01  24  sdss  6524  82N  1 
    0  54041.317219  4  23.161  0.781  0.346  0.339  -1.627e+00   4.261e+00   1.766e+00   1.728e+00  24  sdss  6524  82N  1 
    1  54041.316390  0  26.333  1.416  0.405  0.834  -2.331e+00   2.630e+00   9.189e-01   1.893e+00  15  sdss  6524  82N  1 
    1  54048.342188  1  22.238  0.231  0.051  0.071   4.515e+00   9.449e-01   2.119e-01   2.944e-01  21  sdss  6533  82N  1 
    1  54048.338871  2  22.600  0.322  0.071  0.068   3.238e+00   9.707e-01   2.209e-01   2.115e-01  23  sdss  6533  82N  1 
    0  54048.339700  3  23.191  0.620  0.111  0.146   1.671e+00   1.161e+00   2.150e-01   2.832e-01  24  sdss  6533  82N  1 
    0  54048.341358  4  23.125  0.657  0.111  0.371  -1.444e+00   3.495e+00   5.621e-01   1.877e+00  24  sdss  6533  82N  1 
  161  54048.340529  0  23.646  1.622  0.207  1.429   1.139e+00   2.433e+00   2.893e-01   1.993e+00  15  sdss  6533  82N  1 
   35  54052.345927  1  24.128  1.284  1.169  1.620   6.670e-01   1.091e+00   9.888e-01   1.370e+00  21  sdss  6552  82N  1 
    0  54052.342610  2  25.182  1.241  1.141  1.213  -3.094e-01   1.247e+00   9.683e-01   1.029e+00  23  sdss  6552  82N  1 
    0  54052.343439  3  22.748  0.689  0.570  0.439   2.698e+00   1.748e+00   1.571e+00   1.210e+00  24  sdss  6552  82N  1 
   34  54052.345098  4  22.534  1.097  1.040  1.349   1.473e+00   6.405e+00   5.263e+00   6.827e+00  24  sdss  6552  82N  1 
  162  54052.344269  0  23.783  1.700  1.434  5.257   9.530e-01   2.547e+00   1.838e+00   6.739e+00  15  sdss  6552  82N  1 
    0  54055.357488  1  23.107  0.316  0.118  0.269   1.987e+00   5.869e-01   2.244e-01   5.108e-01  21  sdss  6565  82N  1 
   32  54055.354171  2  23.550  0.659  0.369  0.363   1.237e+00   8.738e-01   5.147e-01   5.051e-01  23  sdss  6565  82N  1 
    0  54055.355001  3  22.861  0.531  0.241  0.227   2.402e+00   1.271e+00   6.043e-01   5.701e-01  24  sdss  6565  82N  1 
    0  54055.356659  4  23.833  0.608  0.128  0.378  -5.596e+00   4.214e+00   9.063e-01   2.676e+00  24  sdss  6565  82N  1 
  160  54055.355830  0  23.509  1.362  0.566  2.605   1.345e+00   2.016e+00   8.660e-01   3.986e+00  15  sdss  6565  82N  1 
   32  54058.340486  1  23.501  0.502  0.314  0.595   1.345e+00   6.503e-01   4.273e-01   8.089e-01  21  sdss  6577  82N  1 
    0  54058.337169  2  22.643  0.304  0.168  0.179   3.108e+00   8.853e-01   5.009e-01   5.337e-01  23  sdss  6577  82N  1 
    0  54058.337999  3  23.038  0.650  0.312  0.291   1.985e+00   1.343e+00   6.803e-01   6.339e-01  24  sdss  6577  82N  1 
    0  54058.339657  4  23.558  0.793  0.495  0.576  -3.805e+00   4.834e+00   2.965e+00   3.454e+00  24  sdss  6577  82N  1 
   40  54058.338828  0  23.201  1.067  1.036  2.279   1.889e+00   1.821e+00   1.995e+00   4.388e+00  15  sdss  6577  82N  1 
  162  54060.362073  1  23.316  0.582  0.783  0.971   1.619e+00   8.620e-01   1.242e+00   1.540e+00  21  sdss  6584  82N  1 
   34  54060.358756  2  24.042  1.301  1.155  1.314   6.582e-01   1.417e+00   1.159e+00   1.319e+00  23  sdss  6584  82N  1 
 1154  54060.359586  3  22.482  0.623  0.693  0.514   3.519e+00   1.985e+00   2.395e+00   1.777e+00  24  sdss  6584  82N  1 
  128  54060.361244  4  22.871  1.148  1.788  1.404  -1.867e-01   6.702e+00   8.726e+00   6.854e+00  24  sdss  6584  82N  1 
    4  54065.338699  1  26.951  0.994  0.981  0.331  -1.670e+00   1.369e+00   1.599e+00   5.391e-01  21  sdss  6609  82N  1 
    4  54065.335382  2  22.494  0.417  0.249  0.146   3.581e+00   1.357e+00   8.465e-01   4.972e-01  23  sdss  6609  82N  1 
    4  54065.336211  3  22.725  0.762  0.724  0.212   2.762e+00   1.939e+00   2.033e+00   5.953e-01  24  sdss  6609  82N  1 
    4  54065.337870  4  21.899  1.742  1.120  0.495   5.136e+00   1.350e+01   7.592e+00   3.355e+00  24  sdss  6609  82N  1 
 1188  54065.337041  0  23.235  1.714  0.387  2.093   1.823e+00   2.920e+00   7.251e-01   3.926e+00  15  sdss  6609  82N  1 
