# SDSS CID:  14956 IAU:          RA: 348.701843 DEC:   0.851228  (J2000)
# GALAXY_SB [ugriz] = [ 23.19 22.85 21.75 21.22 20.70 ] +/- [  0.21  0.05  0.03  0.03  0.05 ] (asinh mag/square arcsec)
# GALAXY_SB_FLUX [ugriz] = [  1.844E+00  2.535E+00  7.183E+00  1.152E+01  1.847E+01 ] +/- [  4.202E-01  1.126E-01  1.831E-01  2.893E-01  9.213E-01 ] (microJy per square arcsec)
#FLAG  MJD       FILT  MAG     MERR  MSKYERR MGALERR  FLUX       FLUXERR    SKYERR     GALERR    NPRE TELE   RUN  STRIP  IDCCD
   32  53975.273311  1  22.566  0.192  0.072  0.278   3.323e+00   5.907e-01   2.229e-01   8.631e-01  12  sdss  6287  82S  6 
   32  53975.269993  2  23.072  0.471  0.115  0.606   2.047e+00   9.236e-01   2.361e-01   1.244e+00  12  sdss  6287  82S  6 
   32  53975.270823  3  22.921  0.683  0.416  0.838   2.252e+00   1.525e+00   9.942e-01   2.004e+00  12  sdss  6287  82S  6 
   32  53975.272481  4  21.421  0.565  0.401  0.673   8.998e+00   5.182e+00   3.853e+00   6.476e+00  12  sdss  6287  82S  6 
  136  53975.271652  0  22.149  0.383  0.330  0.665   5.289e+00   1.780e+00   1.592e+00   3.212e+00  8  sdss  6287  82S  6 
 1209  53993.341380  1  22.742  0.362  1.156  0.333   2.815e+00   9.287e-01   3.062e+00   8.837e-01  12  sdss  6348  82S  6 
   56  53993.338063  2  22.869  0.559  1.609  0.742   2.501e+00   1.277e+00   3.932e+00   1.814e+00  12  sdss  6348  82S  6 
 1180  53993.338893  3  26.409  0.673  5.978  0.517  -4.138e+00   2.435e+00   2.387e+01   2.066e+00  12  sdss  6348  82S  6 
  172  53993.340551  4  21.665  0.835  1.068  0.826   6.861e+00   6.308e+00   8.526e+00   6.595e+00  12  sdss  6348  82S  6 
  136  53993.339722  0  24.799  1.683  3.025  4.525  -1.293e-01   2.369e+00   2.951e+00   4.415e+00  8  sdss  6348  82S  6 
   32  53996.280239  1  22.483  0.171  0.106  0.220   3.590e+00   5.671e-01   3.548e-01   7.366e-01  12  sdss  6367  82S  6 
   32  53996.276922  2  22.210  0.217  0.079  0.314   4.682e+00   9.420e-01   3.475e-01   1.381e+00  12  sdss  6367  82S  6 
   32  53996.277751  3  21.997  0.292  0.195  0.403   5.602e+00   1.513e+00   1.035e+00   2.137e+00  12  sdss  6367  82S  6 
   32  53996.279410  4  21.385  0.505  0.207  0.624   9.350e+00   4.797e+00   2.055e+00   6.175e+00  12  sdss  6367  82S  6 
   32  53996.278580  0  23.275  1.069  0.765  1.955   1.747e+00   1.763e+00   1.407e+00   3.595e+00  8  sdss  6367  82S  6 
    0  53998.248699  1  22.445  0.148  0.038  0.122   3.721e+00   5.117e-01   1.304e-01   4.233e-01  12  sdss  6377  82S  6 
   32  53998.245382  2  22.726  0.298  0.043  0.272   2.872e+00   8.080e-01   1.185e-01   7.527e-01  12  sdss  6377  82S  6 
   32  53998.246211  3  22.727  0.474  0.131  0.427   2.755e+00   1.272e+00   3.661e-01   1.197e+00  12  sdss  6377  82S  6 
   32  53998.247870  4  22.626  0.750  0.432  0.867   1.014e+00   4.003e+00   2.144e+00   4.304e+00  12  sdss  6377  82S  6 
  136  53998.247041  0  22.952  0.649  0.414  0.729   2.441e+00   1.433e+00   9.892e-01   1.741e+00  8  sdss  6377  82S  6 
   32  54005.278943  1  22.891  0.225  0.064  0.198   2.444e+00   5.146e-01   1.491e-01   4.588e-01  12  sdss  6402  82S  6 
   32  54005.275626  2  22.389  0.227  0.116  0.217   3.958e+00   8.363e-01   4.341e-01   8.128e-01  12  sdss  6402  82S  6 
   32  54005.276455  3  22.491  0.407  0.188  0.395   3.486e+00   1.345e+00   6.450e-01   1.355e+00  12  sdss  6402  82S  6 
   32  54005.278114  4  21.621  0.519  0.149  0.475   7.218e+00   4.147e+00   1.225e+00   3.918e+00  12  sdss  6402  82S  6 
  168  54005.277285  0  23.180  0.791  0.403  0.818   1.931e+00   1.435e+00   7.987e-01   1.621e+00  8  sdss  6402  82S  6 
   32  54008.239433  1  22.677  0.197  0.065  0.214   2.993e+00   5.485e-01   1.824e-01   6.017e-01  12  sdss  6417  82S  6 
   32  54008.236116  2  22.574  0.287  0.155  0.350   3.322e+00   8.902e-01   4.905e-01   1.110e+00  12  sdss  6417  82S  6 
   32  54008.236945  3  22.670  0.491  0.175  0.575   2.918e+00   1.377e+00   5.139e-01   1.692e+00  12  sdss  6417  82S  6 
   32  54008.238604  4  21.686  0.612  0.384  0.727   6.695e+00   4.647e+00   3.024e+00   5.715e+00  12  sdss  6417  82S  6 
    8  54008.237775  0  22.755  0.618  0.556  0.838   2.965e+00   1.610e+00   1.570e+00   2.368e+00  8  sdss  6417  82S  6 
    1  54010.234179  1  22.549  0.257  0.060  0.140   3.376e+00   7.956e-01   1.899e-01   4.404e-01  12  sdss  6425  82S  6 
   32  54010.230862  2  22.595  0.334  0.096  0.211   3.256e+00   1.010e+00   3.000e-01   6.561e-01  12  sdss  6425  82S  6 
   32  54010.231691  3  22.283  0.366  0.134  0.278   4.266e+00   1.458e+00   5.525e-01   1.142e+00  12  sdss  6425  82S  6 
   32  54010.233350  4  21.959  0.635  0.195  0.602   4.739e+00   4.118e+00   1.276e+00   3.940e+00  12  sdss  6425  82S  6 
    1  54010.232521  0  22.717  0.700  0.058  0.498   3.077e+00   1.847e+00   1.688e-01   1.455e+00  8  sdss  6425  82S  6 
    1  54012.226840  1  22.593  0.494  0.311  0.129   3.239e+00   1.407e+00   9.440e-01   3.898e-01  12  sdss  6433  82S  6 
   33  54012.223523  2  22.368  0.445  0.198  0.177   4.037e+00   1.615e+00   7.554e-01   6.751e-01  12  sdss  6433  82S  6 
   33  54012.224352  3  22.033  0.406  0.085  0.214   5.415e+00   2.001e+00   4.353e-01   1.099e+00  12  sdss  6433  82S  6 
   32  54012.226010  4  22.023  0.882  0.259  0.595   4.329e+00   5.601e+00   1.634e+00   3.750e+00  12  sdss  6433  82S  6 
    1  54012.225181  0  22.066  0.688  0.184  0.280   5.718e+00   3.193e+00   9.576e-01   1.460e+00  8  sdss  6433  82S  6 
   33  54020.232568  1  22.306  0.215  0.084  0.229   4.235e+00   8.363e-01   3.308e-01   9.024e-01  12  sdss  6447  82S  6 
   32  54020.229251  2  22.277  0.286  0.107  0.365   4.397e+00   1.158e+00   4.413e-01   1.512e+00  12  sdss  6447  82S  6 
   32  54020.230081  3  22.220  0.400  0.226  0.445   4.532e+00   1.671e+00   9.821e-01   1.932e+00  12  sdss  6447  82S  6 
   32  54020.231739  4  21.918  0.831  0.388  0.940   5.011e+00   5.505e+00   2.608e+00   6.314e+00  12  sdss  6447  82S  6 
   33  54020.230910  0  23.592  1.387  0.984  1.942   1.218e+00   2.013e+00   1.435e+00   2.832e+00  8  sdss  6447  82S  6 
  152  54022.281445  1  21.988  0.161  0.264  0.094   5.692e+00   8.418e-01   1.387e+00   4.968e-01  12  sdss  6453  82S  6 
   40  54022.278128  2  22.243  0.231  0.269  0.212   4.540e+00   9.728e-01   1.149e+00   9.065e-01  12  sdss  6453  82S  6 
   32  54022.278957  3  22.078  0.293  0.146  0.281   5.188e+00   1.414e+00   7.214e-01   1.387e+00  12  sdss  6453  82S  6 
   32  54022.280615  4  22.043  0.680  0.354  0.602   4.204e+00   4.243e+00   2.208e+00   3.753e+00  12  sdss  6453  82S  6 
   32  54022.279786  0  23.293  0.975  0.111  1.050   1.713e+00   1.605e+00   2.008e-01   1.904e+00  8  sdss  6453  82S  6 
    0  54028.222470  1  22.011  0.127  0.040  0.142   5.572e+00   6.527e-01   2.061e-01   7.330e-01  12  sdss  6468  82S  6 
   32  54028.219153  2  22.580  0.354  0.174  0.516   3.303e+00   1.083e+00   5.494e-01   1.627e+00  12  sdss  6468  82S  6 
   32  54028.219982  3  21.540  0.204  0.099  0.258   8.596e+00   1.614e+00   7.950e-01   2.066e+00  12  sdss  6468  82S  6 
    0  54028.221641  4  22.946  0.959  0.124  1.317  -5.520e-01   5.323e+00   6.100e-01   6.458e+00  12  sdss  6468  82S  6 
   32  54028.220811  0  22.795  0.754  0.203  1.131   2.851e+00   1.842e+00   5.553e-01   3.086e+00  8  sdss  6468  82S  6 
    0  54030.225442  1  22.056  0.108  0.027  0.088   5.344e+00   5.324e-01   1.312e-01   4.328e-01  12  sdss  6479  82S  6 
   32  54030.222125  2  22.191  0.202  0.088  0.191   4.767e+00   8.940e-01   3.950e-01   8.549e-01  12  sdss  6479  82S  6 
   32  54030.222955  3  21.995  0.260  0.095  0.255   5.613e+00   1.357e+00   5.053e-01   1.356e+00  12  sdss  6479  82S  6 
   32  54030.224613  4  22.286  0.720  0.359  0.684   2.779e+00   4.108e+00   1.976e+00   3.769e+00  12  sdss  6479  82S  6 
    8  54030.223784  0  22.513  0.469  0.308  0.485   3.746e+00   1.554e+00   1.074e+00   1.691e+00  8  sdss  6479  82S  6 
   32  54035.300833  1  22.370  0.202  0.072  0.335   3.991e+00   7.398e-01   2.672e-01   1.242e+00  12  sdss  6501  82S  6 
   34  54035.297516  2  22.661  0.598  0.620  1.196   3.057e+00   1.617e+00   1.818e+00   3.510e+00  12  sdss  6501  82S  6 
   32  54035.298345  3  22.185  0.503  0.512  0.882   4.686e+00   2.122e+00   2.292e+00   3.952e+00  12  sdss  6501  82S  6 
   32  54035.300004  4  22.169  1.068  1.280  1.634   3.441e+00   6.622e+00   7.449e+00   9.508e+00  12  sdss  6501  82S  6 
    2  54035.299175  0  25.106  1.919  0.518  6.749  -4.384e-01   3.018e+00   5.421e-01   7.054e+00  8  sdss  6501  82S  6 
    0  54037.206249  1  22.145  0.167  0.076  0.089   4.920e+00   7.562e-01   3.481e-01   4.065e-01  12  sdss  6508  82S  6 
   44  54037.202932  2  22.076  0.241  0.342  0.148   5.308e+00   1.179e+00   1.698e+00   7.328e-01  12  sdss  6508  82S  6 
   36  54037.203761  3  21.742  0.285  0.142  0.173   7.119e+00   1.860e+00   9.446e-01   1.153e+00  12  sdss  6508  82S  6 
   36  54037.205419  4  20.896  0.400  0.171  0.269   1.532e+01   5.758e+00   2.551e+00   4.013e+00  12  sdss  6508  82S  6 
    4  54037.204590  0  22.616  0.686  0.060  0.572   3.395e+00   1.976e+00   1.911e-01   1.823e+00  8  sdss  6508  82S  6 
    1  54040.220368  1  22.104  0.355  0.056  0.113   5.111e+00   1.624e+00   2.661e-01   5.335e-01  12  sdss  6518  82S  6 
   33  54040.217052  2  22.488  0.623  0.507  0.314   3.604e+00   1.944e+00   1.733e+00   1.073e+00  12  sdss  6518  82S  6 
   33  54040.217881  3  21.778  0.369  0.137  0.266   6.883e+00   2.300e+00   8.853e-01   1.720e+00  12  sdss  6518  82S  6 
    0  54040.219539  4  23.809  0.818  0.112  0.658  -5.430e+00   5.585e+00   7.832e-01   4.596e+00  12  sdss  6518  82S  6 
    1  54040.218710  0  22.454  1.290  0.236  0.680   3.963e+00   3.558e+00   8.671e-01   2.499e+00  8  sdss  6518  82S  6 
   35  54049.246331  1  22.431  0.470  0.185  0.449   3.770e+00   1.560e+00   6.514e-01   1.575e+00  12  sdss  6537  82S  6 
   34  54049.243015  2  22.256  0.397  0.314  0.546   4.485e+00   1.606e+00   1.325e+00   2.301e+00  12  sdss  6537  82S  6 
   32  54049.243844  3  21.422  0.236  0.148  0.363   9.594e+00   2.075e+00   1.317e+00   3.240e+00  12  sdss  6537  82S  6 
   32  54049.245502  4  21.555  0.777  0.273  1.122   7.775e+00   6.312e+00   2.363e+00   9.728e+00  12  sdss  6537  82S  6 
  131  54049.244673  0  22.062  0.959  0.713  1.172   5.740e+00   4.087e+00   3.726e+00   6.123e+00  8  sdss  6537  82S  6 
   32  54050.204141  1  22.822  0.554  0.828  1.095   2.609e+00   1.269e+00   2.044e+00   2.701e+00  12  sdss  6542  82S  6 
   34  54050.200825  2  22.370  0.321  0.200  0.651   4.029e+00   1.188e+00   7.612e-01   2.477e+00  12  sdss  6542  82S  6 
  162  54050.201654  3  22.641  0.790  1.019  1.636   3.005e+00   2.130e+00   3.070e+00   4.929e+00  12  sdss  6542  82S  6 
    2  54050.203312  4  23.891  0.969  0.228  1.817  -6.018e+00   6.879e+00   1.681e+00   1.342e+01  12  sdss  6542  82S  6 
   34  54050.202483  0  23.145  1.379  0.612  3.479   2.005e+00   2.396e+00   1.248e+00   7.090e+00  8  sdss  6542  82S  6 
   32  54053.209939  1  22.304  0.154  0.070  0.212   4.243e+00   6.013e-01   2.741e-01   8.370e-01  12  sdss  6555  82S  6 
   32  54053.206623  2  21.797  0.163  0.156  0.255   6.881e+00   1.037e+00   1.001e+00   1.632e+00  12  sdss  6555  82S  6 
   32  54053.207452  3  22.275  0.394  0.198  0.563   4.299e+00   1.571e+00   8.196e-01   2.329e+00  12  sdss  6555  82S  6 
   32  54053.209110  4  22.073  0.757  0.476  0.939   4.012e+00   4.672e+00   2.916e+00   5.749e+00  12  sdss  6555  82S  6 
   40  54053.208281  0  22.642  0.626  0.641  1.164   3.310e+00   1.790e+00   1.998e+00   3.628e+00  8  sdss  6555  82S  6 
   34  54056.211701  1  22.359  0.240  0.392  0.624   4.032e+00   8.859e-01   1.471e+00   2.339e+00  12  sdss  6568  82S  6 
   34  54056.208384  2  23.869  1.331  1.029  3.479   8.408e-01   1.525e+00   1.146e+00   3.876e+00  12  sdss  6568  82S  6 
   34  54056.209213  3  23.078  1.097  1.765  2.180   1.900e+00   2.114e+00   3.732e+00   4.611e+00  12  sdss  6568  82S  6 
  130  54056.210872  4  23.759  1.241  1.319  2.575  -5.086e+00   8.537e+00   8.927e+00   1.742e+01  12  sdss  6568  82S  6 
 1154  54056.210043  0  24.957  1.948  1.806  9.851  -2.858e-01   3.087e+00   1.810e+00   9.871e+00  8  sdss  6568  82S  6 
   34  54059.205683  1  22.629  0.285  0.434  0.781   3.131e+00   8.192e-01   1.274e+00   2.293e+00  12  sdss  6580  82S  6 
   34  54059.202366  2  22.530  0.385  0.533  0.867   3.463e+00   1.223e+00   1.756e+00   2.858e+00  12  sdss  6580  82S  6 
   34  54059.203196  3  23.633  1.186  1.128  2.933   9.298e-01   1.857e+00   1.648e+00   4.288e+00  12  sdss  6580  82S  6 
    0  54059.204854  4  24.056  0.800  0.494  1.546  -7.311e+00   6.269e+00   4.107e+00   1.286e+01  12  sdss  6580  82S  6 
    0  54059.204025  0  26.108  1.951  0.270  4.651  -1.847e+00   3.521e+00   5.166e-01   8.908e+00  8  sdss  6580  82S  6 
   34  54062.210260  1  22.324  0.198  0.226  0.438   4.165e+00   7.582e-01   8.730e-01   1.695e+00  12  sdss  6596  82S  6 
   32  54062.206943  2  22.528  0.386  0.137  0.678   3.470e+00   1.227e+00   4.532e-01   2.239e+00  12  sdss  6596  82S  6 
   32  54062.207772  3  21.810  0.337  0.214  0.565   6.681e+00   2.054e+00   1.345e+00   3.543e+00  12  sdss  6596  82S  6 
   32  54062.209431  4  21.551  0.901  0.569  1.240   7.810e+00   7.241e+00   4.945e+00   1.079e+01  12  sdss  6596  82S  6 
   34  54062.208602  0  22.739  1.053  0.154  2.294   3.013e+00   2.492e+00   4.411e-01   6.570e+00  8  sdss  6596  82S  6 
