# SDSS CID:  16113 IAU:          RA: 322.384949 DEC:   0.114745  (J2000)
# GALAXY_SB [ugriz] = [ 19.74 17.46 16.51 16.10 15.91 ] +/- [  0.00  0.00  0.00  0.00  0.00 ] (asinh mag/square arcsec)
# GALAXY_SB_FLUX [ugriz] = [  4.759E+01  3.701E+02  8.955E+02  1.294E+03  1.551E+03 ] +/- [  0.000E+00  0.000E+00  0.000E+00  0.000E+00  0.000E+00 ] (microJy per square arcsec)
#FLAG  MJD       FILT  MAG     MERR  MSKYERR MGALERR  FLUX       FLUXERR    SKYERR     GALERR    NPRE TELE   RUN  STRIP  IDCCD
  288  53975.200277  1  21.443  0.245  0.036  0.000   9.419e+00   2.075e+00   3.082e-01   0.000e+00  10  sdss  6287  82S  4 
  256  53975.196960  2  29.512  0.149  0.024  0.000  -3.320e+01   4.501e+00   7.211e-01   0.000e+00  11  sdss  6287  82S  4 
  256  53975.197790  3  29.883  0.059  0.007  0.000  -1.038e+02   5.560e+00   6.864e-01   0.000e+00  11  sdss  6287  82S  4 
  256  53975.199448  4  27.024  0.131  0.009  0.000  -1.257e+02   1.486e+01   9.911e-01   0.000e+00  11  sdss  6287  82S  4 
  288  53975.198619  0  22.026  0.540  0.044  0.000   5.936e+00   2.688e+00   2.357e-01   0.000e+00  10  sdss  6287  82S  4 
  288  53996.206345  1  21.722  0.310  0.051  0.000   7.279e+00   2.013e+00   3.370e-01   0.000e+00  10  sdss  6367  82S  4 
  256  53996.203028  2  27.572  0.914  0.091  0.000  -5.527e+00   3.863e+00   4.684e-01   0.000e+00  11  sdss  6367  82S  4 
  288  53996.203858  3  19.632  0.123  0.008  0.000   5.013e+01   5.601e+00   3.614e-01   0.000e+00  11  sdss  6367  82S  4 
  256  53996.205516  4  27.842  0.054  0.004  0.000  -2.671e+02   1.299e+01   9.403e-01   0.000e+00  11  sdss  6367  82S  4 
  424  53996.204687  0  23.109  1.346  0.552  0.000   2.082e+00   2.378e+00   1.152e+00   0.000e+00  10  sdss  6367  82S  4 
  256  53998.174727  1  27.962  0.550  0.075  0.000  -4.364e+00   2.046e+00   2.998e-01   0.000e+00  10  sdss  6377  82S  4 
  288  53998.171410  2  19.373  0.079  0.006  0.000   6.438e+01   4.629e+00   3.598e-01   0.000e+00  11  sdss  6377  82S  4 
  288  53998.172239  3  18.591  0.054  0.002  0.000   1.307e+02   6.381e+00   2.737e-01   0.000e+00  11  sdss  6377  82S  4 
  256  53998.173898  4  27.177  0.097  0.004  0.000  -1.448e+02   1.275e+01   5.496e-01   0.000e+00  11  sdss  6377  82S  4 
  424  53998.173069  0  24.118  1.661  0.804  0.000   5.536e-01   2.366e+00   8.738e-01   0.000e+00  10  sdss  6377  82S  4 
  289  54008.165091  1  21.473  0.280  0.027  0.000   9.162e+00   2.293e+00   2.297e-01   0.000e+00  10  sdss  6417  82S  4 
  256  54008.161774  2  29.574  0.140  0.010  0.000  -3.515e+01   4.473e+00   3.181e-01   0.000e+00  11  sdss  6417  82S  4 
  288  54008.162603  3  20.708  0.379  0.036  0.000   1.859e+01   6.196e+00   6.182e-01   0.000e+00  11  sdss  6417  82S  4 
  256  54008.164261  4  27.636  0.069  0.011  0.000  -2.210e+02   1.376e+01   2.258e+00   0.000e+00  11  sdss  6417  82S  4 
  288  54008.163432  0  22.308  0.811  0.037  0.000   4.552e+00   2.911e+00   1.558e-01   0.000e+00  10  sdss  6417  82S  4 
  289  54010.159771  1  20.692  0.147  0.055  0.000   1.882e+01   2.512e+00   9.380e-01   0.000e+00  10  sdss  6425  82S  4 
  257  54010.156454  2  30.384  0.065  0.010  0.000  -7.412e+01   4.376e+00   6.466e-01   0.000e+00  11  sdss  6425  82S  4 
  256  54010.158942  4  26.961  0.122  0.024  0.000  -1.186e+02   1.307e+01   2.551e+00   0.000e+00  11  sdss  6425  82S  4 
  289  54010.158113  0  22.584  0.966  0.184  0.000   3.500e+00   2.626e+00   6.003e-01   0.000e+00  10  sdss  6425  82S  4 
 1441  54012.152364  1  20.643  0.208  0.077  0.000   1.969e+01   3.698e+00   1.383e+00   0.000e+00  10  sdss  6433  82S  4 
  281  54012.149047  2  29.357  0.187  0.184  0.000  -2.878e+01   4.880e+00   4.854e+00   0.000e+00  11  sdss  6433  82S  4 
  281  54012.149876  3  29.925  0.063  0.131  0.000  -1.079e+02   6.164e+00   1.287e+01   0.000e+00  11  sdss  6433  82S  4 
  293  54012.151535  4  18.377  0.120  0.023  0.000   1.603e+02   1.743e+01   3.322e+00   0.000e+00  11  sdss  6433  82S  4 
  293  54012.150706  0  22.146  1.341  0.390  0.000   5.303e+00   4.622e+00   1.872e+00   0.000e+00  10  sdss  6433  82S  4 
  256  54020.157839  1  29.398  0.139  0.010  0.000  -1.646e+01   2.069e+00   1.573e-01   0.000e+00  10  sdss  6447  82S  4 
  256  54020.154522  2  30.727  0.047  0.003  0.000  -1.016e+02   4.407e+00   2.929e-01   0.000e+00  11  sdss  6447  82S  4 
  256  54020.155351  3  30.313  0.037  0.002  0.000  -1.543e+02   5.138e+00   3.110e-01   0.000e+00  11  sdss  6447  82S  4 
  256  54020.157010  4  27.354  0.088  0.008  0.000  -1.704e+02   1.359e+01   1.242e+00   0.000e+00  11  sdss  6447  82S  4 
  256  54020.156180  0  24.736  1.683  0.148  0.000  -6.870e-02   2.368e+00   1.438e-01   0.000e+00  10  sdss  6447  82S  4 
  268  54022.207081  1  28.595  0.377  0.210  0.000  -7.847e+00   2.605e+00   1.511e+00   0.000e+00  10  sdss  6453  82S  4 
  300  54022.203764  2  18.646  0.049  0.018  0.000   1.258e+02   5.669e+00   2.092e+00   0.000e+00  11  sdss  6453  82S  4 
  280  54022.204593  3  28.181  0.306  0.176  0.000  -2.164e+01   5.895e+00   3.488e+00   0.000e+00  11  sdss  6453  82S  4 
  260  54022.206252  4  27.541  0.118  0.026  0.000  -2.024e+02   2.159e+01   4.837e+00   0.000e+00  11  sdss  6453  82S  4 
 1452  54022.205422  0  23.889  2.003  1.794  0.000   8.184e-01   3.330e+00   2.173e+00   0.000e+00  10  sdss  6453  82S  4 
  288  54028.147521  1  21.634  0.312  0.078  0.000   7.897e+00   2.191e+00   5.597e-01   0.000e+00  10  sdss  6468  82S  4 
  256  54028.144205  2  30.374  0.066  0.016  0.000  -7.344e+01   4.403e+00   1.058e+00   0.000e+00  11  sdss  6468  82S  4 
  256  54028.145034  3  28.497  0.208  0.033  0.000  -2.896e+01   5.434e+00   8.646e-01   0.000e+00  11  sdss  6468  82S  4 
  256  54028.146692  4  27.335  0.093  0.024  0.000  -1.674e+02   1.411e+01   3.628e+00   0.000e+00  11  sdss  6468  82S  4 
  258  54028.145863  0  25.887  1.890  0.760  0.000  -1.449e+00   3.191e+00   1.224e+00   0.000e+00  10  sdss  6468  82S  4 
  256  54030.150443  1  27.091  1.855  0.091  0.000  -1.916e+00   2.463e+00   1.684e-01   0.000e+00  10  sdss  6479  82S  4 
  256  54030.147126  2  30.130  0.070  0.007  0.000  -5.866e+01   3.743e+00   3.530e-01   0.000e+00  11  sdss  6479  82S  4 
  256  54030.147955  3  28.264  0.226  0.017  0.000  -2.335e+01   4.750e+00   3.618e-01   0.000e+00  11  sdss  6479  82S  4 
  256  54030.149614  4  24.724  1.538  0.089  0.000  -1.464e+01   1.643e+01   1.254e+00   0.000e+00  11  sdss  6479  82S  4 
  256  54030.148785  0  26.314  1.105  0.145  0.000  -2.285e+00   2.115e+00   3.267e-01   0.000e+00  10  sdss  6479  82S  4 
  312  54032.139613  1  22.753  0.979  0.505  0.000   2.788e+00   2.085e+00   1.317e+00   0.000e+00  10  sdss  6488  82S  4 
 1432  54032.136297  2  31.376  0.067  0.064  0.000  -1.848e+02   1.135e+01   1.076e+01   0.000e+00  11  sdss  6488  82S  4 
  312  54032.137126  3  18.815  0.062  0.039  0.000   1.064e+02   5.983e+00   3.743e+00   0.000e+00  11  sdss  6488  82S  4 
  284  54032.138784  4  23.870  1.621  1.789  0.000  -5.867e+00   1.235e+01   1.292e+01   0.000e+00  11  sdss  6488  82S  4 
  268  54032.137955  0  26.054  1.496  0.483  0.000  -1.742e+00   2.450e+00   8.814e-01   0.000e+00  10  sdss  6488  82S  4 
 1434  54034.209799  1  30.616  0.078  0.080  0.000  -5.056e+01   3.610e+00   3.683e+00   0.000e+00  10  sdss  6494  82S  4 
 1432  54034.206482  2  31.363  0.087  0.119  0.000  -1.826e+02   1.456e+01   1.990e+01   0.000e+00  11  sdss  6494  82S  4 
  440  54034.207312  3  21.088  0.453  0.955  0.000   1.308e+01   5.144e+00   1.145e+01   0.000e+00  11  sdss  6494  82S  4 
  440  54034.208970  4  20.428  0.725  1.978  0.000   2.397e+01   1.431e+01   4.412e+01   0.000e+00  11  sdss  6494  82S  4 
  258  54034.208141  0  26.313  1.842  0.486  0.000  -2.283e+00   3.453e+00   1.092e+00   0.000e+00  10  sdss  6494  82S  4 
  289  54037.131100  1  21.058  0.196  0.039  0.000   1.344e+01   2.377e+00   4.841e-01   0.000e+00  10  sdss  6508  82S  4 
  280  54037.127783  2  29.602  0.127  0.135  0.000  -3.607e+01   4.162e+00   4.446e+00   0.000e+00  11  sdss  6508  82S  4 
  264  54037.128612  3  29.694  0.068  0.016  0.000  -8.724e+01   5.401e+00   1.303e+00   0.000e+00  11  sdss  6508  82S  4 
  256  54037.130270  4  26.100  0.311  0.035  0.000  -5.357e+01   1.483e+01   1.688e+00   0.000e+00  11  sdss  6508  82S  4 
  292  54037.129441  0  23.419  1.601  0.386  0.000   1.491e+00   2.533e+00   6.334e-01   0.000e+00  10  sdss  6508  82S  4 
  289  54040.145162  1  21.123  0.228  0.038  0.000   1.265e+01   2.597e+00   4.337e-01   0.000e+00  10  sdss  6518  82S  4 
  257  54040.141845  2  29.100  0.227  0.030  0.000  -2.271e+01   4.649e+00   6.227e-01   0.000e+00  11  sdss  6518  82S  4 
  257  54040.142675  3  30.049  0.049  0.005  0.000  -1.210e+02   5.366e+00   5.525e-01   0.000e+00  11  sdss  6518  82S  4 
  256  54040.144333  4  27.228  0.105  0.025  0.000  -1.517e+02   1.445e+01   3.478e+00   0.000e+00  11  sdss  6518  82S  4 
  257  54040.143504  0  27.368  0.824  0.167  0.000  -6.293e+00   3.983e+00   9.449e-01   0.000e+00  10  sdss  6518  82S  4 
 1469  54047.135194  1  19.632  0.199  1.373  0.000   5.000e+01   8.984e+00   6.258e+01   0.000e+00  10  sdss  6528  82S  4 
 1453  54047.131877  2  18.554  5.739  3.432  0.000   1.369e+02   1.609e+02   4.305e+02   0.000e+00  11  sdss  6528  82S  4 
 1437  54047.132706  3  31.583  0.151  1.855  0.000  -4.969e+02   6.801e+01   8.403e+02   0.000e+00  11  sdss  6528  82S  4 
 1437  54047.134365  4  27.678  0.271  1.064  0.000  -2.297e+02   5.530e+01   2.220e+02   0.000e+00  11  sdss  6528  82S  4 
 1445  54047.133535  0  21.021  4.472  1.848  0.000   1.507e+01   3.545e+01   2.480e+01   0.000e+00  10  sdss  6528  82S  4 
  256  54050.128794  1  26.913  1.875  0.506  0.000  -1.609e+00   2.293e+00   7.995e-01   0.000e+00  10  sdss  6542  82S  4 
  256  54050.125477  2  29.970  0.091  0.013  0.000  -5.062e+01   4.205e+00   6.242e-01   0.000e+00  11  sdss  6542  82S  4 
  256  54050.126306  3  30.202  0.045  0.006  0.000  -1.393e+02   5.655e+00   7.689e-01   0.000e+00  11  sdss  6542  82S  4 
  256  54050.127965  4  26.748  0.163  0.038  0.000  -9.745e+01   1.430e+01   3.350e+00   0.000e+00  11  sdss  6542  82S  4 
  256  54050.127136  0  27.033  0.779  0.040  0.000  -4.598e+00   2.848e+00   1.689e-01   0.000e+00  10  sdss  6542  82S  4 
  256  54053.134994  1  28.285  0.400  0.095  0.000  -5.890e+00   2.069e+00   5.139e-01   0.000e+00  10  sdss  6555  82S  4 
  256  54053.131677  2  30.466  0.054  0.005  0.000  -7.993e+01   3.987e+00   3.559e-01   0.000e+00  11  sdss  6555  82S  4 
  256  54053.132506  3  29.130  0.115  0.020  0.000  -5.188e+01   5.417e+00   9.525e-01   0.000e+00  11  sdss  6555  82S  4 
  256  54053.134165  4  27.287  0.096  0.019  0.000  -1.602e+02   1.394e+01   2.720e+00   0.000e+00  11  sdss  6555  82S  4 
  288  54053.133335  0  22.852  1.315  0.177  0.000   2.696e+00   2.707e+00   4.568e-01   0.000e+00  10  sdss  6555  82S  4 
  290  54056.136306  1  22.879  1.555  0.791  0.000   2.474e+00   2.522e+00   1.844e+00   0.000e+00  10  sdss  6568  82S  4 
  386  54056.132989  2  30.234  0.087  0.029  0.000  -6.456e+01   5.112e+00   1.696e+00   0.000e+00  11  sdss  6568  82S  4 
  256  54056.133819  3  30.233  0.053  0.019  0.000  -1.434e+02   6.982e+00   2.541e+00   0.000e+00  11  sdss  6568  82S  4 
  256  54056.135477  4  24.262  1.854  0.572  0.000  -9.169e+00   1.646e+01   5.521e+00   0.000e+00  11  sdss  6568  82S  4 
  290  54056.134648  0  23.091  1.966  0.610  0.000   2.120e+00   3.682e+00   1.292e+00   0.000e+00  10  sdss  6568  82S  4 
  256  54057.104877  1  29.226  0.168  0.022  0.000  -1.405e+01   2.141e+00   2.835e-01   0.000e+00  10  sdss  6571  82S  4 
  256  54057.101560  2  29.563  0.141  0.016  0.000  -3.479e+01   4.460e+00   5.075e-01   0.000e+00  11  sdss  6571  82S  4 
  256  54057.102389  3  29.825  0.062  0.006  0.000  -9.843e+01   5.544e+00   5.389e-01   0.000e+00  11  sdss  6571  82S  4 
  288  54057.104048  4  18.791  0.147  0.038  0.000   1.095e+02   1.455e+01   3.818e+00   0.000e+00  11  sdss  6571  82S  4 
  288  54057.103219  0  22.693  1.029  0.168  0.000   3.149e+00   2.522e+00   4.974e-01   0.000e+00  10  sdss  6571  82S  4 
  288  54059.130271  1  22.392  0.633  0.099  0.000   3.912e+00   2.069e+00   3.594e-01   0.000e+00  10  sdss  6580  82S  4 
  256  54059.126955  2  30.419  0.058  0.009  0.000  -7.654e+01   4.030e+00   6.050e-01   0.000e+00  11  sdss  6580  82S  4 
  256  54059.127784  3  29.537  0.089  0.010  0.000  -7.549e+01   6.121e+00   6.939e-01   0.000e+00  11  sdss  6580  82S  4 
  256  54059.129442  4  26.787  0.145  0.030  0.000  -1.010e+02   1.326e+01   2.781e+00   0.000e+00  11  sdss  6580  82S  4 
  256  54059.128613  0  26.938  0.955  0.121  0.000  -4.201e+00   3.046e+00   4.662e-01   0.000e+00  10  sdss  6580  82S  4 
  256  54061.141052  1  28.139  0.494  0.114  0.000  -5.144e+00   2.190e+00   5.402e-01   0.000e+00  10  sdss  6590  82S  4 
  256  54061.137736  2  30.735  0.046  0.007  0.000  -1.025e+02   4.345e+00   6.914e-01   0.000e+00  11  sdss  6590  82S  4 
  256  54061.138565  3  28.292  0.268  0.038  0.000  -2.397e+01   5.756e+00   8.232e-01   0.000e+00  11  sdss  6590  82S  4 
  256  54061.140223  4  27.594  0.073  0.016  0.000  -2.125e+02   1.402e+01   3.177e+00   0.000e+00  11  sdss  6590  82S  4 
  256  54061.139394  0  26.791  1.160  0.089  0.000  -3.651e+00   3.088e+00   3.013e-01   0.000e+00  10  sdss  6590  82S  4 
  258  54062.134841  1  28.819  0.289  0.142  0.000  -9.650e+00   2.490e+00   1.251e+00   0.000e+00  10  sdss  6596  82S  4 
  258  54062.131524  2  29.093  0.227  0.077  0.000  -2.256e+01   4.620e+00   1.596e+00   0.000e+00  11  sdss  6596  82S  4 
  258  54062.132353  3  29.559  0.083  0.032  0.000  -7.703e+01   5.827e+00   2.263e+00   0.000e+00  11  sdss  6596  82S  4 
  258  54062.134012  4  26.786  0.184  0.103  0.000  -1.009e+02   1.671e+01   9.435e+00   0.000e+00  11  sdss  6596  82S  4 
  258  54062.133182  0  26.998  1.454  0.304  0.000  -4.447e+00   4.178e+00   1.236e+00   0.000e+00  10  sdss  6596  82S  4 
  291  54068.124314  1  23.481  2.429  0.918  0.000   1.374e+00   3.245e+00   1.270e+00   0.000e+00  10  sdss  6615  82S  4 
  259  54068.120997  2  29.812  0.120  0.052  0.000  -4.377e+01   4.798e+00   2.089e+00   0.000e+00  11  sdss  6615  82S  4 
  259  54068.121826  3  29.810  0.069  0.032  0.000  -9.707e+01   6.082e+00   2.871e+00   0.000e+00  11  sdss  6615  82S  4 
  258  54068.123485  4  26.064  0.364  0.180  0.000  -5.181e+01   1.660e+01   8.501e+00   0.000e+00  11  sdss  6615  82S  4 
  259  54068.122655  0  28.032  0.733  0.526  0.000  -1.166e+01   6.659e+00   5.478e+00   0.000e+00  10  sdss  6615  82S  4 
