# SDSS CID:   2608 IAU:          RA:  46.073948 DEC:   0.474138  (J2000)
# GALAXY_SB [ugriz] = [ 19.14 18.69 18.25 17.86 17.58 ] +/- [  0.01  0.00  0.00  0.00  0.00 ] (asinh mag/square arcsec)
# GALAXY_SB_FLUX [ugriz] = [  8.282E+01  1.192E+02  1.814E+02  2.572E+02  3.337E+02 ] +/- [  8.228E-01  3.294E-01  3.942E-01  5.485E-01  1.197E+00 ] (microJy per square arcsec)
#FLAG  MJD       FILT  MAG     MERR  MSKYERR MGALERR  FLUX       FLUXERR    SKYERR     GALERR    NPRE TELE   RUN  STRIP  IDCCD
   32  53622.453649  1  20.170  0.064  0.008  0.042   3.048e+01   1.800e+00   2.231e-01   1.184e+00  14  sdss  5582  82S  5 
   32  53622.450331  2  19.572  0.048  0.005  0.023   5.362e+01   2.379e+00   2.615e-01   1.157e+00  14  sdss  5582  82S  5 
   32  53622.451160  3  19.394  0.059  0.004  0.029   6.238e+01   3.383e+00   2.504e-01   1.675e+00  14  sdss  5582  82S  5 
   32  53622.452819  4  19.022  0.086  0.010  0.051   8.851e+01   7.018e+00   7.900e-01   4.187e+00  13  sdss  5582  82S  5 
   32  53622.451990  0  20.116  0.102  0.005  0.094   3.473e+01   3.228e+00   1.590e-01   3.010e+00  7  sdss  5582  82S  5 
   32  53627.411380  1  20.028  0.052  0.005  0.076   3.474e+01   1.666e+00   1.554e-01   2.439e+00  14  sdss  5607  82S  5 
   32  53627.408063  2  19.637  0.043  0.004  0.036   5.051e+01   2.021e+00   1.922e-01   1.682e+00  14  sdss  5607  82S  5 
   32  53627.408892  3  19.221  0.048  0.007  0.044   7.316e+01   3.213e+00   4.471e-01   2.942e+00  14  sdss  5607  82S  5 
   32  53627.410550  4  19.149  0.102  0.038  0.107   7.871e+01   7.348e+00   2.739e+00   7.753e+00  13  sdss  5607  82S  5 
  160  53627.409721  0  19.932  0.091  0.002  0.146   4.116e+01   3.413e+00   7.123e-02   5.533e+00  7  sdss  5607  82S  5 
   33  53634.404000  1  19.595  0.050  0.019  0.061   5.176e+01   2.360e+00   9.064e-01   2.896e+00  14  sdss  5619  82S  5 
   33  53634.400683  2  19.532  0.058  0.008  0.037   5.564e+01   2.967e+00   4.037e-01   1.903e+00  14  sdss  5619  82S  5 
   33  53634.401512  3  19.293  0.060  0.008  0.036   6.846e+01   3.754e+00   4.750e-01   2.265e+00  14  sdss  5619  82S  5 
   32  53634.403171  4  19.005  0.090  0.013  0.070   8.990e+01   7.441e+00   1.091e+00   5.798e+00  13  sdss  5619  82S  5 
   33  53634.402341  0  19.514  0.078  0.015  0.088   6.049e+01   4.318e+00   8.066e-01   4.892e+00  7  sdss  5619  82S  5 
   33  53638.445642  1  19.407  0.033  0.005  0.025   6.155e+01   1.844e+00   3.081e-01   1.436e+00  14  sdss  5637  82S  5 
   32  53638.442324  2  19.087  0.033  0.004  0.025   8.382e+01   2.524e+00   3.251e-01   1.893e+00  14  sdss  5637  82S  5 
   32  53638.443154  3  18.846  0.040  0.004  0.024   1.034e+02   3.806e+00   4.150e-01   2.279e+00  14  sdss  5637  82S  5 
   32  53638.444812  4  18.775  0.071  0.009  0.046   1.111e+02   7.301e+00   9.467e-01   4.756e+00  13  sdss  5637  82S  5 
   33  53638.443983  0  19.608  0.064  0.004  0.081   5.547e+01   3.240e+00   2.166e-01   4.148e+00  7  sdss  5637  82S  5 
   32  53640.409740  1  19.375  0.031  0.007  0.034   6.339e+01   1.783e+00   3.807e-01   2.007e+00  14  sdss  5646  82S  5 
   32  53640.406423  2  19.117  0.031  0.006  0.028   8.154e+01   2.311e+00   4.648e-01   2.092e+00  14  sdss  5646  82S  5 
   32  53640.407252  3  19.107  0.046  0.007  0.040   8.126e+01   3.472e+00   5.125e-01   3.020e+00  14  sdss  5646  82S  5 
   32  53640.408911  4  18.856  0.080  0.007  0.062   1.031e+02   7.546e+00   6.751e-01   5.915e+00  13  sdss  5646  82S  5 
   40  53640.408082  0  19.624  0.068  0.015  0.095   5.466e+01   3.388e+00   7.657e-01   4.782e+00  7  sdss  5646  82S  5 
   32  53643.452405  1  19.465  0.032  0.012  0.061   5.835e+01   1.699e+00   6.361e-01   3.286e+00  14  sdss  5666  82S  5 
   32  53643.449088  2  19.236  0.032  0.004  0.048   7.308e+01   2.150e+00   2.885e-01   3.241e+00  14  sdss  5666  82S  5 
   32  53643.449917  3  19.046  0.040  0.012  0.050   8.596e+01   3.201e+00   9.589e-01   3.977e+00  14  sdss  5666  82S  5 
   32  53643.451575  4  18.981  0.094  0.009  0.100   9.191e+01   7.925e+00   7.721e-01   8.428e+00  13  sdss  5666  82S  5 
   32  53643.450746  0  19.462  0.066  0.006  0.133   6.345e+01   3.840e+00   3.296e-01   7.723e+00  7  sdss  5666  82S  5 
   32  53646.471769  1  19.660  0.040  0.006  0.031   4.875e+01   1.782e+00   2.843e-01   1.406e+00  14  sdss  5681  82S  5 
   32  53646.468452  2  19.139  0.034  0.006  0.022   7.990e+01   2.483e+00   4.554e-01   1.647e+00  14  sdss  5681  82S  5 
   36  53646.469282  3  19.184  0.057  0.007  0.028   7.570e+01   3.994e+00   5.118e-01   1.938e+00  14  sdss  5681  82S  5 
   32  53646.470940  4  19.003  0.092  0.014  0.043   9.007e+01   7.615e+00   1.148e+00   3.599e+00  13  sdss  5681  82S  5 
   36  53646.470111  0  19.625  0.073  0.002  0.071   5.461e+01   3.676e+00   1.129e-01   3.536e+00  7  sdss  5681  82S  5 
  163  53657.290690  1  19.281  0.065  0.037  0.170   6.912e+01   4.151e+00   2.347e+00   1.084e+01  14  sdss  5730  82S  5 
  163  53657.287373  2  19.309  0.063  0.025  0.131   6.832e+01   3.937e+00   1.566e+00   8.259e+00  14  sdss  5730  82S  5 
 1185  53657.288202  3  18.951  0.127  0.038  0.157   9.382e+01   1.091e+01   3.250e+00   1.357e+01  14  sdss  5730  82S  5 
  162  53657.289861  4  18.653  0.109  0.116  0.219   1.243e+02   1.239e+01   1.324e+01   2.508e+01  13  sdss  5730  82S  5 
   33  53663.472769  1  19.486  0.045  0.004  0.030   5.723e+01   2.395e+00   2.181e-01   1.602e+00  14  sdss  5745  82S  5 
   33  53663.469452  2  19.203  0.040  0.006  0.027   7.533e+01   2.756e+00   4.088e-01   1.900e+00  14  sdss  5745  82S  5 
   33  53663.470281  3  18.932  0.041  0.005  0.029   9.547e+01   3.617e+00   4.507e-01   2.559e+00  14  sdss  5745  82S  5 
   32  53663.471940  4  19.005  0.100  0.007  0.059   8.990e+01   8.246e+00   5.517e-01   4.857e+00  13  sdss  5745  82S  5 
   33  53663.471111  0  19.628  0.115  0.014  0.103   5.446e+01   5.722e+00   6.928e-01   5.154e+00  7  sdss  5745  82S  5 
   57  53664.407930  1  19.210  0.030  0.045  0.024   7.379e+01   2.066e+00   3.049e+00   1.615e+00  14  sdss  5754  82S  5 
   33  53664.404613  2  19.109  0.036  0.011  0.021   8.214e+01   2.699e+00   8.515e-01   1.627e+00  14  sdss  5754  82S  5 
   57  53664.405442  3  19.009  0.040  0.040  0.022   8.894e+01   3.305e+00   3.308e+00   1.797e+00  14  sdss  5754  82S  5 
   32  53664.407101  4  18.732  0.070  0.013  0.041   1.156e+02   7.474e+00   1.408e+00   4.380e+00  13  sdss  5754  82S  5 
  161  53664.406272  0  19.353  0.070  0.011  0.056   7.016e+01   4.474e+00   7.044e-01   3.607e+00  7  sdss  5754  82S  5 
   33  53665.472710  1  19.265  0.030  0.006  0.025   7.015e+01   1.966e+00   4.145e-01   1.605e+00  14  sdss  5760  82S  5 
   33  53665.469393  2  19.145  0.039  0.004  0.024   7.946e+01   2.830e+00   3.075e-01   1.766e+00  14  sdss  5760  82S  5 
   33  53665.470222  3  18.865  0.038  0.004  0.020   1.016e+02   3.562e+00   3.864e-01   1.878e+00  14  sdss  5760  82S  5 
   33  53665.471881  4  18.910  0.091  0.016  0.047   9.814e+01   8.168e+00   1.489e+00   4.250e+00  13  sdss  5760  82S  5 
   41  53665.471051  0  19.236  0.064  0.018  0.054   7.814e+01   4.611e+00   1.291e+00   3.908e+00  7  sdss  5760  82S  5 
   33  53668.461442  1  19.238  0.028  0.005  0.058   7.191e+01   1.885e+00   3.385e-01   3.862e+00  14  sdss  5771  82S  5 
   32  53668.458125  2  18.922  0.033  0.007  0.039   9.758e+01   3.012e+00   6.068e-01   3.550e+00  14  sdss  5771  82S  5 
   32  53668.458954  3  18.693  0.041  0.011  0.050   1.190e+02   4.463e+00   1.161e+00   5.449e+00  14  sdss  5771  82S  5 
   32  53668.460613  4  18.739  0.086  0.026  0.101   1.149e+02   9.078e+00   2.795e+00   1.064e+01  13  sdss  5771  82S  5 
   33  53668.459783  0  19.308  0.068  0.005  0.151   7.313e+01   4.524e+00   3.671e-01   1.014e+01  7  sdss  5771  82S  5 
   32  53669.367120  1  19.399  0.033  0.013  0.063   6.200e+01   1.858e+00   7.245e-01   3.572e+00  14  sdss  5776  82S  5 
   32  53669.363803  2  19.087  0.032  0.006  0.046   8.382e+01   2.449e+00   4.977e-01   3.574e+00  14  sdss  5776  82S  5 
   32  53669.364632  3  18.880  0.036  0.002  0.040   1.002e+02   3.337e+00   2.122e-01   3.712e+00  14  sdss  5776  82S  5 
   32  53669.366290  4  18.863  0.089  0.042  0.145   1.025e+02   8.418e+00   3.971e+00   1.367e+01  13  sdss  5776  82S  5 
   40  53669.365461  0  19.521  0.066  0.035  0.174   6.010e+01   3.649e+00   1.927e+00   9.620e+00  7  sdss  5776  82S  5 
   32  53670.467479  1  19.340  0.035  0.009  0.043   6.547e+01   2.136e+00   5.672e-01   2.600e+00  14  sdss  5782  82S  5 
   32  53670.464162  2  19.184  0.036  0.006  0.035   7.666e+01   2.525e+00   4.229e-01   2.478e+00  14  sdss  5782  82S  5 
   32  53670.464992  3  18.758  0.031  0.007  0.028   1.121e+02   3.210e+00   6.800e-01   2.918e+00  14  sdss  5782  82S  5 
   32  53670.466650  4  18.703  0.070  0.014  0.058   1.187e+02   7.663e+00   1.575e+00   6.386e+00  13  sdss  5782  82S  5 
   32  53670.465821  0  19.611  0.083  0.006  0.134   5.531e+01   4.215e+00   2.797e-01   6.804e+00  7  sdss  5782  82S  5 
   32  53671.452258  1  19.308  0.038  0.003  0.031   6.742e+01   2.383e+00   1.829e-01   1.940e+00  14  sdss  5786  82S  5 
   32  53671.448941  2  18.864  0.030  0.002  0.017   1.029e+02   2.891e+00   2.364e-01   1.568e+00  14  sdss  5786  82S  5 
   32  53671.449771  3  18.862  0.040  0.006  0.022   1.019e+02   3.754e+00   6.050e-01   2.095e+00  14  sdss  5786  82S  5 
   32  53671.451429  4  18.666  0.068  0.014  0.037   1.229e+02   7.694e+00   1.546e+00   4.181e+00  13  sdss  5786  82S  5 
   40  53671.450600  0  19.665  0.083  0.023  0.081   5.263e+01   4.020e+00   1.100e+00   3.921e+00  7  sdss  5786  82S  5 
   32  53674.351632  1  19.707  0.041  0.011  0.077   4.669e+01   1.752e+00   4.553e-01   3.308e+00  14  sdss  5797  82S  5 
   32  53674.348315  2  19.287  0.037  0.003  0.042   6.972e+01   2.369e+00   1.973e-01   2.673e+00  14  sdss  5797  82S  5 
   32  53674.349144  3  19.065  0.040  0.005  0.051   8.446e+01   3.075e+00   3.543e-01   3.946e+00  14  sdss  5797  82S  5 
   32  53674.350803  4  18.781  0.074  0.019  0.076   1.105e+02   7.559e+00   1.906e+00   7.694e+00  13  sdss  5797  82S  5 
   40  53674.349974  0  20.070  0.098  0.039  0.244   3.624e+01   3.261e+00   1.290e+00   8.101e+00  7  sdss  5797  82S  5 
   32  53676.441072  1  19.875  0.052  0.007  0.038   3.999e+01   1.908e+00   2.657e-01   1.384e+00  14  sdss  5807  82S  5 
   32  53676.437754  2  19.406  0.052  0.006  0.025   6.248e+01   2.981e+00   3.447e-01   1.451e+00  14  sdss  5807  82S  5 
   32  53676.438584  3  19.363  0.060  0.007  0.033   6.419e+01   3.531e+00   4.400e-01   1.967e+00  14  sdss  5807  82S  5 
   32  53676.440242  4  19.152  0.107  0.016  0.043   7.849e+01   7.750e+00   1.142e+00   3.093e+00  13  sdss  5807  82S  5 
   40  53676.439413  0  21.431  0.382  0.071  0.373   1.032e+01   3.494e+00   6.714e-01   3.553e+00  7  sdss  5807  82S  5 
   32  53679.412906  1  20.098  0.054  0.020  0.101   3.257e+01   1.625e+00   5.860e-01   3.027e+00  14  sdss  5820  82S  5 
   32  53679.409589  2  19.855  0.058  0.013  0.087   4.132e+01   2.193e+00   5.075e-01   3.330e+00  14  sdss  5820  82S  5 
   32  53679.410418  3  19.535  0.062  0.016  0.094   5.479e+01   3.144e+00   8.232e-01   4.730e+00  14  sdss  5820  82S  5 
   32  53679.412077  4  19.155  0.109  0.030  0.121   7.828e+01   7.871e+00   2.129e+00   8.707e+00  13  sdss  5820  82S  5 
   32  53679.411247  0  20.524  0.162  0.030  0.376   2.385e+01   3.518e+00   6.559e-01   8.246e+00  7  sdss  5820  82S  5 
   32  53681.404373  1  19.997  0.052  0.005  0.049   3.574e+01   1.712e+00   1.715e-01   1.624e+00  14  sdss  5836  82S  5 
   32  53681.401056  2  19.814  0.057  0.008  0.048   4.291e+01   2.234e+00   2.976e-01   1.900e+00  14  sdss  5836  82S  5 
   32  53681.401885  3  19.577  0.067  0.009  0.045   5.270e+01   3.267e+00   4.228e-01   2.206e+00  14  sdss  5836  82S  5 
   32  53681.403544  4  19.156  0.107  0.015  0.057   7.820e+01   7.724e+00   1.116e+00   4.118e+00  13  sdss  5836  82S  5 
   32  53681.402714  0  20.574  0.168  0.009  0.187   2.278e+01   3.492e+00   1.802e-01   3.906e+00  7  sdss  5836  82S  5 
   36  53684.365985  1  19.727  0.063  0.005  0.048   4.584e+01   2.639e+00   2.048e-01   2.007e+00  14  sdss  5847  82S  5 
   60  53684.362668  2  19.738  0.089  0.140  0.057   4.602e+01   3.768e+00   5.953e+00   2.435e+00  14  sdss  5847  82S  5 
   36  53684.363498  3  19.432  0.076  0.026  0.053   6.024e+01   4.191e+00   1.422e+00   2.958e+00  14  sdss  5847  82S  5 
   36  53684.365156  4  19.485  0.273  0.095  0.114   5.771e+01   1.425e+01   5.056e+00   6.062e+00  13  sdss  5847  82S  5 
  164  53684.364327  0  20.098  0.172  0.011  0.189   3.532e+01   5.524e+00   3.537e-01   6.111e+00  7  sdss  5847  82S  5 
 1185  53687.307241  1  19.598  0.079  0.020  0.077   5.162e+01   3.771e+00   9.327e-01   3.657e+00  14  sdss  5871  82S  5 
   33  53687.303924  2  19.336  0.051  0.030  0.078   6.664e+01   3.113e+00   1.871e+00   4.777e+00  14  sdss  5871  82S  5 
   33  53687.304753  3  19.108  0.054  0.031  0.075   8.118e+01   4.051e+00   2.325e+00   5.574e+00  14  sdss  5871  82S  5 
   32  53687.306411  4  19.091  0.113  0.026  0.139   8.304e+01   8.620e+00   1.974e+00   1.066e+01  13  sdss  5871  82S  5 
   33  53687.305582  0  19.465  0.097  0.012  0.159   6.328e+01   5.593e+00   7.029e-01   9.220e+00  7  sdss  5871  82S  5 
   33  53696.370070  1  19.295  0.029  0.004  0.024   6.824e+01   1.853e+00   2.357e-01   1.523e+00  14  sdss  5889  82S  5 
  160  53696.366753  2  18.767  0.043  0.005  0.018   1.125e+02   4.489e+00   5.165e-01   1.910e+00  14  sdss  5889  82S  5 
   32  53696.367582  3  18.913  0.036  0.004  0.022   9.716e+01   3.244e+00   3.918e-01   1.946e+00  14  sdss  5889  82S  5 
   32  53696.369240  4  19.111  0.098  0.019  0.050   8.153e+01   7.375e+00   1.439e+00   3.762e+00  13  sdss  5889  82S  5 
   41  53696.368411  0  19.404  0.061  0.012  0.064   6.694e+01   3.740e+00   7.476e-01   3.955e+00  7  sdss  5889  82S  5 
   33  53697.361145  1  19.262  0.027  0.003  0.026   7.034e+01   1.718e+00   1.904e-01   1.680e+00  14  sdss  5895  82S  5 
   32  53697.357828  2  19.144  0.034  0.006  0.029   7.953e+01   2.472e+00   4.269e-01   2.095e+00  14  sdss  5895  82S  5 
   32  53697.358657  3  18.949  0.037  0.006  0.027   9.399e+01   3.229e+00   5.336e-01   2.368e+00  14  sdss  5895  82S  5 
   32  53697.360316  4  18.833  0.072  0.014  0.049   1.053e+02   6.946e+00   1.320e+00   4.727e+00  13  sdss  5895  82S  5 
   33  53697.359487  0  19.347  0.065  0.006  0.077   7.055e+01   4.181e+00   4.061e-01   4.969e+00  7  sdss  5895  82S  5 
   32  53700.359945  1  19.189  0.027  0.004  0.042   7.523e+01   1.900e+00   2.967e-01   2.892e+00  14  sdss  5905  82S  5 
   32  53700.356628  2  18.939  0.028  0.005  0.028   9.606e+01   2.444e+00   4.811e-01   2.454e+00  14  sdss  5905  82S  5 
   32  53700.357458  3  18.692  0.033  0.007  0.035   1.191e+02   3.610e+00   7.946e-01   3.783e+00  14  sdss  5905  82S  5 
   32  53700.359116  4  18.599  0.067  0.014  0.063   1.308e+02   8.038e+00   1.712e+00   7.616e+00  13  sdss  5905  82S  5 
   32  53700.358287  0  19.242  0.055  0.005  0.116   7.771e+01   3.890e+00   3.794e-01   8.264e+00  7  sdss  5905  82S  5 
   32  53705.346624  1  19.289  0.029  0.002  0.050   6.861e+01   1.801e+00   1.555e-01   3.184e+00  14  sdss  5924  82S  5 
   32  53705.343307  2  19.126  0.035  0.007  0.040   8.086e+01   2.585e+00   5.476e-01   2.996e+00  14  sdss  5924  82S  5 
   32  53705.344136  3  18.817  0.035  0.007  0.033   1.062e+02   3.429e+00   6.364e-01   3.238e+00  14  sdss  5924  82S  5 
   32  53705.345795  4  18.656  0.069  0.022  0.060   1.240e+02   7.872e+00   2.544e+00   6.872e+00  13  sdss  5924  82S  5 
   32  53705.344965  0  19.706  0.080  0.008  0.173   5.069e+01   3.698e+00   3.755e-01   8.055e+00  7  sdss  5924  82S  5 
