# SDSS CID:  14053 IAU:          RA: 336.672668 DEC:  -1.238934  (J2000)
# GALAXY_SB [ugriz] = [ 24.08 23.88 23.54 23.10 22.49 ] +/- [  0.52  0.09  0.07  0.07  0.12 ] (asinh mag/square arcsec)
# GALAXY_SB_FLUX [ugriz] = [  5.558E-01  8.943E-01  1.246E+00  1.864E+00  1.693E+00 ] +/- [  5.714E-01  9.394E-02  1.046E-01  1.370E-01  6.158E-01 ] (microJy per square arcsec)
#FLAG  MJD       FILT  MAG     MERR  MSKYERR MGALERR  FLUX       FLUXERR    SKYERR     GALERR    NPRE TELE   RUN  STRIP  IDCCD
    0  53975.240291  1  22.645  0.196  0.138  0.232   3.085e+00   5.561e-01   3.974e-01   6.648e-01  11  sdss  6287  82S  1 
    0  53975.236974  2  22.344  0.197  0.022  0.105   4.126e+00   7.557e-01   8.342e-02   4.051e-01  11  sdss  6287  82S  1 
   32  53975.237803  3  22.394  0.345  0.098  0.143   3.833e+00   1.246e+00   3.632e-01   5.300e-01  11  sdss  6287  82S  1 
    0  53975.239461  4  23.141  0.849  0.460  0.691  -1.525e+00   4.681e+00   2.336e+00   3.505e+00  11  sdss  6287  82S  1 
  128  53975.238632  0  22.713  0.547  0.121  1.284   3.090e+00   1.480e+00   3.480e-01   3.702e+00  7  sdss  6287  82S  1 
    0  53993.307995  1  23.205  0.365  0.140  0.283   1.808e+00   6.201e-01   2.447e-01   4.951e-01  11  sdss  6348  82S  1 
    0  53993.304678  2  22.655  0.265  0.095  0.128   3.073e+00   7.619e-01   2.785e-01   3.753e-01  11  sdss  6348  82S  1 
    0  53993.305508  3  22.195  0.275  0.086  0.096   4.643e+00   1.193e+00   3.796e-01   4.256e-01  11  sdss  6348  82S  1 
   32  53993.307166  4  21.969  0.576  0.059  0.364   4.671e+00   3.707e+00   3.800e-01   2.359e+00  11  sdss  6348  82S  1 
    0  53993.306337  0  23.417  1.075  0.144  1.969   1.495e+00   1.631e+00   2.356e-01   3.215e+00  7  sdss  6348  82S  1 
    0  53996.246797  1  22.817  0.219  0.023  0.230   2.622e+00   5.330e-01   5.597e-02   5.658e-01  11  sdss  6367  82S  1 
    0  53996.243480  2  22.451  0.212  0.099  0.121   3.730e+00   7.364e-01   3.478e-01   4.263e-01  11  sdss  6367  82S  1 
   32  53996.244309  3  22.455  0.343  0.184  0.190   3.612e+00   1.178e+00   6.485e-01   6.690e-01  11  sdss  6367  82S  1 
    0  53996.245968  4  21.215  0.347  0.207  0.289   1.115e+01   3.830e+00   2.333e+00   3.268e+00  11  sdss  6367  82S  1 
  160  53996.245138  0  24.198  1.239  0.194  3.956   4.675e-01   1.523e+00   2.044e-01   4.163e+00  7  sdss  6367  82S  1 
    0  53998.215217  1  22.693  0.193  0.043  0.164   2.949e+00   5.261e-01   1.195e-01   4.518e-01  11  sdss  6377  82S  1 
    0  53998.211900  2  22.296  0.189  0.057  0.108   4.317e+00   7.560e-01   2.301e-01   4.365e-01  11  sdss  6377  82S  1 
   32  53998.212729  3  22.273  0.282  0.097  0.119   4.308e+00   1.141e+00   3.996e-01   4.907e-01  11  sdss  6377  82S  1 
   32  53998.214388  4  21.911  0.543  0.069  0.371   5.057e+00   3.606e+00   4.619e-01   2.494e+00  11  sdss  6377  82S  1 
    8  53998.213559  0  24.847  1.185  0.606  3.234  -1.767e-01   1.396e+00   5.947e-01   3.174e+00  7  sdss  6377  82S  1 
    0  54005.245327  1  23.183  0.291  0.122  0.253   1.847e+00   5.093e-01   2.179e-01   4.505e-01  11  sdss  6402  82S  1 
    0  54005.242010  2  22.275  0.185  0.029  0.107   4.403e+00   7.548e-01   1.179e-01   4.387e-01  11  sdss  6402  82S  1 
   32  54005.242839  3  22.296  0.287  0.072  0.117   4.214e+00   1.139e+00   2.901e-01   4.723e-01  11  sdss  6402  82S  1 
    0  54005.244497  4  21.468  0.410  0.191  0.266   8.549e+00   3.683e+00   1.760e+00   2.451e+00  11  sdss  6402  82S  1 
  128  54005.243668  0  25.991  0.887  0.061  1.862  -1.628e+00   1.419e+00   1.053e-01   3.218e+00  7  sdss  6402  82S  1 
   32  54008.205760  1  23.063  0.356  0.148  0.328   2.072e+00   6.824e-01   2.934e-01   6.493e-01  11  sdss  6417  82S  1 
 1080  54008.202443  2  22.528  0.370  2.395  0.177   3.467e+00   1.173e+00   7.850e+00   5.819e-01  11  sdss  6417  82S  1 
   40  54008.203273  3  22.718  0.518  0.774  0.278   2.780e+00   1.385e+00   2.177e+00   7.834e-01  11  sdss  6417  82S  1 
    0  54008.204931  4  21.391  0.435  0.243  0.320   9.286e+00   4.126e+00   2.374e+00   3.128e+00  11  sdss  6417  82S  1 
  128  54008.204102  0  24.721  1.410  0.166  4.692  -5.415e-02   1.785e+00   1.614e-01   4.551e+00  7  sdss  6417  82S  1 
   33  54010.200050  1  23.888  0.956  0.261  0.407   8.893e-01   8.910e-01   2.614e-01   4.079e-01  11  sdss  6425  82S  1 
    1  54010.196733  2  22.596  0.312  0.068  0.109   3.250e+00   9.408e-01   2.085e-01   3.360e-01  11  sdss  6425  82S  1 
   32  54010.197563  3  22.232  0.303  0.088  0.104   4.482e+00   1.270e+00   3.761e-01   4.442e-01  11  sdss  6425  82S  1 
   32  54010.199221  4  21.955  0.572  0.057  0.372   4.763e+00   3.709e+00   3.735e-01   2.431e+00  11  sdss  6425  82S  1 
    9  54010.198392  0  22.901  1.021  0.527  1.291   2.568e+00   2.133e+00   1.294e+00   3.171e+00  7  sdss  6425  82S  1 
  129  54012.192674  1  22.591  0.586  0.304  0.095   3.246e+00   1.624e+00   9.153e-01   2.875e-01  11  sdss  6433  82S  1 
   33  54012.189357  2  22.969  0.730  0.112  0.118   2.267e+00   1.466e+00   2.486e-01   2.620e-01  11  sdss  6433  82S  1 
   33  54012.190186  3  23.070  0.849  0.126  0.148   1.917e+00   1.673e+00   2.678e-01   3.136e-01  11  sdss  6433  82S  1 
    0  54012.191844  4  21.667  0.561  0.101  0.212   6.843e+00   4.309e+00   7.989e-01   1.680e+00  11  sdss  6433  82S  1 
  129  54012.191015  0  26.321  1.786  0.143  0.994  -2.301e+00   3.323e+00   3.208e-01   2.229e+00  7  sdss  6433  82S  1 
   33  54020.198264  1  24.673  0.878  0.360  0.719   2.694e-01   6.026e-01   2.297e-01   4.586e-01  11  sdss  6447  82S  1 
    0  54020.194947  2  22.467  0.261  0.172  0.132   3.674e+00   8.886e-01   5.949e-01   4.571e-01  11  sdss  6447  82S  1 
    0  54020.195776  3  22.116  0.283  0.104  0.108   5.006e+00   1.315e+00   4.946e-01   5.116e-01  11  sdss  6447  82S  1 
   32  54020.197434  4  22.055  0.696  0.224  0.411   4.123e+00   4.306e+00   1.382e+00   2.530e+00  11  sdss  6447  82S  1 
    0  54020.196605  0  23.321  1.010  0.086  1.790   1.662e+00   1.615e+00   1.515e-01   3.138e+00  7  sdss  6447  82S  1 
   32  54022.247529  1  24.578  0.705  0.049  0.553   3.311e-01   4.824e-01   3.269e-02   3.660e-01  11  sdss  6453  82S  1 
    0  54022.244213  2  22.447  0.212  0.032  0.102   3.744e+00   7.378e-01   1.143e-01   3.589e-01  11  sdss  6453  82S  1 
    0  54022.245042  3  22.083  0.230  0.063  0.073   5.166e+00   1.111e+00   3.087e-01   3.585e-01  11  sdss  6453  82S  1 
   32  54022.246700  4  21.679  0.463  0.183  0.273   6.748e+00   3.559e+00   1.438e+00   2.142e+00  11  sdss  6453  82S  1 
    8  54022.245871  0  25.817  0.952  0.461  1.945  -1.337e+00   1.379e+00   7.014e-01   2.963e+00  7  sdss  6453  82S  1 
    0  54028.188041  1  23.202  0.302  0.154  0.264   1.813e+00   5.191e-01   2.708e-01   4.625e-01  11  sdss  6468  82S  1 
   32  54028.184724  2  22.665  0.283  0.069  0.140   3.043e+00   8.065e-01   2.006e-01   4.066e-01  11  sdss  6468  82S  1 
   32  54028.185553  3  22.400  0.378  0.129  0.179   3.811e+00   1.351e+00   4.764e-01   6.598e-01  11  sdss  6468  82S  1 
    0  54028.187211  4  21.361  0.468  0.302  0.324   9.585e+00   4.525e+00   3.025e+00   3.250e+00  11  sdss  6468  82S  1 
  128  54028.186382  0  25.459  1.197  0.180  2.941  -8.391e-01   1.549e+00   2.195e-01   3.581e+00  7  sdss  6468  82S  1 
   32  54030.191409  1  24.207  0.624  0.075  0.465   6.020e-01   4.957e-01   6.052e-02   3.744e-01  11  sdss  6479  82S  1 
    0  54030.188092  2  22.548  0.232  0.082  0.102   3.402e+00   7.371e-01   2.627e-01   3.276e-01  11  sdss  6479  82S  1 
    0  54030.188921  3  22.146  0.251  0.081  0.079   4.866e+00   1.140e+00   3.753e-01   3.671e-01  11  sdss  6479  82S  1 
   32  54030.190580  4  21.706  0.503  0.234  0.287   6.536e+00   3.782e+00   1.808e+00   2.209e+00  11  sdss  6479  82S  1 
    8  54030.189751  0  25.291  1.134  0.689  2.436  -6.398e-01   1.394e+00   7.720e-01   2.729e+00  7  sdss  6479  82S  1 
   34  54035.266732  1  23.691  0.783  0.388  1.334   1.105e+00   8.418e-01   4.521e-01   1.555e+00  11  sdss  6501  82S  1 
   34  54035.263416  2  22.538  0.461  0.395  0.514   3.435e+00   1.421e+00   1.285e+00   1.670e+00  11  sdss  6501  82S  1 
   32  54035.264245  3  22.539  0.601  0.548  0.501   3.326e+00   1.828e+00   1.794e+00   1.639e+00  11  sdss  6501  82S  1 
   32  54035.265903  4  22.224  1.011  1.068  1.198   3.125e+00   6.112e+00   6.036e+00   6.770e+00  11  sdss  6501  82S  1 
  130  54035.265074  0  21.843  0.458  0.204  1.564   7.042e+00   2.718e+00   1.279e+00   9.801e+00  7  sdss  6501  82S  1 
    1  54037.171700  1  23.270  0.423  0.128  0.246   1.695e+00   6.721e-01   2.120e-01   4.075e-01  11  sdss  6508  82S  1 
   56  54037.168383  2  22.681  0.326  0.568  0.129   2.996e+00   9.096e-01   1.627e+00   3.679e-01  11  sdss  6508  82S  1 
   24  54037.169212  3  22.118  0.283  0.418  0.101   4.997e+00   1.313e+00   1.981e+00   4.806e-01  11  sdss  6508  82S  1 
   32  54037.170871  4  22.365  0.739  0.644  0.464   2.351e+00   4.129e+00   3.434e+00   2.475e+00  11  sdss  6508  82S  1 
  136  54037.170041  0  22.967  0.791  0.224  1.377   2.405e+00   1.654e+00   5.200e-01   3.202e+00  7  sdss  6508  82S  1 
   33  54040.186211  1  23.527  1.922  0.549  0.618   1.310e+00   2.194e+00   7.302e-01   8.228e-01  11  sdss  6518  82S  1 
    1  54040.182894  2  22.136  0.406  0.166  0.108   5.015e+00   1.814e+00   7.771e-01   5.056e-01  11  sdss  6518  82S  1 
   33  54040.183723  3  22.322  0.544  0.278  0.127   4.110e+00   2.012e+00   1.100e+00   5.032e-01  11  sdss  6518  82S  1 
   33  54040.185382  4  22.749  1.032  0.533  0.653   4.081e-01   5.832e+00   2.605e+00   3.196e+00  11  sdss  6518  82S  1 
    1  54040.184552  0  22.085  0.929  0.140  0.824   5.616e+00   3.854e+00   7.022e-01   4.143e+00  7  sdss  6518  82S  1 
   34  54050.169888  1  22.609  0.288  0.416  0.618   3.192e+00   8.348e-01   1.235e+00   1.834e+00  11  sdss  6542  82S  1 
   34  54050.166572  2  22.512  0.456  0.217  0.647   3.521e+00   1.441e+00   7.229e-01   2.150e+00  11  sdss  6542  82S  1 
   32  54050.167401  3  21.902  0.337  0.436  0.321   6.130e+00   1.883e+00   2.508e+00   1.844e+00  11  sdss  6542  82S  1 
   32  54050.169059  4  21.470  0.769  0.853  0.835   8.531e+00   6.572e+00   7.843e+00   7.676e+00  11  sdss  6542  82S  1 
  170  54050.168230  0  23.397  1.437  2.049  6.459   1.528e+00   2.230e+00   3.394e+00   1.069e+01  7  sdss  6542  82S  1 
   34  54053.175664  1  23.383  0.510  0.098  0.924   1.515e+00   7.265e-01   1.472e-01   1.387e+00  11  sdss  6555  82S  1 
   32  54053.172347  2  22.857  0.393  0.256  0.320   2.530e+00   9.307e-01   6.285e-01   7.862e-01  11  sdss  6555  82S  1 
   32  54053.173177  3  22.028  0.276  0.069  0.164   5.443e+00   1.390e+00   3.546e-01   8.437e-01  11  sdss  6555  82S  1 
   32  54053.174835  4  22.193  0.869  0.700  0.916   3.303e+00   5.186e+00   4.018e+00   5.251e+00  11  sdss  6555  82S  1 
 1152  54053.174006  0  23.053  0.918  0.247  3.099   2.203e+00   1.758e+00   5.354e-01   6.710e+00  7  sdss  6555  82S  1 
   34  54056.176979  1  24.067  0.958  0.497  1.736   7.203e-01   8.146e-01   4.379e-01   1.531e+00  11  sdss  6568  82S  1 
   34  54056.173662  2  22.705  0.618  0.304  0.799   2.929e+00   1.588e+00   8.523e-01   2.239e+00  11  sdss  6568  82S  1 
  160  54056.174491  3  22.162  0.480  0.358  0.472   4.792e+00   2.069e+00   1.631e+00   2.151e+00  11  sdss  6568  82S  1 
   32  54056.176150  4  22.223  1.059  0.911  1.101   3.130e+00   6.455e+00   5.156e+00   6.223e+00  11  sdss  6568  82S  1 
  130  54056.175320  0  27.088  0.785  0.105  3.217  -4.842e+00   2.976e+00   4.572e-01   1.404e+01  7  sdss  6568  82S  1 
    0  54057.145550  1  23.559  0.426  0.177  0.382   1.268e+00   5.342e-01   2.298e-01   4.950e-01  11  sdss  6571  82S  1 
   32  54057.142233  2  22.646  0.297  0.118  0.179   3.099e+00   8.568e-01   3.484e-01   5.296e-01  11  sdss  6571  82S  1 
    0  54057.143062  3  21.980  0.252  0.061  0.107   5.695e+00   1.332e+00   3.254e-01   5.725e-01  11  sdss  6571  82S  1 
    0  54057.144721  4  21.455  0.470  0.157  0.267   8.671e+00   4.230e+00   1.458e+00   2.488e+00  11  sdss  6571  82S  1 
  128  54057.143892  0  23.711  1.150  0.212  3.119   1.048e+00   1.548e+00   2.832e-01   4.170e+00  7  sdss  6571  82S  1 
   32  54059.170943  1  24.264  0.888  0.578  1.421   5.564e-01   6.910e-01   4.489e-01   1.104e+00  11  sdss  6580  82S  1 
   32  54059.167626  2  22.467  0.274  0.151  0.210   3.674e+00   9.317e-01   5.226e-01   7.278e-01  11  sdss  6580  82S  1 
   32  54059.168455  3  22.599  0.463  0.160  0.249   3.134e+00   1.378e+00   4.989e-01   7.751e-01  11  sdss  6580  82S  1 
   32  54059.170114  4  22.252  0.912  0.932  1.006   2.972e+00   5.384e+00   5.202e+00   5.616e+00  11  sdss  6580  82S  1 
    0  54059.169284  0  25.886  1.287  0.200  4.231  -1.447e+00   1.935e+00   3.197e-01   6.765e+00  7  sdss  6580  82S  1 
   32  54061.181721  1  23.553  0.528  0.447  0.700   1.276e+00   6.551e-01   5.818e-01   9.119e-01  11  sdss  6590  82S  1 
   32  54061.178404  2  22.470  0.274  0.046  0.190   3.664e+00   9.299e-01   1.582e-01   6.567e-01  11  sdss  6590  82S  1 
   32  54061.179233  3  22.173  0.333  0.169  0.174   4.741e+00   1.461e+00   7.621e-01   7.854e-01  11  sdss  6590  82S  1 
  128  54061.180891  4  21.129  0.425  0.238  0.310   1.217e+01   4.969e+00   2.887e+00   3.757e+00  11  sdss  6590  82S  1 
  128  54061.180062  0  26.166  1.090  0.165  3.582  -1.964e+00   1.895e+00   3.267e-01   7.090e+00  7  sdss  6590  82S  1 
    0  54062.175508  1  26.081  0.893  0.608  1.469  -6.444e-01   7.284e-01   5.050e-01   1.222e+00  11  sdss  6596  82S  1 
   32  54062.172191  2  22.378  0.299  0.195  0.280   3.997e+00   1.094e+00   7.312e-01   1.048e+00  11  sdss  6596  82S  1 
   32  54062.173021  3  22.153  0.365  0.218  0.232   4.833e+00   1.624e+00   1.001e+00   1.066e+00  11  sdss  6596  82S  1 
    0  54062.174679  4  21.009  0.469  0.315  0.425   1.371e+01   6.018e+00   4.236e+00   5.718e+00  11  sdss  6596  82S  1 
    2  54062.173850  0  26.933  0.585  0.096  2.029  -4.181e+00   2.052e+00   3.632e-01   7.709e+00  7  sdss  6596  82S  1 
    3  54068.164959  1  26.460  1.980  1.289  1.102  -1.007e+00   2.148e+00   1.405e+00   1.201e+00  11  sdss  6615  82S  1 
   33  54068.161643  2  24.486  1.859  4.043  1.670   2.564e-01   2.338e+00   3.367e+00   1.391e+00  11  sdss  6615  82S  1 
   35  54068.162472  3  22.885  1.416  1.062  0.788   2.340e+00   2.977e+00   2.605e+00   1.932e+00  11  sdss  6615  82S  1 
   32  54068.164130  4  22.766  1.271  1.179  1.508   3.243e-01   7.719e+00   5.764e+00   7.366e+00  11  sdss  6615  82S  1 
  129  54068.163301  0  21.740  2.397  0.148  1.775   7.751e+00   8.631e+00   1.015e+00   1.221e+01  7  sdss  6615  82S  1 
