# SDSS CID:  16046 IAU:          RA:  48.497280 DEC:  -1.225594  (J2000)
# GALAXY_SB [ugriz] = [ 23.77 24.81 24.57 23.98 22.76 ] +/- [  0.33  0.12  0.11  0.10  0.11 ] (asinh mag/square arcsec)
# GALAXY_SB_FLUX [ugriz] = [  9.283E-01  1.814E-01  1.886E-01  4.566E-01  3.425E-01 ] +/- [  4.289E-01  7.623E-02  8.907E-02  1.227E-01  5.506E-01 ] (microJy per square arcsec)
#FLAG  MJD       FILT  MAG     MERR  MSKYERR MGALERR  FLUX       FLUXERR    SKYERR     GALERR    NPRE TELE   RUN  STRIP  IDCCD
    2  53975.435006  1  25.444  1.002  0.462  2.350  -1.945e-01   6.911e-01   2.837e-01   1.445e+00  12  sdss  6287  82S  1 
    2  53975.431689  2  26.316  0.760  0.409  1.105  -1.641e+00   1.186e+00   6.954e-01   1.881e+00  12  sdss  6287  82S  1 
   34  53975.432518  3  24.101  1.144  1.240  1.587   3.119e-01   1.638e+00   1.510e+00   1.933e+00  12  sdss  6287  82S  1 
   34  53975.434177  4  22.352  1.254  2.943  3.051   2.422e+00   7.820e+00   1.576e+01   1.634e+01  12  sdss  6287  82S  1 
   32  53994.459536  1  24.720  0.883  0.301  0.880   2.398e-01   6.006e-01   1.887e-01   5.522e-01  12  sdss  6355  82S  1 
    0  53994.456219  2  25.278  0.893  0.365  0.713  -3.922e-01   8.391e-01   3.196e-01   6.249e-01  12  sdss  6355  82S  1 
   32  53994.457048  3  24.066  0.905  0.560  0.597   3.549e-01   1.225e+00   6.875e-01   7.336e-01  12  sdss  6355  82S  1 
   32  53994.458707  4  22.083  0.658  0.308  0.635   3.952e+00   4.013e+00   1.868e+00   3.854e+00  12  sdss  6355  82S  1 
  136  53994.457877  0  26.513  0.742  0.543  1.453  -2.788e+00   1.746e+00   1.417e+00   3.795e+00  10  sdss  6355  82S  1 
   32  53996.443481  1  23.786  0.604  0.165  0.877   9.969e-01   6.214e-01   1.785e-01   9.457e-01  12  sdss  6367  82S  1 
   32  53996.440163  2  24.153  1.011  1.177  1.341   5.504e-01   1.012e+00   1.111e+00   1.266e+00  12  sdss  6367  82S  1 
   32  53996.440993  3  23.076  0.742  0.906  0.736   1.904e+00   1.471e+00   1.912e+00   1.553e+00  12  sdss  6367  82S  1 
    0  53996.442651  4  23.850  0.655  0.104  0.881  -5.716e+00   4.569e+00   7.446e-01   6.294e+00  12  sdss  6367  82S  1 
 1154  53996.441822  0  22.545  0.578  0.531  2.017   3.633e+00   1.772e+00   1.756e+00   6.671e+00  10  sdss  6367  82S  1 
    0  54005.457326  1  23.387  0.352  0.059  0.292   1.509e+00   5.111e-01   8.748e-02   4.346e-01  12  sdss  6404  82S  1 
    0  54005.454009  2  23.192  0.416  0.050  0.203   1.812e+00   7.417e-01   9.119e-02   3.742e-01  12  sdss  6404  82S  1 
    0  54005.454838  3  22.541  0.366  0.146  0.148   3.320e+00   1.162e+00   4.753e-01   4.840e-01  12  sdss  6404  82S  1 
    0  54005.456497  4  23.329  0.678  0.496  0.498  -2.504e+00   3.784e+00   2.670e+00   2.685e+00  12  sdss  6404  82S  1 
  128  54005.455668  0  22.774  0.693  0.177  1.096   2.913e+00   1.710e+00   4.813e-01   2.974e+00  10  sdss  6404  82S  1 
    4  54008.404101  1  25.310  1.306  1.752  0.752  -1.133e-01   9.722e-01   1.047e+00   4.497e-01  12  sdss  6417  82S  1 
  140  54008.400784  2  22.994  0.758  1.084  0.222   2.211e+00   1.480e+00   2.358e+00   4.842e-01  12  sdss  6417  82S  1 
    4  54008.401613  3  22.683  1.171  1.176  0.284   2.881e+00   2.822e+00   3.404e+00   8.229e-01  12  sdss  6417  82S  1 
  164  54008.403272  4  22.408  1.344  1.091  0.534   2.123e+00   8.552e+00   5.725e+00   2.800e+00  12  sdss  6417  82S  1 
 1156  54008.402442  0  26.903  0.933  0.524  1.002  -4.063e+00   2.859e+00   1.921e+00   3.673e+00  10  sdss  6417  82S  1 
    0  54009.471364  1  22.905  0.219  0.029  0.176   2.411e+00   4.890e-01   6.570e-02   3.980e-01  12  sdss  6422  82S  1 
    0  54009.468046  2  23.297  0.447  0.230  0.235   1.626e+00   7.292e-01   3.885e-01   3.973e-01  12  sdss  6422  82S  1 
    0  54009.468875  3  23.132  0.580  0.137  0.247   1.788e+00   1.130e+00   2.770e-01   4.989e-01  12  sdss  6422  82S  1 
    0  54009.470534  4  23.537  0.565  0.363  0.417  -3.681e+00   3.371e+00   2.152e+00   2.471e+00  12  sdss  6422  82S  1 
  160  54009.469705  0  23.508  0.983  0.537  1.820   1.346e+00   1.421e+00   8.167e-01   2.767e+00  10  sdss  6422  82S  1 
    0  54010.398612  1  23.141  0.253  0.117  0.152   1.924e+00   4.585e-01   2.153e-01   2.804e-01  12  sdss  6425  82S  1 
    0  54010.395295  2  22.428  0.191  0.012  0.078   3.815e+00   6.793e-01   4.196e-02   2.786e-01  12  sdss  6425  82S  1 
    0  54010.396124  3  22.717  0.389  0.075  0.140   2.784e+00   1.063e+00   2.102e-01   3.953e-01  12  sdss  6425  82S  1 
    0  54010.397783  4  23.169  0.582  0.060  0.415  -1.664e+00   3.086e+00   3.066e-01   2.120e+00  12  sdss  6425  82S  1 
  128  54010.396953  0  22.451  0.402  0.068  0.649   3.976e+00   1.390e+00   2.444e-01   2.331e+00  10  sdss  6425  82S  1 
  129  54012.391453  1  23.715  0.942  0.763  0.447   1.076e+00   9.706e-01   8.687e-01   5.089e-01  12  sdss  6433  82S  1 
    9  54012.388136  2  23.454  0.630  0.341  0.188   1.376e+00   8.908e-01   5.085e-01   2.806e-01  12  sdss  6433  82S  1 
    0  54012.388965  3  22.310  0.329  0.215  0.101   4.159e+00   1.282e+00   8.578e-01   4.043e-01  12  sdss  6433  82S  1 
    0  54012.390624  4  21.121  0.343  0.145  0.201   1.225e+01   4.081e+00   1.765e+00   2.452e+00  12  sdss  6433  82S  1 
 1185  54012.389795  0  23.649  1.418  0.636  1.926   1.136e+00   2.025e+00   8.799e-01   2.666e+00  10  sdss  6433  82S  1 
    1  54020.430049  1  22.347  0.292  0.042  0.174   4.078e+00   1.068e+00   1.581e-01   6.497e-01  12  sdss  6448  82S  1 
    0  54020.426731  2  22.030  0.226  0.072  0.127   5.541e+00   1.143e+00   3.687e-01   6.518e-01  12  sdss  6448  82S  1 
    0  54020.427560  3  22.188  0.333  0.172  0.165   4.676e+00   1.443e+00   7.632e-01   7.350e-01  12  sdss  6448  82S  1 
   32  54020.429219  4  22.566  0.859  0.560  0.815   1.316e+00   4.722e+00   2.814e+00   4.093e+00  12  sdss  6448  82S  1 
    1  54020.428390  0  22.585  1.093  0.143  1.399   3.496e+00   2.816e+00   4.553e-01   4.468e+00  10  sdss  6448  82S  1 
    2  54024.479710  1  22.318  0.219  0.164  0.269   4.189e+00   8.311e-01   6.304e-01   1.035e+00  12  sdss  6458  82S  1 
    2  54024.476393  2  22.213  0.282  0.150  0.270   4.670e+00   1.201e+00   6.506e-01   1.173e+00  12  sdss  6458  82S  1 
    2  54024.477222  3  22.485  0.552  0.542  0.549   3.508e+00   1.774e+00   1.859e+00   1.881e+00  12  sdss  6458  82S  1 
   32  54024.478881  4  21.920  0.882  1.186  1.154   4.998e+00   5.832e+00   7.918e+00   7.706e+00  12  sdss  6458  82S  1 
   42  54024.478051  0  23.539  1.752  2.618  5.623   1.298e+00   2.778e+00   3.896e+00   8.372e+00  10  sdss  6458  82S  1 
    0  54028.467980  1  22.919  0.249  0.126  0.211   2.382e+00   5.493e-01   2.817e-01   4.718e-01  12  sdss  6471  82S  1 
    0  54028.464662  2  22.347  0.229  0.023  0.115   4.117e+00   8.708e-01   8.935e-02   4.451e-01  12  sdss  6471  82S  1 
    0  54028.465492  3  22.128  0.286  0.099  0.112   4.951e+00   1.316e+00   4.661e-01   5.278e-01  12  sdss  6471  82S  1 
   32  54028.467150  4  22.619  0.850  0.432  0.579   1.049e+00   4.634e+00   2.147e+00   2.877e+00  12  sdss  6471  82S  1 
   40  54028.466321  0  23.633  1.372  1.263  3.018   1.157e+00   1.949e+00   1.765e+00   4.220e+00  10  sdss  6471  82S  1 
    0  54030.423475  1  22.623  0.168  0.058  0.117   3.149e+00   4.875e-01   1.705e-01   3.409e-01  12  sdss  6480  82S  1 
    0  54030.420157  2  22.633  0.278  0.081  0.127   3.140e+00   8.130e-01   2.418e-01   3.799e-01  12  sdss  6480  82S  1 
    0  54030.420987  3  22.370  0.332  0.090  0.110   3.925e+00   1.226e+00   3.409e-01   4.165e-01  12  sdss  6480  82S  1 
   32  54030.422645  4  22.133  0.653  0.340  0.325   3.656e+00   3.905e+00   2.011e+00   1.920e+00  12  sdss  6480  82S  1 
   32  54030.421816  0  23.491  1.092  0.120  1.445   1.373e+00   1.592e+00   1.840e-01   2.224e+00  10  sdss  6480  82S  1 
    0  54035.467512  1  22.726  0.231  0.138  0.241   2.858e+00   6.051e-01   3.665e-01   6.408e-01  12  sdss  6501  82S  1 
    0  54035.464195  2  22.530  0.317  0.206  0.203   3.463e+00   1.012e+00   6.733e-01   6.622e-01  12  sdss  6501  82S  1 
    0  54035.465024  3  22.615  0.499  0.273  0.291   3.084e+00   1.453e+00   8.378e-01   8.924e-01  12  sdss  6501  82S  1 
    0  54035.466683  4  21.646  0.592  0.305  0.421   7.015e+00   4.599e+00   2.456e+00   3.389e+00  12  sdss  6501  82S  1 
  160  54035.465854  0  22.927  1.039  0.208  2.293   2.503e+00   2.111e+00   4.967e-01   5.467e+00  10  sdss  6501  82S  1 
    0  54037.373094  1  22.717  0.183  0.092  0.139   2.882e+00   4.860e-01   2.460e-01   3.712e-01  12  sdss  6508  82S  1 
    0  54037.369776  2  22.531  0.224  0.053  0.104   3.459e+00   7.216e-01   1.744e-01   3.382e-01  12  sdss  6508  82S  1 
    0  54037.370606  3  22.438  0.319  0.124  0.130   3.674e+00   1.114e+00   4.411e-01   4.642e-01  12  sdss  6508  82S  1 
   32  54037.372264  4  22.205  0.569  0.392  0.414   3.234e+00   3.288e+00   2.232e+00   2.362e+00  12  sdss  6508  82S  1 
    0  54037.371435  0  25.064  1.163  0.110  2.402  -3.946e-01   1.387e+00   1.136e-01   2.469e+00  10  sdss  6508  82S  1 
    0  54040.387889  1  23.962  0.523  0.153  0.367   8.173e-01   4.822e-01   1.444e-01   3.472e-01  12  sdss  6518  82S  1 
    0  54040.384571  2  22.649  0.261  0.062  0.099   3.091e+00   7.550e-01   1.829e-01   2.926e-01  12  sdss  6518  82S  1 
    0  54040.385401  3  22.357  0.320  0.142  0.092   3.974e+00   1.198e+00   5.450e-01   3.531e-01  12  sdss  6518  82S  1 
    0  54040.387059  4  23.056  0.757  0.222  0.450  -1.095e+00   4.050e+00   1.103e+00   2.241e+00  12  sdss  6518  82S  1 
   40  54040.386230  0  24.584  1.200  0.960  2.390   7.866e-02   1.415e+00   9.325e-01   2.322e+00  10  sdss  6518  82S  1 
    9  54041.423383  1  23.398  0.403  0.338  0.217   1.493e+00   5.757e-01   4.983e-01   3.203e-01  12  sdss  6525  82S  1 
    8  54041.420065  2  22.399  0.229  0.188  0.072   3.920e+00   8.303e-01   6.921e-01   2.634e-01  12  sdss  6525  82S  1 
    0  54041.420895  3  22.924  0.525  0.114  0.131   2.246e+00   1.195e+00   2.720e-01   3.103e-01  12  sdss  6525  82S  1 
   32  54041.422553  4  22.813  0.717  0.381  0.413   9.800e-02   3.759e+00   1.858e+00   2.015e+00  12  sdss  6525  82S  1 
  136  54041.421724  0  25.546  1.203  0.904  1.896  -9.500e-01   1.592e+00   1.151e+00   2.415e+00  10  sdss  6525  82S  1 
    1  54047.418187  1  22.510  0.696  0.130  0.236   3.502e+00   1.998e+00   4.187e-01   7.616e-01  12  sdss  6530  82S  1 
   33  54047.414870  2  23.674  1.533  0.676  0.687   1.072e+00   1.923e+00   8.562e-01   8.692e-01  12  sdss  6530  82S  1 
    1  54047.415700  3  21.998  0.362  0.125  0.167   5.601e+00   1.847e+00   6.593e-01   8.783e-01  12  sdss  6530  82S  1 
    0  54047.417358  4  23.740  0.808  0.294  0.610  -4.959e+00   5.316e+00   1.955e+00   4.058e+00  12  sdss  6530  82S  1 
  129  54047.416529  0  22.185  1.799  0.459  1.103   5.112e+00   5.220e+00   2.090e+00   5.026e+00  10  sdss  6530  82S  1 
   33  54049.414182  1  24.157  1.484  0.962  0.844   6.429e-01   1.298e+00   7.970e-01   6.997e-01  12  sdss  6537  82S  1 
    1  54049.410864  2  23.421  0.957  0.381  0.454   1.426e+00   1.325e+00   5.837e-01   6.956e-01  12  sdss  6537  82S  1 
    0  54049.411694  3  22.299  0.462  0.228  0.232   4.203e+00   1.771e+00   9.203e-01   9.370e-01  12  sdss  6537  82S  1 
   32  54049.413352  4  22.639  1.054  1.129  0.965   9.489e-01   6.031e+00   5.592e+00   4.782e+00  12  sdss  6537  82S  1 
    1  54049.412523  0  27.449  0.823  0.063  0.843  -6.790e+00   4.200e+00   3.750e-01   5.047e+00  10  sdss  6537  82S  1 
   35  54050.374513  1  24.090  1.441  0.415  1.321   6.996e-01   1.271e+00   3.591e-01   1.143e+00  12  sdss  6545  82S  1 
    0  54050.371196  2  22.255  0.334  0.224  0.239   4.489e+00   1.360e+00   9.383e-01   1.000e+00  12  sdss  6545  82S  1 
    0  54050.372025  3  22.197  0.496  0.404  0.357   4.636e+00   2.064e+00   1.784e+00   1.575e+00  12  sdss  6545  82S  1 
   32  54050.373684  4  22.019  1.092  0.717  1.133   4.351e+00   7.083e+00   4.512e+00   7.128e+00  12  sdss  6545  82S  1 
    3  54050.372854  0  22.477  1.572  1.151  2.713   3.879e+00   3.904e+00   4.042e+00   9.529e+00  10  sdss  6545  82S  1 
   32  54053.393614  1  24.191  0.906  0.610  0.849   6.146e-01   7.264e-01   4.944e-01   6.885e-01  12  sdss  6556  82S  1 
    0  54053.390297  2  22.912  0.436  0.227  0.247   2.397e+00   9.759e-01   5.302e-01   5.766e-01  12  sdss  6556  82S  1 
   32  54053.391126  3  23.597  1.008  0.482  0.483   9.822e-01   1.546e+00   7.178e-01   7.183e-01  12  sdss  6556  82S  1 
 1176  54053.392785  4  24.172  0.709  5.175  0.409  -8.315e+00   6.013e+00   4.673e+01   3.689e+00  12  sdss  6556  82S  1 
    0  54053.391955  0  25.066  1.509  1.064  4.278  -3.968e-01   2.007e+00   1.094e+00   4.401e+00  10  sdss  6556  82S  1 
    0  54056.380089  1  23.906  0.580  0.384  0.531   8.713e-01   5.516e-01   3.786e-01   5.231e-01  12  sdss  6568  82S  1 
    0  54056.376772  2  22.738  0.321  0.118  0.167   2.839e+00   8.524e-01   3.195e-01   4.543e-01  12  sdss  6568  82S  1 
    0  54056.377601  3  22.800  0.529  0.308  0.218   2.557e+00   1.322e+00   8.096e-01   5.735e-01  12  sdss  6568  82S  1 
   32  54056.379260  4  22.308  0.796  0.446  0.533   2.661e+00   4.550e+00   2.430e+00   2.905e+00  12  sdss  6568  82S  1 
  168  54056.378430  0  24.598  1.456  1.617  3.643   6.531e-02   1.874e+00   1.570e+00   3.535e+00  10  sdss  6568  82S  1 
    0  54059.374288  1  25.346  0.894  0.384  1.262  -1.353e-01   5.948e-01   2.309e-01   7.591e-01  12  sdss  6580  82S  1 
    0  54059.370971  2  22.730  0.359  0.079  0.246   2.861e+00   9.534e-01   2.173e-01   6.738e-01  12  sdss  6580  82S  1 
    0  54059.371800  3  22.879  0.631  0.129  0.312   2.355e+00   1.461e+00   3.182e-01   7.695e-01  12  sdss  6580  82S  1 
   32  54059.373458  4  22.251  0.948  1.393  0.784   2.973e+00   5.626e+00   7.778e+00   4.378e+00  12  sdss  6580  82S  1 
   40  54059.372629  0  23.301  1.196  1.246  2.946   1.698e+00   1.906e+00   2.203e+00   5.208e+00  10  sdss  6580  82S  1 
    2  54061.385245  1  23.046  0.403  0.269  0.653   2.108e+00   7.756e-01   5.381e-01   1.307e+00  12  sdss  6592  82S  1 
    0  54061.381928  2  22.781  0.428  0.151  0.367   2.723e+00   1.074e+00   3.961e-01   9.605e-01  12  sdss  6592  82S  1 
   32  54061.382757  3  23.004  0.887  0.457  0.735   2.061e+00   1.812e+00   1.020e+00   1.640e+00  12  sdss  6592  82S  1 
  128  54061.384416  4  23.525  0.982  0.922  1.055  -3.609e+00   6.041e+00   5.428e+00   6.210e+00  12  sdss  6592  82S  1 
   34  54061.383586  0  22.621  1.263  0.387  3.761   3.379e+00   3.033e+00   1.200e+00   1.165e+01  10  sdss  6592  82S  1 
    0  54062.379078  1  24.306  0.643  0.320  0.403   5.239e-01   4.857e-01   2.421e-01   3.053e-01  12  sdss  6596  82S  1 
    0  54062.375761  2  23.050  0.366  0.082  0.119   2.091e+00   7.384e-01   1.693e-01   2.477e-01  12  sdss  6596  82S  1 
    0  54062.376590  3  22.678  0.420  0.111  0.099   2.895e+00   1.178e+00   3.240e-01   2.891e-01  12  sdss  6596  82S  1 
    0  54062.378249  4  22.879  0.794  0.301  0.359  -2.267e-01   4.228e+00   1.467e+00   1.755e+00  12  sdss  6596  82S  1 
  128  54062.377419  0  24.984  1.253  0.211  2.242  -3.129e-01   1.521e+00   2.120e-01   2.256e+00  10  sdss  6596  82S  1 
    0  54064.375532  1  23.182  0.360  0.126  0.377   1.848e+00   6.211e-01   2.234e-01   6.695e-01  12  sdss  6604  82S  1 
    0  54064.372215  2  23.427  0.652  0.096  0.370   1.417e+00   9.378e-01   1.471e-01   5.643e-01  12  sdss  6604  82S  1 
    0  54064.373044  3  23.031  0.718  0.410  0.327   2.001e+00   1.472e+00   8.950e-01   7.148e-01  12  sdss  6604  82S  1 
   32  54064.374703  4  22.670  0.962  0.762  0.709   7.944e-01   5.362e+00   3.760e+00   3.494e+00  12  sdss  6604  82S  1 
  128  54064.373874  0  26.282  1.045  0.461  1.991  -2.212e+00   1.952e+00   9.941e-01   4.292e+00  10  sdss  6604  82S  1 
    2  54068.359526  1  26.787  0.565  0.688  0.908  -1.418e+00   7.525e-01   9.728e-01   1.284e+00  12  sdss  6618  82S  1 
   34  54068.356209  2  23.517  1.011  1.301  1.146   1.285e+00   1.318e+00   1.850e+00   1.629e+00  12  sdss  6618  82S  1 
  130  54068.357038  3  22.577  0.746  0.785  0.682   3.204e+00   2.129e+00   2.485e+00   2.160e+00  12  sdss  6618  82S  1 
   32  54068.358697  4  21.930  1.048  1.043  1.147   4.931e+00   6.973e+00   6.927e+00   7.612e+00  12  sdss  6618  82S  1 
  130  54068.357868  0  27.258  0.553  0.082  1.708  -5.678e+00   2.579e+00   4.144e-01   8.605e+00  10  sdss  6618  82S  1 
