# SDSS CID:  18376 IAU:          RA:   2.096213 DEC:   0.365337  (J2000)
# GALAXY_SB [ugriz] = [ 24.44 24.24 23.68 23.36 22.32 ] +/- [  0.31  0.10  0.07  0.07  0.10 ] (asinh mag/square arcsec)
# GALAXY_SB_FLUX [ugriz] = [  1.945E-01  5.737E-01  1.063E+00  1.367E+00  2.579E+00 ] +/- [  3.091E-01  7.712E-02  9.350E-02  1.267E-01  5.309E-01 ] (microJy per square arcsec)
#FLAG  MJD       FILT  MAG     MERR  MSKYERR MGALERR  FLUX       FLUXERR    SKYERR     GALERR    NPRE TELE   RUN  STRIP  IDCCD
    1  54346.300387  1  22.698  0.407  0.156  0.244   2.935e+00   1.077e+00   4.319e-01   6.748e-01  17  sdss  6920  82N  4 
    0  54346.297069  2  21.917  0.206  0.157  0.106   6.155e+00   1.162e+00   8.978e-01   6.047e-01  18  sdss  6920  82N  4 
    0  54346.297899  3  22.201  0.343  0.343  0.149   4.615e+00   1.466e+00   1.512e+00   6.574e-01  18  sdss  6920  82N  4 
    0  54346.299557  4  24.308  0.522  0.290  0.315  -9.622e+00   5.006e+00   2.904e+00   3.162e+00  18  sdss  6920  82N  4 
  137  54346.298728  0  21.846  0.419  0.281  0.401   7.022e+00   2.569e+00   1.808e+00   2.580e+00  12  sdss  6920  82N  4 
    0  54348.330798  1  22.059  0.133  0.080  0.094   5.329e+00   6.537e-01   3.928e-01   4.618e-01  17  sdss  6934  82N  4 
    0  54348.327481  2  22.248  0.214  0.044  0.134   4.519e+00   8.953e-01   1.855e-01   5.646e-01  18  sdss  6934  82N  4 
    0  54348.328310  3  22.198  0.319  0.139  0.178   4.628e+00   1.374e+00   6.132e-01   7.869e-01  18  sdss  6934  82N  4 
    0  54348.329968  4  22.840  0.834  0.155  0.572  -3.494e-02   4.481e+00   7.549e-01   2.792e+00  18  sdss  6934  82N  4 
  140  54348.329139  0  22.590  0.602  0.242  0.643   3.478e+00   1.828e+00   7.968e-01   2.116e+00  12  sdss  6934  82N  4 
    0  54358.286835  1  22.175  0.154  0.092  0.181   4.785e+00   6.777e-01   4.070e-01   8.023e-01  17  sdss  6958  82N  4 
    0  54358.283517  2  21.999  0.202  0.184  0.171   5.703e+00   1.058e+00   9.766e-01   9.071e-01  18  sdss  6958  82N  4 
   32  54358.284347  3  22.356  0.388  0.227  0.214   3.976e+00   1.439e+00   8.732e-01   8.234e-01  18  sdss  6958  82N  4 
   32  54358.286005  4  22.127  0.931  0.803  0.691   3.692e+00   5.709e+00   4.755e+00   4.094e+00  18  sdss  6958  82N  4 
   12  54358.285176  0  22.156  0.494  0.461  0.868   5.255e+00   2.255e+00   2.235e+00   4.209e+00  12  sdss  6958  82N  4 
    4  54359.252992  1  22.903  0.494  0.494  0.327   2.417e+00   1.071e+00   1.136e+00   7.517e-01  17  sdss  6962  82N  4 
    4  54359.249675  2  21.919  0.207  0.151  0.088   6.143e+00   1.166e+00   8.627e-01   4.997e-01  18  sdss  6962  82N  4 
   36  54359.250504  3  22.584  0.742  0.554  0.295   3.180e+00   2.109e+00   1.748e+00   9.315e-01  18  sdss  6962  82N  4 
    4  54359.252163  4  23.561  1.316  0.329  0.552  -3.826e+00   8.702e+00   1.970e+00   3.306e+00  18  sdss  6962  82N  4 
    4  54359.251333  0  24.999  1.752  0.160  2.293  -3.278e-01   2.554e+00   1.617e-01   2.323e+00  12  sdss  6962  82N  4 
    4  54359.280789  1  22.681  0.379  0.179  0.270   2.982e+00   1.023e+00   5.008e-01   7.565e-01  17  sdss  6963  82N  4 
    4  54359.277472  2  22.166  0.329  0.254  0.167   4.879e+00   1.454e+00   1.157e+00   7.618e-01  18  sdss  6963  82N  4 
  164  54359.278301  3  22.480  0.660  0.383  0.232   3.523e+00   2.082e+00   1.320e+00   7.995e-01  18  sdss  6963  82N  4 
    4  54359.279960  4  24.808  0.698  0.510  0.238  -1.590e+01   9.617e+00   7.785e+00   3.642e+00  18  sdss  6963  82N  4 
    4  54359.279131  0  23.007  1.629  0.162  1.321   2.309e+00   3.040e+00   3.740e-01   3.042e+00  12  sdss  6963  82N  4 
    1  54365.320039  1  22.463  0.191  0.061  0.080   3.658e+00   6.456e-01   2.093e-01   2.737e-01  17  sdss  6982  82N  4 
    0  54365.316722  2  21.970  0.162  0.061  0.059   5.860e+00   8.766e-01   3.293e-01   3.218e-01  18  sdss  6982  82N  4 
    0  54365.317552  3  22.377  0.343  0.129  0.108   3.896e+00   1.259e+00   4.857e-01   4.080e-01  18  sdss  6982  82N  4 
  128  54365.319210  4  21.760  0.542  0.088  0.199   6.124e+00   3.922e+00   6.483e-01   1.475e+00  18  sdss  6982  82N  4 
    0  54365.318381  0  23.051  0.791  0.038  0.542   2.207e+00   1.587e+00   8.487e-02   1.203e+00  12  sdss  6982  82N  4 
    0  54381.339633  1  22.930  0.230  0.105  0.176   2.355e+00   5.099e-01   2.352e-01   3.937e-01  17  sdss  7034  82N  4 
   32  54381.336316  2  23.258  0.534  0.108  0.363   1.693e+00   8.888e-01   1.894e-01   6.342e-01  18  sdss  7034  82N  4 
    0  54381.337145  3  22.231  0.330  0.161  0.181   4.484e+00   1.379e+00   6.918e-01   7.750e-01  18  sdss  7034  82N  4 
   32  54381.338803  4  22.142  0.728  0.385  0.382   3.603e+00   4.355e+00   2.263e+00   2.243e+00  18  sdss  7034  82N  4 
    0  54381.337974  0  26.141  0.981  0.189  1.334  -1.912e+00   1.730e+00   3.745e-01   2.645e+00  12  sdss  7034  82N  4 
  128  54386.331577  1  22.624  0.185  0.124  0.136   3.146e+00   5.423e-01   3.658e-01   4.014e-01  17  sdss  7054  82N  4 
    0  54386.328260  2  22.403  0.301  0.300  0.146   3.905e+00   1.080e+00   1.101e+00   5.371e-01  18  sdss  7054  82N  4 
   32  54386.329089  3  23.286  0.882  0.471  0.372   1.494e+00   1.535e+00   8.539e-01   6.742e-01  18  sdss  7054  82N  4 
    4  54386.330748  4  21.679  0.590  0.219  0.295   6.749e+00   4.478e+00   1.717e+00   2.310e+00  18  sdss  7054  82N  4 
    4  54386.329918  0  22.951  0.839  0.101  0.761   2.443e+00   1.796e+00   2.440e-01   1.836e+00  12  sdss  7054  82N  4 
    0  54388.336018  1  22.951  0.236  0.056  0.157   2.308e+00   5.127e-01   1.234e-01   3.460e-01  17  sdss  7060  82N  4 
    0  54388.332701  2  22.714  0.304  0.115  0.142   2.905e+00   8.279e-01   3.204e-01   3.947e-01  18  sdss  7060  82N  4 
   32  54388.333530  3  22.748  0.456  0.171  0.173   2.696e+00   1.204e+00   4.696e-01   4.743e-01  18  sdss  7060  82N  4 
    0  54388.335188  4  21.869  0.559  0.246  0.241   5.343e+00   3.793e+00   1.698e+00   1.662e+00  18  sdss  7060  82N  4 
    0  54388.334359  0  23.249  0.929  0.226  0.828   1.796e+00   1.590e+00   4.283e-01   1.566e+00  12  sdss  7060  82N  4 
    0  54393.321687  1  23.270  0.285  0.066  0.143   1.695e+00   4.665e-01   1.107e-01   2.375e-01  17  sdss  7080  82N  4 
    0  54393.318370  2  22.669  0.260  0.038  0.086   3.034e+00   7.405e-01   1.100e-01   2.500e-01  18  sdss  7080  82N  4 
    0  54393.319199  3  22.690  0.410  0.127  0.138   2.859e+00   1.142e+00   3.664e-01   3.968e-01  18  sdss  7080  82N  4 
   32  54393.320858  4  22.225  0.592  0.210  0.228   3.119e+00   3.397e+00   1.186e+00   1.285e+00  18  sdss  7080  82N  4 
    8  54393.320029  0  24.817  1.183  0.614  1.197  -1.467e-01   1.392e+00   6.003e-01   1.170e+00  12  sdss  7080  82N  4 
    9  54403.248962  1  25.816  1.547  2.589  0.616  -4.399e-01   1.311e+00   1.849e+00   4.398e-01  17  sdss  7106  82N  4 
    9  54403.245645  2  22.583  0.416  0.624  0.136   3.293e+00   1.247e+00   1.951e+00   4.265e-01  18  sdss  7106  82N  4 
  185  54403.246474  3  22.722  0.690  2.465  0.169   2.768e+00   1.781e+00   6.918e+00   4.731e-01  18  sdss  7106  82N  4 
   44  54403.248132  4  22.301  1.014  1.715  0.430   2.697e+00   6.019e+00   9.363e+00   2.346e+00  18  sdss  7106  82N  4 
   13  54403.247303  0  22.478  1.413  0.483  0.567   3.873e+00   3.737e+00   1.754e+00   2.063e+00  12  sdss  7106  82N  4 
    1  54404.306249  1  23.646  0.725  0.228  0.272   1.159e+00   8.157e-01   2.776e-01   3.313e-01  17  sdss  7112  82N  4 
    1  54404.302932  2  22.392  0.264  0.208  0.084   3.946e+00   9.630e-01   7.702e-01   3.131e-01  18  sdss  7112  82N  4 
    0  54404.303762  3  22.708  0.462  0.141  0.129   2.808e+00   1.258e+00   4.014e-01   3.674e-01  18  sdss  7112  82N  4 
   32  54404.305420  4  22.770  0.758  0.289  0.357   3.058e-01   4.012e+00   1.411e+00   1.745e+00  18  sdss  7112  82N  4 
    1  54404.304591  0  22.780  0.959  0.051  0.516   2.895e+00   2.274e+00   1.428e-01   1.440e+00  12  sdss  7112  82N  4 
    1  54405.304197  1  23.385  0.503  0.093  0.228   1.512e+00   7.214e-01   1.408e-01   3.438e-01  17  sdss  7117  82N  4 
   32  54405.300880  2  23.065  0.466  0.151  0.170   2.061e+00   9.157e-01   3.110e-01   3.484e-01  18  sdss  7117  82N  4 
   32  54405.301710  3  22.960  0.588  0.223  0.188   2.163e+00   1.294e+00   5.157e-01   4.360e-01  18  sdss  7117  82N  4 
    0  54405.303368  4  23.699  0.628  0.298  0.252  -4.689e+00   4.039e+00   1.930e+00   1.631e+00  18  sdss  7117  82N  4 
  129  54405.302539  0  24.040  1.512  0.589  1.464   6.403e-01   2.063e+00   6.650e-01   1.653e+00  12  sdss  7117  82N  4 
    0  54406.242514  1  23.326  0.298  0.094  0.183   1.604e+00   4.635e-01   1.488e-01   2.906e-01  17  sdss  7121  82N  4 
   32  54406.239197  2  23.285  0.441  0.138  0.168   1.647e+00   7.289e-01   2.361e-01   2.878e-01  18  sdss  7121  82N  4 
    0  54406.240026  3  22.521  0.342  0.093  0.097   3.384e+00   1.110e+00   3.082e-01   3.226e-01  18  sdss  7121  82N  4 
   32  54406.241684  4  22.069  0.557  0.149  0.240   4.039e+00   3.409e+00   9.109e-01   1.464e+00  18  sdss  7121  82N  4 
    8  54406.240855  0  24.597  1.105  0.432  1.175   6.680e-02   1.267e+00   4.193e-01   1.141e+00  12  sdss  7121  82N  4 
    0  54412.245161  1  22.763  0.262  0.232  0.205   2.760e+00   6.695e-01   6.045e-01   5.344e-01  17  sdss  7140  82N  4 
   32  54412.241844  2  23.677  0.984  0.650  0.560   1.068e+00   1.181e+00   8.215e-01   7.082e-01  18  sdss  7140  82N  4 
   32  54412.242673  3  24.198  1.055  0.699  0.519   1.950e-01   1.462e+00   8.378e-01   6.217e-01  18  sdss  7140  82N  4 
   36  54412.244332  4  22.367  0.989  0.908  0.585   2.343e+00   5.766e+00   4.834e+00   3.112e+00  18  sdss  7140  82N  4 
  132  54412.243503  0  23.843  1.507  0.220  2.280   8.760e-01   2.118e+00   2.756e-01   2.854e+00  12  sdss  7140  82N  4 
   32  54416.240588  1  24.012  0.514  0.140  0.310   7.702e-01   4.623e-01   1.284e-01   2.853e-01  17  sdss  7155  82N  4 
    0  54416.237271  2  23.047  0.354  0.100  0.142   2.098e+00   7.181e-01   2.095e-01   2.962e-01  18  sdss  7155  82N  4 
    0  54416.238101  3  22.472  0.325  0.097  0.102   3.551e+00   1.103e+00   3.370e-01   3.540e-01  18  sdss  7155  82N  4 
    0  54416.239759  4  21.895  0.528  0.077  0.225   5.164e+00   3.535e+00   5.206e-01   1.523e+00  18  sdss  7155  82N  4 
    0  54416.238930  0  23.693  1.028  0.130  0.959   1.073e+00   1.390e+00   1.787e-01   1.315e+00  12  sdss  7155  82N  4 
   32  54421.245976  1  24.407  0.835  0.621  0.708   4.491e-01   6.139e-01   4.468e-01   5.092e-01  17  sdss  7170  82N  4 
  160  54421.242659  2  24.492  1.147  1.085  0.985   2.511e-01   1.114e+00   9.018e-01   8.191e-01  18  sdss  7170  82N  4 
   32  54421.243489  3  22.832  0.580  0.210  0.251   2.472e+00   1.405e+00   5.396e-01   6.438e-01  18  sdss  7170  82N  4 
    0  54421.245147  4  21.113  0.394  0.136  0.193   1.236e+01   4.684e+00   1.672e+00   2.371e+00  18  sdss  7170  82N  4 
  132  54421.244318  0  25.434  1.507  0.159  2.472  -8.078e-01   2.097e+00   1.925e-01   3.000e+00  12  sdss  7170  82N  4 
    1  54423.222370  1  23.242  0.752  0.217  0.304   1.742e+00   1.147e+00   3.694e-01   5.177e-01  17  sdss  7177  82N  4 
   33  54423.219054  2  22.943  0.566  0.214  0.213   2.325e+00   1.206e+00   4.883e-01   4.861e-01  18  sdss  7177  82N  4 
   32  54423.219883  3  23.243  0.836  0.338  0.329   1.573e+00   1.491e+00   6.321e-01   6.150e-01  18  sdss  7177  82N  4 
   32  54423.221541  4  21.943  0.643  0.432  0.341   4.840e+00   4.183e+00   2.839e+00   2.242e+00  18  sdss  7177  82N  4 
    1  54423.220712  0  23.044  1.380  0.092  0.855   2.223e+00   2.543e+00   2.050e-01   1.908e+00  12  sdss  7177  82N  4 
    1  54431.249125  1  27.435  1.657  0.300  0.313  -2.663e+00   2.794e+00   7.544e-01   7.871e-01  17  sdss  7195  82N  4 
   57  54431.245808  2  23.283  1.867  6.380  0.431   1.650e+00   2.806e+00   1.093e+01   7.385e-01  18  sdss  7195  82N  4 
   25  54431.246637  3  22.036  0.733  2.965  0.167   5.400e+00   3.307e+00   1.513e+01   8.522e-01  18  sdss  7195  82N  4 
    5  54431.248295  4  24.530  0.918  0.878  0.315  -1.209e+01   9.642e+00   1.057e+01   3.791e+00  18  sdss  7195  82N  4 
  161  54433.244360  1  24.333  1.581  1.672  0.996   5.035e-01   1.372e+00   1.252e+00   7.461e-01  17  sdss  7202  82N  4 
    1  54433.241043  2  26.730  0.725  0.471  0.434  -2.488e+00   1.576e+00   1.140e+00   1.050e+00  18  sdss  7202  82N  4 
   32  54433.241872  3  24.152  1.202  0.780  0.791   2.504e-01   1.744e+00   9.414e-01   9.542e-01  18  sdss  7202  82N  4 
    0  54433.243531  4  20.474  0.330  0.261  0.224   2.294e+01   6.878e+00   5.592e+00   4.793e+00  18  sdss  7202  82N  4 
  137  54433.242701  0  24.229  2.072  2.810  3.262   4.350e-01   3.492e+00   2.938e+00   3.411e+00  12  sdss  7202  82N  4 
