# SDSS CID:  14131 IAU:          RA:  25.095272 DEC:  -0.336829  (J2000)
# GALAXY_SB [ugriz] = [ 24.36 24.17 23.70 23.41 22.32 ] +/- [  0.26  0.10  0.08  0.08  0.10 ] (asinh mag/square arcsec)
# GALAXY_SB_FLUX [ugriz] = [  2.706E-01  6.279E-01  1.046E+00  1.272E+00  2.560E+00 ] +/- [  2.629E-01  7.956E-02  9.770E-02  1.275E-01  5.343E-01 ] (microJy per square arcsec)
#FLAG  MJD       FILT  MAG     MERR  MSKYERR MGALERR  FLUX       FLUXERR    SKYERR     GALERR    NPRE TELE   RUN  STRIP  IDCCD
   16  53975.372312  1  22.321  0.129  0.173  0.100   4.180e+00   5.017e-01   6.776e-01   3.889e-01  12  sdss  6287  82S  3 
    0  53975.368994  2  21.630  0.102  0.078  0.052   8.033e+00   7.565e-01   5.830e-01   3.878e-01  12  sdss  6287  82S  3 
    0  53975.369824  3  21.605  0.154  0.092  0.057   8.098e+00   1.152e+00   6.900e-01   4.297e-01  11  sdss  6287  82S  3 
   32  53975.371482  4  22.568  0.726  0.545  0.442   1.305e+00   3.888e+00   2.738e+00   2.219e+00  11  sdss  6287  82S  3 
    0  53975.370653  0  24.728  1.225  1.295  1.598  -6.035e-02   1.457e+00   1.256e+00   1.551e+00  10  sdss  6287  82S  3 
   33  53990.386236  1  24.044  1.560  1.228  0.710   7.408e-01   1.432e+00   1.109e+00   6.408e-01  12  sdss  6330  82S  3 
    1  53990.382919  2  22.232  0.248  0.111  0.074   4.587e+00   1.048e+00   4.789e-01   3.169e-01  12  sdss  6330  82S  3 
    1  53990.383748  3  22.099  0.296  0.161  0.092   5.090e+00   1.399e+00   7.757e-01   4.446e-01  11  sdss  6330  82S  3 
    0  53990.385407  4  23.468  0.724  0.150  0.378  -3.277e+00   4.249e+00   8.623e-01   2.166e+00  11  sdss  6330  82S  3 
    1  53990.384578  0  24.355  1.785  0.632  1.252   3.047e-01   2.636e+00   6.372e-01   1.262e+00  10  sdss  6330  82S  3 
   32  53994.396430  1  23.617  0.474  0.615  0.387   1.193e+00   5.699e-01   7.679e-01   4.830e-01  12  sdss  6355  82S  3 
   32  53994.393113  2  22.573  0.306  0.441  0.266   3.325e+00   9.469e-01   1.395e+00   8.416e-01  12  sdss  6355  82S  3 
    0  53994.393942  3  21.856  0.224  0.228  0.131   6.403e+00   1.325e+00   1.371e+00   7.855e-01  11  sdss  6355  82S  3 
   32  53994.395600  4  22.750  0.798  0.565  0.592   4.048e-01   4.257e+00   2.763e+00   2.898e+00  11  sdss  6355  82S  3 
    0  53994.394771  0  24.917  1.357  1.499  2.063  -2.454e-01   1.697e+00   1.490e+00   2.051e+00  10  sdss  6355  82S  3 
   48  53996.380322  1  23.910  0.623  1.670  0.954   8.675e-01   5.944e-01   1.660e+00   9.480e-01  12  sdss  6367  82S  3 
   32  53996.377005  2  22.493  0.256  0.311  0.211   3.587e+00   8.556e-01   1.055e+00   7.159e-01  12  sdss  6367  82S  3 
   32  53996.377834  3  22.469  0.408  0.405  0.279   3.565e+00   1.370e+00   1.411e+00   9.731e-01  11  sdss  6367  82S  3 
    0  53996.379493  4  21.778  0.605  0.549  0.420   5.994e+00   4.339e+00   4.047e+00   3.097e+00  11  sdss  6367  82S  3 
    0  53996.378663  0  25.416  1.224  1.342  1.994  -7.861e-01   1.583e+00   1.615e+00   2.398e+00  10  sdss  6367  82S  3 
   48  54005.393903  1  24.374  0.620  0.657  0.366   4.729e-01   4.563e-01   4.816e-01   2.682e-01  12  sdss  6404  82S  3 
    0  54005.390585  2  22.924  0.299  0.212  0.109   2.370e+00   6.813e-01   4.937e-01   2.535e-01  12  sdss  6404  82S  3 
    0  54005.391414  3  22.516  0.326  0.145  0.090   3.403e+00   1.065e+00   4.861e-01   3.018e-01  11  sdss  6404  82S  3 
    0  54005.393073  4  22.095  0.553  0.167  0.237   3.882e+00   3.355e+00   1.012e+00   1.432e+00  11  sdss  6404  82S  3 
    0  54005.392244  0  25.462  1.047  0.377  0.744  -8.429e-01   1.333e+00   4.659e-01   9.186e-01  10  sdss  6404  82S  3 
   32  54008.340180  1  24.105  0.600  0.733  0.506   6.870e-01   5.074e-01   6.347e-01   4.382e-01  12  sdss  6417  82S  3 
   32  54008.336862  2  24.104  0.800  0.792  0.520   5.970e-01   7.927e-01   7.688e-01   5.047e-01  12  sdss  6417  82S  3 
    0  54008.337692  3  22.520  0.364  0.244  0.146   3.390e+00   1.178e+00   8.121e-01   4.885e-01  11  sdss  6417  82S  3 
   32  54008.339350  4  22.350  0.693  0.262  0.386   2.434e+00   3.868e+00   1.407e+00   2.070e+00  11  sdss  6417  82S  3 
    0  54008.338521  0  24.456  1.285  1.180  1.684   2.046e-01   1.566e+00   1.164e+00   1.661e+00  10  sdss  6417  82S  3 
   32  54010.335033  1  24.402  0.644  0.594  0.406   4.526e-01   4.691e-01   4.290e-01   2.932e-01  12  sdss  6425  82S  3 
    0  54010.331716  2  23.107  0.355  0.192  0.132   1.975e+00   6.868e-01   3.817e-01   2.621e-01  12  sdss  6425  82S  3 
    0  54010.332545  3  22.725  0.394  0.201  0.121   2.762e+00   1.071e+00   5.639e-01   3.391e-01  11  sdss  6425  82S  3 
   32  54010.334204  4  22.514  0.598  0.373  0.298   1.578e+00   3.169e+00   1.897e+00   1.517e+00  11  sdss  6425  82S  3 
    0  54010.333374  0  24.925  1.193  0.774  1.269  -2.535e-01   1.417e+00   7.705e-01   1.263e+00  10  sdss  6425  82S  3 
    1  54012.327808  1  25.440  1.500  1.234  0.613  -1.923e-01   1.205e+00   7.590e-01   3.767e-01  12  sdss  6433  82S  3 
   33  54012.324491  2  24.772  1.373  0.534  0.342   2.402e-02   1.414e+00   4.265e-01   2.736e-01  12  sdss  6433  82S  3 
   25  54012.325320  3  22.630  0.496  0.680  0.110   3.040e+00   1.432e+00   2.064e+00   3.326e-01  11  sdss  6433  82S  3 
    0  54012.326979  4  21.511  0.517  0.189  0.195   8.162e+00   4.468e+00   1.694e+00   1.747e+00  11  sdss  6433  82S  3 
    1  54012.326149  0  26.810  0.904  0.279  0.339  -3.717e+00   2.683e+00   9.798e-01   1.190e+00  10  sdss  6433  82S  3 
    1  54020.333974  1  26.444  1.006  1.621  0.628  -9.900e-01   9.939e-01   1.763e+00   6.831e-01  12  sdss  6447  82S  3 
   32  54020.330657  2  24.734  1.072  1.417  0.681   5.441e-02   1.003e+00   1.134e+00   5.449e-01  12  sdss  6447  82S  3 
    0  54020.331486  3  22.733  0.527  0.361  0.211   2.739e+00   1.393e+00   1.004e+00   5.876e-01  11  sdss  6447  82S  3 
   32  54020.333145  4  22.392  0.871  0.586  0.536   2.210e+00   4.941e+00   3.098e+00   2.830e+00  11  sdss  6447  82S  3 
    1  54020.332316  0  26.943  0.586  0.247  0.442  -4.220e+00   2.133e+00   9.757e-01   1.744e+00  10  sdss  6447  82S  3 
    2  54024.415645  1  25.564  1.236  4.367  2.222  -2.697e-01   9.217e-01   2.792e+00   1.420e+00  12  sdss  6458  82S  3 
   32  54024.412328  2  23.687  0.967  1.199  0.912   1.056e+00   1.157e+00   1.509e+00   1.148e+00  12  sdss  6458  82S  3 
   32  54024.413157  3  24.289  1.201  2.014  1.360   8.642e-02   1.731e+00   2.390e+00   1.614e+00  11  sdss  6458  82S  3 
  128  54024.414816  4  23.734  0.906  0.788  0.889  -4.917e+00   5.983e+00   5.245e+00   5.917e+00  11  sdss  6458  82S  3 
  162  54024.413987  0  23.526  1.731  1.662  2.880   1.318e+00   2.756e+00   2.557e+00   4.432e+00  10  sdss  6458  82S  3 
   48  54028.403766  1  24.649  0.859  1.957  0.926   2.849e-01   5.906e-01   1.262e+00   5.973e-01  12  sdss  6471  82S  3 
   32  54028.400449  2  23.701  0.875  0.976  0.611   1.038e+00   1.041e+00   1.216e+00   7.617e-01  12  sdss  6471  82S  3 
    0  54028.401278  3  24.645  1.115  1.247  0.777  -3.384e-01   1.586e+00   1.527e+00   9.516e-01  11  sdss  6471  82S  3 
    0  54028.402937  4  23.885  0.771  0.139  0.459  -5.973e+00   5.475e+00   1.024e+00   3.375e+00  11  sdss  6471  82S  3 
    0  54028.402107  0  26.304  1.130  0.801  1.254  -2.262e+00   2.170e+00   1.817e+00   2.845e+00  10  sdss  6471  82S  3 
    0  54030.327386  1  25.555  0.711  0.770  0.458  -2.640e-01   4.746e-01   4.905e-01   2.922e-01  12  sdss  6479  82S  3 
    0  54030.324069  2  23.384  0.474  0.296  0.161   1.484e+00   7.239e-01   4.688e-01   2.545e-01  12  sdss  6479  82S  3 
    0  54030.324899  3  22.932  0.487  0.214  0.124   2.227e+00   1.110e+00   5.061e-01   2.940e-01  11  sdss  6479  82S  3 
    0  54030.326557  4  22.148  0.618  0.199  0.255   3.566e+00   3.674e+00   1.173e+00   1.497e+00  11  sdss  6479  82S  3 
    0  54030.325728  0  25.811  0.961  0.280  0.645  -1.327e+00   1.406e+00   4.332e-01   9.964e-01  10  sdss  6479  82S  3 
    2  54035.403036  1  25.980  0.978  3.066  1.570  -5.623e-01   7.713e-01   2.407e+00   1.233e+00  12  sdss  6501  82S  3 
    2  54035.399719  2  26.361  1.065  1.602  0.864  -1.720e+00   1.634e+00   2.844e+00   1.533e+00  12  sdss  6501  82S  3 
   32  54035.400548  3  22.966  0.932  1.676  0.660   2.148e+00   1.943e+00   3.861e+00   1.520e+00  11  sdss  6501  82S  3 
    0  54035.402207  4  24.204  0.709  0.984  0.524  -8.611e+00   6.177e+00   9.159e+00   4.875e+00  11  sdss  6501  82S  3 
    2  54035.401378  0  22.354  0.741  1.150  1.088   4.360e+00   2.662e+00   4.681e+00   4.430e+00  10  sdss  6501  82S  3 
   48  54037.308546  1  24.378  0.643  0.822  0.443   4.700e-01   4.726e-01   6.009e-01   3.244e-01  12  sdss  6508  82S  3 
   32  54037.305229  2  24.426  0.826  0.928  0.471   3.066e-01   7.512e-01   7.861e-01   3.994e-01  12  sdss  6508  82S  3 
   32  54037.306058  3  23.973  0.825  0.923  0.341   4.710e-01   1.116e+00   1.164e+00   4.299e-01  11  sdss  6508  82S  3 
   32  54037.307717  4  22.467  0.607  0.325  0.305   1.819e+00   3.252e+00   1.676e+00   1.573e+00  11  sdss  6508  82S  3 
    0  54037.306888  0  23.643  1.053  0.435  0.930   1.144e+00   1.457e+00   6.180e-01   1.321e+00  10  sdss  6508  82S  3 
    1  54040.322812  1  26.919  0.705  0.597  0.242  -1.618e+00   1.027e+00   9.593e-01   3.889e-01  12  sdss  6518  82S  3 
   33  54040.319496  2  24.128  1.407  0.833  0.433   5.739e-01   1.548e+00   7.980e-01   4.150e-01  12  sdss  6518  82S  3 
    1  54040.320325  3  22.576  0.478  0.238  0.144   3.208e+00   1.449e+00   7.568e-01   4.591e-01  11  sdss  6518  82S  3 
    0  54040.321983  4  23.353  0.760  0.298  0.361  -2.635e+00   4.321e+00   1.621e+00   1.964e+00  11  sdss  6518  82S  3 
    1  54040.321154  0  24.239  1.620  1.127  1.267   4.243e-01   2.252e+00   1.175e+00   1.321e+00  10  sdss  6518  82S  3 
   35  54047.353260  1  22.851  2.317  3.165  1.084   2.541e+00   3.637e+00   7.657e+00   2.623e+00  12  sdss  6530  82S  3 
   35  54047.349943  2  23.474  2.005  5.789  1.498   1.346e+00   2.970e+00   8.541e+00   2.209e+00  12  sdss  6530  82S  3 
   27  54047.350772  3  24.723  1.852 15.019  2.373  -4.351e-01   3.447e+00   1.877e+01   2.966e+00  11  sdss  6530  82S  3 
    2  54047.352431  4  24.197  1.284  2.516  1.353  -8.546e+00   1.055e+01   2.329e+01   1.253e+01  11  sdss  6530  82S  3 
 1155  54047.351602  0  21.762  1.697  0.905  1.198   7.595e+00   7.260e+00   6.300e+00   8.335e+00  10  sdss  6530  82S  3 
   33  54049.349182  1  24.678  1.533  2.625  1.178   2.664e-01   1.257e+00   1.675e+00   7.515e-01  12  sdss  6537  82S  3 
   33  54049.345865  2  23.595  1.089  1.415  0.660   1.176e+00   1.361e+00   1.904e+00   8.882e-01  12  sdss  6537  82S  3 
   32  54049.346694  3  22.384  0.474  0.365  0.258   3.872e+00   1.690e+00   1.368e+00   9.684e-01  11  sdss  6537  82S  3 
    0  54049.348352  4  23.582  0.872  0.677  0.623  -3.950e+00   5.407e+00   4.118e+00   3.790e+00  11  sdss  6537  82S  3 
    1  54049.347523  0  25.707  2.086  2.228  2.073  -1.172e+00   3.688e+00   3.204e+00   2.980e+00  10  sdss  6537  82S  3 
   48  54053.313377  1  25.111  0.820  1.798  0.825   4.341e-03   5.301e-01   1.058e+00   4.860e-01  12  sdss  6555  82S  3 
    0  54053.310060  2  24.892  1.136  1.684  0.813  -7.197e-02   1.084e+00   1.350e+00   6.522e-01  12  sdss  6555  82S  3 
    0  54053.310889  3  24.549  0.953  1.394  0.554  -2.230e-01   1.288e+00   1.675e+00   6.656e-01  11  sdss  6555  82S  3 
   32  54053.312548  4  22.502  0.768  0.232  0.492   1.639e+00   4.188e+00   1.185e+00   2.510e+00  11  sdss  6555  82S  3 
    0  54053.311719  0  24.846  1.288  1.830  1.619  -1.752e-01   1.569e+00   1.797e+00   1.589e+00  10  sdss  6555  82S  3 
    0  54056.314831  1  25.646  0.855  1.821  0.986  -3.235e-01   5.964e-01   1.203e+00   6.509e-01  12  sdss  6568  82S  3 
   32  54056.311514  2  23.449  0.774  1.218  0.703   1.383e+00   1.082e+00   1.833e+00   1.057e+00  12  sdss  6568  82S  3 
   32  54056.312343  3  24.039  1.016  0.902  0.634   3.885e-01   1.416e+00   1.115e+00   7.847e-01  11  sdss  6568  82S  3 
    0  54056.314001  4  24.389  0.490  0.246  0.309  -1.047e+01   5.071e+00   2.660e+00   3.342e+00  11  sdss  6568  82S  3 
    0  54056.313172  0  25.265  1.434  1.961  1.939  -6.109e-01   1.903e+00   2.190e+00   2.164e+00  10  sdss  6568  82S  3 
   18  54059.308921  1  26.123  0.816  2.590  1.412  -6.795e-01   6.824e-01   2.228e+00   1.215e+00  12  sdss  6580  82S  3 
    0  54059.305605  2  25.099  1.036  1.763  1.099  -2.403e-01   9.759e-01   1.461e+00   9.110e-01  12  sdss  6580  82S  3 
   32  54059.306434  3  22.914  0.711  0.830  0.506   2.271e+00   1.585e+00   1.991e+00   1.215e+00  11  sdss  6580  82S  3 
    0  54059.308092  4  24.328  0.562  0.338  0.429  -9.824e+00   5.481e+00   3.471e+00   4.406e+00  11  sdss  6580  82S  3 
   34  54059.307263  0  23.728  1.542  2.677  2.910   1.026e+00   2.238e+00   3.595e+00   3.908e+00  10  sdss  6580  82S  3 
   50  54061.319804  1  24.656  1.026  4.041  1.847   2.804e-01   7.279e-01   2.599e+00   1.188e+00  12  sdss  6592  82S  3 
    0  54061.316488  2  26.016  0.873  1.599  0.881  -1.185e+00   1.107e+00   2.163e+00   1.191e+00  12  sdss  6592  82S  3 
   32  54061.317317  3  22.852  0.711  1.258  0.601   2.424e+00   1.658e+00   3.174e+00   1.517e+00  11  sdss  6592  82S  3 
    0  54061.318975  4  23.966  0.806  0.585  0.809  -6.585e+00   5.982e+00   4.551e+00   6.297e+00  11  sdss  6592  82S  3 
    0  54061.318146  0  22.526  1.809  1.676  1.806   3.701e+00   4.328e+00   5.853e+00   6.310e+00  10  sdss  6592  82S  3 
   32  54062.313603  1  24.238  0.634  0.775  0.418   5.771e-01   4.981e-01   6.159e-01   3.323e-01  12  sdss  6596  82S  3 
   32  54062.310287  2  23.545  0.594  0.483  0.250   1.244e+00   7.950e-01   6.755e-01   3.495e-01  12  sdss  6596  82S  3 
    0  54062.311116  3  22.769  0.471  0.225  0.129   2.641e+00   1.221e+00   6.089e-01   3.477e-01  11  sdss  6596  82S  3 
    0  54062.312774  4  22.224  0.742  0.311  0.294   3.128e+00   4.328e+00   1.759e+00   1.668e+00  11  sdss  6596  82S  3 
    0  54062.311945  0  23.546  1.120  0.657  0.840   1.287e+00   1.620e+00   9.971e-01   1.274e+00  10  sdss  6596  82S  3 
   33  54068.293846  1  23.823  1.198  1.852  0.628   9.565e-01   1.151e+00   1.967e+00   6.671e-01  12  sdss  6618  82S  3 
    1  54068.290529  2  25.153  1.383  1.883  0.813  -2.854e-01   1.450e+00   1.584e+00   6.840e-01  12  sdss  6618  82S  3 
    0  54068.291358  3  25.237  1.008  0.926  0.502  -1.153e+00   1.609e+00   1.471e+00   7.972e-01  11  sdss  6618  82S  3 
    0  54068.293017  4  23.622  0.766  0.397  0.476  -4.196e+00   4.789e+00   2.470e+00   2.965e+00  11  sdss  6618  82S  3 
    1  54068.292188  0  23.769  1.744  2.062  1.733   9.712e-01   2.667e+00   2.701e+00   2.269e+00  10  sdss  6618  82S  3 
