# SDSS CID:   5650 IAU:          RA: 352.179077 DEC:   0.779802  (J2000)
# GALAXY_SB [ugriz] = [ 22.88 22.81 22.73 22.56 22.09 ] +/- [  0.10  0.04  0.04  0.04  0.08 ] (asinh mag/square arcsec)
# GALAXY_SB_FLUX [ugriz] = [  2.552E+00  2.624E+00  2.860E+00  3.242E+00  3.873E+00 ] +/- [  2.664E-01  9.793E-02  1.085E-01  1.401E-01  5.038E-01 ] (microJy per square arcsec)
#FLAG  MJD       FILT  MAG     MERR  MSKYERR MGALERR  FLUX       FLUXERR    SKYERR     GALERR    NPRE TELE   RUN  STRIP  IDCCD
    8  53616.293761  1  21.954  0.128  0.130  0.168   5.875e+00   6.849e-01   6.997e-01   9.052e-01  18  sdss  5566  82N  5 
 1176  53616.290444  2  22.385  0.305  0.666  0.203   3.970e+00   1.110e+00   2.484e+00   7.580e-01  18  sdss  5566  82N  5 
   36  53616.291273  3  23.454  1.423  0.589  0.544   1.205e+00   2.441e+00   9.550e-01   8.813e-01  19  sdss  5566  82N  5 
   32  53616.292932  4  22.387  0.898  0.128  0.777   2.235e+00   5.119e+00   6.769e-01   4.109e+00  22  sdss  5566  82N  5 
   44  53616.292102  0  22.304  0.557  0.460  0.631   4.573e+00   2.160e+00   1.922e+00   2.636e+00  15  sdss  5566  82N  5 
    0  53623.284093  1  22.101  0.126  0.063  0.088   5.126e+00   5.927e-01   2.947e-01   4.165e-01  18  sdss  5590  82N  5 
    0  53623.280776  2  22.296  0.203  0.091  0.106   4.317e+00   8.120e-01   3.701e-01   4.294e-01  18  sdss  5590  82N  5 
    0  53623.281605  3  22.234  0.304  0.106  0.117   4.474e+00   1.269e+00   4.514e-01   4.993e-01  19  sdss  5590  82N  5 
    8  53623.283264  4  22.012  0.581  0.378  0.289   4.397e+00   3.659e+00   2.391e+00   1.825e+00  22  sdss  5590  82N  5 
    0  53623.282435  0  21.939  0.283  0.016  0.201   6.437e+00   1.610e+00   9.035e-02   1.165e+00  15  sdss  5590  82N  5 
    1  53626.270476  1  22.308  0.208  0.068  0.109   4.229e+00   8.020e-01   2.651e-01   4.252e-01  18  sdss  5603  82N  5 
    0  53626.267159  2  22.374  0.264  0.086  0.124   4.011e+00   9.775e-01   3.241e-01   4.671e-01  18  sdss  5603  82N  5 
    0  53626.267988  3  22.170  0.315  0.064  0.119   4.757e+00   1.390e+00   2.917e-01   5.403e-01  19  sdss  5603  82N  5 
   32  53626.269647  4  22.110  0.644  0.261  0.339   3.789e+00   3.882e+00   1.560e+00   2.029e+00  22  sdss  5603  82N  5 
   33  53626.268817  0  22.536  0.647  0.199  0.371   3.665e+00   2.004e+00   6.777e-01   1.260e+00  15  sdss  5603  82N  5 
    1  53628.255464  1  22.158  0.365  0.071  0.169   4.862e+00   1.575e+00   3.172e-01   7.563e-01  18  sdss  5610  82N  5 
   33  53628.252147  2  23.133  0.774  0.250  0.316   1.923e+00   1.353e+00   4.843e-01   6.136e-01  18  sdss  5610  82N  5 
   33  53628.252976  3  22.726  0.651  0.232  0.261   2.758e+00   1.687e+00   6.489e-01   7.297e-01  19  sdss  5610  82N  5 
   32  53628.254635  4  22.767  0.889  0.549  0.625   3.196e-01   4.841e+00   2.684e+00   3.056e+00  22  sdss  5610  82N  5 
   33  53628.253806  0  22.661  1.479  0.199  0.644   3.251e+00   3.355e+00   6.075e-01   1.962e+00  15  sdss  5610  82N  5 
    1  53635.263797  1  21.974  0.262  0.117  0.218   5.767e+00   1.359e+00   6.208e-01   1.153e+00  18  sdss  5622  82N  5 
   33  53635.260480  2  23.203  0.867  0.563  0.695   1.793e+00   1.414e+00   1.032e+00   1.273e+00  18  sdss  5622  82N  5 
   32  53635.261309  3  22.529  0.619  0.285  0.429   3.359e+00   1.891e+00   9.414e-01   1.418e+00  19  sdss  5622  82N  5 
   32  53635.262967  4  21.885  0.899  0.464  0.924   5.231e+00   6.038e+00   3.168e+00   6.304e+00  22  sdss  5622  82N  5 
   35  53635.262138  0  22.318  1.606  0.493  1.320   4.511e+00   4.495e+00   2.036e+00   5.449e+00  15  sdss  5622  82N  5 
   33  53637.256710  1  22.351  0.265  0.033  0.270   4.063e+00   9.742e-01   1.222e-01   1.011e+00  18  sdss  5633  82N  5 
    0  53637.253393  2  22.202  0.268  0.038  0.214   4.715e+00   1.159e+00   1.659e-01   9.436e-01  18  sdss  5633  82N  5 
   32  53637.254222  3  22.148  0.384  0.208  0.245   4.858e+00   1.708e+00   9.582e-01   1.132e+00  19  sdss  5633  82N  5 
    0  53637.255881  4  22.838  1.027  0.601  0.902  -2.500e-02   5.795e+00   2.933e+00   4.397e+00  22  sdss  5633  82N  5 
   33  53637.255051  0  22.118  0.547  0.127  0.647   5.444e+00   2.506e+00   6.248e-01   3.195e+00  15  sdss  5633  82N  5 
    0  53639.302010  1  22.097  0.129  0.078  0.111   5.146e+00   6.059e-01   3.694e-01   5.255e-01  18  sdss  5642  82N  5 
    0  53639.298693  2  22.298  0.191  0.078  0.098   4.309e+00   7.650e-01   3.168e-01   3.951e-01  18  sdss  5642  82N  5 
    0  53639.299522  3  22.365  0.331  0.104  0.149   3.944e+00   1.227e+00   3.975e-01   5.656e-01  19  sdss  5642  82N  5 
    0  53639.301181  4  21.709  0.482  0.131  0.297   6.510e+00   3.621e+00   1.009e+00   2.280e+00  22  sdss  5642  82N  5 
   32  53639.300351  0  22.280  0.394  0.116  0.399   4.677e+00   1.618e+00   4.948e-01   1.702e+00  15  sdss  5642  82N  5 
    0  53644.249215  1  22.021  0.106  0.015  0.084   5.521e+00   5.368e-01   7.838e-02   4.237e-01  18  sdss  5670  82N  5 
    0  53644.245898  2  22.092  0.157  0.067  0.095   5.227e+00   7.614e-01   3.268e-01   4.638e-01  18  sdss  5670  82N  5 
    0  53644.246727  3  22.504  0.355  0.128  0.141   3.444e+00   1.164e+00   4.336e-01   4.773e-01  19  sdss  5670  82N  5 
   32  53644.248385  4  22.285  0.550  0.166  0.295   2.784e+00   3.080e+00   9.120e-01   1.621e+00  22  sdss  5670  82N  5 
   32  53644.247556  0  22.644  0.486  0.073  0.377   3.303e+00   1.425e+00   2.248e-01   1.165e+00  15  sdss  5670  82N  5 
    0  53654.283176  1  22.081  0.114  0.014  0.080   5.222e+00   5.456e-01   6.858e-02   3.818e-01  18  sdss  5709  82N  5 
    0  53654.279859  2  22.204  0.187  0.049  0.096   4.706e+00   8.135e-01   2.137e-01   4.218e-01  18  sdss  5709  82N  5 
   32  53654.280689  3  22.978  0.590  0.162  0.209   2.120e+00   1.279e+00   3.682e-01   4.762e-01  19  sdss  5709  82N  5 
    0  53654.282347  4  21.559  0.464  0.128  0.187   7.739e+00   3.870e+00   1.095e+00   1.604e+00  22  sdss  5709  82N  5 
   32  53654.281518  0  22.428  0.439  0.018  0.283   4.064e+00   1.566e+00   6.665e-02   1.060e+00  15  sdss  5709  82N  5 
    3  53656.230814  1  21.868  0.379  0.188  0.294   6.363e+00   2.125e+00   1.099e+00   1.715e+00  18  sdss  5719  82N  5 
    1  53656.227497  2  21.762  0.311  0.157  0.227   7.105e+00   1.994e+00   1.034e+00   1.492e+00  18  sdss  5719  82N  5 
    1  53656.228326  3  21.380  0.272  0.154  0.191   9.984e+00   2.462e+00   1.426e+00   1.761e+00  19  sdss  5719  82N  5 
    0  53656.229985  4  21.490  0.727  0.395  0.613   8.352e+00   6.167e+00   3.581e+00   5.547e+00  22  sdss  5719  82N  5 
 1187  53656.229156  0  21.760  0.632  0.343  0.636   7.606e+00   3.902e+00   2.347e+00   4.342e+00  15  sdss  5719  82N  5 
    1  53663.243631  1  22.195  0.218  0.047  0.075   4.697e+00   9.309e-01   2.014e-01   3.257e-01  18  sdss  5744  82N  5 
    1  53663.240314  2  22.165  0.213  0.054  0.074   4.882e+00   9.583e-01   2.445e-01   3.350e-01  18  sdss  5744  82N  5 
   32  53663.241143  3  22.756  0.499  0.104  0.145   2.675e+00   1.299e+00   2.838e-01   3.943e-01  19  sdss  5744  82N  5 
    0  53663.242801  4  21.939  0.520  0.139  0.218   4.866e+00   3.397e+00   9.181e-01   1.436e+00  22  sdss  5744  82N  5 
    1  53663.241972  0  21.799  0.373  0.033  0.152   7.334e+00   2.370e+00   2.149e-01   1.004e+00  15  sdss  5744  82N  5 
   32  53668.233230  1  22.228  0.163  0.054  0.268   4.556e+00   6.791e-01   2.258e-01   1.123e+00  18  sdss  5770  82N  5 
   32  53668.229914  2  22.496  0.287  0.134  0.238   3.575e+00   9.500e-01   4.536e-01   8.047e-01  18  sdss  5770  82N  5 
   32  53668.230743  3  22.477  0.500  0.409  0.351   3.536e+00   1.635e+00   1.414e+00   1.214e+00  19  sdss  5770  82N  5 
   32  53668.232401  4  21.646  0.705  0.306  0.534   7.009e+00   5.418e+00   2.463e+00   4.298e+00  22  sdss  5770  82N  5 
   32  53668.231572  0  21.960  0.351  0.079  0.560   6.312e+00   1.937e+00   4.486e-01   3.187e+00  15  sdss  5770  82N  5 
    0  53670.237733  1  22.070  0.114  0.029  0.098   5.276e+00   5.491e-01   1.408e-01   4.727e-01  18  sdss  5781  82N  5 
    0  53670.234416  2  22.456  0.225  0.044  0.129   3.713e+00   7.793e-01   1.548e-01   4.506e-01  18  sdss  5781  82N  5 
   32  53670.235245  3  22.562  0.402  0.125  0.165   3.252e+00   1.248e+00   4.018e-01   5.293e-01  19  sdss  5781  82N  5 
   32  53670.236903  4  22.464  0.681  0.136  0.376   1.835e+00   3.684e+00   7.002e-01   1.940e+00  22  sdss  5781  82N  5 
   40  53670.236074  0  22.270  0.356  0.216  0.330   4.722e+00   1.485e+00   9.325e-01   1.420e+00  15  sdss  5781  82N  5 
    0  53673.205643  1  22.092  0.122  0.057  0.143   5.169e+00   5.764e-01   2.687e-01   6.784e-01  18  sdss  5792  82N  5 
    0  53673.202326  2  22.378  0.230  0.124  0.165   3.996e+00   8.536e-01   4.652e-01   6.202e-01  18  sdss  5792  82N  5 
   32  53673.203155  3  22.496  0.427  0.245  0.266   3.471e+00   1.395e+00   8.314e-01   9.033e-01  19  sdss  5792  82N  5 
   32  53673.204814  4  21.694  0.583  0.340  0.494   6.627e+00   4.393e+00   2.640e+00   3.838e+00  22  sdss  5792  82N  5 
   40  53673.203984  0  22.577  0.574  0.550  0.844   3.523e+00   1.746e+00   1.802e+00   2.766e+00  15  sdss  5792  82N  5 
    0  53675.202274  1  22.034  0.123  0.042  0.175   5.455e+00   6.143e-01   2.126e-01   8.780e-01  18  sdss  5800  82N  5 
   32  53675.198957  2  22.309  0.263  0.145  0.244   4.265e+00   1.035e+00   5.797e-01   9.757e-01  18  sdss  5800  82N  5 
   32  53675.199786  3  22.205  0.370  0.178  0.244   4.601e+00   1.571e+00   7.800e-01   1.071e+00  19  sdss  5800  82N  5 
   32  53675.201445  4  22.709  0.873  0.543  0.735   6.061e-01   4.747e+00   2.664e+00   3.610e+00  22  sdss  5800  82N  5 
   32  53675.200616  0  22.000  0.338  0.022  0.520   6.080e+00   1.804e+00   1.198e-01   2.853e+00  15  sdss  5800  82N  5 
    0  53677.223297  1  22.189  0.122  0.031  0.098   4.723e+00   5.274e-01   1.357e-01   4.266e-01  18  sdss  5813  82N  5 
    0  53677.219980  2  22.288  0.193  0.096  0.109   4.350e+00   7.780e-01   3.925e-01   4.435e-01  18  sdss  5813  82N  5 
    0  53677.220810  3  22.441  0.333  0.111  0.127   3.662e+00   1.158e+00   3.943e-01   4.526e-01  19  sdss  5813  82N  5 
   32  53677.222468  4  22.141  0.534  0.200  0.288   3.604e+00   3.161e+00   1.176e+00   1.693e+00  22  sdss  5813  82N  5 
   32  53677.221639  0  22.931  0.655  0.038  0.572   2.493e+00   1.464e+00   9.208e-02   1.384e+00  15  sdss  5813  82N  5 
    8  53680.209570  1  22.222  0.133  0.096  0.144   4.581e+00   5.578e-01   4.045e-01   6.056e-01  18  sdss  5823  82N  5 
   32  53680.206253  2  22.762  0.327  0.043  0.249   2.772e+00   8.510e-01   1.142e-01   6.643e-01  18  sdss  5823  82N  5 
   32  53680.207082  3  22.696  0.448  0.207  0.232   2.844e+00   1.235e+00   5.932e-01   6.656e-01  19  sdss  5823  82N  5 
   32  53680.208741  4  22.288  0.615  0.308  0.416   2.767e+00   3.462e+00   1.693e+00   2.288e+00  22  sdss  5823  82N  5 
   32  53680.207911  0  22.172  0.329  0.077  0.330   5.173e+00   1.506e+00   3.640e-01   1.552e+00  15  sdss  5823  82N  5 
   33  53693.210290  1  22.912  0.545  0.167  0.229   2.396e+00   1.149e+00   3.772e-01   5.174e-01  18  sdss  5878  82N  5 
    1  53693.206973  2  22.030  0.223  0.085  0.102   5.537e+00   1.135e+00   4.384e-01   5.239e-01  18  sdss  5878  82N  5 
   32  53693.207802  3  22.691  0.530  0.161  0.219   2.859e+00   1.446e+00   4.625e-01   6.304e-01  19  sdss  5878  82N  5 
    0  53693.209461  4  23.138  0.704  0.240  0.427  -1.510e+00   3.777e+00   1.217e+00   2.162e+00  22  sdss  5878  82N  5 
   33  53693.208631  0  22.066  0.623  0.027  0.305   5.715e+00   2.928e+00   1.408e-01   1.579e+00  15  sdss  5878  82N  5 
   36  53699.230628  1  22.591  0.404  0.290  0.188   3.246e+00   1.169e+00   8.758e-01   5.683e-01  18  sdss  5902  82N  5 
  188  53699.227311  2  23.914  1.733  5.203  0.468   7.912e-01   2.178e+00   5.620e+00   5.051e-01  18  sdss  5902  82N  5 
 1212  53699.228140  3  22.344  0.781  1.728  0.160   4.025e+00   2.669e+00   6.707e+00   6.219e-01  19  sdss  5902  82N  5 
 1156  53699.229798  4  21.685  1.883  0.959  0.262   6.698e+00   1.582e+01   7.503e+00   2.053e+00  22  sdss  5902  82N  5 
 1060  53699.228969  0  22.561  1.947  0.073  0.499   3.578e+00   4.485e+00   2.422e-01   1.659e+00  15  sdss  5902  82N  5 
   32  53702.205200  1  21.806  0.373  0.411  0.608   6.738e+00   2.216e+00   2.534e+00   3.752e+00  18  sdss  5909  82N  5 
   32  53702.202712  3  21.858  1.044  0.849  0.740   6.391e+00   4.957e+00   5.078e+00   4.426e+00  19  sdss  5909  82N  5 
    0  53702.204370  4  23.983  2.206  2.793  2.342  -6.722e+00   2.086e+01   2.190e+01   1.836e+01  22  sdss  5909  82N  5 
   32  53704.192957  1  22.645  0.196  0.067  0.177   3.085e+00   5.587e-01   1.913e-01   5.081e-01  18  sdss  5918  82N  5 
   32  53704.189641  2  22.574  0.265  0.049  0.168   3.320e+00   8.213e-01   1.558e-01   5.303e-01  18  sdss  5918  82N  5 
   32  53704.190470  3  22.729  0.480  0.149  0.213   2.750e+00   1.280e+00   4.143e-01   5.936e-01  19  sdss  5918  82N  5 
   32  53704.192128  4  21.990  0.606  0.239  0.346   4.538e+00   3.857e+00   1.531e+00   2.213e+00  22  sdss  5918  82N  5 
   40  53704.191299  0  24.183  1.286  1.183  1.776   4.830e-01   1.606e+00   1.254e+00   1.882e+00  15  sdss  5918  82N  5 
