# SDSS CID:   8229 IAU:          RA: 335.559448 DEC:  -0.118238  (J2000)
# GALAXY_SB [ugriz] = [ 23.94 23.47 22.36 21.68 21.24 ] +/- [  0.25  0.06  0.03  0.02  0.05 ] (asinh mag/square arcsec)
# GALAXY_SB_FLUX [ugriz] = [  7.162E-01  1.390E+00  4.052E+00  7.531E+00  1.080E+01 ] +/- [  2.920E-01  8.492E-02  1.084E-01  1.390E-01  5.240E-01 ] (microJy per square arcsec)
#FLAG  MJD       FILT  MAG     MERR  MSKYERR MGALERR  FLUX       FLUXERR    SKYERR     GALERR    NPRE TELE   RUN  STRIP  IDCCD
   32  53616.247781  1  23.885  0.636  0.477  0.660   8.922e-01   6.141e-01   4.812e-01   6.663e-01  10  sdss  5566  82N  3 
   32  53616.244464  2  22.923  0.462  0.178  0.424   2.372e+00   1.025e+00   4.131e-01   9.866e-01  11  sdss  5566  82N  3 
   32  53616.245293  3  23.525  1.029  0.676  0.778   1.093e+00   1.625e+00   1.051e+00   1.210e+00  13  sdss  5566  82N  3 
   32  53616.246952  4  22.332  0.914  0.624  0.611   2.531e+00   5.297e+00   3.374e+00   3.304e+00  15  sdss  5566  82N  3 
    0  53616.246122  0  25.037  1.475  0.413  2.760  -3.670e-01   1.936e+00   4.226e-01   2.826e+00  10  sdss  5566  82N  3 
    0  53623.237926  1  23.235  0.361  0.062  0.227   1.755e+00   6.018e-01   1.063e-01   3.894e-01  10  sdss  5590  82N  3 
   32  53623.234609  2  22.970  0.383  0.148  0.181   2.265e+00   8.284e-01   3.298e-01   4.034e-01  11  sdss  5590  82N  3 
   32  53623.235439  3  22.944  0.563  0.112  0.206   2.199e+00   1.259e+00   2.641e-01   4.834e-01  13  sdss  5590  82N  3 
   32  53623.237097  4  22.147  0.719  0.221  0.353   3.571e+00   4.302e+00   1.303e+00   2.077e+00  15  sdss  5590  82N  3 
   32  53623.236268  0  23.124  0.835  0.099  0.644   2.049e+00   1.575e+00   2.062e-01   1.345e+00  10  sdss  5590  82N  3 
    9  53626.224231  1  23.157  0.559  0.830  0.201   1.893e+00   9.578e-01   1.525e+00   3.698e-01  10  sdss  5603  82N  3 
   41  53626.220914  2  22.558  0.390  0.395  0.184   3.372e+00   1.204e+00   1.268e+00   5.905e-01  11  sdss  5603  82N  3 
 1080  53626.221744  3  23.258  0.821  2.516  0.291   1.545e+00   1.456e+00   4.664e+00   5.392e-01  13  sdss  5603  82N  3 
   56  53626.223402  4  21.957  0.643  1.213  0.270   4.748e+00   4.175e+00   7.950e+00   1.771e+00  15  sdss  5603  82N  3 
   41  53626.222573  0  23.078  1.306  0.539  0.745   2.148e+00   2.371e+00   1.170e+00   1.615e+00  10  sdss  5603  82N  3 
    1  53628.209168  1  22.944  0.988  0.286  0.347   2.324e+00   1.799e+00   6.347e-01   7.686e-01  10  sdss  5610  82N  3 
    1  53628.205851  2  25.566  1.502  0.638  0.862  -6.623e-01   1.723e+00   6.408e-01   8.659e-01  11  sdss  5610  82N  3 
    1  53628.206681  3  25.191  1.194  0.435  0.591  -1.080e+00   1.924e+00   6.725e-01   9.149e-01  13  sdss  5610  82N  3 
    8  53628.208339  4  22.902  1.006  2.058  0.748  -3.365e-01   5.643e+00   1.006e+01   3.655e+00  15  sdss  5610  82N  3 
    9  53628.207510  0  24.758  2.194  2.898  2.713  -8.942e-02   3.900e+00   2.817e+00   2.638e+00  10  sdss  5610  82N  3 
    1  53635.217318  1  22.530  0.269  0.084  0.128   3.437e+00   8.488e-01   2.690e-01   4.114e-01  10  sdss  5622  82N  3 
   32  53635.214001  2  24.006  0.910  0.340  0.416   6.948e-01   9.435e-01   3.482e-01   4.259e-01  11  sdss  5622  82N  3 
   32  53635.214831  3  22.652  0.468  0.148  0.208   2.972e+00   1.337e+00   4.428e-01   6.206e-01  13  sdss  5622  82N  3 
    0  53635.216489  4  23.570  0.695  0.286  0.454  -3.876e+00   4.240e+00   1.728e+00   2.747e+00  15  sdss  5622  82N  3 
    1  53635.215660  0  22.576  0.790  0.085  0.629   3.529e+00   2.306e+00   2.826e-01   2.092e+00  10  sdss  5622  82N  3 
    0  53637.210178  1  22.690  0.266  0.206  0.277   2.958e+00   7.260e-01   5.722e-01   7.698e-01  10  sdss  5633  82N  3 
   32  53637.206861  2  23.374  0.670  0.395  0.498   1.501e+00   1.002e+00   6.296e-01   7.953e-01  11  sdss  5633  82N  3 
   32  53637.207690  3  23.267  0.910  0.286  0.565   1.528e+00   1.600e+00   5.271e-01   1.041e+00  13  sdss  5633  82N  3 
   32  53637.209349  4  21.892  0.846  0.579  0.524   5.182e+00   5.678e+00   3.954e+00   3.580e+00  15  sdss  5633  82N  3 
   40  53637.208519  0  24.196  1.530  1.843  3.219   4.693e-01   2.064e+00   1.949e+00   3.403e+00  10  sdss  5633  82N  3 
    0  53644.202511  1  23.009  0.232  0.020  0.136   2.185e+00   4.782e-01   4.120e-02   2.837e-01  10  sdss  5670  82N  3 
   32  53644.199194  2  23.108  0.383  0.032  0.163   1.974e+00   7.376e-01   6.296e-02   3.231e-01  11  sdss  5670  82N  3 
   32  53644.200023  3  22.281  0.280  0.039  0.083   4.275e+00   1.132e+00   1.612e-01   3.412e-01  13  sdss  5670  82N  3 
   32  53644.201682  4  22.172  0.612  0.055  0.239   3.425e+00   3.602e+00   3.192e-01   1.387e+00  15  sdss  5670  82N  3 
   32  53644.200853  0  23.217  0.774  0.066  0.545   1.860e+00   1.381e+00   1.277e-01   1.057e+00  10  sdss  5670  82N  3 
    1  53654.236240  1  22.934  0.299  0.091  0.139   2.347e+00   6.545e-01   2.036e-01   3.102e-01  10  sdss  5709  82N  3 
   32  53654.232923  2  22.836  0.354  0.069  0.114   2.582e+00   8.624e-01   1.742e-01   2.860e-01  11  sdss  5709  82N  3 
   32  53654.233753  3  22.469  0.378  0.106  0.091   3.562e+00   1.279e+00   3.718e-01   3.181e-01  13  sdss  5709  82N  3 
   32  53654.235411  4  22.642  0.818  0.104  0.294   9.342e-01   4.417e+00   5.159e-01   1.456e+00  15  sdss  5709  82N  3 
   33  53654.234582  0  23.237  0.956  0.098  0.645   1.820e+00   1.641e+00   1.868e-01   1.230e+00  10  sdss  5709  82N  3 
    1  53656.183837  1  23.081  1.122  0.370  0.464   2.038e+00   1.761e+00   7.260e-01   9.107e-01  10  sdss  5719  82N  3 
 1281  53656.180520  2  17.338  0.013  0.003  0.003   4.198e+02   5.050e+00   9.737e-01   1.037e+00  11  sdss  5719  82N  3 
   33  53656.181349  3  22.480  0.653  0.307  0.302   3.524e+00   2.069e+00   1.061e+00   1.044e+00  13  sdss  5719  82N  3 
    0  53656.183008  4  23.260  1.115  0.510  0.877  -2.138e+00   6.654e+00   2.683e+00   4.616e+00  15  sdss  5719  82N  3 
    1  53656.182178  0  26.254  2.077  0.882  1.549  -2.150e+00   4.025e+00   1.913e+00   3.358e+00  10  sdss  5719  82N  3 
    1  53663.196511  1  22.598  0.273  0.031  0.081   3.226e+00   8.089e-01   9.273e-02   2.452e-01  10  sdss  5744  82N  3 
   33  53663.193194  2  22.830  0.344  0.085  0.094   2.597e+00   8.431e-01   2.135e-01   2.364e-01  11  sdss  5744  82N  3 
   32  53663.194024  3  23.236  0.644  0.107  0.137   1.586e+00   1.170e+00   2.010e-01   2.585e-01  13  sdss  5744  82N  3 
    0  53663.195682  4  23.346  0.616  0.074  0.203  -2.597e+00   3.440e+00   4.018e-01   1.102e+00  15  sdss  5744  82N  3 
    1  53663.194853  0  25.078  1.494  0.322  0.873  -4.091e-01   1.981e+00   3.334e-01   9.054e-01  10  sdss  5744  82N  3 
    8  53668.186022  1  23.541  0.436  0.394  0.498   1.291e+00   5.570e-01   5.214e-01   6.594e-01  10  sdss  5770  82N  3 
   32  53668.182705  2  23.144  0.559  0.100  0.429   1.904e+00   1.014e+00   1.922e-01   8.256e-01  11  sdss  5770  82N  3 
   32  53668.183534  3  22.707  0.552  0.167  0.259   2.812e+00   1.486e+00   4.750e-01   7.401e-01  13  sdss  5770  82N  3 
   32  53668.185192  4  22.066  0.892  0.499  0.505   4.057e+00   5.578e+00   3.068e+00   3.103e+00  15  sdss  5770  82N  3 
  160  53668.184363  0  23.070  0.890  0.174  1.269   2.166e+00   1.725e+00   3.802e-01   2.768e+00  10  sdss  5770  82N  3 
    8  53670.190490  1  23.065  0.282  0.239  0.298   2.070e+00   5.503e-01   4.763e-01   5.932e-01  10  sdss  5781  82N  3 
   32  53670.187173  2  23.677  0.660  0.157  0.347   1.069e+00   8.062e-01   1.994e-01   4.394e-01  11  sdss  5781  82N  3 
   32  53670.188002  3  22.964  0.568  0.159  0.201   2.153e+00   1.252e+00   3.682e-01   4.651e-01  13  sdss  5781  82N  3 
   32  53670.189660  4  22.266  0.790  0.424  0.445   2.892e+00   4.571e+00   2.359e+00   2.472e+00  15  sdss  5781  82N  3 
   40  53670.188831  0  23.487  0.954  0.568  0.995   1.379e+00   1.416e+00   8.956e-01   1.569e+00  10  sdss  5781  82N  3 
    0  53673.158352  1  22.834  0.236  0.102  0.258   2.581e+00   5.675e-01   2.486e-01   6.295e-01  10  sdss  5792  82N  3 
   32  53673.155035  2  22.841  0.356  0.032  0.229   2.570e+00   8.639e-01   7.915e-02   5.730e-01  11  sdss  5792  82N  3 
   32  53673.155864  3  22.920  0.580  0.273  0.279   2.256e+00   1.318e+00   6.535e-01   6.671e-01  13  sdss  5792  82N  3 
   32  53673.157523  4  22.388  0.826  0.627  0.581   2.232e+00   4.655e+00   3.320e+00   3.074e+00  15  sdss  5792  82N  3 
   32  53673.156694  0  23.459  1.085  0.082  1.438   1.425e+00   1.630e+00   1.320e-01   2.315e+00  10  sdss  5792  82N  3 
    8  53675.154952  1  23.480  0.363  0.257  0.314   1.375e+00   4.922e-01   3.580e-01   4.370e-01  10  sdss  5800  82N  3 
   32  53675.151635  2  24.284  0.911  0.268  0.612   4.300e-01   8.680e-01   2.387e-01   5.459e-01  11  sdss  5800  82N  3 
   32  53675.152465  3  22.913  0.559  0.136  0.237   2.273e+00   1.282e+00   3.283e-01   5.712e-01  13  sdss  5800  82N  3 
   32  53675.154123  4  22.018  0.720  0.152  0.426   4.357e+00   4.545e+00   9.621e-01   2.695e+00  15  sdss  5800  82N  3 
   32  53675.153294  0  23.900  1.170  0.110  1.659   8.042e-01   1.503e+00   1.325e-01   2.008e+00  10  sdss  5800  82N  3 
    0  53677.175948  1  23.063  0.241  0.065  0.153   2.074e+00   4.740e-01   1.291e-01   3.050e-01  10  sdss  5813  82N  3 
   32  53677.172632  2  23.446  0.502  0.042  0.201   1.389e+00   7.301e-01   6.405e-02   3.023e-01  11  sdss  5813  82N  3 
   32  53677.173461  3  22.945  0.486  0.097  0.143   2.197e+00   1.099e+00   2.268e-01   3.350e-01  13  sdss  5813  82N  3 
   32  53677.175119  4  22.403  0.654  0.084  0.304   2.153e+00   3.579e+00   4.447e-01   1.602e+00  15  sdss  5813  82N  3 
   32  53677.174290  0  23.309  0.821  0.048  0.705   1.684e+00   1.370e+00   8.577e-02   1.270e+00  10  sdss  5813  82N  3 
    0  53680.162179  1  23.011  0.250  0.026  0.197   2.180e+00   5.133e-01   5.491e-02   4.120e-01  10  sdss  5823  82N  3 
   32  53680.158862  2  23.053  0.418  0.102  0.256   2.086e+00   8.391e-01   2.123e-01   5.326e-01  11  sdss  5823  82N  3 
   32  53680.159691  3  22.851  0.506  0.101  0.235   2.425e+00   1.225e+00   2.548e-01   5.953e-01  13  sdss  5823  82N  3 
   32  53680.161350  4  22.626  0.714  0.522  0.436   1.013e+00   3.784e+00   2.594e+00   2.165e+00  15  sdss  5823  82N  3 
   32  53680.160520  0  24.318  1.246  0.127  1.775   3.424e-01   1.514e+00   1.296e-01   1.805e+00  10  sdss  5823  82N  3 
    3  53686.228543  1  23.143  2.002  0.613  0.588   1.919e+00   2.683e+00   1.139e+00   1.093e+00  10  sdss  5865  82N  3 
    1  53686.225226  2  25.851  1.858  0.511  1.059  -9.750e-01   2.496e+00   6.144e-01   1.273e+00  11  sdss  5865  82N  3 
   33  53686.226055  3  22.249  0.744  0.287  0.370   4.408e+00   2.794e+00   1.214e+00   1.568e+00  13  sdss  5865  82N  3 
    0  53686.227714  4  23.344  1.289  1.334  1.012  -2.586e+00   8.156e+00   7.249e+00   5.493e+00  15  sdss  5865  82N  3 
    3  53686.226885  0  28.497  0.487  0.195  0.284  -1.791e+01   7.394e+00   3.159e+00   4.594e+00  10  sdss  5865  82N  3 
    1  53693.162771  1  22.694  0.386  0.056  0.133   2.947e+00   1.031e+00   1.556e-01   3.682e-01  10  sdss  5878  82N  3 
   33  53693.159455  2  24.617  1.118  0.127  0.521   1.487e-01   1.067e+00   1.031e-01   4.223e-01  11  sdss  5878  82N  3 
   32  53693.160284  3  22.095  0.292  0.077  0.103   5.106e+00   1.389e+00   3.732e-01   4.998e-01  13  sdss  5878  82N  3 
   32  53693.161942  4  22.524  0.744  0.299  0.375   1.524e+00   4.023e+00   1.516e+00   1.904e+00  15  sdss  5878  82N  3 
    1  53693.161113  0  22.913  1.283  0.238  0.610   2.536e+00   2.577e+00   5.906e-01   1.516e+00  10  sdss  5878  82N  3 
 1028  53698.159677  1  20.557  1.549  0.813  0.043   2.134e+01   1.900e+01   1.593e+01   8.382e-01  10  sdss  5898  82N  3 
 1157  53698.156361  2  29.869  4.558  0.621  0.014  -4.615e+01   5.439e+01   2.637e+01   5.766e-01  11  sdss  5898  82N  3 
 1028  53698.157190  3  28.873  4.430  0.639  0.018  -4.097e+01   5.595e+01   2.417e+01   6.845e-01  13  sdss  5898  82N  3 
 1028  53698.158848  4  18.498  3.977  0.781  0.025   1.434e+02   1.767e+02   1.033e+02   3.368e+00  15  sdss  5898  82N  3 
 1028  53698.158019  0  20.581  4.873  0.683  0.115   2.263e+01   5.177e+01   1.396e+01   2.346e+00  10  sdss  5898  82N  3 
 1036  53699.183075  1  22.181  0.586  0.478  0.103   4.761e+00   2.367e+00   2.110e+00   4.529e-01  10  sdss  5902  82N  3 
   44  53699.179759  2  24.257  1.422  1.744  0.454   4.542e-01   1.541e+00   1.573e+00   4.093e-01  11  sdss  5902  82N  3 
   44  53699.180588  3  24.026  1.292  1.887  0.402   4.045e-01   1.948e+00   2.342e+00   4.987e-01  13  sdss  5902  82N  3 
  132  53699.182246  4  23.691  1.350  0.894  0.319  -4.638e+00   9.290e+00   5.803e+00   2.073e+00  15  sdss  5902  82N  3 
   44  53699.181417  0  24.263  1.678  1.568  1.798   3.990e-01   2.382e+00   1.620e+00   1.858e+00  10  sdss  5902  82N  3 
    2  53702.154321  2  25.442  1.451  1.056  2.624  -5.416e-01   1.607e+00   9.939e-01   2.471e+00  11  sdss  5909  82N  3 
    0  53702.155150  3  24.621  1.853  2.778  2.522  -3.092e-01   3.437e+00   3.384e+00   3.072e+00  13  sdss  5909  82N  3 
    0  53702.156808  4  22.923  1.821  3.158  2.445  -4.390e-01   1.368e+01   1.545e+01   1.197e+01  15  sdss  5909  82N  3 
   10  53702.155979  0  21.753  0.444  0.806  1.207   7.656e+00   2.939e+00   5.624e+00   8.423e+00  10  sdss  5909  82N  3 
    0  53704.144962  1  23.323  0.347  0.138  0.270   1.608e+00   5.375e-01   2.202e-01   4.288e-01  10  sdss  5918  82N  3 
   32  53704.141646  2  24.337  0.899  0.391  0.567   3.832e-01   8.438e-01   3.414e-01   4.951e-01  11  sdss  5918  82N  3 
   32  53704.142475  3  23.614  0.868  0.223  0.376   9.568e-01   1.306e+00   3.291e-01   5.552e-01  13  sdss  5918  82N  3 
   32  53704.144133  4  22.202  0.750  0.286  0.378   3.253e+00   4.409e+00   1.636e+00   2.163e+00  15  sdss  5918  82N  3 
    0  53704.143304  0  26.442  0.672  0.067  0.716  -2.598e+00   1.562e+00   1.703e-01   1.816e+00  10  sdss  5918  82N  3 
