# SDSS CID:   8246 IAU:          RA:  27.948259 DEC:   1.179435  (J2000)
# GALAXY_SB [ugriz] = [ 22.90 21.31 20.29 19.77 19.35 ] +/- [  0.12  0.01  0.01  0.01  0.01 ] (asinh mag/square arcsec)
# GALAXY_SB_FLUX [ugriz] = [  2.482E+00  1.057E+01  2.772E+01  4.424E+01  6.481E+01 ] +/- [  3.023E-01  1.106E-01  1.669E-01  2.657E-01  8.245E-01 ] (microJy per square arcsec)
#FLAG  MJD       FILT  MAG     MERR  MSKYERR MGALERR  FLUX       FLUXERR    SKYERR     GALERR    NPRE TELE   RUN  STRIP  IDCCD
   32  53616.391234  1  24.994  1.179  1.065  2.365   7.306e-02   8.406e-01   6.315e-01   1.402e+00  23  sdss  5566  82N  6 
    0  53616.387917  2  25.275  1.269  1.299  1.988  -3.896e-01   1.301e+00   1.139e+00   1.743e+00  25  sdss  5566  82N  6 
   32  53616.388746  3  22.903  0.954  0.589  1.234   2.296e+00   2.075e+00   1.435e+00   3.005e+00  26  sdss  5566  82N  6 
  128  53616.390405  4  24.802  0.472  0.570  0.656  -1.581e+01   6.873e+00   8.730e+00   1.005e+01  23  sdss  5566  82N  6 
   34  53616.389576  0  24.120  1.601  0.442  3.889   5.511e-01   2.229e+00   4.809e-01   4.226e+00  18  sdss  5566  82N  6 
 1186  53626.368454  1  23.601  1.186  2.222  1.605   1.213e+00   1.289e+00   2.818e+00   2.035e+00  23  sdss  5603  82N  6 
  168  53626.365137  2  22.475  0.480  0.969  0.590   3.647e+00   1.577e+00   3.372e+00   2.053e+00  25  sdss  5603  82N  6 
  130  53626.365966  3  26.202  0.783  0.601  1.553  -3.381e+00   2.332e+00   2.013e+00   5.203e+00  26  sdss  5603  82N  6 
 1194  53626.367625  4  20.515  0.367  0.897  0.608   2.206e+01   7.388e+00   1.871e+01   1.268e+01  23  sdss  5603  82N  6 
 1190  53626.366796  0  23.180  1.495  0.751  2.816   1.933e+00   2.557e+00   1.488e+00   5.579e+00  18  sdss  5603  82N  6 
   33  53628.353139  1  22.848  0.522  0.237  0.301   2.548e+00   1.188e+00   5.754e-01   7.310e-01  23  sdss  5610  82N  6 
   33  53628.349822  2  23.130  0.795  0.295  0.538   1.931e+00   1.400e+00   5.787e-01   1.056e+00  25  sdss  5610  82N  6 
    0  53628.350651  3  26.252  0.586  0.330  0.439  -3.551e+00   1.905e+00   1.152e+00   1.536e+00  26  sdss  5610  82N  6 
    0  53628.352310  4  24.252  0.629  0.415  0.573  -9.070e+00   5.732e+00   4.004e+00   5.533e+00  23  sdss  5610  82N  6 
   33  53628.351481  0  22.582  1.053  0.491  0.725   3.507e+00   2.811e+00   1.612e+00   2.379e+00  18  sdss  5610  82N  6 
    1  53635.361852  1  25.620  1.335  0.483  0.592  -3.059e-01   1.033e+00   3.153e-01   3.870e-01  23  sdss  5622  82N  6 
    1  53635.358534  2  26.425  0.719  0.285  0.305  -1.837e+00   1.238e+00   5.364e-01   5.752e-01  25  sdss  5622  82N  6 
    0  53635.359364  3  26.397  0.456  0.107  0.258  -4.092e+00   1.727e+00   4.239e-01   1.026e+00  26  sdss  5622  82N  6 
   32  53635.361022  4  20.049  0.168  0.050  0.107   3.417e+01   5.290e+00   1.586e+00   3.413e+00  23  sdss  5622  82N  6 
   33  53635.360193  0  22.982  1.226  0.101  0.477   2.368e+00   2.366e+00   2.358e-01   1.111e+00  18  sdss  5622  82N  6 
    1  53637.355289  1  25.986  1.307  0.496  1.130  -5.674e-01   1.080e+00   3.910e-01   8.912e-01  23  sdss  5633  82N  6 
    0  53637.351972  2  25.755  1.181  0.505  0.925  -8.630e-01   1.335e+00   5.711e-01   1.047e+00  25  sdss  5633  82N  6 
    0  53637.352801  3  26.441  0.502  0.272  0.421  -4.269e+00   1.955e+00   1.122e+00   1.740e+00  26  sdss  5633  82N  6 
    0  53637.354460  4  23.864  0.880  0.473  0.816  -5.819e+00   6.160e+00   3.423e+00   5.902e+00  23  sdss  5633  82N  6 
    1  53637.353630  0  25.656  1.767  1.004  2.108  -1.098e+00   2.756e+00   1.385e+00   2.907e+00  18  sdss  5633  82N  6 
    0  53639.400704  1  25.284  1.023  0.426  0.945  -9.802e-02   6.993e-01   2.538e-01   5.632e-01  23  sdss  5642  82N  6 
   32  53639.397387  2  23.821  0.907  0.386  0.641   8.949e-01   1.019e+00   4.446e-01   7.389e-01  25  sdss  5642  82N  6 
   32  53639.398216  3  22.822  0.631  0.189  0.428   2.501e+00   1.536e+00   4.911e-01   1.114e+00  26  sdss  5642  82N  6 
   32  53639.399875  4  22.761  0.848  0.403  0.715   3.519e-01   4.574e+00   1.971e+00   3.497e+00  23  sdss  5642  82N  6 
    0  53639.399046  0  25.592  1.179  0.312  1.018  -1.011e+00   1.585e+00   4.129e-01   1.349e+00  18  sdss  5642  82N  6 
    0  53641.399949  1  25.167  0.954  0.498  0.810  -2.908e-02   6.375e-01   2.938e-01   4.775e-01  23  sdss  5658  82N  6 
    0  53641.396634  2  26.138  0.761  0.202  0.584  -1.357e+00   1.058e+00   3.019e-01   8.719e-01  25  sdss  5658  82N  6 
    0  53641.397463  3  26.144  0.525  0.224  0.414  -3.192e+00   1.581e+00   7.139e-01   1.320e+00  26  sdss  5658  82N  6 
   32  53641.399120  4  22.004  0.719  0.144  0.585   4.445e+00   4.564e+00   9.134e-01   3.724e+00  23  sdss  5658  82N  6 
   32  53641.398293  0  23.652  1.157  0.493  1.078   1.130e+00   1.599e+00   6.901e-01   1.510e+00  18  sdss  5658  82N  6 
   32  53644.348179  1  24.167  0.772  0.344  0.695   6.342e-01   6.292e-01   2.861e-01   5.778e-01  23  sdss  5670  82N  6 
   32  53644.344862  2  23.644  0.845  0.231  0.690   1.111e+00   1.043e+00   3.009e-01   9.004e-01  25  sdss  5670  82N  6 
   32  53644.345691  3  21.901  0.279  0.119  0.247   6.134e+00   1.589e+00   6.932e-01   1.435e+00  26  sdss  5670  82N  6 
   32  53644.347350  4  21.988  0.737  0.381  0.750   4.548e+00   4.712e+00   2.450e+00   4.816e+00  23  sdss  5670  82N  6 
    8  53644.346520  0  25.543  1.145  1.024  1.359  -9.462e-01   1.510e+00   1.317e+00   1.748e+00  18  sdss  5670  82N  6 
    3  53657.359133  1  26.826  1.682  1.179  1.141  -1.475e+00   1.974e+00   1.752e+00   1.696e+00  23  sdss  5731  82N  6 
    3  53657.355816  2  26.018  1.623  1.438  1.674  -1.188e+00   2.132e+00   1.957e+00   2.279e+00  25  sdss  5731  82N  6 
   35  53657.356645  3  22.645  1.143  0.885  1.341   2.994e+00   2.861e+00   2.671e+00   4.048e+00  26  sdss  5731  82N  6 
    0  53657.358303  4  24.247  0.831  0.613  0.962  -9.021e+00   7.315e+00   5.893e+00   9.253e+00  23  sdss  5731  82N  6 
   33  53657.357474  0  21.781  1.244  0.633  0.855   7.459e+00   6.094e+00   4.268e+00   5.763e+00  18  sdss  5731  82N  6 
    1  53663.343658  1  26.095  1.325  0.269  0.494  -6.561e-01   1.133e+00   2.273e-01   4.180e-01  23  sdss  5744  82N  6 
    1  53663.340341  2  25.858  1.132  0.302  0.550  -9.827e-01   1.325e+00   3.669e-01   6.673e-01  25  sdss  5744  82N  6 
   33  53663.341170  3  23.694  1.146  0.386  0.706   8.418e-01   1.754e+00   5.478e-01   1.002e+00  26  sdss  5744  82N  6 
   32  53663.342829  4  21.802  0.748  0.258  0.441   5.818e+00   5.249e+00   1.868e+00   3.190e+00  23  sdss  5744  82N  6 
    1  53663.342000  0  25.588  1.798  0.620  0.947  -1.005e+00   2.806e+00   8.194e-01   1.251e+00  18  sdss  5744  82N  6 
   33  53666.413768  1  23.567  0.803  0.179  0.396   1.257e+00   9.483e-01   2.335e-01   5.168e-01  23  sdss  5765  82N  6 
    1  53666.410450  2  24.904  1.335  0.802  1.358  -8.175e-02   1.358e+00   6.437e-01   1.089e+00  25  sdss  5765  82N  6 
   32  53666.411280  3  21.707  0.274  0.103  0.206   7.358e+00   1.861e+00   7.125e-01   1.426e+00  26  sdss  5765  82N  6 
   32  53666.412939  4  21.012  0.402  0.068  0.263   1.366e+01   5.227e+00   9.116e-01   3.545e+00  23  sdss  5765  82N  6 
    1  53666.412109  0  21.978  0.541  0.095  0.315   6.207e+00   2.831e+00   5.365e-01   1.774e+00  18  sdss  5765  82N  6 
   32  53668.333518  1  25.115  1.234  1.253  1.833   1.989e-03   8.935e-01   7.380e-01   1.079e+00  23  sdss  5770  82N  6 
    0  53668.330201  2  25.005  1.329  1.046  2.047  -1.626e-01   1.355e+00   8.504e-01   1.664e+00  25  sdss  5770  82N  6 
   32  53668.331030  3  23.682  1.263  0.921  1.812   8.587e-01   1.987e+00   1.314e+00   2.586e+00  26  sdss  5770  82N  6 
   32  53668.332688  4  21.721  0.800  0.415  0.873   6.423e+00   5.857e+00   3.180e+00   6.683e+00  23  sdss  5770  82N  6 
    0  53668.331859  0  27.078  0.509  0.401  0.687  -4.793e+00   2.098e+00   1.763e+00   3.020e+00  18  sdss  5770  82N  6 
   33  53669.421153  1  23.151  0.598  0.199  0.524   1.905e+00   1.028e+00   3.690e-01   9.746e-01  23  sdss  5777  82N  6 
    0  53669.417836  2  26.299  0.943  0.440  0.794  -1.612e+00   1.421e+00   7.460e-01   1.347e+00  25  sdss  5777  82N  6 
   32  53669.418665  3  22.971  0.959  0.379  0.875   2.136e+00   1.995e+00   8.750e-01   2.019e+00  26  sdss  5777  82N  6 
   32  53669.420324  4  22.076  0.896  0.383  0.768   3.996e+00   5.583e+00   2.336e+00   4.688e+00  23  sdss  5777  82N  6 
    1  53669.419494  0  26.175  1.578  1.329  1.242  -1.982e+00   2.738e+00   2.684e+00   2.508e+00  18  sdss  5777  82N  6 
    0  53670.338128  1  26.156  0.890  0.639  1.177  -7.085e-01   7.568e-01   5.629e-01   1.037e+00  23  sdss  5781  82N  6 
   34  53670.334811  2  23.422  1.143  1.020  2.002   1.424e+00   1.567e+00   1.576e+00   3.092e+00  25  sdss  5781  82N  6 
  160  53670.335640  3  21.877  0.391  0.350  0.652   6.274e+00   2.229e+00   2.079e+00   3.870e+00  26  sdss  5781  82N  6 
    0  53670.337298  4  23.977  0.752  0.506  0.822  -6.672e+00   5.631e+00   3.961e+00   6.439e+00  23  sdss  5781  82N  6 
 1186  53670.336469  0  23.376  1.519  0.699  3.130   1.564e+00   2.409e+00   1.189e+00   5.326e+00  18  sdss  5781  82N  6 
   32  53673.306187  1  24.676  0.887  0.377  0.760   2.677e-01   6.096e-01   2.410e-01   4.853e-01  23  sdss  5792  82N  6 
   32  53673.302870  2  23.612  0.798  0.298  0.533   1.153e+00   1.007e+00   3.983e-01   7.116e-01  25  sdss  5792  82N  6 
   32  53673.303699  3  22.069  0.324  0.089  0.233   5.235e+00   1.574e+00   4.450e-01   1.163e+00  26  sdss  5792  82N  6 
   32  53673.305357  4  20.025  0.156  0.019  0.104   3.495e+01   5.029e+00   6.168e-01   3.378e+00  23  sdss  5792  82N  6 
    8  53673.304528  0  25.680  1.039  0.889  0.969  -1.133e+00   1.425e+00   1.246e+00   1.358e+00  18  sdss  5792  82N  6 
   32  53675.302919  1  24.190  0.774  0.319  0.671   6.153e-01   6.233e-01   2.612e-01   5.495e-01  23  sdss  5800  82N  6 
   32  53675.299603  2  24.124  1.074  0.746  0.934   5.779e-01   1.097e+00   7.178e-01   8.988e-01  25  sdss  5800  82N  6 
   32  53675.300432  3  22.350  0.455  0.245  0.367   4.001e+00   1.690e+00   9.521e-01   1.429e+00  26  sdss  5800  82N  6 
    0  53675.302090  4  24.007  0.651  0.422  0.551  -6.910e+00   5.005e+00   3.374e+00   4.409e+00  23  sdss  5800  82N  6 
    0  53675.301261  0  24.892  1.273  0.908  1.810  -2.214e-01   1.546e+00   8.979e-01   1.790e+00  18  sdss  5800  82N  6 
   32  53677.324039  1  24.473  0.874  0.601  0.787   4.023e-01   6.327e-01   4.187e-01   5.485e-01  23  sdss  5813  82N  6 
    0  53677.320722  2  25.736  0.909  0.387  0.626  -8.419e-01   9.998e-01   4.330e-01   6.999e-01  25  sdss  5813  82N  6 
   32  53677.321551  3  21.931  0.281  0.091  0.205   5.963e+00   1.554e+00   5.150e-01   1.160e+00  26  sdss  5813  82N  6 
    0  53677.323210  4  23.444  0.775  0.406  0.755  -3.142e+00   4.536e+00   2.303e+00   4.277e+00  23  sdss  5813  82N  6 
   40  53677.322381  0  24.014  1.181  1.151  1.243   6.702e-01   1.478e+00   1.311e+00   1.416e+00  18  sdss  5813  82N  6 
   32  53680.310457  1  23.362  0.420  0.169  0.324   1.547e+00   6.269e-01   2.609e-01   5.015e-01  23  sdss  5823  82N  6 
    0  53680.307140  2  24.872  1.105  0.321  0.959  -5.550e-02   1.044e+00   2.568e-01   7.680e-01  25  sdss  5823  82N  6 
   32  53680.307969  3  22.440  0.458  0.158  0.345   3.666e+00   1.572e+00   5.686e-01   1.241e+00  26  sdss  5823  82N  6 
    0  53680.309628  4  22.956  0.826  0.438  0.721  -6.031e-01   4.443e+00   2.152e+00   3.541e+00  23  sdss  5823  82N  6 
    8  53680.308799  0  25.595  1.070  0.821  1.051  -1.015e+00   1.424e+00   1.090e+00   1.394e+00  18  sdss  5823  82N  6 
   35  53686.309728  1  22.985  1.277  0.674  0.678   2.236e+00   2.079e+00   1.449e+00   1.459e+00  23  sdss  5866  82N  6 
    3  53686.306411  2  25.458  1.868  1.734  2.550  -5.560e-01   2.403e+00   1.649e+00   2.425e+00  25  sdss  5866  82N  6 
    1  53686.307240  3  25.820  1.311  1.057  1.420  -2.294e+00   2.749e+00   2.575e+00   3.456e+00  26  sdss  5866  82N  6 
    0  53686.308899  4  24.215  0.772  0.529  0.900  -8.717e+00   6.710e+00   4.959e+00   8.444e+00  23  sdss  5866  82N  6 
   35  53686.308070  0  23.167  2.374  1.279  2.238   1.958e+00   4.981e+00   2.559e+00   4.478e+00  18  sdss  5866  82N  6 
   35  53687.363884  2  21.900  1.397  0.769  0.918   6.250e+00   5.597e+00   4.500e+00   5.376e+00  25  sdss  5872  82N  6 
   35  53687.364713  3  21.099  0.546  1.249  0.652   1.295e+01   6.090e+00   1.505e+01   7.864e+00  26  sdss  5872  82N  6 
    9  53687.366372  4  25.224  1.454  3.034  1.037  -2.367e+01   2.263e+01   6.766e+01   2.310e+01  23  sdss  5872  82N  6 
    1  53693.311736  1  26.696  1.458  0.495  0.819  -1.293e+00   1.608e+00   6.606e-01   1.091e+00  23  sdss  5878  82N  6 
   33  53693.308420  2  23.828  1.355  0.809  1.043   8.868e-01   1.580e+00   9.278e-01   1.196e+00  25  sdss  5878  82N  6 
    0  53693.309249  3  26.019  0.807  0.627  0.669  -2.817e+00   2.073e+00   1.799e+00   1.920e+00  26  sdss  5878  82N  6 
    0  53693.310907  4  24.759  0.385  0.190  0.379  -1.517e+01   5.501e+00   2.808e+00   5.592e+00  23  sdss  5878  82N  6 
   33  53693.310078  0  24.656  2.118  0.945  2.336   9.663e-03   3.625e+00   9.159e-01   2.264e+00  18  sdss  5878  82N  6 
    0  53698.308856  1  26.133  0.858  0.346  0.657  -6.885e-01   7.211e-01   2.999e-01   5.701e-01  23  sdss  5898  82N  6 
   32  53698.305539  2  24.174  1.135  0.737  1.077   5.299e-01   1.159e+00   6.918e-01   1.010e+00  25  sdss  5898  82N  6 
   32  53698.306368  3  24.095  1.214  0.873  1.457   3.195e-01   1.776e+00   1.066e+00   1.779e+00  26  sdss  5898  82N  6 
   32  53698.308027  4  22.192  0.863  0.174  0.645   3.307e+00   5.153e+00   1.003e+00   3.704e+00  23  sdss  5898  82N  6 
   32  53698.307198  0  23.292  1.128  0.475  1.189   1.714e+00   1.835e+00   8.618e-01   2.155e+00  18  sdss  5898  82N  6 
   32  53704.294356  1  24.128  0.920  0.546  1.215   6.669e-01   7.648e-01   4.653e-01   1.036e+00  23  sdss  5918  82N  6 
   32  53704.291039  2  23.013  0.608  0.434  0.639   2.170e+00   1.224e+00   9.412e-01   1.384e+00  25  sdss  5918  82N  6 
    0  53704.291868  3  26.066  0.704  0.466  0.825  -2.954e+00   1.917e+00   1.391e+00   2.462e+00  26  sdss  5918  82N  6 
    0  53704.293526  4  23.430  0.976  0.671  1.118  -3.063e+00   5.851e+00   3.778e+00   6.298e+00  23  sdss  5918  82N  6 
    0  53704.292697  0  25.933  1.356  0.299  2.247  -1.527e+00   2.099e+00   5.008e-01   3.762e+00  18  sdss  5918  82N  6 
