# SDSS CID:   9438 IAU:          RA:  19.173134 DEC:  -0.080706  (J2000)
# GALAXY_SB [ugriz] = [ 23.22 23.19 22.86 22.45 22.09 ] +/- [  0.18  0.05  0.04  0.04  0.08 ] (asinh mag/square arcsec)
# GALAXY_SB_FLUX [ugriz] = [  1.789E+00  1.821E+00  2.532E+00  3.625E+00  3.893E+00 ] +/- [  3.433E-01  8.919E-02  9.564E-02  1.247E-01  5.090E-01 ] (microJy per square arcsec)
#FLAG  MJD       FILT  MAG     MERR  MSKYERR MGALERR  FLUX       FLUXERR    SKYERR     GALERR    NPRE TELE   RUN  STRIP  IDCCD
   32  53616.367772  1  22.930  0.282  0.068  0.355   2.356e+00   6.194e-01   1.520e-01   7.960e-01  14  sdss  5566  82N  3 
   32  53616.364455  2  22.658  0.372  0.294  0.392   3.065e+00   1.055e+00   8.617e-01   1.149e+00  19  sdss  5566  82N  3 
   32  53616.365284  3  22.431  0.507  0.377  0.461   3.698e+00   1.727e+00   1.357e+00   1.661e+00  18  sdss  5566  82N  3 
    0  53616.366943  4  21.970  0.833  0.141  0.693   4.664e+00   5.388e+00   9.167e-01   4.503e+00  19  sdss  5566  82N  3 
   10  53616.366113  0  21.928  0.378  0.218  0.804   6.502e+00   2.156e+00   1.291e+00   4.758e+00  8  sdss  5566  82N  3 
    8  53626.344469  1  22.960  0.234  0.138  0.176   2.290e+00   5.036e-01   3.006e-01   3.846e-01  14  sdss  5603  82N  3 
    0  53626.341152  2  22.850  0.315  0.079  0.167   2.546e+00   7.613e-01   1.967e-01   4.136e-01  19  sdss  5603  82N  3 
   32  53626.341981  3  23.234  0.619  0.179  0.227   1.589e+00   1.126e+00   3.362e-01   4.279e-01  18  sdss  5603  82N  3 
    0  53626.343640  4  22.172  0.611  0.078  0.327   3.424e+00   3.589e+00   4.547e-01   1.901e+00  19  sdss  5603  82N  3 
    0  53626.342810  0  22.792  0.582  0.066  0.658   2.861e+00   1.491e+00   1.824e-01   1.808e+00  8  sdss  5603  82N  3 
   33  53628.329536  1  23.668  1.477  0.519  0.807   1.131e+00   1.527e+00   6.194e-01   9.628e-01  14  sdss  5610  82N  3 
   33  53628.326218  2  23.512  0.879  0.284  0.347   1.290e+00   1.164e+00   4.059e-01   4.973e-01  19  sdss  5610  82N  3 
   32  53628.327047  3  22.912  0.651  0.137  0.258   2.275e+00   1.469e+00   3.289e-01   6.205e-01  18  sdss  5610  82N  3 
    0  53628.328706  4  22.034  0.773  0.120  0.515   4.255e+00   4.851e+00   7.499e-01   3.224e+00  19  sdss  5610  82N  3 
 1185  53628.327877  0  23.658  1.842  0.189  2.079   1.121e+00   2.955e+00   2.647e-01   2.907e+00  8  sdss  5610  82N  3 
    1  53635.338156  1  22.554  0.316  0.072  0.109   3.362e+00   9.668e-01   2.252e-01   3.423e-01  14  sdss  5622  82N  3 
   33  53635.334839  2  23.696  0.837  0.171  0.227   1.044e+00   9.991e-01   2.133e-01   2.837e-01  19  sdss  5622  82N  3 
    0  53635.335668  3  22.988  0.591  0.105  0.144   2.098e+00   1.273e+00   2.385e-01   3.251e-01  18  sdss  5622  82N  3 
    0  53635.337327  4  22.146  0.590  0.271  0.227   3.576e+00   3.499e+00   1.596e+00   1.337e+00  19  sdss  5622  82N  3 
    1  53635.336497  0  26.087  1.301  0.257  0.638  -1.806e+00   2.160e+00   4.846e-01   1.205e+00  8  sdss  5622  82N  3 
    1  53637.331567  1  23.033  0.499  0.206  0.348   2.135e+00   9.636e-01   4.216e-01   7.114e-01  14  sdss  5633  82N  3 
   32  53637.328250  2  23.619  0.877  0.404  0.464   1.143e+00   1.090e+00   5.342e-01   6.130e-01  19  sdss  5633  82N  3 
   32  53637.329079  3  23.220  0.844  0.220  0.400   1.616e+00   1.524e+00   4.178e-01   7.601e-01  18  sdss  5633  82N  3 
    0  53637.330738  4  23.065  0.917  0.897  0.605  -1.142e+00   5.087e+00   4.472e+00   3.018e+00  19  sdss  5633  82N  3 
    1  53637.329908  0  22.095  0.525  0.144  0.589   5.566e+00   2.495e+00   7.315e-01   3.000e+00  8  sdss  5633  82N  3 
    0  53639.376954  1  23.076  0.317  0.084  0.241   2.049e+00   6.094e-01   1.651e-01   4.752e-01  14  sdss  5642  82N  3 
   32  53639.373637  2  23.537  0.583  0.259  0.281   1.255e+00   7.857e-01   3.640e-01   3.940e-01  19  sdss  5642  82N  3 
   32  53639.374466  3  23.034  0.530  0.149  0.190   1.995e+00   1.114e+00   3.253e-01   4.140e-01  18  sdss  5642  82N  3 
   32  53639.376125  4  22.564  0.634  0.398  0.372   1.326e+00   3.342e+00   2.000e+00   1.872e+00  19  sdss  5642  82N  3 
   32  53639.375296  0  24.462  1.317  0.081  1.818   1.984e-01   1.621e+00   7.953e-02   1.791e+00  8  sdss  5642  82N  3 
    0  53641.376170  1  22.946  0.234  0.022  0.145   2.321e+00   5.105e-01   4.926e-02   3.198e-01  14  sdss  5658  82N  3 
    0  53641.372842  2  23.010  0.337  0.096  0.125   2.176e+00   7.090e-01   2.060e-01   2.705e-01  19  sdss  5658  82N  3 
   32  53641.373671  3  23.393  0.650  0.058  0.192   1.306e+00   1.075e+00   9.743e-02   3.237e-01  18  sdss  5658  82N  3 
    0  53641.375341  4  22.074  0.538  0.201  0.240   4.008e+00   3.294e+00   1.230e+00   1.464e+00  19  sdss  5658  82N  3 
    8  53641.374511  0  23.147  0.747  0.226  0.637   2.000e+00   1.402e+00   4.617e-01   1.300e+00  8  sdss  5658  82N  3 
   32  53644.323948  1  23.169  0.305  0.036  0.318   1.872e+00   5.414e-01   6.624e-02   5.771e-01  14  sdss  5670  82N  3 
   32  53644.320631  2  22.985  0.377  0.137  0.255   2.231e+00   8.060e-01   3.010e-01   5.625e-01  19  sdss  5670  82N  3 
   32  53644.321460  3  23.436  0.742  0.439  0.443   1.234e+00   1.197e+00   7.207e-01   7.263e-01  18  sdss  5670  82N  3 
    0  53644.323119  4  21.978  0.614  0.091  0.499   4.613e+00   3.938e+00   5.907e-01   3.224e+00  19  sdss  5670  82N  3 
    0  53644.322290  0  22.639  0.573  0.064  0.880   3.318e+00   1.671e+00   2.011e-01   2.760e+00  8  sdss  5670  82N  3 
    0  53654.358745  1  22.895  0.240  0.105  0.205   2.437e+00   5.459e-01   2.433e-01   4.743e-01  14  sdss  5709  82N  3 
    0  53654.355428  2  23.301  0.484  0.033  0.191   1.619e+00   7.856e-01   5.544e-02   3.221e-01  19  sdss  5709  82N  3 
   32  53654.356257  3  23.265  0.698  0.195  0.212   1.531e+00   1.239e+00   3.582e-01   3.908e-01  18  sdss  5709  82N  3 
    0  53654.357916  4  22.020  0.696  0.487  0.279   4.343e+00   4.381e+00   3.072e+00   1.758e+00  19  sdss  5709  82N  3 
   32  53654.357087  0  23.705  1.164  0.112  1.259   1.057e+00   1.583e+00   1.512e-01   1.708e+00  8  sdss  5709  82N  3 
    1  53663.319560  1  22.880  0.432  0.055  0.113   2.472e+00   9.660e-01   1.279e-01   2.649e-01  14  sdss  5744  82N  3 
    1  53663.316243  2  22.892  0.428  0.075  0.101   2.444e+00   9.813e-01   1.784e-01   2.419e-01  19  sdss  5744  82N  3 
    1  53663.317072  3  23.175  0.648  0.121  0.139   1.702e+00   1.220e+00   2.372e-01   2.732e-01  18  sdss  5744  82N  3 
    0  53663.318730  4  23.124  0.671  0.335  0.259  -1.438e+00   3.576e+00   1.693e+00   1.310e+00  19  sdss  5744  82N  3 
    1  53663.317901  0  22.746  1.056  0.141  0.414   2.993e+00   2.493e+00   4.027e-01   1.184e+00  8  sdss  5744  82N  3 
    1  53666.389624  1  23.297  0.559  0.142  0.249   1.651e+00   8.514e-01   2.307e-01   4.041e-01  14  sdss  5765  82N  3 
    0  53666.386307  2  23.049  0.493  0.093  0.180   2.093e+00   9.782e-01   1.930e-01   3.745e-01  19  sdss  5765  82N  3 
   32  53666.387136  3  23.667  0.829  0.205  0.251   8.798e-01   1.219e+00   2.944e-01   3.605e-01  18  sdss  5765  82N  3 
   32  53666.388795  4  22.727  0.722  0.211  0.326   5.179e-01   3.798e+00   1.035e+00   1.596e+00  19  sdss  5765  82N  3 
   33  53666.387965  0  24.410  1.734  0.961  1.692   2.501e-01   2.502e+00   9.557e-01   1.682e+00  8  sdss  5765  82N  3 
    0  53668.308929  1  22.558  0.231  0.163  0.224   3.350e+00   7.118e-01   5.089e-01   7.014e-01  14  sdss  5770  82N  3 
   32  53668.305612  2  23.107  0.475  0.137  0.275   1.975e+00   9.014e-01   2.726e-01   5.457e-01  19  sdss  5770  82N  3 
   32  53668.306441  3  23.531  0.858  0.412  0.441   1.082e+00   1.332e+00   6.382e-01   6.830e-01  18  sdss  5770  82N  3 
    0  53668.308099  4  21.701  0.625  0.466  0.403   6.576e+00   4.692e+00   3.621e+00   3.135e+00  19  sdss  5770  82N  3 
 1184  53668.307270  0  23.731  1.331  0.128  2.832   1.021e+00   1.840e+00   1.702e-01   3.779e+00  8  sdss  5770  82N  3 
   32  53670.313927  1  23.670  0.496  0.133  0.571   1.128e+00   5.680e-01   1.585e-01   6.800e-01  14  sdss  5781  82N  3 
   32  53670.310610  2  23.249  0.517  0.349  0.351   1.709e+00   8.697e-01   6.162e-01   6.184e-01  19  sdss  5781  82N  3 
   32  53670.311439  3  24.068  0.948  0.163  0.596   3.526e-01   1.294e+00   2.006e-01   7.323e-01  18  sdss  5781  82N  3 
   32  53670.313097  4  22.441  0.748  0.342  0.486   1.950e+00   4.113e+00   1.779e+00   2.527e+00  19  sdss  5781  82N  3 
    8  53670.312268  0  22.787  0.678  0.595  1.086   2.875e+00   1.704e+00   1.640e+00   2.996e+00  8  sdss  5781  82N  3 
    8  53673.281524  1  22.957  0.223  0.103  0.165   2.297e+00   4.817e-01   2.261e-01   3.620e-01  14  sdss  5792  82N  3 
   32  53673.278207  2  23.185  0.433  0.078  0.206   1.826e+00   7.773e-01   1.453e-01   3.835e-01  19  sdss  5792  82N  3 
   32  53673.279037  3  23.589  0.755  0.114  0.285   9.942e-01   1.137e+00   1.712e-01   4.271e-01  18  sdss  5792  82N  3 
    0  53673.280695  4  21.978  0.603  0.394  0.332   4.613e+00   3.871e+00   2.546e+00   2.147e+00  19  sdss  5792  82N  3 
 1160  53673.279866  0  22.672  0.588  0.509  0.921   3.214e+00   1.661e+00   1.549e+00   2.805e+00  8  sdss  5792  82N  3 
   32  53675.278227  1  23.251  0.335  0.162  0.373   1.728e+00   5.530e-01   2.730e-01   6.312e-01  14  sdss  5800  82N  3 
   32  53675.274910  2  22.960  0.412  0.238  0.257   2.286e+00   8.940e-01   5.360e-01   5.795e-01  19  sdss  5800  82N  3 
   32  53675.275739  3  23.578  0.820  0.288  0.360   1.010e+00   1.246e+00   4.336e-01   5.419e-01  18  sdss  5800  82N  3 
   32  53675.277398  4  22.762  0.837  0.231  0.561   3.465e-01   4.503e+00   1.130e+00   2.740e+00  19  sdss  5800  82N  3 
   32  53675.276569  0  23.953  1.317  0.286  2.842   7.415e-01   1.724e+00   3.361e-01   3.342e+00  8  sdss  5800  82N  3 
    0  53677.299319  1  23.054  0.248  0.054  0.168   2.092e+00   4.902e-01   1.084e-01   3.375e-01  14  sdss  5813  82N  3 
    0  53677.296002  2  22.819  0.287  0.040  0.110   2.624e+00   7.156e-01   1.021e-01   2.797e-01  19  sdss  5813  82N  3 
   32  53677.296831  3  23.202  0.585  0.106  0.197   1.650e+00   1.088e+00   2.046e-01   3.788e-01  18  sdss  5813  82N  3 
   32  53677.298490  4  22.786  0.610  0.290  0.302   2.291e-01   3.136e+00   1.414e+00   1.475e+00  19  sdss  5813  82N  3 
    0  53677.297660  0  22.314  0.380  0.027  0.411   4.529e+00   1.531e+00   1.129e-01   1.718e+00  8  sdss  5813  82N  3 
    0  53680.286113  1  23.158  0.293  0.092  0.269   1.892e+00   5.260e-01   1.688e-01   4.939e-01  14  sdss  5823  82N  3 
    0  53680.282796  2  23.434  0.508  0.220  0.207   1.406e+00   7.432e-01   3.339e-01   3.148e-01  19  sdss  5823  82N  3 
   32  53680.283625  3  23.593  0.776  0.115  0.334   9.882e-01   1.168e+00   1.711e-01   4.980e-01  18  sdss  5823  82N  3 
   32  53680.285284  4  22.808  0.658  0.164  0.372   1.217e-01   3.413e+00   7.982e-01   1.816e+00  19  sdss  5823  82N  3 
    0  53680.284455  0  23.160  0.841  0.104  0.953   1.972e+00   1.540e+00   2.100e-01   1.925e+00  8  sdss  5823  82N  3 
    1  53686.284871  1  22.494  0.569  0.278  0.212   3.557e+00   1.740e+00   9.206e-01   7.022e-01  14  sdss  5866  82N  3 
   33  53686.281554  2  24.785  1.617  0.893  0.873   1.363e-02   1.825e+00   7.135e-01   6.975e-01  19  sdss  5866  82N  3 
   33  53686.282383  3  24.021  1.295  0.915  0.590   4.107e-01   1.953e+00   1.137e+00   7.331e-01  18  sdss  5866  82N  3 
    0  53686.284042  4  22.871  0.924  0.833  0.576  -1.860e-01   5.073e+00   4.064e+00   2.812e+00  19  sdss  5866  82N  3 
    1  53686.283213  0  25.910  2.111  0.889  1.606  -1.487e+00   3.862e+00   1.467e+00   2.651e+00  8  sdss  5866  82N  3 
    1  53693.287222  1  22.260  0.282  0.053  0.107   4.424e+00   1.133e+00   2.179e-01   4.375e-01  14  sdss  5878  82N  3 
    1  53693.283905  2  25.733  0.985  0.119  0.341  -8.379e-01   1.083e+00   1.317e-01   3.784e-01  19  sdss  5878  82N  3 
   32  53693.284734  3  23.747  0.919  0.180  0.296   7.672e-01   1.332e+00   2.485e-01   4.084e-01  18  sdss  5878  82N  3 
   32  53693.286392  4  22.827  0.755  0.428  0.379   2.891e-02   3.985e+00   2.086e+00   1.850e+00  19  sdss  5878  82N  3 
  129  53693.285563  0  26.819  1.076  0.294  0.553  -3.749e+00   3.029e+00   1.030e+00   1.940e+00  8  sdss  5878  82N  3 
   32  53698.284280  1  23.561  0.449  0.054  0.477   1.265e+00   5.634e-01   7.022e-02   6.215e-01  14  sdss  5898  82N  3 
   32  53698.280964  2  23.329  0.510  0.233  0.264   1.572e+00   8.071e-01   3.853e-01   4.360e-01  19  sdss  5898  82N  3 
   32  53698.281793  3  23.343  0.745  0.243  0.322   1.392e+00   1.262e+00   4.232e-01   5.609e-01  18  sdss  5898  82N  3 
    0  53698.283451  4  23.544  0.691  0.488  0.394  -3.725e+00   4.164e+00   2.912e+00   2.347e+00  19  sdss  5898  82N  3 
   40  53698.282622  0  23.740  1.235  1.119  1.985   1.009e+00   1.675e+00   1.484e+00   2.634e+00  8  sdss  5898  82N  3 
    8  53704.269714  1  23.159  0.290  0.199  0.269   1.890e+00   5.201e-01   3.644e-01   4.933e-01  14  sdss  5918  82N  3 
    0  53704.266397  2  22.580  0.296  0.117  0.218   3.301e+00   9.107e-01   3.676e-01   6.837e-01  19  sdss  5918  82N  3 
   32  53704.267226  3  23.568  0.953  0.702  0.618   1.025e+00   1.468e+00   1.062e+00   9.363e-01  18  sdss  5918  82N  3 
  128  53704.268884  4  22.922  0.858  0.679  0.556  -4.353e-01   4.641e+00   3.323e+00   2.719e+00  19  sdss  5918  82N  3 
    8  53704.268055  0  22.759  0.701  0.633  1.127   2.955e+00   1.794e+00   1.788e+00   3.184e+00  8  sdss  5918  82N  3 
