# SDSS CID:   9334 IAU:          RA: 346.993011 DEC:   0.841636  (J2000)
# GALAXY_SB [ugriz] = [ 24.40 24.92 24.58 23.90 22.80 ] +/- [  0.24  0.11  0.10  0.09  0.09 ] (asinh mag/square arcsec)
# GALAXY_SB_FLUX [ugriz] = [  2.272E-01  1.134E-01  1.806E-01  5.587E-01  1.235E-01 ] +/- [  2.365E-01  6.678E-02  8.335E-02  1.134E-01  4.451E-01 ] (microJy per square arcsec)
#FLAG  MJD       FILT  MAG     MERR  MSKYERR MGALERR  FLUX       FLUXERR    SKYERR     GALERR    NPRE TELE   RUN  STRIP  IDCCD
    2  53616.279724  1  27.387  0.333  0.223  0.434  -2.543e+00   7.783e-01   5.363e-01   1.041e+00  32  sdss  5566  82N  5 
  128  53616.276407  2  25.748  0.780  0.177  0.520  -8.550e-01   8.589e-01   1.984e-01   5.834e-01  33  sdss  5566  82N  5 
   32  53616.277236  3  22.953  0.651  0.290  0.322   2.178e+00   1.426e+00   6.746e-01   7.502e-01  33  sdss  5566  82N  5 
    0  53616.278895  4  23.455  0.843  0.597  0.609  -3.203e+00   4.996e+00   3.403e+00   3.473e+00  34  sdss  5566  82N  5 
    0  53616.278066  0  26.309  0.906  0.405  0.856  -2.274e+00   1.792e+00   9.092e-01   1.919e+00  16  sdss  5566  82N  5 
   32  53622.292977  1  25.051  0.949  0.881  1.079   3.937e-02   6.334e-01   5.196e-01   6.364e-01  32  sdss  5582  82S  6 
   32  53622.289660  2  22.916  0.540  0.257  0.445   2.387e+00   1.188e+00   6.014e-01   1.043e+00  33  sdss  5582  82S  6 
   32  53622.290489  3  23.843  1.198  1.172  1.110   6.383e-01   1.798e+00   1.550e+00   1.467e+00  33  sdss  5582  82S  6 
    0  53622.292148  4  21.583  0.716  0.568  0.447   7.531e+00   5.755e+00   4.819e+00   3.793e+00  34  sdss  5582  82S  6 
    0  53622.291318  0  23.353  1.331  0.236  1.780   1.606e+00   2.095e+00   4.080e-01   3.072e+00  16  sdss  5582  82S  6 
    0  53623.270000  1  25.408  0.889  0.505  0.602  -1.724e-01   5.953e-01   3.080e-01   3.669e-01  32  sdss  5590  82N  5 
   32  53623.266683  2  24.071  0.808  0.323  0.365   6.293e-01   8.111e-01   3.190e-01   3.603e-01  33  sdss  5590  82N  5 
    0  53623.267513  3  22.636  0.463  0.276  0.144   3.021e+00   1.339e+00   8.353e-01   4.362e-01  33  sdss  5590  82N  5 
    0  53623.269171  4  23.534  0.697  0.382  0.506  -3.662e+00   4.190e+00   2.268e+00   3.002e+00  34  sdss  5590  82N  5 
 1156  53623.268342  0  25.292  1.285  0.194  1.060  -6.415e-01   1.638e+00   2.186e-01   1.192e+00  16  sdss  5590  82N  5 
    1  53626.255944  1  25.808  1.183  0.556  0.543  -4.339e-01   9.104e-01   3.949e-01   3.855e-01  32  sdss  5603  82N  5 
    0  53626.252627  2  25.303  1.024  0.463  0.395  -4.149e-01   9.936e-01   4.102e-01   3.497e-01  33  sdss  5603  82N  5 
    0  53626.253456  3  25.662  0.695  0.330  0.238  -1.934e+00   1.404e+00   7.046e-01   5.082e-01  33  sdss  5603  82N  5 
    0  53626.255115  4  21.810  0.592  0.267  0.331   5.759e+00   4.174e+00   1.927e+00   2.386e+00  34  sdss  5603  82N  5 
    9  53626.254285  0  25.246  1.513  1.243  1.437  -5.896e-01   2.051e+00   1.369e+00   1.583e+00  16  sdss  5603  82N  5 
    1  53627.249907  1  26.112  1.099  0.212  0.341  -6.702e-01   9.188e-01   1.806e-01   2.896e-01  32  sdss  5607  82S  6 
   33  53627.246590  2  24.343  1.105  0.458  0.478   3.781e-01   1.083e+00   3.994e-01   4.167e-01  33  sdss  5607  82S  6 
   32  53627.247419  3  23.630  0.969  0.566  0.369   9.341e-01   1.466e+00   8.282e-01   5.405e-01  33  sdss  5607  82S  6 
    0  53627.249078  4  24.119  0.506  0.322  0.267  -7.850e+00   4.270e+00   2.810e+00   2.331e+00  34  sdss  5607  82S  6 
    1  53627.248249  0  22.775  1.040  0.156  0.473   2.907e+00   2.392e+00   4.302e-01   1.305e+00  16  sdss  5607  82S  6 
    1  53628.240916  1  26.073  1.714  0.800  0.647  -6.373e-01   1.593e+00   6.627e-01   5.363e-01  32  sdss  5610  82N  5 
    1  53628.237599  2  26.139  0.976  0.375  0.288  -1.359e+00   1.319e+00   5.573e-01   4.287e-01  33  sdss  5610  82N  5 
    1  53628.238428  3  26.020  0.630  0.286  0.201  -2.819e+00   1.671e+00   8.143e-01   5.745e-01  33  sdss  5610  82N  5 
   32  53628.240087  4  22.412  0.880  0.328  0.577   2.102e+00   4.980e+00   1.724e+00   3.029e+00  34  sdss  5610  82N  5 
    1  53628.239258  0  24.588  2.110  0.259  1.867   7.497e-02   3.598e+00   2.514e-01   1.813e+00  16  sdss  5610  82N  5 
    1  53634.242355  1  27.942  0.956  0.282  0.416  -4.283e+00   3.073e+00   1.118e+00   1.647e+00  32  sdss  5619  82S  6 
    3  53634.239038  2  22.307  0.516  0.410  0.356   4.276e+00   1.943e+00   1.648e+00   1.434e+00  33  sdss  5619  82S  6 
  128  53634.239867  3  26.382  1.335  0.780  0.725  -4.030e+00   3.945e+00   3.039e+00   2.823e+00  33  sdss  5619  82S  6 
    2  53634.241525  4  20.863  0.574  0.766  0.591   1.582e+01   8.214e+00   1.179e+01   9.094e+00  34  sdss  5619  82S  6 
    3  53634.240696  0  22.002  1.375  0.373  1.080   6.071e+00   5.288e+00   2.050e+00   5.925e+00  16  sdss  5619  82S  6 
    1  53635.249191  1  23.824  1.043  0.423  0.411   9.558e-01   1.004e+00   4.464e-01   4.333e-01  32  sdss  5622  82N  5 
    1  53635.245874  2  25.029  1.036  0.633  0.468  -1.823e-01   9.680e-01   5.168e-01   3.823e-01  33  sdss  5622  82N  5 
    0  53635.246703  3  24.891  0.928  0.431  0.325  -6.520e-01   1.318e+00   5.725e-01   4.313e-01  33  sdss  5622  82N  5 
   32  53635.248362  4  22.082  0.625  0.233  0.353   3.961e+00   3.822e+00   1.420e+00   2.149e+00  34  sdss  5622  82N  5 
 1153  53635.247533  0  25.191  1.521  0.875  1.296  -5.288e-01   2.056e+00   9.426e-01   1.396e+00  16  sdss  5622  82N  5 
    1  53636.247785  1  26.247  1.603  1.888  0.615  -7.913e-01   1.503e+00   1.762e+00   5.743e-01  32  sdss  5628  82S  6 
   57  53636.244468  2  24.491  1.297  9.280  0.588   2.516e-01   1.318e+00   7.720e+00   4.893e-01  33  sdss  5628  82S  6 
   32  53636.245297  3  24.342  1.219  0.687  0.512   2.348e-02   1.767e+00   8.139e-01   6.061e-01  33  sdss  5628  82S  6 
   28  53636.246956  4  24.121  0.950  3.006  0.435  -7.867e+00   7.634e+00   2.628e+01   3.803e+00  34  sdss  5628  82S  6 
   13  53636.246126  0  22.332  0.913  0.504  0.456   4.450e+00   3.111e+00   2.054e+00   1.857e+00  16  sdss  5628  82S  6 
    1  53637.242506  1  25.989  1.130  0.284  0.861  -5.699e-01   9.067e-01   2.233e-01   6.769e-01  32  sdss  5633  82N  5 
   32  53637.239189  2  24.204  1.201  0.868  1.026   5.026e-01   1.236e+00   8.017e-01   9.478e-01  33  sdss  5633  82N  5 
   32  53637.240018  3  24.238  1.211  1.071  0.848   1.470e-01   1.754e+00   1.277e+00   1.010e+00  33  sdss  5633  82N  5 
    0  53637.241677  4  23.596  0.930  0.541  0.662  -4.036e+00   5.829e+00   3.320e+00   4.060e+00  34  sdss  5633  82N  5 
    1  53637.240847  0  27.058  0.627  0.324  0.720  -4.704e+00   2.453e+00   1.390e+00   3.094e+00  16  sdss  5633  82N  5 
   33  53638.283233  1  24.822  0.837  0.356  0.457   1.766e-01   5.546e-01   2.175e-01   2.791e-01  32  sdss  5637  82S  6 
    0  53638.279916  2  25.190  0.863  0.413  0.413  -3.162e-01   7.922e-01   3.510e-01   3.510e-01  33  sdss  5637  82S  6 
   32  53638.280745  3  23.986  0.900  0.418  0.383   4.542e-01   1.232e+00   5.257e-01   4.815e-01  33  sdss  5637  82S  6 
   32  53638.282403  4  21.966  0.622  0.288  0.314   4.690e+00   4.023e+00   1.877e+00   2.047e+00  34  sdss  5637  82S  6 
    8  53638.281574  0  24.911  1.294  1.154  1.161  -2.400e-01   1.585e+00   1.145e+00   1.152e+00  16  sdss  5637  82S  6 
   32  53640.247576  1  24.729  0.963  1.014  1.279   2.338e-01   6.652e-01   6.350e-01   8.015e-01  32  sdss  5646  82S  6 
 1210  53640.244259  2  23.603  1.131  7.970  0.891   1.164e+00   1.408e+00   1.067e+01   1.193e+00  33  sdss  5646  82S  6 
 1156  53640.245088  3  26.391  0.577  0.597  0.288  -4.065e+00   2.103e+00   2.341e+00   1.132e+00  33  sdss  5646  82S  6 
 1212  53640.246747  4  22.746  1.092  5.145  0.944   4.237e-01   6.277e+00   2.517e+01   4.619e+00  34  sdss  5646  82S  6 
 1158  53640.245917  0  20.997  0.353  0.357  0.401   1.541e+01   4.682e+00   4.906e+00   5.506e+00  16  sdss  5646  82S  6 
    0  53644.234537  1  25.794  0.619  0.201  0.332  -4.239e-01   4.417e-01   1.419e-01   2.340e-01  32  sdss  5670  82N  5 
    0  53644.231220  2  24.957  0.770  0.232  0.290  -1.240e-01   6.725e-01   1.876e-01   2.344e-01  33  sdss  5670  82N  5 
   32  53644.232050  3  24.154  0.832  0.320  0.246   2.477e-01   1.097e+00   3.864e-01   2.964e-01  33  sdss  5670  82N  5 
    0  53644.233708  4  23.182  0.583  0.267  0.357  -1.734e+00   3.100e+00   1.372e+00   1.834e+00  34  sdss  5670  82N  5 
    0  53644.232879  0  24.084  1.058  0.114  0.685   5.912e-01   1.270e+00   1.256e-01   7.552e-01  16  sdss  5670  82N  5 
    0  53648.289768  1  23.990  0.731  0.682  0.717   7.901e-01   6.537e-01   6.361e-01   6.688e-01  32  sdss  5698  82S  6 
    0  53648.286452  2  25.937  0.852  0.836  0.734  -1.081e+00   1.034e+00   1.068e+00   9.372e-01  33  sdss  5698  82S  6 
   32  53648.287281  3  23.638  1.025  0.482  0.599   9.224e-01   1.557e+00   7.028e-01   8.734e-01  33  sdss  5698  82S  6 
   32  53648.288939  4  22.125  0.929  0.630  0.708   3.702e+00   5.713e+00   3.753e+00   4.218e+00  34  sdss  5698  82S  6 
   12  53648.288110  0  23.436  1.551  2.599  1.939   1.462e+00   2.421e+00   4.215e+00   3.144e+00  16  sdss  5698  82S  6 
    0  53654.268845  1  25.613  0.769  0.410  0.479  -3.014e-01   5.246e-01   2.663e-01   3.113e-01  32  sdss  5709  82N  5 
    8  53654.265528  2  24.931  0.902  1.461  0.424  -1.032e-01   8.092e-01   1.175e+00   3.414e-01  33  sdss  5709  82N  5 
   32  53654.266357  3  24.064  0.932  0.338  0.313   3.573e-01   1.269e+00   4.153e-01   3.843e-01  33  sdss  5709  82N  5 
   32  53654.268016  4  22.282  0.683  0.112  0.266   2.804e+00   3.885e+00   6.179e-01   1.470e+00  34  sdss  5709  82N  5 
  128  53654.267187  0  23.587  1.048  0.134  0.691   1.225e+00   1.474e+00   1.951e-01   1.007e+00  16  sdss  5709  82N  5 
    1  53655.218949  1  25.940  1.574  0.953  1.205  -5.316e-01   1.371e+00   7.277e-01   9.205e-01  32  sdss  5713  82S  6 
  131  53655.215632  2  27.109  0.566  0.276  0.384  -3.577e+00   1.779e+00   9.368e-01   1.303e+00  33  sdss  5713  82S  6 
   34  53655.216461  3  23.500  1.342  2.246  1.333   1.132e+00   2.240e+00   3.543e+00   2.102e+00  33  sdss  5713  82S  6 
  128  53655.218119  4  23.819  0.942  0.907  0.868  -5.496e+00   6.468e+00   6.379e+00   6.108e+00  34  sdss  5713  82S  6 
    3  53655.217290  0  26.970  1.233  0.214  1.046  -4.328e+00   3.702e+00   8.506e-01   4.151e+00  16  sdss  5713  82S  6 
    1  53656.216047  1  26.359  1.869  1.042  0.915  -9.009e-01   1.923e+00   1.056e+00   9.273e-01  32  sdss  5719  82N  5 
    1  53656.212731  2  25.917  1.622  1.065  0.928  -1.056e+00   2.069e+00   1.342e+00   1.169e+00  33  sdss  5719  82N  5 
    1  53656.213560  3  25.560  1.357  0.841  0.741  -1.724e+00   2.526e+00   1.666e+00   1.466e+00  33  sdss  5719  82N  5 
 1152  53656.215218  4  21.103  0.661  0.437  0.534   1.248e+01   7.605e+00   5.467e+00   6.679e+00  34  sdss  5719  82N  5 
    3  53656.214389  0  22.138  1.307  0.445  0.905   5.345e+00   4.596e+00   2.159e+00   4.391e+00  16  sdss  5719  82N  5 
   33  53663.229240  1  25.041  1.208  0.272  0.360   4.531e-02   8.681e-01   1.608e-01   2.124e-01  32  sdss  5744  82N  5 
   33  53663.225923  2  23.865  0.854  0.157  0.224   8.450e-01   9.373e-01   1.755e-01   2.500e-01  33  sdss  5744  82N  5 
   32  53663.226752  3  24.315  0.953  0.442  0.274   5.549e-02   1.281e+00   5.239e-01   3.249e-01  33  sdss  5744  82N  5 
    0  53663.228411  4  23.597  0.548  0.180  0.197  -4.042e+00   3.365e+00   1.107e+00   1.210e+00  34  sdss  5744  82N  5 
    1  53663.227581  0  23.246  1.387  0.131  0.466   1.802e+00   2.292e+00   2.456e-01   8.718e-01  16  sdss  5744  82N  5 
   33  53664.243199  1  24.310  1.409  0.863  0.793   5.208e-01   1.171e+00   6.535e-01   6.006e-01  32  sdss  5754  82S  6 
    1  53664.239882  2  25.593  1.243  0.390  0.723  -6.893e-01   1.348e+00   3.983e-01   7.384e-01  33  sdss  5754  82S  6 
    0  53664.240711  3  25.526  1.006  0.242  0.505  -1.657e+00   1.826e+00   4.682e-01   9.762e-01  33  sdss  5754  82S  6 
   32  53664.242370  4  22.068  0.868  0.379  0.588   4.046e+00   5.417e+00   2.328e+00   3.613e+00  34  sdss  5754  82S  6 
    1  53664.241540  0  24.466  2.142  0.806  3.353   1.943e-01   3.715e+00   7.935e-01   3.300e+00  16  sdss  5754  82S  6 
   33  53666.206986  1  24.829  0.838  0.307  0.411   1.723e-01   5.550e-01   1.872e-01   2.502e-01  32  sdss  5763  82S  6 
    0  53666.203669  2  25.797  0.754  0.183  0.305  -9.108e-01   8.519e-01   2.117e-01   3.534e-01  33  sdss  5763  82S  6 
   32  53666.204498  3  23.149  0.722  0.247  0.247   1.755e+00   1.374e+00   4.946e-01   4.939e-01  33  sdss  5763  82S  6 
    0  53666.206157  4  22.924  0.827  0.407  0.381  -4.440e-01   4.441e+00   1.991e+00   1.865e+00  34  sdss  5763  82S  6 
    0  53666.205327  0  24.643  1.290  0.539  1.212   2.175e-02   1.566e+00   5.222e-01   1.174e+00  16  sdss  5763  82S  6 
   32  53668.218386  1  24.776  0.890  1.095  1.120   2.050e-01   6.008e-01   6.769e-01   6.921e-01  32  sdss  5770  82N  5 
   32  53668.215069  2  23.860  0.893  0.712  0.691   8.506e-01   9.830e-01   7.977e-01   7.739e-01  33  sdss  5770  82N  5 
   32  53668.215898  3  23.186  0.898  0.663  0.511   1.682e+00   1.648e+00   1.293e+00   9.956e-01  33  sdss  5770  82N  5 
    0  53668.217556  4  23.372  0.892  0.314  0.637  -2.740e+00   5.200e+00   1.724e+00   3.501e+00  34  sdss  5770  82N  5 
    0  53668.216727  0  24.470  1.418  0.514  2.536   1.902e-01   1.806e+00   5.053e-01   2.494e+00  16  sdss  5770  82N  5 
   32  53669.202373  1  24.748  0.701  0.442  0.483   2.219e-01   4.592e-01   2.751e-01   3.007e-01  32  sdss  5776  82S  6 
   32  53669.199056  2  24.405  0.897  0.566  0.573   3.248e-01   8.309e-01   4.829e-01   4.886e-01  33  sdss  5776  82S  6 
   32  53669.199885  3  24.044  0.999  0.655  0.555   3.819e-01   1.386e+00   8.093e-01   6.850e-01  33  sdss  5776  82S  6 
    0  53669.201544  4  22.890  0.821  0.564  0.503  -2.781e-01   4.397e+00   2.754e+00   2.457e+00  34  sdss  5776  82S  6 
    8  53669.200714  0  22.961  0.778  0.820  0.992   2.418e+00   1.652e+00   1.934e+00   2.340e+00  16  sdss  5776  82S  6 
   32  53670.223301  1  24.735  0.754  0.215  0.591   2.301e-01   5.000e-01   1.342e-01   3.696e-01  32  sdss  5781  82N  5 
   32  53670.219984  2  23.105  0.445  0.282  0.279   1.978e+00   8.516e-01   5.624e-01   5.556e-01  33  sdss  5781  82N  5 
   32  53670.220813  3  24.014  0.943  0.510  0.451   4.191e-01   1.296e+00   6.353e-01   5.614e-01  33  sdss  5781  82N  5 
    0  53670.222472  4  21.970  0.582  0.188  0.392   4.664e+00   3.752e+00   1.225e+00   2.550e+00  34  sdss  5781  82N  5 
    0  53670.221642  0  23.680  1.064  0.248  0.978   1.091e+00   1.441e+00   3.399e-01   1.341e+00  16  sdss  5781  82N  5 
    0  53671.286919  1  23.559  0.474  0.321  0.353   1.267e+00   5.918e-01   4.173e-01   4.593e-01  32  sdss  5786  82S  6 
   32  53671.283602  2  23.219  0.592  0.402  0.456   1.763e+00   1.008e+00   7.276e-01   8.260e-01  33  sdss  5786  82S  6 
   32  53671.284431  3  23.543  1.009  0.634  0.644   1.064e+00   1.579e+00   9.743e-01   9.905e-01  33  sdss  5786  82S  6 
   32  53671.286090  4  22.247  0.817  0.571  0.515   2.999e+00   4.774e+00   3.204e+00   2.887e+00  34  sdss  5786  82S  6 
    8  53671.285260  0  22.221  0.522  0.559  0.527   4.943e+00   2.198e+00   2.515e+00   2.373e+00  16  sdss  5786  82S  6 
  128  53673.190770  1  23.273  0.324  0.120  0.268   1.690e+00   5.236e-01   1.985e-01   4.435e-01  32  sdss  5792  82N  5 
   32  53673.187453  2  23.321  0.489  0.244  0.244   1.586e+00   7.829e-01   4.059e-01   4.063e-01  33  sdss  5792  82N  5 
    0  53673.188282  3  22.447  0.353  0.104  0.142   3.642e+00   1.221e+00   3.693e-01   5.044e-01  33  sdss  5792  82N  5 
   32  53673.189941  4  22.404  0.735  0.422  0.551   2.149e+00   4.071e+00   2.220e+00   2.903e+00  34  sdss  5792  82N  5 
    8  53673.189111  0  23.689  1.084  0.655  1.103   1.079e+00   1.467e+00   8.938e-01   1.505e+00  16  sdss  5792  82N  5 
    0  53674.186041  1  23.561  0.462  0.218  0.500   1.264e+00   5.773e-01   2.834e-01   6.490e-01  32  sdss  5797  82S  6 
    0  53674.182724  2  22.560  0.344  0.213  0.375   3.366e+00   1.072e+00   6.842e-01   1.203e+00  33  sdss  5797  82S  6 
    0  53674.183553  3  22.445  0.460  0.204  0.395   3.649e+00   1.563e+00   7.260e-01   1.408e+00  33  sdss  5797  82S  6 
    0  53674.185212  4  21.525  0.566  0.371  0.545   8.033e+00   4.814e+00   3.290e+00   4.836e+00  34  sdss  5797  82S  6 
    8  53674.184382  0  23.501  1.216  1.352  1.707   1.357e+00   1.788e+00   2.093e+00   2.643e+00  16  sdss  5797  82S  6 
    0  53675.187815  1  22.901  0.231  0.159  0.192   2.422e+00   5.235e-01   3.655e-01   4.414e-01  32  sdss  5800  82N  5 
    0  53675.184499  2  22.383  0.237  0.114  0.135   3.980e+00   8.779e-01   4.290e-01   5.069e-01  33  sdss  5800  82N  5 
   32  53675.185328  3  23.333  0.799  0.474  0.359   1.410e+00   1.359e+00   8.325e-01   6.302e-01  33  sdss  5800  82N  5 
   32  53675.186986  4  22.015  0.610  0.433  0.467   4.377e+00   3.848e+00   2.744e+00   2.957e+00  34  sdss  5800  82N  5 
    0  53675.186157  0  24.802  1.215  0.269  1.564  -1.320e-01   1.443e+00   2.623e-01   1.526e+00  16  sdss  5800  82N  5 
    0  53676.275304  1  22.546  0.179  0.096  0.129   3.387e+00   5.609e-01   3.035e-01   4.078e-01  32  sdss  5807  82S  6 
    0  53676.271987  2  22.336  0.242  0.149  0.133   4.161e+00   9.358e-01   5.855e-01   5.222e-01  33  sdss  5807  82S  6 
    0  53676.272816  3  22.200  0.323  0.171  0.158   4.622e+00   1.391e+00   7.539e-01   6.983e-01  33  sdss  5807  82S  6 
    0  53676.274474  4  23.643  0.694  0.234  0.424  -4.327e+00   4.368e+00   1.474e+00   2.673e+00  34  sdss  5807  82S  6 
    0  53676.273645  0  25.907  1.098  0.154  0.853  -1.482e+00   1.667e+00   2.522e-01   1.396e+00  16  sdss  5807  82S  6 
    0  53677.208403  1  22.597  0.169  0.052  0.119   3.229e+00   5.052e-01   1.571e-01   3.596e-01  32  sdss  5813  82N  5 
    0  53677.205086  2  22.231  0.175  0.057  0.078   4.592e+00   7.488e-01   2.473e-01   3.358e-01  33  sdss  5813  82N  5 
    0  53677.205915  3  22.237  0.279  0.086  0.102   4.461e+00   1.171e+00   3.678e-01   4.380e-01  33  sdss  5813  82N  5 
    0  53677.207574  4  22.919  0.613  0.244  0.326  -4.196e-01   3.156e+00   1.191e+00   1.597e+00  34  sdss  5813  82N  5 
    0  53677.206744  0  25.141  1.105  0.199  0.996  -4.758e-01   1.314e+00   2.099e-01   1.053e+00  16  sdss  5813  82N  5 
    0  53679.247318  1  22.186  0.142  0.080  0.136   4.739e+00   6.183e-01   3.507e-01   5.969e-01  32  sdss  5820  82S  6 
    0  53679.244001  2  22.045  0.188  0.064  0.115   5.464e+00   9.501e-01   3.278e-01   5.846e-01  33  sdss  5820  82S  6 
   32  53679.244830  3  22.920  0.608  0.205  0.289   2.256e+00   1.374e+00   4.896e-01   6.915e-01  33  sdss  5820  82S  6 
   32  53679.246488  4  22.813  0.868  0.346  0.651   9.701e-02   4.700e+00   1.688e+00   3.175e+00  34  sdss  5820  82S  6 
    0  53679.245659  0  25.862  1.201  0.247  1.197  -1.408e+00   1.788e+00   3.903e-01   1.895e+00  16  sdss  5820  82S  6 
    0  53680.195087  1  22.145  0.127  0.103  0.119   4.923e+00   5.745e-01   4.699e-01   5.401e-01  32  sdss  5823  82N  5 
    0  53680.191771  2  22.008  0.167  0.097  0.110   5.656e+00   8.724e-01   5.111e-01   5.797e-01  33  sdss  5823  82N  5 
    0  53680.192600  3  22.218  0.301  0.102  0.147   4.543e+00   1.280e+00   4.457e-01   6.371e-01  33  sdss  5823  82N  5 
    0  53680.194258  4  21.833  0.517  0.171  0.435   5.594e+00   3.612e+00   1.213e+00   3.091e+00  34  sdss  5823  82N  5 
    8  53680.193429  0  25.221  1.165  1.050  1.447  -5.624e-01   1.425e+00   1.145e+00   1.578e+00  16  sdss  5823  82N  5 
    0  53681.238621  1  22.263  0.125  0.031  0.066   4.411e+00   5.081e-01   1.250e-01   2.678e-01  32  sdss  5836  82S  6 
    0  53681.235304  2  21.891  0.140  0.064  0.062   6.306e+00   8.189e-01   3.777e-01   3.642e-01  33  sdss  5836  82S  6 
    0  53681.236133  3  22.170  0.295  0.155  0.136   4.756e+00   1.308e+00   7.032e-01   6.168e-01  33  sdss  5836  82S  6 
   32  53681.237792  4  22.602  0.647  0.148  0.347   1.133e+00   3.399e+00   7.370e-01   1.730e+00  34  sdss  5836  82S  6 
 1160  53681.236962  0  24.839  1.291  1.090  1.352  -1.686e-01   1.573e+00   1.068e+00   1.325e+00  16  sdss  5836  82S  6 
   25  53685.197265  1  27.827  1.385  4.599  0.245  -3.847e+00   3.435e+00   1.642e+01   8.735e-01  32  sdss  5853  82S  6 
    1  53685.193949  2  22.482  1.284  0.774  0.286   3.625e+00   3.268e+00   2.661e+00   9.844e-01  33  sdss  5853  82S  6 
    9  53685.194778  3  21.816  0.736  1.761  0.205   6.647e+00   4.030e+00   1.098e+01   1.279e+00  33  sdss  5853  82S  6 
   25  53685.196436  4  21.630  1.388  5.816  0.514   7.140e+00   1.069e+01   4.766e+01   4.216e+00  34  sdss  5853  82S  6 
    1  53685.195607  0  23.857  2.564  2.375  1.869   8.575e-01   5.589e+00   2.928e+00   2.305e+00  16  sdss  5853  82S  6 
    1  53687.235247  1  22.268  0.475  0.164  0.088   4.390e+00   1.818e+00   6.670e-01   3.554e-01  32  sdss  5870  82S  6 
    1  53687.231931  2  21.981  0.371  0.183  0.129   5.800e+00   1.935e+00   9.882e-01   6.961e-01  33  sdss  5870  82S  6 
    1  53687.232760  3  22.478  0.660  0.401  0.197   3.533e+00   2.088e+00   1.389e+00   6.803e-01  33  sdss  5870  82S  6 
    0  53687.234418  4  21.662  0.621  0.395  0.261   6.881e+00   4.782e+00   3.160e+00   2.087e+00  34  sdss  5870  82S  6 
    1  53687.233589  0  22.342  1.922  0.304  0.394   4.408e+00   5.014e+00   1.229e+00   1.590e+00  16  sdss  5870  82S  6 
    1  53693.195759  1  23.389  0.919  0.339  0.270   1.506e+00   1.197e+00   5.086e-01   4.043e-01  32  sdss  5878  82N  5 
    1  53693.192442  2  21.910  0.215  0.112  0.086   6.196e+00   1.226e+00   6.448e-01   4.989e-01  33  sdss  5878  82N  5 
    0  53693.193271  3  22.049  0.297  0.171  0.108   5.336e+00   1.466e+00   8.621e-01   5.442e-01  33  sdss  5878  82N  5 
   32  53693.194930  4  22.420  0.675  0.213  0.478   2.060e+00   3.689e+00   1.114e+00   2.504e+00  34  sdss  5878  82N  5 
    1  53693.194100  0  26.099  1.880  0.252  0.974  -1.830e+00   3.323e+00   4.771e-01   1.845e+00  16  sdss  5878  82N  5 
    4  53697.194227  1  23.129  0.685  0.448  0.254   1.946e+00   1.163e+00   8.396e-01   4.756e-01  32  sdss  5895  82S  6 
   12  53697.190911  2  21.483  0.207  0.294  0.070   9.206e+00   1.748e+00   2.505e+00   5.980e-01  33  sdss  5895  82S  6 
  132  53697.191740  3  22.205  0.532  0.411  0.182   4.600e+00   2.190e+00   1.806e+00   7.994e-01  33  sdss  5895  82S  6 
 1156  53697.193398  4  21.700  0.982  0.998  0.405   6.581e+00   7.233e+00   7.768e+00   3.158e+00  34  sdss  5895  82S  6 
  140  53697.192569  0  26.197  1.709  1.829  0.943  -2.027e+00   3.022e+00   3.744e+00   1.930e+00  16  sdss  5895  82S  6 
 1188  53698.192681  1  24.819  2.399  5.717  0.908   1.785e-01   2.883e+00   3.493e+00   5.548e-01  32  sdss  5898  82N  5 
   12  53698.189365  2  21.965  0.302  0.485  0.098   5.887e+00   1.620e+00   2.663e+00   5.358e-01  33  sdss  5898  82N  5 
 1156  53698.190194  3  20.448  0.597  0.679  0.036   2.363e+01   1.184e+01   1.480e+01   7.952e-01  33  sdss  5898  82N  5 
 1028  53698.191852  4  19.535  1.154  0.458  0.067   5.510e+01   4.395e+01   2.337e+01   3.410e+00  34  sdss  5898  82N  5 
 1028  53698.191023  0  27.934  2.392  0.614  0.301  -1.065e+01   1.109e+01   5.846e+00   2.863e+00  16  sdss  5898  82N  5 
 1028  53699.216082  1  27.953  3.015  1.279  0.101  -4.327e+00   6.661e+00   5.121e+00   4.054e-01  32  sdss  5902  82N  5 
 1181  53699.212765  2  27.498  3.042  4.728  0.095  -5.157e+00   8.773e+00   2.281e+01   4.561e-01  33  sdss  5902  82N  5 
 1156  53699.213594  3  20.501  1.218  0.451  0.028   2.250e+01   1.826e+01   9.368e+00   5.863e-01  33  sdss  5902  82N  5 
 1028  53699.215253  4  24.684  2.747  0.638  0.131  -1.409e+01   3.585e+01   8.859e+00   1.825e+00  34  sdss  5902  82N  5 
    0  53700.192835  1  23.311  0.345  0.177  0.249   1.628e+00   5.384e-01   2.837e-01   3.993e-01  32  sdss  5905  82S  6 
    0  53700.189519  2  22.328  0.263  0.196  0.224   4.192e+00   1.018e+00   7.753e-01   8.863e-01  33  sdss  5905  82S  6 
    0  53700.190348  3  21.973  0.274  0.251  0.131   5.734e+00   1.454e+00   1.359e+00   7.070e-01  33  sdss  5905  82S  6 
   32  53700.192006  4  22.101  0.718  0.371  0.353   3.846e+00   4.372e+00   2.238e+00   2.126e+00  34  sdss  5905  82S  6 
    0  53700.191177  0  26.027  1.000  0.147  0.859  -1.693e+00   1.627e+00   2.633e-01   1.538e+00  16  sdss  5905  82S  6 
 1152  53702.190220  1  25.416  2.145  5.458  4.616  -1.773e-01   2.267e+00   3.333e+00   2.819e+00  32  sdss  5909  82N  5 
  128  53702.187733  3  26.385  1.890  1.649  0.945  -4.042e+00   5.201e+00   6.435e+00   3.689e+00  33  sdss  5909  82N  5 
    2  53702.189391  4  24.685  0.791  0.678  0.791  -1.410e+01   9.736e+00   9.421e+00   1.099e+01  34  sdss  5909  82N  5 
 1152  53702.188562  0  21.774  1.276  0.341  1.601   7.511e+00   6.185e+00   2.301e+00   1.081e+01  16  sdss  5909  82N  5 
   32  53704.177975  1  24.629  0.779  0.264  0.614   2.980e-01   5.310e-01   1.714e-01   3.986e-01  32  sdss  5918  82N  5 
    0  53704.174658  2  22.841  0.360  0.274  0.217   2.567e+00   8.725e-01   6.860e-01   5.429e-01  33  sdss  5918  82N  5 
   32  53704.175487  3  22.873  0.527  0.166  0.183   2.371e+00   1.249e+00   4.118e-01   4.541e-01  33  sdss  5918  82N  5 
   32  53704.177146  4  22.747  0.722  0.566  0.485   4.188e-01   3.797e+00   2.771e+00   2.374e+00  34  sdss  5918  82N  5 
    0  53704.176317  0  25.489  1.110  0.051  0.952  -8.762e-01   1.430e+00   6.349e-02   1.184e+00  16  sdss  5918  82N  5 
    0  53705.178795  1  23.759  0.540  0.259  0.473   1.027e+00   5.744e-01   2.874e-01   5.243e-01  32  sdss  5924  82S  6 
    0  53705.175478  2  22.488  0.261  0.183  0.169   3.605e+00   8.757e-01   6.246e-01   5.772e-01  33  sdss  5924  82S  6 
    0  53705.176307  3  22.377  0.349  0.212  0.171   3.898e+00   1.283e+00   8.025e-01   6.478e-01  33  sdss  5924  82S  6 
   32  53705.177966  4  22.143  0.642  0.407  0.415   3.596e+00   3.826e+00   2.398e+00   2.448e+00  34  sdss  5924  82S  6 
    0  53705.177136  0  26.122  0.907  0.131  0.865  -1.873e+00   1.580e+00   2.517e-01   1.668e+00  16  sdss  5924  82S  6 
