# SDSS CID:  17717 IAU: 2006px   RA: 353.224854 DEC:   1.036407  (J2000)
# GALAXY_SB [ugriz] = [ 24.38 23.81 23.73 23.04 22.22 ] +/- [  0.30  0.10  0.14  0.13  0.14 ] (asinh mag/square arcsec)
# GALAXY_SB_FLUX [ugriz] = [  2.448E-01  9.634E-01  9.998E-01  1.973E+00  3.100E+00 ] +/- [  3.023E-01  1.088E-01  1.658E-01  2.778E-01  7.822E-01 ] (microJy per square arcsec)
#FLAG  MJD       FILT  MAG     MERR  MSKYERR MGALERR  FLUX       FLUXERR    SKYERR     GALERR    NPRE TELE   RUN  STRIP  IDCCD
    0  54357.264840  1  22.346  0.150  0.071  0.179   4.084e+00   5.641e-01   2.699e-01   6.791e-01  8  sdss  6955  82S  6 
    0  54357.261523  2  22.334  0.233  0.190  0.358   4.167e+00   9.048e-01   7.485e-01   1.405e+00  10  sdss  6955  82S  6 
    0  54357.262352  3  22.943  0.581  0.270  0.657   2.202e+00   1.297e+00   6.360e-01   1.545e+00  9  sdss  6955  82S  6 
   32  54357.264011  4  22.487  0.817  0.167  1.114   1.713e+00   4.504e+00   8.558e-01   5.710e+00  10  sdss  6955  82S  6 
    0  54357.263182  0  22.097  0.363  0.109  0.489   5.554e+00   1.762e+00   5.455e-01   2.453e+00  7  sdss  6955  82S  6 
 1164  54362.314968  1  22.103  0.214  0.159  0.203   5.120e+00   9.992e-01   7.505e-01   9.628e-01  8  sdss  6976  82S  6 
    0  54362.311651  2  22.455  0.265  0.115  0.329   3.717e+00   9.170e-01   4.059e-01   1.161e+00  10  sdss  6976  82S  6 
   32  54362.312480  3  24.238  1.075  0.429  1.582   1.467e-01   1.494e+00   5.118e-01   1.886e+00  9  sdss  6976  82S  6 
   32  54362.314139  4  22.254  0.826  0.505  0.880   2.960e+00   4.823e+00   2.823e+00   4.921e+00  10  sdss  6976  82S  6 
    8  54362.313309  0  22.826  0.810  0.772  1.062   2.766e+00   1.891e+00   2.037e+00   2.800e+00  7  sdss  6976  82S  6 
    8  54379.304764  1  22.180  0.113  0.053  0.091   4.766e+00   4.952e-01   2.322e-01   4.034e-01  8  sdss  7024  82S  6 
    0  54379.301446  2  22.364  0.208  0.072  0.196   4.050e+00   7.856e-01   2.736e-01   7.510e-01  10  sdss  7024  82S  6 
    0  54379.302276  3  22.457  0.366  0.160  0.382   3.606e+00   1.252e+00   5.661e-01   1.347e+00  9  sdss  7024  82S  6 
    0  54379.303934  4  22.066  0.574  0.275  0.450   4.058e+00   3.529e+00   1.694e+00   2.766e+00  10  sdss  7024  82S  6 
    0  54379.303105  0  22.161  0.364  0.084  0.345   5.229e+00   1.667e+00   3.994e-01   1.634e+00  7  sdss  7024  82S  6 
    8  54385.312244  1  22.337  0.135  0.098  0.146   4.118e+00   5.130e-01   3.740e-01   5.588e-01  8  sdss  7051  82S  6 
    0  54385.308927  2  22.251  0.227  0.207  0.346   4.504e+00   9.498e-01   8.750e-01   1.466e+00  10  sdss  7051  82S  6 
    0  54385.309756  3  22.577  0.446  0.268  0.583   3.204e+00   1.362e+00   8.546e-01   1.855e+00  9  sdss  7051  82S  6 
    0  54385.311415  4  21.975  0.578  0.404  0.512   4.632e+00   3.720e+00   2.620e+00   3.320e+00  10  sdss  7051  82S  6 
    8  54385.310585  0  22.314  0.421  0.280  0.522   4.526e+00   1.662e+00   1.156e+00   2.153e+00  7  sdss  7051  82S  6 
    0  54387.312562  1  22.370  0.161  0.102  0.216   3.993e+00   5.925e-01   3.790e-01   8.032e-01  8  sdss  7057  82S  6 
    0  54387.309245  2  22.293  0.247  0.054  0.348   4.330e+00   9.903e-01   2.215e-01   1.418e+00  10  sdss  7057  82S  6 
   32  54387.310074  3  22.752  0.584  0.304  0.801   2.687e+00   1.507e+00   8.360e-01   2.201e+00  9  sdss  7057  82S  6 
   32  54387.311733  4  22.038  0.720  0.225  0.763   4.232e+00   4.507e+00   1.404e+00   4.768e+00  10  sdss  7057  82S  6 
    0  54387.310903  0  22.713  0.788  0.156  0.996   3.089e+00   2.023e+00   4.538e-01   2.891e+00  7  sdss  7057  82S  6 
    0  54392.306962  1  22.372  0.163  0.020  0.233   3.985e+00   5.979e-01   7.338e-02   8.617e-01  8  sdss  7076  82S  6 
    0  54392.303645  2  22.693  0.364  0.268  0.546   2.963e+00   1.006e+00   7.641e-01   1.556e+00  10  sdss  7076  82S  6 
    0  54392.304475  3  22.709  0.512  0.118  0.623   2.807e+00   1.386e+00   3.357e-01   1.775e+00  9  sdss  7076  82S  6 
   32  54392.306133  4  22.767  0.849  0.625  1.189   3.211e-01   4.581e+00   3.056e+00   5.812e+00  10  sdss  7076  82S  6 
   32  54392.305304  0  23.447  1.350  0.181  1.949   1.443e+00   2.043e+00   2.905e-01   3.129e+00  7  sdss  7076  82S  6 
    1  54394.294810  1  22.080  0.266  0.123  0.204   5.230e+00   1.263e+00   5.956e-01   9.863e-01  8  sdss  7084  82S  6 
    1  54394.291493  2  22.949  0.841  0.376  0.816   2.311e+00   1.678e+00   8.566e-01   1.861e+00  10  sdss  7084  82S  6 
   32  54394.292322  3  22.545  0.704  0.321  0.816   3.307e+00   2.089e+00   1.051e+00   2.671e+00  9  sdss  7084  82S  6 
   32  54394.293981  4  21.924  0.832  0.889  0.877   4.967e+00   5.500e+00   5.950e+00   5.872e+00  10  sdss  7084  82S  6 
   33  54394.293152  0  23.135  1.866  1.448  1.807   2.025e+00   3.376e+00   2.954e+00   3.685e+00  7  sdss  7084  82S  6 
   33  54402.305023  1  23.331  1.115  0.139  0.475   1.596e+00   1.455e+00   2.196e-01   7.494e-01  8  sdss  7101  82S  6 
    1  54402.301706  2  22.084  0.305  0.034  0.223   5.266e+00   1.467e+00   1.688e-01   1.097e+00  10  sdss  7101  82S  6 
    1  54402.302536  3  22.376  0.512  0.091  0.492   3.902e+00   1.828e+00   3.436e-01   1.863e+00  9  sdss  7101  82S  6 
   32  54402.304194  4  22.365  0.846  0.133  0.804   2.355e+00   4.811e+00   7.095e-01   4.295e+00  10  sdss  7101  82S  6 
    1  54402.303365  0  21.568  0.622  0.116  0.320   9.086e+00   4.571e+00   9.449e-01   2.592e+00  7  sdss  7101  82S  6 
    0  54408.218637  1  22.531  0.159  0.010  0.139   3.435e+00   5.067e-01   3.188e-02   4.445e-01  8  sdss  7127  82S  6 
    0  54408.215321  2  23.187  0.450  0.081  0.379   1.822e+00   8.065e-01   1.513e-01   7.069e-01  10  sdss  7127  82S  6 
    0  54408.216150  3  22.289  0.326  0.103  0.275   4.244e+00   1.299e+00   4.211e-01   1.125e+00  9  sdss  7127  82S  6 
   32  54408.217808  4  22.174  0.690  0.210  0.588   3.414e+00   4.078e+00   1.218e+00   3.413e+00  10  sdss  7127  82S  6 
    0  54408.216979  0  22.743  0.563  0.046  0.440   3.002e+00   1.490e+00   1.313e-01   1.245e+00  7  sdss  7127  82S  6 
    0  54411.176437  1  22.350  0.131  0.025  0.107   4.069e+00   4.927e-01   9.479e-02   4.059e-01  8  sdss  7136  82S  6 
    0  54411.173120  2  22.579  0.244  0.115  0.192   3.304e+00   7.569e-01   3.625e-01   6.043e-01  10  sdss  7136  82S  6 
    0  54411.173949  3  22.559  0.400  0.049  0.314   3.262e+00   1.250e+00   1.596e-01   1.016e+00  9  sdss  7136  82S  6 
    0  54411.175607  4  22.895  0.750  0.451  0.679  -3.024e-01   3.960e+00   2.203e+00   3.319e+00  10  sdss  7136  82S  6 
   12  54411.174778  0  23.262  0.866  0.608  0.738   1.771e+00   1.464e+00   1.121e+00   1.362e+00  7  sdss  7136  82S  6 
    0  54413.217225  1  22.326  0.141  0.033  0.171   4.160e+00   5.400e-01   1.260e-01   6.600e-01  8  sdss  7145  82S  6 
    0  54413.213908  2  22.251  0.203  0.118  0.219   4.504e+00   8.488e-01   5.017e-01   9.279e-01  10  sdss  7145  82S  6 
    0  54413.214737  3  22.469  0.410  0.090  0.455   3.564e+00   1.381e+00   3.143e-01   1.591e+00  9  sdss  7145  82S  6 
   32  54413.216396  4  22.543  0.794  0.617  0.859   1.429e+00   4.320e+00   3.119e+00   4.340e+00  10  sdss  7145  82S  6 
   40  54413.215567  0  23.422  1.016  0.863  1.215   1.486e+00   1.546e+00   1.411e+00   1.986e+00  7  sdss  7145  82S  6 
    0  54418.216893  1  22.629  0.177  0.077  0.188   3.133e+00   5.155e-01   2.255e-01   5.521e-01  8  sdss  7161  82S  6 
    0  54418.213577  2  22.421  0.231  0.120  0.236   3.839e+00   8.272e-01   4.366e-01   8.592e-01  10  sdss  7161  82S  6 
    0  54418.214406  3  22.225  0.332  0.115  0.368   4.513e+00   1.397e+00   4.978e-01   1.592e+00  9  sdss  7161  82S  6 
    0  54418.216064  4  23.010  0.755  0.406  0.742  -8.660e-01   4.018e+00   2.008e+00   3.668e+00  10  sdss  7161  82S  6 
    8  54418.215235  0  23.215  0.883  0.738  0.958   1.863e+00   1.536e+00   1.413e+00   1.833e+00  7  sdss  7161  82S  6 
    1  54422.220983  1  22.550  0.316  0.047  0.229   3.375e+00   9.699e-01   1.476e-01   7.216e-01  8  sdss  7173  82S  6 
    1  54422.217667  2  23.161  0.630  0.258  0.531   1.871e+00   1.116e+00   4.912e-01   1.011e+00  10  sdss  7173  82S  6 
    0  54422.218496  3  22.592  0.506  0.209  0.468   3.156e+00   1.508e+00   6.564e-01   1.470e+00  9  sdss  7173  82S  6 
   32  54422.220154  4  22.358  0.734  0.324  0.719   2.392e+00   4.111e+00   1.735e+00   3.848e+00  10  sdss  7173  82S  6 
    1  54422.219325  0  25.830  1.560  0.195  1.332  -1.356e+00   2.391e+00   3.014e-01   2.056e+00  7  sdss  7173  82S  6 
