# SDSS CID:  20782 IAU:          RA:  42.560413 DEC:  -0.413189  (J2000)
# GALAXY_SB [ugriz] = [ 23.95 22.34 21.02 20.47 20.07 ] +/- [  0.00  0.00  0.00  0.00  0.00 ] (asinh mag/square arcsec)
# GALAXY_SB_FLUX [ugriz] = [  7.088E-01  4.102E+00  1.415E+01  2.324E+01  3.330E+01 ] +/- [  0.000E+00  0.000E+00  0.000E+00  0.000E+00  0.000E+00 ] (microJy per square arcsec)
#FLAG  MJD       FILT  MAG     MERR  MSKYERR MGALERR  FLUX       FLUXERR    SKYERR     GALERR    NPRE TELE   RUN  STRIP  IDCCD
 1313  54346.436344  1  24.253  1.406  1.861  0.000   5.650e-01   1.185e+00   1.466e+00   0.000e+00  30  sdss  6921  82N  2 
 1281  54346.433027  2  26.673  0.546  0.151  0.000  -2.352e+00   1.184e+00   3.494e-01   0.000e+00  32  sdss  6921  82N  2 
 1280  54346.433856  3  26.449  0.348  0.135  0.000  -4.302e+00   1.396e+00   5.582e-01   0.000e+00  32  sdss  6921  82N  2 
 1280  54346.435515  4  24.206  0.406  0.065  0.000  -8.632e+00   3.664e+00   6.018e-01   0.000e+00  31  sdss  6921  82N  2 
 1281  54346.434685  0  27.211  0.595  0.031  0.000  -5.436e+00   2.789e+00   1.600e-01   0.000e+00  23  sdss  6921  82N  2 
 1313  54347.423958  1  23.692  0.798  0.262  0.000   1.102e+00   8.639e-01   3.087e-01   0.000e+00  30  sdss  6930  82S  3 
 1280  54347.420641  2  26.398  0.584  0.239  0.000  -1.786e+00   1.005e+00   4.373e-01   0.000e+00  32  sdss  6930  82S  3 
 1280  54347.421470  3  26.562  0.297  0.107  0.000  -4.793e+00   1.323e+00   4.896e-01   0.000e+00  32  sdss  6930  82S  3 
 1280  54347.423129  4  23.953  0.473  0.359  0.000  -6.487e+00   3.546e+00   2.754e+00   0.000e+00  31  sdss  6930  82S  3 
 1281  54347.422300  0  23.327  1.312  0.171  0.000   1.652e+00   2.121e+00   3.089e-01   0.000e+00  23  sdss  6930  82S  3 
 1281  54348.440304  1  25.771  0.926  0.389  0.000  -4.082e-01   6.763e-01   2.722e-01   0.000e+00  30  sdss  6934  82N  2 
 1280  54348.436986  2  26.275  0.597  0.242  0.000  -1.572e+00   9.335e-01   4.005e-01   0.000e+00  32  sdss  6934  82N  2 
 1280  54348.437815  3  26.483  0.308  0.103  0.000  -4.445e+00   1.281e+00   4.371e-01   0.000e+00  32  sdss  6934  82N  2 
 1280  54348.439474  4  24.028  0.491  0.025  0.000  -7.084e+00   3.867e+00   2.023e-01   0.000e+00  31  sdss  6934  82N  2 
 1293  54348.438645  0  23.057  1.080  0.685  0.000   2.195e+00   2.075e+00   1.541e+00   0.000e+00  23  sdss  6934  82N  2 
 1312  54357.399588  1  24.562  0.678  0.460  0.000   3.421e-01   4.665e-01   3.074e-01   0.000e+00  30  sdss  6955  82S  3 
 1280  54357.396271  2  26.390  0.390  0.173  0.000  -1.772e+00   6.899e-01   3.140e-01   0.000e+00  32  sdss  6955  82S  3 
 1280  54357.397100  3  26.352  0.287  0.066  0.000  -3.918e+00   1.068e+00   2.519e-01   0.000e+00  32  sdss  6955  82S  3 
 1280  54357.398759  4  22.867  0.602  0.221  0.000  -1.681e-01   3.092e+00   1.079e+00   0.000e+00  31  sdss  6955  82S  3 
 1320  54357.397930  0  24.247  1.125  0.540  0.000   4.161e-01   1.336e+00   5.624e-01   0.000e+00  23  sdss  6955  82S  3 
 1280  54358.397250  1  26.214  0.681  0.521  0.000  -7.604e-01   6.035e-01   4.788e-01   0.000e+00  30  sdss  6958  82N  2 
 1280  54358.393933  2  27.062  0.274  0.143  0.000  -3.422e+00   8.744e-01   4.662e-01   0.000e+00  32  sdss  6958  82N  2 
 1280  54358.394762  3  26.109  0.429  0.222  0.000  -3.086e+00   1.269e+00   6.825e-01   0.000e+00  32  sdss  6958  82N  2 
 1312  54358.396421  4  22.102  0.807  0.687  0.000   3.840e+00   4.933e+00   4.125e+00   0.000e+00  31  sdss  6958  82N  2 
 1284  54358.395591  0  24.886  1.357  0.713  0.000  -2.150e-01   1.695e+00   7.055e-01   0.000e+00  23  sdss  6958  82N  2 
 1280  54362.449649  1  26.237  0.507  0.215  0.000  -7.815e-01   4.615e-01   2.005e-01   0.000e+00  30  sdss  6976  82S  3 
 1280  54362.446331  2  26.073  0.523  0.194  0.000  -1.264e+00   7.129e-01   2.736e-01   0.000e+00  32  sdss  6976  82S  3 
 1280  54362.447161  3  25.727  0.522  0.171  0.000  -2.078e+00   1.128e+00   3.836e-01   0.000e+00  32  sdss  6976  82S  3 
 1280  54362.448819  4  23.352  0.642  0.299  0.000  -2.631e+00   3.593e+00   1.625e+00   0.000e+00  31  sdss  6976  82S  3 
 1280  54362.447990  0  25.324  1.088  0.270  0.000  -6.782e-01   1.343e+00   3.112e-01   0.000e+00  23  sdss  6976  82S  3 
 1280  54365.430442  1  25.775  0.712  0.457  0.000  -4.110e-01   5.087e-01   3.205e-01   0.000e+00  30  sdss  6982  82N  2 
 1280  54365.427125  2  27.198  0.204  0.034  0.000  -3.893e+00   7.410e-01   1.245e-01   0.000e+00  32  sdss  6982  82N  2 
 1280  54365.427954  3  25.770  0.492  0.193  0.000  -2.176e+00   1.100e+00   4.482e-01   0.000e+00  32  sdss  6982  82N  2 
 1280  54365.429613  4  23.627  0.598  0.414  0.000  -4.231e+00   3.718e+00   2.571e+00   0.000e+00  31  sdss  6982  82N  2 
 1312  54365.428784  0  24.275  1.207  0.429  0.000   3.871e-01   1.460e+00   4.429e-01   0.000e+00  23  sdss  6982  82N  2 
 1281  54376.445511  1  26.807  0.425  0.125  0.000  -1.446e+00   6.003e-01   1.829e-01   0.000e+00  30  sdss  7016  82S  3 
 1312  54376.442194  2  24.182  0.850  0.370  0.000   5.231e-01   8.249e-01   3.451e-01   0.000e+00  32  sdss  7016  82S  3 
 1280  54376.443023  3  25.293  0.748  0.265  0.000  -1.243e+00   1.212e+00   4.364e-01   0.000e+00  32  sdss  7016  82S  3 
 1280  54376.444682  4  23.499  0.641  0.319  0.000  -3.459e+00   3.775e+00   1.851e+00   0.000e+00  31  sdss  7016  82S  3 
 1281  54376.443852  0  24.958  1.380  0.196  0.000  -2.865e-01   1.746e+00   1.968e-01   0.000e+00  23  sdss  7016  82S  3 
 1280  54382.430955  1  26.043  0.732  0.827  0.000  -6.130e-01   5.893e-01   6.773e-01   0.000e+00  30  sdss  7038  82S  3 
 1280  54382.427638  2  26.695  0.435  0.352  0.000  -2.403e+00   9.820e-01   8.284e-01   0.000e+00  32  sdss  7038  82S  3 
 1280  54382.428467  3  25.935  0.580  0.412  0.000  -2.587e+00   1.453e+00   1.094e+00   0.000e+00  32  sdss  7038  82S  3 
 1312  54382.430126  4  22.784  0.936  0.221  0.000   2.364e-01   5.156e+00   1.077e+00   0.000e+00  31  sdss  7038  82S  3 
 1288  54382.429297  0  22.961  0.887  0.758  0.000   2.419e+00   1.895e+00   1.849e+00   0.000e+00  23  sdss  7038  82S  3 
 1280  54384.454218  2  26.362  0.588  0.203  0.000  -1.721e+00   9.836e-01   3.614e-01   0.000e+00  32  sdss  7047  82N  2 
 1280  54384.455047  3  26.782  0.267  0.247  0.000  -5.900e+00   1.453e+00   1.373e+00   0.000e+00  32  sdss  7047  82N  2 
 1312  54385.448624  1  24.804  0.780  0.701  0.000   1.878e-01   5.134e-01   4.305e-01   0.000e+00  30  sdss  7051  82S  3 
 1280  54385.445307  2  26.059  0.588  0.289  0.000  -1.244e+00   7.878e-01   4.044e-01   0.000e+00  32  sdss  7051  82S  3 
 1280  54385.446136  3  25.835  0.501  0.197  0.000  -2.331e+00   1.177e+00   4.814e-01   0.000e+00  32  sdss  7051  82S  3 
 1280  54385.447795  4  23.935  0.552  0.364  0.000  -6.348e+00   4.068e+00   2.750e+00   0.000e+00  31  sdss  7051  82S  3 
 1280  54385.446965  0  25.738  1.104  0.277  0.000  -1.217e+00   1.574e+00   4.121e-01   0.000e+00  23  sdss  7051  82S  3 
 1280  54386.443261  1  26.001  0.650  0.442  0.000  -5.794e-01   5.121e-01   3.520e-01   0.000e+00  30  sdss  7054  82N  2 
 1280  54386.439944  2  26.255  0.510  0.089  0.000  -1.539e+00   7.964e-01   1.447e-01   0.000e+00  32  sdss  7054  82N  2 
 1280  54386.440774  3  25.874  0.457  0.151  0.000  -2.428e+00   1.114e+00   3.821e-01   0.000e+00  32  sdss  7054  82N  2 
 1280  54386.442432  4  23.740  0.532  0.357  0.000  -4.959e+00   3.499e+00   2.370e+00   0.000e+00  31  sdss  7054  82N  2 
 1280  54387.449505  1  25.860  0.909  0.891  0.000  -4.715e-01   6.824e-01   6.531e-01   0.000e+00  30  sdss  7057  82S  3 
 1280  54387.446188  2  26.824  0.444  0.314  0.000  -2.725e+00   1.118e+00   8.273e-01   0.000e+00  32  sdss  7057  82S  3 
 1280  54387.447017  3  26.200  0.490  0.414  0.000  -3.376e+00   1.547e+00   1.375e+00   0.000e+00  32  sdss  7057  82S  3 
 1312  54387.448676  4  22.514  0.948  1.016  0.000   1.575e+00   5.352e+00   5.166e+00   0.000e+00  31  sdss  7057  82S  3 
 1280  54387.447847  0  26.468  0.901  0.259  0.000  -2.666e+00   2.067e+00   6.864e-01   0.000e+00  23  sdss  7057  82S  3 
 1280  54388.444506  2  25.773  0.705  0.101  0.000  -8.835e-01   7.873e-01   1.154e-01   0.000e+00  32  sdss  7060  82N  2 
 1280  54388.445335  3  26.291  0.310  0.121  0.000  -3.692e+00   1.089e+00   4.346e-01   0.000e+00  32  sdss  7060  82N  2 
 1280  54388.446993  4  22.905  0.700  0.385  0.000  -3.508e-01   3.658e+00   1.883e+00   0.000e+00  31  sdss  7060  82N  2 
 1286  54390.441890  1  28.921  0.476  0.885  0.000  -1.061e+01   4.413e+00   8.712e+00   0.000e+00  30  sdss  7071  82S  3 
 1438  54390.438573  2  28.845  0.455  4.092  0.000  -1.795e+01   7.126e+00   6.777e+01   0.000e+00  32  sdss  7071  82S  3 
 1414  54390.439402  3  27.126  0.670  0.719  0.000  -8.144e+00   4.543e+00   5.446e+00   0.000e+00  32  sdss  7071  82S  3 
 1294  54390.441061  4  19.849  1.912  3.274  0.000   4.118e+01   4.119e+01   1.239e+02   0.000e+00  31  sdss  7071  82S  3 
 1422  54390.440232  0  22.098  0.764  0.942  0.000   5.545e+00   3.471e+00   4.914e+00   0.000e+00  23  sdss  7071  82S  3 
 1312  54391.446832  2  22.216  0.534  0.485  0.000   4.654e+00   2.169e+00   2.118e+00   0.000e+00  32  sdss  7074  82S  3 
 1282  54391.447662  3  25.961  0.964  1.177  0.000  -2.657e+00   2.286e+00   3.196e+00   0.000e+00  32  sdss  7074  82S  3 
 1280  54391.449320  4  22.961  1.684  1.816  0.000  -6.281e-01   1.194e+01   8.920e+00   0.000e+00  31  sdss  7074  82S  3 
 1280  54391.448491  0  22.278  2.326  0.388  0.000   4.682e+00   6.360e+00   1.720e+00   0.000e+00  23  sdss  7074  82S  3 
 1280  54393.448000  2  25.898  0.749  0.296  0.000  -1.032e+00   8.946e-01   3.676e-01   0.000e+00  32  sdss  7081  82N  2 
 1280  54393.448829  3  25.720  0.548  0.152  0.000  -2.062e+00   1.173e+00   3.396e-01   0.000e+00  32  sdss  7081  82N  2 
 1280  54393.450488  4  23.513  0.755  0.161  0.000  -3.536e+00   4.505e+00   9.424e-01   0.000e+00  31  sdss  7081  82N  2 
 1282  54394.432285  1  25.965  0.940  1.122  0.000  -5.504e-01   7.357e-01   8.737e-01   0.000e+00  30  sdss  7084  82S  3 
 1282  54394.428967  2  26.935  0.526  0.410  0.000  -3.031e+00   1.434e+00   1.191e+00   0.000e+00  32  sdss  7084  82S  3 
 1282  54394.429797  3  24.503  1.339  2.077  0.000  -1.669e-01   2.026e+00   2.480e+00   0.000e+00  32  sdss  7084  82S  3 
 1288  54394.431455  4  23.165  1.138  2.586  0.000  -1.648e+00   6.744e+00   1.320e+01   0.000e+00  31  sdss  7084  82S  3 
 1408  54394.430626  0  25.074  2.093  1.281  0.000  -4.054e-01   3.561e+00   1.331e+00   0.000e+00  23  sdss  7084  82S  3 
 1313  54396.315065  1  23.928  2.809  1.737  0.000   8.498e-01   4.309e+00   1.708e+00   0.000e+00  30  sdss  7095  82N  2 
 1283  54396.311748  2  26.790  1.607  0.876  0.000  -2.636e+00   2.987e+00   2.242e+00   0.000e+00  32  sdss  7095  82N  2 
 1408  54396.312577  3  27.147  0.467  0.442  0.000  -8.305e+00   3.406e+00   3.411e+00   0.000e+00  32  sdss  7095  82N  2 
 1282  54396.452413  1  26.527  0.709  0.697  0.000  -1.083e+00   7.683e-01   8.105e-01   0.000e+00  30  sdss  7096  82S  3 
 1280  54396.449096  2  27.312  0.345  0.417  0.000  -4.333e+00   1.362e+00   1.700e+00   0.000e+00  32  sdss  7096  82S  3 
 1280  54396.449926  3  26.496  0.491  1.034  0.000  -4.501e+00   1.998e+00   4.446e+00   0.000e+00  32  sdss  7096  82S  3 
 1280  54396.451584  4  25.156  0.362  0.406  0.000  -2.218e+01   7.283e+00   8.444e+00   0.000e+00  31  sdss  7096  82S  3 
 1282  54396.450755  0  25.515  1.839  0.827  0.000  -9.093e-01   2.894e+00   1.061e+00   0.000e+00  23  sdss  7096  82S  3 
 1281  54402.442671  1  27.036  1.337  0.290  0.000  -1.814e+00   1.836e+00   5.171e-01   0.000e+00  30  sdss  7101  82S  3 
 1281  54402.439354  2  26.677  0.835  0.374  0.000  -2.361e+00   1.696e+00   8.664e-01   0.000e+00  32  sdss  7101  82S  3 
 1281  54402.440183  3  26.726  0.352  0.182  0.000  -5.596e+00   1.802e+00   9.578e-01   0.000e+00  32  sdss  7101  82S  3 
 1312  54402.441841  4  21.926  0.821  0.506  0.000   4.957e+00   5.397e+00   3.364e+00   0.000e+00  31  sdss  7101  82S  3 
 1281  54402.441012  0  22.235  1.781  0.223  0.000   4.876e+00   5.239e+00   1.028e+00   0.000e+00  23  sdss  7101  82S  3 
 1305  54403.361708  1  26.870  1.030  8.566  0.000  -1.541e+00   1.344e+00   1.322e+01   0.000e+00  30  sdss  7106  82N  2 
 1293  54403.358391  2  26.576  1.324  1.582  0.000  -2.138e+00   2.241e+00   3.365e+00   0.000e+00  32  sdss  7106  82N  2 
 1305  54403.359221  3  26.480  0.675  2.683  0.000  -4.433e+00   2.587e+00   1.138e+01   0.000e+00  32  sdss  7106  82N  2 
 1305  54403.360879  4  22.962  1.139  8.721  0.000  -6.331e-01   6.651e+00   4.283e+01   0.000e+00  31  sdss  7106  82N  2 
 1293  54403.360050  0  25.327  2.204  2.972  0.000  -6.816e-01   3.990e+00   3.436e+00   0.000e+00  23  sdss  7106  82N  2 
 1280  54406.355446  1  25.514  0.838  0.195  0.000  -2.386e-01   5.658e-01   1.226e-01   0.000e+00  30  sdss  7121  82N  2 
 1280  54406.352129  2  26.993  0.264  0.062  0.000  -3.204e+00   7.950e-01   1.888e-01   0.000e+00  32  sdss  7121  82N  2 
 1280  54406.352958  3  25.945  0.419  0.109  0.000  -2.614e+00   1.085e+00   2.924e-01   0.000e+00  32  sdss  7121  82N  2 
 1280  54406.354617  4  22.895  0.593  0.141  0.000  -3.014e-01   3.043e+00   6.909e-01   0.000e+00  31  sdss  7121  82N  2 
 1280  54406.353788  0  26.393  0.694  0.101  0.000  -2.473e+00   1.576e+00   2.522e-01   0.000e+00  23  sdss  7121  82N  2 
 1280  54408.357125  1  25.433  0.697  0.286  0.000  -1.880e-01   4.519e-01   1.759e-01   0.000e+00  30  sdss  7127  82S  3 
 1280  54408.353808  2  25.558  0.712  0.230  0.000  -6.542e-01   7.174e-01   2.298e-01   0.000e+00  32  sdss  7127  82S  3 
 1280  54408.354637  3  25.212  0.709  0.153  0.000  -1.112e+00   1.104e+00   2.401e-01   0.000e+00  32  sdss  7127  82S  3 
 1280  54408.356296  4  22.888  0.651  0.073  0.000  -2.717e-01   3.370e+00   3.551e-01   0.000e+00  31  sdss  7127  82S  3 
 1280  54408.355466  0  23.473  0.887  0.218  0.000   1.403e+00   1.349e+00   3.524e-01   0.000e+00  23  sdss  7127  82S  3 
 1280  54409.360672  1  25.819  0.660  0.238  0.000  -4.420e-01   4.781e-01   1.704e-01   0.000e+00  30  sdss  7130  82N  2 
 1280  54409.357355  2  26.675  0.340  0.055  0.000  -2.356e+00   7.668e-01   1.268e-01   0.000e+00  32  sdss  7130  82N  2 
 1280  54409.358184  3  25.910  0.439  0.118  0.000  -2.522e+00   1.102e+00   3.067e-01   0.000e+00  32  sdss  7130  82N  2 
 1280  54409.359843  4  24.048  0.444  0.183  0.000  -7.241e+00   3.560e+00   1.498e+00   0.000e+00  31  sdss  7130  82N  2 
 1312  54409.359014  0  23.749  1.112  0.057  0.000   9.967e-01   1.492e+00   7.649e-02   0.000e+00  23  sdss  7130  82N  2 
 1280  54411.315132  1  26.296  0.477  0.155  0.000  -8.374e-01   4.530e-01   1.512e-01   0.000e+00  30  sdss  7136  82S  3 
 1280  54411.311815  2  26.275  0.463  0.120  0.000  -1.572e+00   7.395e-01   1.984e-01   0.000e+00  32  sdss  7136  82S  3 
 1280  54411.312644  3  25.506  0.601  0.197  0.000  -1.620e+00   1.105e+00   3.746e-01   0.000e+00  32  sdss  7136  82S  3 
 1280  54411.314303  4  23.806  0.464  0.140  0.000  -5.412e+00   3.178e+00   9.689e-01   0.000e+00  31  sdss  7136  82S  3 
 1320  54411.313473  0  24.177  1.139  0.886  0.000   4.896e-01   1.372e+00   9.479e-01   0.000e+00  23  sdss  7136  82S  3 
 1280  54412.381376  1  26.704  0.446  0.104  0.000  -1.303e+00   5.774e-01   1.401e-01   0.000e+00  30  sdss  7142  82N  2 
 1280  54412.378059  2  26.671  0.381  0.186  0.000  -2.347e+00   8.511e-01   4.305e-01   0.000e+00  32  sdss  7142  82N  2 
 1280  54412.378888  3  25.892  0.492  0.198  0.000  -2.474e+00   1.209e+00   5.071e-01   0.000e+00  32  sdss  7142  82N  2 
 1280  54412.380546  4  24.513  0.375  0.170  0.000  -1.188e+01   4.331e+00   2.013e+00   0.000e+00  31  sdss  7142  82N  2 
 1284  54412.379717  0  23.197  1.105  0.108  0.000   1.898e+00   1.936e+00   2.166e-01   0.000e+00  23  sdss  7142  82N  2 
 1314  54413.352322  2  24.068  1.178  1.387  0.000   6.325e-01   1.244e+00   1.372e+00   0.000e+00  32  sdss  7145  82S  3 
 1282  54413.353151  3  25.394  1.182  1.071  0.000  -1.414e+00   2.032e+00   1.883e+00   0.000e+00  32  sdss  7145  82S  3 
 1312  54413.354810  4  21.482  0.854  1.177  0.000   8.427e+00   7.155e+00   1.071e+01   0.000e+00  31  sdss  7145  82S  3 
 1408  54413.353981  0  20.845  0.390  0.221  0.000   1.774e+01   6.152e+00   3.642e+00   0.000e+00  23  sdss  7145  82S  3 
 1280  54415.367493  1  25.222  0.723  0.377  0.000  -6.132e-02   4.597e-01   2.231e-01   0.000e+00  30  sdss  7152  82S  3 
 1280  54415.364175  2  26.156  0.492  0.102  0.000  -1.384e+00   7.148e-01   1.535e-01   0.000e+00  32  sdss  7152  82S  3 
 1280  54415.365005  3  25.200  0.711  0.199  0.000  -1.093e+00   1.100e+00   3.096e-01   0.000e+00  32  sdss  7152  82S  3 
 1280  54415.366663  4  23.447  0.594  0.346  0.000  -3.158e+00   3.418e+00   1.958e+00   0.000e+00  31  sdss  7152  82S  3 
 1312  54415.365834  0  24.624  1.178  0.104  0.000   4.022e-02   1.378e+00   1.013e-01   0.000e+00  23  sdss  7152  82S  3 
 1280  54416.354530  1  26.350  0.488  0.099  0.000  -8.918e-01   4.804e-01   1.002e-01   0.000e+00  30  sdss  7155  82N  2 
 1280  54416.351213  2  26.935  0.269  0.046  0.000  -3.031e+00   7.675e-01   1.331e-01   0.000e+00  32  sdss  7155  82N  2 
 1280  54416.352042  3  26.086  0.372  0.130  0.000  -3.016e+00   1.090e+00   3.928e-01   0.000e+00  32  sdss  7155  82N  2 
 1280  54416.353700  4  24.016  0.444  0.150  0.000  -6.986e+00   3.481e+00   1.202e+00   0.000e+00  31  sdss  7155  82N  2 
 1280  54416.352871  0  23.127  0.780  0.067  0.000   2.042e+00   1.507e+00   1.417e-01   0.000e+00  23  sdss  7155  82N  2 
 1312  54417.357671  1  25.093  0.766  0.507  0.000   1.486e-02   4.897e-01   2.988e-01   0.000e+00  30  sdss  7158  82S  3 
 1280  54417.354354  2  26.123  0.605  0.328  0.000  -1.335e+00   8.468e-01   4.814e-01   0.000e+00  32  sdss  7158  82S  3 
 1280  54417.355183  3  26.239  0.359  0.103  0.000  -3.509e+00   1.197e+00   3.549e-01   0.000e+00  32  sdss  7158  82S  3 
 1312  54417.356842  4  22.385  0.728  0.132  0.000   2.246e+00   4.039e+00   6.995e-01   0.000e+00  31  sdss  7158  82S  3 
 1280  54417.356013  0  25.711  1.011  0.225  0.000  -1.177e+00   1.421e+00   3.280e-01   0.000e+00  23  sdss  7158  82S  3 
 1280  54418.355636  1  26.449  0.551  0.405  0.000  -9.951e-01   5.775e-01   4.436e-01   0.000e+00  30  sdss  7161  82S  3 
 1280  54418.352319  2  26.448  0.541  0.212  0.000  -1.880e+00   9.764e-01   4.052e-01   0.000e+00  32  sdss  7161  82S  3 
 1280  54418.353148  3  24.779  1.002  0.733  0.000  -5.061e-01   1.412e+00   9.332e-01   0.000e+00  32  sdss  7161  82S  3 
 1312  54418.354806  4  22.202  0.817  0.577  0.000   3.255e+00   4.830e+00   3.292e+00   0.000e+00  31  sdss  7161  82S  3 
 1312  54418.353977  0  23.449  1.212  0.493  0.000   1.442e+00   1.848e+00   8.122e-01   0.000e+00  23  sdss  7161  82S  3 
 1280  54421.359780  1  25.660  0.901  0.771  0.000  -3.323e-01   6.354e-01   5.125e-01   0.000e+00  30  sdss  7170  82N  2 
 1280  54421.356463  2  26.636  0.462  0.142  0.000  -2.268e+00   9.885e-01   3.172e-01   0.000e+00  32  sdss  7170  82N  2 
 1280  54421.357292  3  26.844  0.254  0.189  0.000  -6.255e+00   1.464e+00   1.111e+00   0.000e+00  32  sdss  7170  82N  2 
 1280  54421.358951  4  23.589  0.829  0.439  0.000  -3.994e+00   5.121e+00   2.673e+00   0.000e+00  31  sdss  7170  82N  2 
 1284  54421.358122  0  22.252  0.502  0.299  0.000   4.798e+00   2.141e+00   1.356e+00   0.000e+00  23  sdss  7170  82N  2 
 1282  54422.360397  1  26.854  0.492  0.579  0.000  -1.516e+00   7.134e-01   8.822e-01   0.000e+00  30  sdss  7173  82S  3 
 1280  54422.357080  2  26.153  0.821  0.499  0.000  -1.380e+00   1.140e+00   7.500e-01   0.000e+00  32  sdss  7173  82S  3 
 1312  54422.357909  3  23.987  1.133  1.454  0.000   4.525e-01   1.637e+00   1.825e+00   0.000e+00  32  sdss  7173  82S  3 
 1312  54422.359568  4  22.273  0.986  0.909  0.000   2.852e+00   5.863e+00   5.023e+00   0.000e+00  31  sdss  7173  82S  3 
 1282  54422.358738  0  22.815  0.866  0.402  0.000   2.796e+00   2.080e+00   1.109e+00   0.000e+00  23  sdss  7173  82S  3 
 1280  54423.336700  1  25.802  0.835  0.537  0.000  -4.299e-01   6.096e-01   3.814e-01   0.000e+00  30  sdss  7177  82N  2 
 1280  54423.333383  2  26.885  0.358  0.111  0.000  -2.890e+00   9.666e-01   3.092e-01   0.000e+00  32  sdss  7177  82N  2 
 1280  54423.334212  3  27.043  0.180  0.115  0.000  -7.536e+00   1.254e+00   8.068e-01   0.000e+00  32  sdss  7177  82N  2 
 1280  54423.335871  4  23.744  0.598  0.244  0.000  -4.985e+00   3.938e+00   1.624e+00   0.000e+00  31  sdss  7177  82N  2 
 1320  54423.335042  0  23.629  1.233  0.842  0.000   1.163e+00   1.748e+00   1.219e+00   0.000e+00  23  sdss  7177  82N  2 
 1281  54424.296342  1  26.561  1.110  0.234  0.000  -1.123e+00   1.165e+00   2.798e-01   0.000e+00  30  sdss  7183  82S  3 
 1281  54424.293025  2  26.712  0.389  0.119  0.000  -2.443e+00   8.981e-01   2.856e-01   0.000e+00  32  sdss  7183  82S  3 
 1280  54424.293854  3  25.214  0.825  0.307  0.000  -1.115e+00   1.289e+00   4.807e-01   0.000e+00  32  sdss  7183  82S  3 
 1312  54424.295513  4  22.748  0.641  0.138  0.000   4.143e-01   3.316e+00   6.734e-01   0.000e+00  31  sdss  7183  82S  3 
 1409  54424.294683  0  25.757  1.474  0.724  0.000  -1.246e+00   2.202e+00   1.091e+00   0.000e+00  23  sdss  7183  82S  3 
