# SDSS CID:   3271 IAU:          RA:   6.137028 DEC:   1.186131  (J2000)
# GALAXY_SB [ugriz] = [ 22.24 22.01 21.94 21.62 21.48 ] +/- [  0.09  0.03  0.03  0.03  0.10 ] (asinh mag/square arcsec)
# GALAXY_SB_FLUX [ugriz] = [  4.709E+00  5.543E+00  6.028E+00  7.952E+00  8.406E+00 ] +/- [  4.178E-01  1.676E-01  1.750E-01  2.514E-01  9.261E-01 ] (microJy per square arcsec)
#FLAG  MJD       FILT  MAG     MERR  MSKYERR MGALERR  FLUX       FLUXERR    SKYERR     GALERR    NPRE TELE   RUN  STRIP  IDCCD
    8  53616.332334  1  27.771  0.217  0.246  0.590  -3.650e+00   7.349e-01   8.428e-01   2.024e+00  13  sdss  5566  82N  6 
    0  53616.329016  2  27.075  0.295  0.127  0.373  -3.464e+00   9.571e-01   4.218e-01   1.237e+00  21  sdss  5566  82N  6 
  128  53616.329846  3  25.831  0.661  0.255  0.735  -2.321e+00   1.519e+00   6.275e-01   1.806e+00  20  sdss  5566  82N  6 
    0  53616.331504  4  23.527  0.994  0.788  1.682  -3.620e+00   6.137e+00   4.655e+00   9.934e+00  20  sdss  5566  82N  6 
  140  53616.330675  0  27.019  0.605  0.463  1.254  -4.533e+00   2.306e+00   1.926e+00   5.217e+00  7  sdss  5566  82N  6 
 1164  53623.322407  1  21.279  4.863  3.784  0.126   1.097e+01   3.025e+01   3.846e+01   1.279e+00  13  sdss  5590  82N  6 
    8  53623.319090  2  25.077  1.041  0.935  1.155  -2.217e-01   9.796e-01   7.713e-01   9.530e-01  21  sdss  5590  82N  6 
    4  53623.319919  3  24.891  1.321  0.682  0.972  -6.508e-01   2.054e+00   9.064e-01   1.292e+00  20  sdss  5590  82N  6 
 1156  53623.320749  0  25.459  2.562  0.611  2.427  -8.393e-01   5.574e+00   7.476e-01   2.971e+00  7  sdss  5590  82N  6 
    8  53626.308853  1  25.210  1.038  0.840  2.102  -5.432e-02   7.096e-01   4.965e-01   1.242e+00  13  sdss  5603  82N  6 
   32  53626.305536  2  24.527  1.043  0.750  1.363   2.218e-01   9.824e-01   6.184e-01   1.124e+00  21  sdss  5603  82N  6 
    0  53626.306365  3  24.640  1.050  0.736  1.224  -3.330e-01   1.468e+00   9.010e-01   1.498e+00  20  sdss  5603  82N  6 
   32  53626.308024  4  22.600  0.861  0.599  1.359   1.147e+00   4.718e+00   2.990e+00   6.781e+00  20  sdss  5603  82N  6 
  136  53626.307195  0  26.141  1.021  0.910  1.750  -1.912e+00   1.777e+00   1.784e+00   3.434e+00  7  sdss  5603  82N  6 
   33  53628.293884  1  24.951  1.615  0.571  1.949   9.907e-02   1.345e+00   3.405e-01   1.161e+00  13  sdss  5610  82N  6 
    1  53628.290567  2  26.308  0.900  0.231  0.660  -1.627e+00   1.375e+00   3.950e-01   1.129e+00  21  sdss  5610  82N  6 
   32  53628.291396  3  22.956  0.820  0.137  0.652   2.171e+00   1.757e+00   3.205e-01   1.523e+00  20  sdss  5610  82N  6 
   32  53628.293055  4  22.146  0.858  0.488  1.080   3.577e+00   5.199e+00   2.873e+00   6.355e+00  20  sdss  5610  82N  6 
 1185  53628.292226  0  22.327  0.821  0.264  0.805   4.471e+00   2.901e+00   1.084e+00   3.306e+00  7  sdss  5610  82N  6 
   33  53635.302372  1  22.326  0.250  0.052  0.175   4.159e+00   9.556e-01   2.010e-01   6.797e-01  13  sdss  5622  82N  6 
   33  53635.299055  2  22.947  0.489  0.128  0.299   2.317e+00   1.067e+00   2.940e-01   6.855e-01  21  sdss  5622  82N  6 
   32  53635.299884  3  23.388  0.869  0.189  0.537   1.314e+00   1.442e+00   3.221e-01   9.134e-01  20  sdss  5622  82N  6 
   32  53635.301543  4  22.781  0.786  0.443  0.833   2.537e-01   4.181e+00   2.163e+00   4.067e+00  20  sdss  5622  82N  6 
  161  53635.300714  0  24.356  1.641  0.592  1.702   3.035e-01   2.282e+00   5.955e-01   1.713e+00  7  sdss  5622  82N  6 
   33  53637.295332  1  22.651  0.349  0.028  0.510   3.068e+00   9.807e-01   8.055e-02   1.480e+00  13  sdss  5633  82N  6 
   32  53637.292015  2  22.835  0.504  0.084  0.567   2.584e+00   1.205e+00   2.136e-01   1.435e+00  21  sdss  5633  82N  6 
   32  53637.292844  3  22.979  0.875  0.382  0.946   2.117e+00   1.832e+00   8.760e-01   2.170e+00  20  sdss  5633  82N  6 
  160  53637.294503  4  22.464  1.085  0.744  1.828   1.832e+00   6.373e+00   3.839e+00   9.434e+00  20  sdss  5633  82N  6 
   41  53637.293673  0  23.901  1.761  2.464  3.551   8.033e-01   2.658e+00   2.969e+00   4.279e+00  7  sdss  5633  82N  6 
   32  53639.341094  1  22.836  0.268  0.054  0.303   2.576e+00   6.454e-01   1.321e-01   7.444e-01  13  sdss  5642  82N  6 
   32  53639.337776  2  22.643  0.288  0.087  0.247   3.109e+00   8.459e-01   2.598e-01   7.401e-01  21  sdss  5642  82N  6 
   32  53639.338605  3  22.636  0.436  0.135  0.350   3.021e+00   1.275e+00   4.118e-01   1.066e+00  20  sdss  5642  82N  6 
   32  53639.340264  4  22.603  0.704  0.423  0.817   1.132e+00   3.735e+00   2.108e+00   4.075e+00  20  sdss  5642  82N  6 
   40  53639.339435  0  23.357  1.041  0.445  1.162   1.597e+00   1.641e+00   7.668e-01   2.002e+00  7  sdss  5642  82N  6 
   32  53644.287989  1  22.553  0.204  0.045  0.369   3.365e+00   6.389e-01   1.421e-01   1.171e+00  13  sdss  5670  82N  6 
   32  53644.284671  2  22.208  0.237  0.153  0.430   4.689e+00   1.034e+00   6.795e-01   1.903e+00  21  sdss  5670  82N  6 
   32  53644.285501  3  22.915  0.662  0.179  1.017   2.267e+00   1.497e+00   4.311e-01   2.456e+00  20  sdss  5670  82N  6 
   32  53644.287159  4  22.431  0.769  0.791  1.307   2.003e+00   4.250e+00   4.122e+00   6.816e+00  20  sdss  5670  82N  6 
    0  53644.286330  0  25.764  1.399  0.255  3.456  -1.255e+00   2.049e+00   3.783e-01   5.118e+00  7  sdss  5670  82N  6 
   40  53654.322587  1  22.876  0.254  0.106  0.343   2.481e+00   5.931e-01   2.514e-01   8.138e-01  13  sdss  5709  82N  6 
   32  53654.319270  2  22.436  0.260  0.093  0.244   3.784e+00   9.223e-01   3.370e-01   8.779e-01  21  sdss  5709  82N  6 
   32  53654.320099  3  22.267  0.347  0.107  0.280   4.333e+00   1.413e+00   4.478e-01   1.173e+00  20  sdss  5709  82N  6 
  128  53654.321758  4  23.761  0.658  0.289  0.620  -5.098e+00   4.386e+00   1.959e+00   4.196e+00  20  sdss  5709  82N  6 
   32  53654.320929  0  23.234  1.085  0.093  1.145   1.825e+00   1.827e+00   1.753e-01   2.170e+00  7  sdss  5709  82N  6 
   33  53663.283225  1  22.792  0.402  0.069  0.219   2.686e+00   9.856e-01   1.774e-01   5.606e-01  13  sdss  5744  82N  6 
   33  53663.279910  2  22.488  0.316  0.089  0.165   3.602e+00   1.060e+00   3.047e-01   5.676e-01  21  sdss  5744  82N  6 
   32  53663.280738  3  23.631  0.952  0.211  0.572   9.326e-01   1.438e+00   3.098e-01   8.390e-01  20  sdss  5744  82N  6 
    0  53663.282396  4  22.991  0.758  0.112  0.705  -7.748e-01   4.031e+00   5.499e-01   3.473e+00  20  sdss  5744  82N  6 
   33  53663.281567  0  22.400  0.706  0.037  0.349   4.172e+00   2.425e+00   1.425e-01   1.342e+00  7  sdss  5744  82N  6 
   33  53666.353230  1  22.205  0.242  0.050  0.262   4.654e+00   1.034e+00   2.170e-01   1.137e+00  13  sdss  5765  82N  6 
   32  53666.349913  2  22.223  0.266  0.051  0.235   4.623e+00   1.143e+00   2.246e-01   1.029e+00  21  sdss  5765  82N  6 
   32  53666.350742  3  22.879  0.681  0.169  0.616   2.354e+00   1.575e+00   4.211e-01   1.530e+00  20  sdss  5765  82N  6 
    0  53666.352401  4  23.275  0.821  0.321  0.998  -2.219e+00   4.616e+00   1.699e+00   5.277e+00  20  sdss  5765  82N  6 
    9  53666.351572  0  25.712  1.838  1.435  2.216  -1.179e+00   2.962e+00   2.052e+00   3.168e+00  7  sdss  5765  82N  6 
   32  53668.272499  1  22.527  0.248  0.078  0.658   3.447e+00   7.907e-01   2.534e-01   2.134e+00  13  sdss  5770  82N  6 
  160  53668.269182  2  22.942  0.553  0.117  0.981   2.327e+00   1.196e+00   2.709e-01   2.263e+00  21  sdss  5770  82N  6 
   32  53668.270011  3  24.259  1.262  1.095  2.613   1.222e-01   1.857e+00   1.303e+00   3.108e+00  20  sdss  5770  82N  6 
   32  53668.271670  4  22.108  0.979  0.601  1.794   3.803e+00   6.091e+00   3.610e+00   1.077e+01  20  sdss  5770  82N  6 
   34  53668.270841  0  21.707  0.349  0.049  0.955   7.992e+00   2.428e+00   3.491e-01   6.870e+00  7  sdss  5770  82N  6 
   32  53670.277039  1  22.086  0.129  0.047  0.197   5.199e+00   6.206e-01   2.288e-01   9.528e-01  13  sdss  5781  82N  6 
   32  53670.273722  2  22.444  0.257  0.162  0.285   3.755e+00   9.029e-01   5.812e-01   1.020e+00  21  sdss  5781  82N  6 
   32  53670.274551  3  22.146  0.319  0.082  0.331   4.865e+00   1.452e+00   3.811e-01   1.544e+00  20  sdss  5781  82N  6 
  128  53670.276210  4  22.969  0.771  0.371  0.979  -6.663e-01   4.106e+00   1.823e+00   4.814e+00  20  sdss  5781  82N  6 
   32  53670.275381  0  23.155  0.984  0.243  1.386   1.984e+00   1.760e+00   4.903e-01   2.797e+00  7  sdss  5781  82N  6 
   32  53673.245001  1  22.231  0.141  0.028  0.203   4.544e+00   5.948e-01   1.184e-01   8.632e-01  13  sdss  5792  82N  6 
   32  53673.241684  2  22.083  0.191  0.013  0.209   5.270e+00   9.398e-01   6.293e-02   1.035e+00  21  sdss  5792  82N  6 
   32  53673.242514  3  22.181  0.318  0.055  0.310   4.706e+00   1.405e+00   2.510e-01   1.403e+00  20  sdss  5792  82N  6 
  160  53673.244172  4  21.758  0.583  0.214  0.714   6.142e+00   4.238e+00   1.597e+00   5.328e+00  20  sdss  5792  82N  6 
   32  53673.243343  0  24.050  1.330  0.240  2.240   6.285e-01   1.713e+00   2.688e-01   2.507e+00  7  sdss  5792  82N  6 
   32  53675.241667  1  22.472  0.196  0.055  0.447   3.629e+00   6.628e-01   1.889e-01   1.524e+00  13  sdss  5800  82N  6 
   32  53675.238350  2  22.356  0.266  0.113  0.313   4.080e+00   1.010e+00   4.391e-01   1.212e+00  21  sdss  5800  82N  6 
   32  53675.239180  3  22.568  0.519  0.318  0.552   3.233e+00   1.583e+00   1.026e+00   1.781e+00  20  sdss  5800  82N  6 
    0  53675.240838  4  23.085  0.961  0.860  1.510  -1.242e+00   5.391e+00   4.311e+00   7.563e+00  20  sdss  5800  82N  6 
   32  53675.240009  0  22.434  0.554  0.100  1.047   4.043e+00   1.924e+00   3.717e-01   3.910e+00  7  sdss  5800  82N  6 
   32  53677.262723  1  22.449  0.176  0.016  0.280   3.708e+00   6.079e-01   5.690e-02   9.748e-01  13  sdss  5813  82N  6 
   40  53677.259407  2  22.075  0.171  0.095  0.171   5.309e+00   8.502e-01   4.753e-01   8.527e-01  21  sdss  5813  82N  6 
   32  53677.260236  3  22.348  0.339  0.140  0.314   4.008e+00   1.289e+00   5.461e-01   1.224e+00  20  sdss  5813  82N  6 
   32  53677.261894  4  22.725  0.730  0.589  1.014   5.279e-01   3.845e+00   2.888e+00   4.970e+00  20  sdss  5813  82N  6 
   40  53677.261065  0  22.830  0.652  0.367  0.872   2.756e+00   1.584e+00   9.696e-01   2.305e+00  7  sdss  5813  82N  6 
   40  53680.249045  1  22.215  0.137  0.083  0.199   4.611e+00   5.865e-01   3.559e-01   8.581e-01  13  sdss  5823  82N  6 
   32  53680.245728  2  22.449  0.248  0.131  0.233   3.737e+00   8.682e-01   4.673e-01   8.312e-01  21  sdss  5823  82N  6 
   32  53680.246557  3  22.889  0.571  0.237  0.522   2.330e+00   1.336e+00   5.839e-01   1.288e+00  20  sdss  5823  82N  6 
    0  53680.248216  4  23.223  0.732  0.515  1.020  -1.947e+00   4.015e+00   2.674e+00   5.300e+00  20  sdss  5823  82N  6 
  160  53680.247387  0  23.779  1.204  0.089  1.766   9.579e-01   1.604e+00   1.153e-01   2.282e+00  7  sdss  5823  82N  6 
  161  53693.250368  1  22.538  0.386  0.113  0.288   3.411e+00   1.192e+00   3.637e-01   9.252e-01  13  sdss  5878  82N  6 
   33  53693.247051  2  22.275  0.296  0.019  0.209   4.403e+00   1.206e+00   7.970e-02   8.692e-01  21  sdss  5878  82N  6 
   32  53693.247880  3  21.989  0.316  0.071  0.278   5.645e+00   1.654e+00   3.800e-01   1.491e+00  20  sdss  5878  82N  6 
    0  53693.249539  4  22.977  0.848  0.530  1.097  -7.058e-01   4.590e+00   2.609e+00   5.397e+00  20  sdss  5878  82N  6 
   33  53693.248709  0  22.438  1.346  0.352  0.945   4.027e+00   3.693e+00   1.308e+00   3.518e+00  7  sdss  5878  82N  6 
   32  53698.247358  1  22.144  0.146  0.045  0.283   4.926e+00   6.683e-01   2.071e-01   1.302e+00  13  sdss  5898  82N  6 
   32  53698.244042  2  22.252  0.219  0.060  0.230   4.499e+00   9.207e-01   2.569e-01   9.782e-01  21  sdss  5898  82N  6 
   32  53698.244871  3  22.465  0.413  0.138  0.379   3.577e+00   1.402e+00   4.875e-01   1.335e+00  20  sdss  5898  82N  6 
   32  53698.246529  4  22.823  0.826  0.477  1.053   4.846e-02   4.428e+00   2.328e+00   5.137e+00  20  sdss  5898  82N  6 
   40  53698.245700  0  23.426  1.209  0.558  2.021   1.479e+00   1.836e+00   9.133e-01   3.310e+00  7  sdss  5898  82N  6 
   32  53699.270771  1  22.536  0.209  0.018  0.266   3.418e+00   6.655e-01   5.747e-02   8.567e-01  13  sdss  5902  82N  6 
   32  53699.267454  2  22.166  0.229  0.129  0.228   4.876e+00   1.040e+00   5.960e-01   1.047e+00  21  sdss  5902  82N  6 
   32  53699.268284  3  22.969  0.699  0.189  0.522   2.141e+00   1.512e+00   4.382e-01   1.206e+00  20  sdss  5902  82N  6 
    0  53699.269942  4  23.836  0.691  0.079  0.566  -5.619e+00   4.791e+00   5.639e-01   4.022e+00  20  sdss  5902  82N  6 
   32  53699.269113  0  22.296  0.521  0.034  0.540   4.604e+00   2.059e+00   1.425e-01   2.279e+00  7  sdss  5902  82N  6 
   40  53704.232717  1  22.361  0.173  0.154  0.353   4.025e+00   6.470e-01   5.796e-01   1.332e+00  13  sdss  5918  82N  6 
   32  53704.229400  2  22.367  0.259  0.100  0.342   4.038e+00   9.767e-01   3.842e-01   1.314e+00  21  sdss  5918  82N  6 
   32  53704.230229  3  23.750  1.073  0.681  1.443   7.632e-01   1.597e+00   9.396e-01   1.991e+00  20  sdss  5918  82N  6 
    0  53704.231887  4  22.987  0.904  0.654  1.285  -7.550e-01   4.963e+00   3.224e+00   6.329e+00  20  sdss  5918  82N  6 
  168  53704.231058  0  24.459  1.508  1.828  4.471   2.018e-01   1.985e+00   1.801e+00   4.406e+00  7  sdss  5918  82N  6 
