# SDSS CID:  12826 IAU:          RA: 311.380066 DEC:  -0.623959  (J2000)
# GALAXY_SB [ugriz] = [ 24.69 23.93 22.61 21.91 21.51 ] +/- [  0.00  0.00  0.00  0.00  0.00 ] (asinh mag/square arcsec)
# GALAXY_SB_FLUX [ugriz] = [ -5.303E-02  8.414E-01  3.210E+00  6.105E+00  8.092E+00 ] +/- [  0.000E+00  0.000E+00  0.000E+00  0.000E+00  0.000E+00 ] (microJy per square arcsec)
#FLAG  MJD       FILT  MAG     MERR  MSKYERR MGALERR  FLUX       FLUXERR    SKYERR     GALERR    NPRE TELE   RUN  STRIP  IDCCD
  256  53974.171587  1  22.885  0.220  0.029  0.000   2.459e+00   5.033e-01   6.826e-02   0.000e+00  17  sdss  6281  82N  2 
  256  53974.168271  2  22.145  0.174  0.086  0.000   4.977e+00   7.919e-01   3.947e-01   0.000e+00  17  sdss  6281  82N  2 
  288  53974.169100  3  22.304  0.304  0.120  0.000   4.181e+00   1.180e+00   4.750e-01   0.000e+00  21  sdss  6281  82N  2 
  288  53974.170758  4  21.745  0.551  0.089  0.000   6.241e+00   3.978e+00   6.605e-01   0.000e+00  20  sdss  6281  82N  2 
  256  53974.169929  0  24.729  1.306  0.156  0.000  -6.138e-02   1.595e+00   1.510e-01   0.000e+00  11  sdss  6281  82N  2 
  288  53975.169646  1  23.016  0.268  0.177  0.000   2.170e+00   5.429e-01   3.637e-01   0.000e+00  17  sdss  6287  82S  2 
  288  53975.166329  2  22.329  0.238  0.163  0.000   4.188e+00   9.099e-01   6.336e-01   0.000e+00  17  sdss  6287  82S  2 
  288  53975.167159  3  21.927  0.251  0.205  0.000   5.988e+00   1.372e+00   1.139e+00   0.000e+00  21  sdss  6287  82S  2 
  288  53975.168817  4  21.713  0.638  0.486  0.000   6.482e+00   4.668e+00   3.671e+00   0.000e+00  20  sdss  6287  82S  2 
  264  53975.167988  0  25.465  1.372  1.082  0.000  -8.458e-01   1.849e+00   1.329e+00   0.000e+00  11  sdss  6287  82S  2 
  289  53989.160069  1  24.618  1.128  0.544  0.000   3.050e-01   8.242e-01   3.538e-01   0.000e+00  17  sdss  6313  82N  2 
  288  53989.156752  2  23.604  0.697  0.208  0.000   1.164e+00   8.809e-01   2.747e-01   0.000e+00  17  sdss  6313  82N  2 
  288  53989.157581  3  23.174  0.608  0.190  0.000   1.704e+00   1.140e+00   3.700e-01   0.000e+00  21  sdss  6313  82N  2 
  256  53989.159240  4  22.896  0.632  0.325  0.000  -3.089e-01   3.261e+00   1.588e+00   0.000e+00  20  sdss  6313  82N  2 
  289  53989.158411  0  23.987  1.374  0.128  0.000   7.014e-01   1.810e+00   1.475e-01   0.000e+00  11  sdss  6313  82N  2 
  256  53995.167841  1  25.599  0.698  0.432  0.000  -2.927e-01   4.697e-01   2.792e-01   0.000e+00  17  sdss  6360  82N  2 
  288  53995.164524  2  23.373  0.493  0.252  0.000   1.502e+00   7.492e-01   3.976e-01   0.000e+00  17  sdss  6360  82N  2 
  288  53995.165353  3  22.937  0.491  0.155  0.000   2.215e+00   1.101e+00   3.600e-01   0.000e+00  21  sdss  6360  82N  2 
  288  53995.167011  4  22.308  0.596  0.344  0.000   2.662e+00   3.316e+00   1.862e+00   0.000e+00  20  sdss  6360  82N  2 
  256  53995.166182  0  25.054  1.231  0.124  0.000  -3.840e-01   1.496e+00   1.278e-01   0.000e+00  11  sdss  6360  82N  2 
  256  53997.146083  1  25.140  0.905  1.163  0.000  -1.288e-02   5.970e-01   6.851e-01   0.000e+00  17  sdss  6370  82N  2 
  288  53997.142766  2  23.760  0.841  0.601  0.000   9.669e-01   9.648e-01   7.124e-01   0.000e+00  17  sdss  6370  82N  2 
  288  53997.143595  3  22.439  0.356  0.188  0.000   3.667e+00   1.220e+00   6.621e-01   0.000e+00  21  sdss  6370  82N  2 
  288  53997.145254  4  21.435  0.482  0.041  0.000   8.864e+00   4.317e+00   3.821e-01   0.000e+00  20  sdss  6370  82N  2 
  256  53997.144425  0  24.849  1.449  0.136  0.000  -1.782e-01   1.866e+00   1.337e-01   0.000e+00  11  sdss  6370  82N  2 
  288  53998.143738  1  24.929  0.719  0.410  0.000   1.117e-01   4.598e-01   2.450e-01   0.000e+00  17  sdss  6377  82S  2 
  288  53998.140421  2  23.428  0.474  0.195  0.000   1.416e+00   6.934e-01   2.945e-01   0.000e+00  17  sdss  6377  82S  2 
  288  53998.141251  3  23.270  0.626  0.301  0.000   1.522e+00   1.104e+00   5.468e-01   0.000e+00  21  sdss  6377  82S  2 
  288  53998.142909  4  21.821  0.476  0.186  0.000   5.682e+00   3.297e+00   1.304e+00   0.000e+00  20  sdss  6377  82S  2 
  288  53998.142080  0  24.335  1.208  0.518  0.000   3.255e-01   1.449e+00   5.237e-01   0.000e+00  11  sdss  6377  82S  2 
  288  54005.117267  1  24.259  0.632  0.354  0.000   5.604e-01   4.888e-01   2.757e-01   0.000e+00  17  sdss  6400  82N  2 
  288  54005.113950  2  23.722  0.654  0.305  0.000   1.012e+00   7.714e-01   3.708e-01   0.000e+00  17  sdss  6400  82N  2 
  288  54005.114779  3  23.397  0.685  0.201  0.000   1.299e+00   1.122e+00   3.357e-01   0.000e+00  21  sdss  6400  82N  2 
  288  54005.116438  4  22.779  0.644  0.412  0.000   2.625e-01   3.328e+00   2.013e+00   0.000e+00  20  sdss  6400  82N  2 
  256  54005.115609  0  25.098  1.287  0.059  0.000  -4.300e-01   1.598e+00   6.180e-02   0.000e+00  11  sdss  6400  82N  2 
  256  54005.180414  1  25.118  0.751  0.444  0.000   2.345e-04   4.781e-01   2.615e-01   0.000e+00  17  sdss  6401  82S  2 
  288  54005.177097  2  23.380  0.461  0.163  0.000   1.491e+00   7.003e-01   2.564e-01   0.000e+00  17  sdss  6401  82S  2 
  288  54005.177926  3  23.644  0.704  0.290  0.000   9.131e-01   1.030e+00   4.182e-01   0.000e+00  21  sdss  6401  82S  2 
  288  54005.179585  4  22.042  0.538  0.093  0.000   4.206e+00   3.306e+00   5.707e-01   0.000e+00  20  sdss  6401  82S  2 
  296  54005.178755  0  23.406  0.930  0.322  0.000   1.513e+00   1.437e+00   5.350e-01   0.000e+00  11  sdss  6401  82S  2 
  288  54007.130059  1  24.582  0.915  0.577  0.000   3.289e-01   6.450e-01   3.811e-01   0.000e+00  17  sdss  6412  82N  2 
  288  54007.126742  2  23.667  0.732  0.093  0.000   1.082e+00   8.888e-01   1.179e-01   0.000e+00  17  sdss  6412  82N  2 
  256  54007.127571  3  25.368  0.711  0.261  0.000  -1.368e+00   1.189e+00   4.475e-01   0.000e+00  21  sdss  6412  82N  2 
  256  54007.129230  4  23.961  0.548  0.191  0.000  -6.545e+00   4.052e+00   1.453e+00   0.000e+00  20  sdss  6412  82N  2 
  256  54007.128401  0  26.701  0.637  0.036  0.000  -3.349e+00   1.832e+00   1.118e-01   0.000e+00  11  sdss  6412  82N  2 
  289  54008.133979  1  25.099  0.989  0.498  0.000   1.096e-02   6.659e-01   2.934e-01   0.000e+00  17  sdss  6417  82S  2 
  256  54008.130663  2  25.025  0.969  0.646  0.000  -1.796e-01   8.894e-01   5.266e-01   0.000e+00  17  sdss  6417  82S  2 
  256  54008.131492  3  24.412  0.894  0.872  0.000  -5.928e-02   1.183e+00   1.034e+00   0.000e+00  21  sdss  6417  82S  2 
  288  54008.133150  4  22.237  0.598  0.239  0.000   3.055e+00   3.403e+00   1.332e+00   0.000e+00  20  sdss  6417  82S  2 
  257  54009.126962  1  25.977  1.053  0.249  0.000  -5.598e-01   8.325e-01   1.942e-01   0.000e+00  17  sdss  6421  82N  2 
  288  54009.123645  2  24.372  0.945  0.235  0.000   3.529e-01   8.881e-01   2.026e-01   0.000e+00  17  sdss  6421  82N  2 
  288  54009.124475  3  22.205  0.282  0.086  0.000   4.599e+00   1.199e+00   3.721e-01   0.000e+00  21  sdss  6421  82N  2 
  288  54009.126133  4  21.469  0.436  0.154  0.000   8.542e+00   3.824e+00   1.388e+00   0.000e+00  20  sdss  6421  82N  2 
  257  54009.125304  0  26.048  1.262  0.080  0.000  -1.731e+00   2.048e+00   1.454e-01   0.000e+00  11  sdss  6421  82N  2 
  289  54011.191343  1  24.367  1.472  0.331  0.000   4.786e-01   1.229e+00   2.424e-01   0.000e+00  17  sdss  6430  82N  2 
  257  54011.188026  2  25.137  1.214  0.322  0.000  -2.719e-01   1.205e+00   2.690e-01   0.000e+00  17  sdss  6430  82N  2 
  289  54011.188855  3  22.913  0.571  0.082  0.000   2.273e+00   1.290e+00   1.958e-01   0.000e+00  21  sdss  6430  82N  2 
  288  54011.190514  4  22.501  0.681  0.113  0.000   1.646e+00   3.654e+00   5.739e-01   0.000e+00  20  sdss  6430  82N  2 
  289  54011.189684  0  24.347  1.862  0.869  0.000   3.130e-01   2.841e+00   8.765e-01   0.000e+00  11  sdss  6430  82N  2 
  289  54012.121210  1  24.806  1.686  0.974  0.000   1.863e-01   1.453e+00   5.970e-01   0.000e+00  17  sdss  6433  82S  2 
  257  54012.117893  2  25.054  1.376  0.415  0.000  -2.029e-01   1.428e+00   3.406e-01   0.000e+00  17  sdss  6433  82S  2 
  289  54012.118723  3  23.214  0.825  0.360  0.000   1.628e+00   1.484e+00   6.800e-01   0.000e+00  21  sdss  6433  82S  2 
  256  54012.120381  4  23.355  0.648  0.207  0.000  -2.645e+00   3.620e+00   1.118e+00   0.000e+00  20  sdss  6433  82S  2 
  289  54012.119552  0  22.642  1.620  0.174  0.000   3.311e+00   3.650e+00   5.414e-01   0.000e+00  11  sdss  6433  82S  2 
  288  54019.140815  1  24.744  1.140  1.328  0.000   2.244e-01   8.205e-01   8.272e-01   0.000e+00  17  sdss  6441  82N  2 
  288  54019.137498  2  23.308  0.635  0.262  0.000   1.608e+00   9.912e-01   4.352e-01   0.000e+00  17  sdss  6441  82N  2 
  256  54019.138327  3  25.551  0.771  0.567  0.000  -1.707e+00   1.427e+00   1.104e+00   0.000e+00  21  sdss  6441  82N  2 
  256  54019.139985  4  23.013  0.817  0.858  0.000  -8.835e-01   4.407e+00   4.240e+00   0.000e+00  20  sdss  6441  82N  2 
  298  54019.139156  0  24.332  1.602  3.045  0.000   3.287e-01   2.199e+00   3.082e+00   0.000e+00  11  sdss  6441  82N  2 
  288  54020.126184  1  24.738  0.813  0.754  0.000   2.283e-01   5.438e-01   4.706e-01   0.000e+00  17  sdss  6447  82S  2 
  288  54020.122867  2  24.076  0.852  0.585  0.000   6.241e-01   8.532e-01   5.729e-01   0.000e+00  17  sdss  6447  82S  2 
  256  54020.123696  3  24.800  0.907  0.595  0.000  -5.332e-01   1.255e+00   7.607e-01   0.000e+00  21  sdss  6447  82S  2 
  288  54020.125355  4  22.313  0.784  0.550  0.000   2.633e+00   4.453e+00   2.973e+00   0.000e+00  20  sdss  6447  82S  2 
  296  54020.124525  0  23.917  1.341  0.977  0.000   7.838e-01   1.774e+00   1.167e+00   0.000e+00  11  sdss  6447  82S  2 
  288  54022.175410  1  23.759  0.535  0.504  0.000   1.026e+00   5.664e-01   5.558e-01   0.000e+00  17  sdss  6453  82S  2 
  316  54022.172093  2  23.287  0.653  1.725  0.000   1.643e+00   1.031e+00   2.916e+00   0.000e+00  17  sdss  6453  82S  2 
  292  54022.172922  3  23.897  1.124  1.174  0.000   5.680e-01   1.639e+00   1.515e+00   0.000e+00  21  sdss  6453  82S  2 
  296  54022.174581  4  22.533  0.755  0.770  0.000   1.483e+00   4.079e+00   3.889e+00   0.000e+00  20  sdss  6453  82S  2 
  268  54022.173751  0  27.101  0.533  0.794  0.000  -4.900e+00   2.224e+00   3.553e+00   0.000e+00  11  sdss  6453  82S  2 
  256  54025.189156  1  25.277  0.829  0.638  0.000  -9.368e-02   5.400e-01   3.797e-01   0.000e+00  17  sdss  6461  82N  2 
  256  54025.185839  2  25.532  0.903  0.380  0.000  -6.279e-01   9.104e-01   3.730e-01   0.000e+00  17  sdss  6461  82N  2 
  288  54025.186668  3  23.601  0.833  0.390  0.000   9.770e-01   1.251e+00   5.757e-01   0.000e+00  21  sdss  6461  82N  2 
  256  54025.188327  4  23.983  0.596  0.163  0.000  -6.720e+00   4.457e+00   1.255e+00   0.000e+00  20  sdss  6461  82N  2 
  256  54025.187498  0  26.709  0.664  0.078  0.000  -3.375e+00   1.908e+00   2.464e-01   0.000e+00  11  sdss  6461  82N  2 
  288  54026.127554  1  22.827  1.452  1.629  0.000   2.599e+00   2.507e+00   3.971e+00   0.000e+00  17  sdss  6464  82S  2 
 1470  54026.124237  2  22.886  2.625  9.241  0.000   2.459e+00   5.386e+00   2.188e+01   0.000e+00  17  sdss  6464  82S  2 
  256  54026.125066  3  25.304  0.981  1.172  0.000  -1.262e+00   1.598e+00   1.928e+00   0.000e+00  21  sdss  6464  82S  2 
  394  54026.126725  4  23.667  1.278  4.731  0.000  -4.478e+00   8.556e+00   2.979e+01   0.000e+00  20  sdss  6464  82S  2 
  256  54028.115812  1  25.833  0.854  0.900  0.000  -4.523e-01   6.292e-01   6.467e-01   0.000e+00  17  sdss  6468  82S  2 
  288  54028.112495  2  23.425  0.670  0.344  0.000   1.420e+00   9.559e-01   5.215e-01   0.000e+00  17  sdss  6468  82S  2 
  256  54028.113324  3  24.793  0.923  0.746  0.000  -5.242e-01   1.280e+00   9.514e-01   0.000e+00  21  sdss  6468  82S  2 
  256  54028.114983  4  23.783  0.729  0.618  0.000  -5.247e+00   4.841e+00   4.168e+00   0.000e+00  20  sdss  6468  82S  2 
  288  54028.114153  0  24.203  1.572  0.533  0.000   4.618e-01   2.151e+00   5.605e-01   0.000e+00  11  sdss  6468  82S  2 
  288  54029.118849  1  25.060  0.747  0.213  0.000   3.423e-02   4.759e-01   1.255e-01   0.000e+00  17  sdss  6474  82N  2 
  288  54029.115533  2  23.902  0.726  0.219  0.000   8.047e-01   7.770e-01   2.365e-01   0.000e+00  17  sdss  6474  82N  2 
  288  54029.116362  3  23.981  0.826  0.261  0.000   4.606e-01   1.114e+00   3.280e-01   0.000e+00  21  sdss  6474  82N  2 
  288  54029.118020  4  22.491  0.682  0.371  0.000   1.693e+00   3.664e+00   1.896e+00   0.000e+00  20  sdss  6474  82N  2 
  256  54029.117191  0  25.199  1.288  0.112  0.000  -5.374e-01   1.620e+00   1.213e-01   0.000e+00  11  sdss  6474  82N  2 
  256  54031.105735  1  25.546  0.719  0.342  0.000  -2.584e-01   4.783e-01   2.170e-01   0.000e+00  17  sdss  6484  82N  2 
  288  54031.102418  2  24.223  0.794  0.167  0.000   4.850e-01   7.540e-01   1.525e-01   0.000e+00  17  sdss  6484  82N  2 
  256  54031.103247  3  25.202  0.701  0.218  0.000  -1.098e+00   1.081e+00   3.364e-01   0.000e+00  21  sdss  6484  82N  2 
  288  54031.104906  4  21.941  0.534  0.077  0.000   4.855e+00   3.453e+00   5.045e-01   0.000e+00  20  sdss  6484  82N  2 
  288  54031.104076  0  24.462  1.279  0.193  0.000   1.989e-01   1.554e+00   1.901e-01   0.000e+00  11  sdss  6484  82N  2 
  290  54034.178061  1  23.139  0.471  0.822  0.000   1.927e+00   8.281e-01   1.518e+00   0.000e+00  17  sdss  6494  82S  2 
  288  54034.174744  2  23.065  0.700  0.633  0.000   2.062e+00   1.300e+00   1.287e+00   0.000e+00  17  sdss  6494  82S  2 
  386  54034.175573  3  25.001  1.287  2.777  0.000  -8.011e-01   2.016e+00   3.853e+00   0.000e+00  21  sdss  6494  82S  2 
  256  54034.177231  4  24.876  0.476  0.476  0.000  -1.697e+01   7.172e+00   7.553e+00   0.000e+00  20  sdss  6494  82S  2 
  288  54036.110050  1  23.369  0.516  0.304  0.000   1.536e+00   7.419e-01   4.617e-01   0.000e+00  17  sdss  6504  82N  2 
  384  54036.106734  2  25.757  1.098  0.746  0.000  -8.649e-01   1.223e+00   8.356e-01   0.000e+00  17  sdss  6504  82N  2 
  256  54036.107563  3  24.400  1.010  0.843  0.000  -4.481e-02   1.377e+00   9.982e-01   0.000e+00  21  sdss  6504  82N  2 
  288  54036.109221  4  21.882  0.675  0.543  0.000   5.254e+00   4.490e+00   3.664e+00   0.000e+00  20  sdss  6504  82N  2 
  256  54036.108392  0  26.367  1.023  0.044  0.000  -2.410e+00   2.064e+00   1.033e-01   0.000e+00  11  sdss  6504  82N  2 
  257  54037.099351  1  25.818  0.911  0.436  0.000  -4.414e-01   6.716e-01   3.104e-01   0.000e+00  17  sdss  6508  82S  2 
  288  54037.096034  2  24.652  0.968  0.679  0.000   1.204e-01   8.836e-01   5.476e-01   0.000e+00  17  sdss  6508  82S  2 
  296  54037.096863  3  23.180  0.647  0.621  0.000   1.692e+00   1.203e+00   1.203e+00   0.000e+00  21  sdss  6508  82S  2 
  288  54037.098522  4  22.056  0.608  0.308  0.000   4.118e+00   3.718e+00   1.879e+00   0.000e+00  20  sdss  6508  82S  2 
  289  54039.108101  1  24.321  1.789  1.430  0.000   5.124e-01   1.667e+00   1.074e+00   0.000e+00  17  sdss  6513  82N  2 
  257  54039.104784  2  25.736  1.203  0.681  0.000  -8.413e-01   1.347e+00   7.525e-01   0.000e+00  17  sdss  6513  82N  2 
  288  54039.105613  3  24.042  1.075  0.487  0.000   3.846e-01   1.519e+00   6.010e-01   0.000e+00  21  sdss  6513  82N  2 
  256  54039.107272  4  23.249  0.862  0.134  0.000  -2.079e+00   4.841e+00   6.970e-01   0.000e+00  20  sdss  6513  82N  2 
  289  54039.106442  0  22.965  1.684  0.608  0.000   2.409e+00   3.187e+00   1.434e+00   0.000e+00  11  sdss  6513  82N  2 
  289  54040.113836  1  23.638  1.372  0.346  0.000   1.167e+00   1.431e+00   4.202e-01   0.000e+00  17  sdss  6518  82S  2 
  289  54040.110519  2  24.471  1.314  0.458  0.000   2.685e-01   1.344e+00   3.828e-01   0.000e+00  17  sdss  6518  82S  2 
  289  54040.111348  3  23.031  0.829  0.377  0.000   2.000e+00   1.663e+00   8.160e-01   0.000e+00  21  sdss  6518  82S  2 
  256  54040.113006  4  23.772  0.733  0.251  0.000  -5.171e+00   4.843e+00   1.681e+00   0.000e+00  20  sdss  6518  82S  2 
  257  54040.112177  0  21.546  0.447  0.106  0.000   9.274e+00   3.529e+00   8.832e-01   0.000e+00  11  sdss  6518  82S  2 
  257  54041.108702  1  27.605  0.837  0.298  0.000  -3.125e+00   2.071e+00   8.645e-01   0.000e+00  17  sdss  6522  82N  2 
  265  54041.105385  2  25.152  1.717  5.032  0.000  -2.847e-01   2.037e+00   4.225e+00   0.000e+00  17  sdss  6522  82N  2 
 1337  54041.106214  3  21.612  0.323  7.809  0.000   8.044e+00   2.316e+00   5.757e+01   0.000e+00  21  sdss  6522  82N  2 
  280  54041.107873  4  24.775  0.575  2.625  0.000  -1.540e+01   7.780e+00   3.814e+01   0.000e+00  20  sdss  6522  82N  2 
 1439  54041.107043  0  20.992  0.486  2.565  0.000   1.548e+01   6.311e+00   3.552e+01   0.000e+00  11  sdss  6522  82N  2 
  288  54048.101811  1  24.686  0.798  0.637  0.000   2.614e-01   5.380e-01   4.049e-01   0.000e+00  17  sdss  6533  82N  2 
  256  54048.098494  2  25.403  0.880  0.245  0.000  -5.053e-01   8.504e-01   2.255e-01   0.000e+00  17  sdss  6533  82N  2 
  288  54048.099323  3  24.359  0.934  0.340  0.000   3.397e-03   1.248e+00   4.021e-01   0.000e+00  21  sdss  6533  82N  2 
  256  54048.100982  4  23.385  0.734  0.174  0.000  -2.809e+00   4.173e+00   9.535e-01   0.000e+00  20  sdss  6533  82N  2 
  296  54048.100152  0  24.014  1.214  1.100  0.000   6.695e-01   1.530e+00   1.252e+00   0.000e+00  11  sdss  6533  82N  2 
  288  54050.097465  1  24.211  0.750  0.795  0.000   5.987e-01   5.947e-01   6.379e-01   0.000e+00  17  sdss  6542  82S  2 
  288  54050.094148  2  24.331  1.015  0.603  0.000   3.880e-01   9.756e-01   5.259e-01   0.000e+00  17  sdss  6542  82S  2 
  256  54050.094978  3  25.051  0.906  0.609  0.000  -8.712e-01   1.336e+00   8.660e-01   0.000e+00  21  sdss  6542  82S  2 
  256  54050.096636  4  23.837  0.732  0.684  0.000  -5.625e+00   4.999e+00   4.776e+00   0.000e+00  20  sdss  6542  82S  2 
  288  54050.095807  0  23.625  1.315  0.291  0.000   1.170e+00   1.868e+00   4.144e-01   0.000e+00  11  sdss  6542  82S  2 
  420  54051.093414  1  23.858  1.587  1.751  0.000   9.204e-01   1.539e+00   1.793e+00   0.000e+00  17  sdss  6548  82N  2 
  300  54051.090098  2  21.892  0.697  0.971  0.000   6.295e+00   3.559e+00   5.599e+00   0.000e+00  17  sdss  6548  82N  2 
  428  54051.090927  3  23.200  2.060  5.535  0.000   1.653e+00   4.470e+00   1.056e+01   0.000e+00  21  sdss  6548  82N  2 
 1452  54051.092585  4  21.015  1.777  2.353  0.000   1.363e+01   1.789e+01   3.071e+01   0.000e+00  20  sdss  6548  82N  2 
 1284  54051.091756  0  21.329  1.815  0.137  0.000   1.134e+01   1.058e+01   1.392e+00   0.000e+00  11  sdss  6548  82N  2 
  256  54052.105271  1  25.860  0.822  0.424  0.000  -4.714e-01   6.092e-01   3.091e-01   0.000e+00  17  sdss  6552  82N  2 
  288  54052.101954  2  23.926  0.872  0.491  0.000   7.785e-01   9.275e-01   5.241e-01   0.000e+00  17  sdss  6552  82N  2 
  256  54052.102783  3  24.386  0.991  0.538  0.000  -2.793e-02   1.344e+00   6.371e-01   0.000e+00  21  sdss  6552  82N  2 
  288  54052.104441  4  22.279  0.933  0.451  0.000   2.820e+00   5.471e+00   2.475e+00   0.000e+00  20  sdss  6552  82N  2 
  288  54052.103612  0  23.802  1.364  0.611  0.000   9.277e-01   1.862e+00   7.780e-01   0.000e+00  11  sdss  6552  82N  2 
  288  54053.103241  1  24.051  0.725  0.640  0.000   7.348e-01   6.247e-01   5.704e-01   0.000e+00  17  sdss  6555  82S  2 
  288  54053.099925  2  23.564  0.851  0.753  0.000   1.218e+00   1.087e+00   1.027e+00   0.000e+00  17  sdss  6555  82S  2 
  288  54053.100754  3  23.026  0.725  0.795  0.000   2.011e+00   1.478e+00   1.727e+00   0.000e+00  21  sdss  6555  82S  2 
  256  54053.102412  4  23.970  0.755  0.342  0.000  -6.616e+00   5.536e+00   2.613e+00   0.000e+00  20  sdss  6555  82S  2 
  258  54053.101583  0  27.102  0.509  0.128  0.000  -4.905e+00   2.141e+00   5.752e-01   0.000e+00  11  sdss  6555  82S  2 
  290  54054.123776  1  24.947  1.383  3.239  0.000   1.013e-01   1.056e+00   1.930e+00   0.000e+00  17  sdss  6559  82N  2 
  290  54054.120460  2  24.058  1.553  2.340  0.000   6.420e-01   1.800e+00   2.313e+00   0.000e+00  17  sdss  6559  82N  2 
  290  54054.121289  3  22.957  1.141  1.507  0.000   2.168e+00   2.321e+00   3.455e+00   0.000e+00  21  sdss  6559  82N  2 
  260  54054.122118  0  28.202  0.413  0.084  0.000  -1.364e+01   4.812e+00   1.026e+00   0.000e+00  11  sdss  6559  82N  2 
  256  54055.101413  1  26.308  0.624  0.364  0.000  -8.499e-01   5.837e-01   3.535e-01   0.000e+00  17  sdss  6564  82N  2 
  256  54055.098097  2  25.065  0.972  0.394  0.000  -2.121e-01   8.975e-01   3.237e-01   0.000e+00  17  sdss  6564  82N  2 
  256  54055.098926  3  25.596  0.698  0.428  0.000  -1.798e+00   1.336e+00   8.621e-01   0.000e+00  21  sdss  6564  82N  2 
  288  54055.100584  4  22.534  0.925  0.583  0.000   1.478e+00   5.175e+00   2.946e+00   0.000e+00  20  sdss  6564  82N  2 
  256  54055.099755  0  25.593  1.337  0.167  0.000  -1.012e+00   1.843e+00   2.217e-01   0.000e+00  11  sdss  6564  82N  2 
  288  54057.073137  1  23.854  0.592  0.551  0.000   9.245e-01   5.831e-01   5.661e-01   0.000e+00  17  sdss  6571  82S  2 
  288  54057.069820  2  24.090  0.963  0.826  0.000   6.101e-01   9.729e-01   8.020e-01   0.000e+00  17  sdss  6571  82S  2 
  384  54057.070650  3  25.807  0.627  0.425  0.000  -2.264e+00   1.399e+00   1.007e+00   0.000e+00  21  sdss  6571  82S  2 
  256  54057.072308  4  24.251  0.647  0.379  0.000  -9.059e+00   5.746e+00   3.568e+00   0.000e+00  20  sdss  6571  82S  2 
  264  54057.071479  0  25.089  1.518  2.319  0.000  -4.204e-01   2.031e+00   2.409e+00   0.000e+00  11  sdss  6571  82S  2 
  288  54058.099484  1  24.004  0.589  0.369  0.000   7.769e-01   5.265e-01   3.397e-01   0.000e+00  17  sdss  6577  82N  2 
  288  54058.096167  2  22.916  0.393  0.169  0.000   2.387e+00   8.771e-01   3.900e-01   0.000e+00  17  sdss  6577  82N  2 
  288  54058.096996  3  23.965  0.910  0.334  0.000   4.810e-01   1.251e+00   4.214e-01   0.000e+00  21  sdss  6577  82N  2 
  256  54058.098654  4  22.836  0.810  0.355  0.000  -1.556e-02   4.326e+00   1.730e+00   0.000e+00  20  sdss  6577  82N  2 
  288  54058.097825  0  24.304  1.371  0.142  0.000   3.570e-01   1.736e+00   1.452e-01   0.000e+00  11  sdss  6577  82N  2 
  256  54059.098538  1  25.704  0.996  1.215  0.000  -3.621e-01   7.201e-01   8.197e-01   0.000e+00  17  sdss  6580  82S  2 
  288  54059.095222  2  24.538  1.164  1.666  0.000   2.131e-01   1.131e+00   1.369e+00   0.000e+00  17  sdss  6580  82S  2 
  288  54059.096051  3  24.208  1.039  1.333  0.000   1.835e-01   1.433e+00   1.594e+00   0.000e+00  21  sdss  6580  82S  2 
  256  54059.097709  4  23.128  0.923  1.038  0.000  -1.457e+00   5.152e+00   5.238e+00   0.000e+00  20  sdss  6580  82S  2 
  266  54059.096880  0  26.474  1.057  0.680  0.000  -2.683e+00   2.286e+00   1.755e+00   0.000e+00  11  sdss  6580  82S  2 
  288  54061.109757  1  24.802  1.015  0.962  0.000   1.888e-01   7.018e-01   5.903e-01   0.000e+00  17  sdss  6590  82S  2 
  256  54061.106440  2  25.031  1.228  1.062  0.000  -1.838e-01   1.213e+00   8.667e-01   0.000e+00  17  sdss  6590  82S  2 
  256  54061.107269  3  25.397  1.034  1.255  0.000  -1.420e+00   1.756e+00   2.193e+00   0.000e+00  21  sdss  6590  82S  2 
  288  54061.108928  4  20.723  0.430  0.264  0.000   1.810e+01   6.927e+00   4.437e+00   0.000e+00  20  sdss  6590  82S  2 
  256  54061.108098  0  25.331  1.682  0.772  0.000  -6.855e-01   2.442e+00   8.847e-01   0.000e+00  11  sdss  6590  82S  2 
  258  54062.103121  1  26.825  0.567  0.875  0.000  -1.473e+00   7.804e-01   1.281e+00   0.000e+00  17  sdss  6596  82S  2 
  290  54062.099805  2  24.348  1.315  2.087  0.000   3.730e-01   1.361e+00   1.810e+00   0.000e+00  17  sdss  6596  82S  2 
  288  54062.100634  3  24.052  1.144  1.542  0.000   3.721e-01   1.645e+00   1.898e+00   0.000e+00  21  sdss  6596  82S  2 
  256  54062.102292  4  23.801  0.977  1.118  0.000  -5.374e+00   6.580e+00   7.632e+00   0.000e+00  20  sdss  6596  82S  2 
  258  54062.101463  0  27.496  0.402  0.067  0.000  -7.094e+00   2.465e+00   4.287e-01   0.000e+00  11  sdss  6596  82S  2 
  256  54063.089709  1  25.513  0.926  0.587  0.000  -2.379e-01   6.347e-01   3.679e-01   0.000e+00  17  sdss  6600  82N  2 
  288  54063.086393  2  23.228  0.672  0.228  0.000   1.747e+00   1.106e+00   4.041e-01   0.000e+00  17  sdss  6600  82N  2 
  288  54063.087222  3  24.103  1.068  0.797  0.000   3.098e-01   1.496e+00   9.700e-01   0.000e+00  21  sdss  6600  82N  2 
  264  54063.088880  4  23.108  0.962  1.440  0.000  -1.358e+00   5.415e+00   7.234e+00   0.000e+00  20  sdss  6600  82N  2 
  256  54063.088051  0  26.126  1.176  0.163  0.000  -1.883e+00   1.997e+00   3.152e-01   0.000e+00  11  sdss  6600  82N  2 
  259  54068.092632  1  22.223  0.491  0.321  0.000   4.575e+00   1.938e+00   1.348e+00   0.000e+00  17  sdss  6615  82S  2 
  257  54068.089315  2  26.980  0.736  0.535  0.000  -3.166e+00   1.946e+00   1.596e+00   0.000e+00  17  sdss  6615  82S  2 
  256  54068.090145  3  24.936  1.293  2.124  0.000  -7.121e-01   2.006e+00   2.863e+00   0.000e+00  21  sdss  6615  82S  2 
  256  54068.091803  4  23.493  1.081  1.154  0.000  -3.420e+00   6.680e+00   6.633e+00   0.000e+00  20  sdss  6615  82S  2 
  259  54068.090974  0  26.737  2.214  0.319  0.000  -3.467e+00   5.129e+00   1.033e+00   0.000e+00  11  sdss  6615  82S  2 
