# SDSS CID:  20619 IAU:          RA: 335.785217 DEC:  -0.430216  (J2000)
# GALAXY_SB [ugriz] = [ 24.93 24.28 23.50 23.28 22.50 ] +/- [  0.53  0.14  0.08  0.07  0.12 ] (asinh mag/square arcsec)
# GALAXY_SB_FLUX [ugriz] = [ -2.848E-01  5.383E-01  1.303E+00  1.510E+00  1.639E+00 ] +/- [  5.297E-01  1.095E-01  1.123E-01  1.301E-01  6.077E-01 ] (microJy per square arcsec)
#FLAG  MJD       FILT  MAG     MERR  MSKYERR MGALERR  FLUX       FLUXERR    SKYERR     GALERR    NPRE TELE   RUN  STRIP  IDCCD
    1  54346.228040  1  25.207  1.177  0.699  1.785  -5.248e-02   8.383e-01   4.131e-01   1.055e+00  9  sdss  6920  82N  2 
    0  54346.224723  2  26.035  0.749  0.364  0.594  -1.211e+00   9.695e-01   4.984e-01   8.129e-01  13  sdss  6920  82N  2 
    0  54346.225552  3  24.810  0.976  0.623  0.746  -5.454e-01   1.374e+00   8.003e-01   9.584e-01  14  sdss  6920  82N  2 
   32  54346.227211  4  22.547  0.790  0.533  0.710   1.408e+00   4.289e+00   2.684e+00   3.580e+00  14  sdss  6920  82N  2 
   36  54346.226382  0  22.698  0.781  0.453  1.627   3.135e+00   2.113e+00   1.389e+00   4.986e+00  9  sdss  6920  82N  2 
    0  54356.268755  1  24.003  0.640  0.438  0.874   7.781e-01   5.756e-01   4.074e-01   8.135e-01  9  sdss  6951  82N  2 
    0  54356.265438  2  25.912  0.656  0.090  0.456  -1.049e+00   7.933e-01   1.129e-01   5.701e-01  13  sdss  6951  82N  2 
   32  54356.266267  3  24.261  0.875  0.516  0.520   1.203e-01   1.156e+00   6.135e-01   6.185e-01  14  sdss  6951  82N  2 
    0  54356.267925  4  21.965  0.622  0.352  0.523   4.696e+00   3.988e+00   2.277e+00   3.378e+00  14  sdss  6951  82N  2 
  164  54356.267096  0  23.286  1.057  0.209  2.154   1.726e+00   1.769e+00   3.911e-01   4.031e+00  9  sdss  6951  82N  2 
    0  54358.214088  1  25.311  1.020  1.137  2.350  -1.145e-01   6.979e-01   6.801e-01   1.406e+00  9  sdss  6958  82N  2 
    0  54358.210771  2  25.213  1.075  0.658  1.552  -3.364e-01   1.038e+00   5.635e-01   1.329e+00  13  sdss  6958  82N  2 
    0  54358.211600  3  24.903  0.964  1.196  0.960  -6.678e-01   1.380e+00   1.595e+00   1.279e+00  14  sdss  6958  82N  2 
    0  54358.213259  4  23.183  0.860  0.141  1.015  -1.736e+00   4.782e+00   7.209e-01   5.200e+00  14  sdss  6958  82N  2 
  132  54358.212430  0  24.747  1.592  1.648  6.398  -7.928e-02   2.160e+00   1.601e+00   6.217e+00  9  sdss  6958  82N  2 
    4  54359.179788  1  25.191  1.098  0.222  1.552  -4.309e-02   7.635e-01   1.312e-01   9.158e-01  9  sdss  6962  82N  2 
    0  54359.176471  2  25.784  0.982  0.177  0.775  -8.963e-01   1.103e+00   2.029e-01   8.894e-01  13  sdss  6962  82N  2 
    0  54359.177300  3  22.139  0.357  0.128  0.202   4.899e+00   1.604e+00   5.928e-01   9.388e-01  14  sdss  6962  82N  2 
    4  54359.178959  4  23.270  1.218  1.283  0.947  -2.192e+00   7.469e+00   6.755e+00   4.983e+00  14  sdss  6962  82N  2 
   12  54359.178129  0  27.167  0.628  0.806  1.339  -5.212e+00   2.813e+00   3.975e+00   6.600e+00  9  sdss  6962  82N  2 
    1  54365.246584  1  24.000  1.085  0.397  0.577   7.809e-01   9.602e-01   3.708e-01   5.380e-01  9  sdss  6982  82N  2 
    1  54365.243267  2  26.040  0.701  0.020  0.245  -1.218e+00   9.144e-01   2.756e-02   3.365e-01  13  sdss  6982  82N  2 
    0  54365.244096  3  25.274  0.763  0.210  0.226  -1.211e+00   1.222e+00   3.403e-01   3.666e-01  14  sdss  6982  82N  2 
    0  54365.245755  4  21.778  0.609  0.214  0.300   5.990e+00   4.325e+00   1.559e+00   2.187e+00  14  sdss  6982  82N  2 
    1  54365.244925  0  25.295  1.602  0.567  2.181  -6.445e-01   2.257e+00   6.458e-01   2.483e+00  9  sdss  6982  82N  2 
    1  54373.320597  1  22.205  0.521  0.245  0.330   4.656e+00   2.113e+00   1.068e+00   1.439e+00  9  sdss  7006  82N  2 
    1  54373.317280  2  26.589  0.740  0.342  0.317  -2.166e+00   1.429e+00   7.333e-01   6.787e-01  13  sdss  7006  82N  2 
    0  54373.318109  3  23.251  0.853  0.370  0.353   1.558e+00   1.510e+00   6.857e-01   6.543e-01  14  sdss  7006  82N  2 
  128  54373.319768  4  22.123  0.862  0.586  0.727   3.712e+00   5.242e+00   3.468e+00   4.304e+00  14  sdss  7006  82N  2 
    5  54373.318938  0  27.011  1.883  0.711  1.309  -4.499e+00   5.143e+00   3.043e+00   5.609e+00  9  sdss  7006  82N  2 
    8  54382.255218  1  25.321  0.950  1.179  2.205  -1.204e-01   6.392e-01   7.064e-01   1.321e+00  9  sdss  7037  82N  2 
    0  54382.251901  2  26.430  0.554  0.079  0.587  -1.846e+00   9.811e-01   1.487e-01   1.101e+00  13  sdss  7037  82N  2 
    0  54382.252730  3  25.107  0.972  0.754  0.970  -9.533e-01   1.475e+00   1.110e+00   1.426e+00  14  sdss  7037  82N  2 
    0  54382.254389  4  21.265  0.496  0.320  0.512   1.059e+01   5.091e+00   3.433e+00   5.491e+00  14  sdss  7037  82N  2 
    2  54382.253559  0  27.048  0.587  0.393  1.954  -4.660e+00   2.391e+00   1.739e+00   8.653e+00  9  sdss  7037  82N  2 
   32  54386.257308  1  25.098  0.804  0.092  1.076   1.193e-02   5.178e-01   5.398e-02   6.335e-01  9  sdss  7054  82N  2 
    0  54386.253991  2  25.635  0.773  0.290  0.539  -7.328e-01   8.061e-01   3.026e-01   5.631e-01  13  sdss  7054  82N  2 
    0  54386.254820  3  25.573  0.583  0.241  0.259  -1.750e+00   1.118e+00   4.803e-01   5.162e-01  14  sdss  7054  82N  2 
   32  54386.256479  4  22.515  0.691  0.429  0.512   1.574e+00   3.704e+00   2.180e+00   2.603e+00  14  sdss  7054  82N  2 
   40  54386.255650  0  23.820  1.279  0.945  3.078   9.048e-01   1.720e+00   1.212e+00   3.945e+00  9  sdss  7054  82N  2 
    0  54388.261682  1  25.544  0.829  0.094  1.146  -2.573e-01   5.624e-01   5.977e-02   7.282e-01  9  sdss  7060  82N  2 
   32  54388.258365  2  23.850  0.930  0.438  0.830   8.623e-01   1.029e+00   4.923e-01   9.340e-01  13  sdss  7060  82N  2 
   32  54388.259194  3  23.970  0.982  0.529  0.759   4.745e-01   1.371e+00   6.668e-01   9.569e-01  14  sdss  7060  82N  2 
    0  54388.260853  4  21.881  0.662  0.388  0.496   5.257e+00   4.432e+00   2.638e+00   3.375e+00  14  sdss  7060  82N  2 
    4  54388.260024  0  25.333  1.519  0.206  4.204  -6.879e-01   2.093e+00   2.391e-01   4.877e+00  9  sdss  7060  82N  2 
    1  54393.247183  1  24.814  1.038  0.199  0.613   1.816e-01   7.216e-01   1.216e-01   3.753e-01  9  sdss  7080  82N  2 
    0  54393.243867  2  25.569  0.853  0.246  0.325  -6.650e-01   8.706e-01   2.472e-01   3.268e-01  13  sdss  7080  82N  2 
    0  54393.244696  3  23.543  0.726  0.232  0.198   1.065e+00   1.113e+00   3.553e-01   3.033e-01  14  sdss  7080  82N  2 
    8  54393.246354  4  23.086  0.631  0.508  0.328  -1.245e+00   3.316e+00   2.541e+00   1.639e+00  14  sdss  7080  82N  2 
    1  54393.245525  0  26.189  1.052  0.030  1.084  -2.011e+00   1.924e+00   6.300e-02   2.278e+00  9  sdss  7080  82N  2 
    1  54403.174158  1  22.817  0.371  0.121  0.195   2.624e+00   8.977e-01   3.035e-01   4.885e-01  9  sdss  7106  82N  2 
    0  54403.170841  2  22.894  0.438  0.195  0.165   2.439e+00   9.991e-01   4.630e-01   3.931e-01  13  sdss  7106  82N  2 
    8  54403.171670  3  22.385  0.369  0.514  0.115   3.868e+00   1.334e+00   1.920e+00   4.280e-01  14  sdss  7106  82N  2 
    0  54403.173328  4  21.886  0.693  0.543  0.353   5.223e+00   4.624e+00   3.682e+00   2.392e+00  14  sdss  7106  82N  2 
    5  54403.172499  0  25.308  1.595  0.731  2.563  -6.592e-01   2.246e+00   8.374e-01   2.936e+00  9  sdss  7106  82N  2 
    0  54406.167629  1  22.921  0.225  0.039  0.247   2.378e+00   5.062e-01   8.943e-02   5.626e-01  9  sdss  7121  82N  2 
    0  54406.164312  2  22.577  0.270  0.137  0.151   3.312e+00   8.323e-01   4.294e-01   4.733e-01  13  sdss  7121  82N  2 
    0  54406.165141  3  22.863  0.503  0.254  0.198   2.395e+00   1.201e+00   6.325e-01   4.944e-01  14  sdss  7121  82N  2 
   32  54406.166800  4  22.586  0.748  0.464  0.476   1.215e+00   4.010e+00   2.321e+00   2.378e+00  14  sdss  7121  82N  2 
    0  54406.165970  0  25.504  1.197  0.173  2.781  -8.955e-01   1.583e+00   2.205e-01   3.549e+00  9  sdss  7121  82N  2 
    0  54412.170133  1  22.967  0.313  0.056  0.465   2.275e+00   6.692e-01   1.227e-01   1.018e+00  9  sdss  7140  82N  2 
    0  54412.166816  2  22.291  0.287  0.160  0.236   4.339e+00   1.141e+00   6.491e-01   9.584e-01  13  sdss  7140  82N  2 
    0  54412.167646  3  22.148  0.315  0.222  0.229   4.858e+00   1.412e+00   1.022e+00   1.052e+00  14  sdss  7140  82N  2 
    0  54412.169304  4  21.315  0.473  0.128  0.456   1.006e+01   4.687e+00   1.318e+00   4.702e+00  14  sdss  7140  82N  2 
   36  54412.168475  0  22.810  0.987  0.157  2.533   2.810e+00   2.314e+00   4.365e-01   7.044e+00  9  sdss  7140  82N  2 
    0  54416.165903  1  22.950  0.224  0.092  0.198   2.312e+00   4.907e-01   2.035e-01   4.391e-01  9  sdss  7155  82N  2 
    0  54416.162586  2  22.760  0.284  0.090  0.121   2.778e+00   7.454e-01   2.402e-01   3.227e-01  13  sdss  7155  82N  2 
    0  54416.163416  3  22.552  0.354  0.105  0.109   3.283e+00   1.113e+00   3.388e-01   3.528e-01  14  sdss  7155  82N  2 
    0  54416.165074  4  21.242  0.362  0.075  0.185   1.085e+01   3.862e+00   8.165e-01   2.020e+00  14  sdss  7155  82N  2 
  136  54416.164245  0  25.576  1.077  0.818  1.946  -9.888e-01   1.438e+00   1.092e+00   2.596e+00  9  sdss  7155  82N  2 
    0  54420.193272  1  25.957  0.791  0.302  0.670  -5.447e-01   6.115e-01   2.347e-01   5.200e-01  9  sdss  7167  82N  2 
    0  54420.189955  2  22.697  0.313  0.021  0.128   2.953e+00   8.628e-01   5.801e-02   3.624e-01  13  sdss  7167  82N  2 
    0  54420.190784  3  22.456  0.348  0.101  0.112   3.609e+00   1.188e+00   3.535e-01   3.913e-01  14  sdss  7167  82N  2 
    0  54420.192443  4  21.950  0.650  0.081  0.352   4.795e+00   4.203e+00   5.274e-01   2.298e+00  14  sdss  7167  82N  2 
   44  54420.191613  0  24.010  1.553  1.982  3.123   6.745e-01   2.160e+00   2.286e+00   3.602e+00  9  sdss  7167  82N  2 
    1  54421.170774  1  23.426  0.920  0.366  0.515   1.452e+00   1.177e+00   5.377e-01   7.557e-01  9  sdss  7170  82N  2 
    1  54421.167457  2  23.978  1.105  0.593  0.467   7.235e-01   1.182e+00   6.162e-01   4.850e-01  13  sdss  7170  82N  2 
    0  54421.168286  3  22.820  0.566  0.074  0.198   2.504e+00   1.382e+00   1.914e-01   5.100e-01  14  sdss  7170  82N  2 
    0  54421.169945  4  21.413  0.502  0.249  0.311   9.076e+00   4.600e+00   2.373e+00   2.962e+00  14  sdss  7170  82N  2 
    5  54421.169116  0  25.209  1.855  0.379  3.892  -5.492e-01   2.855e+00   4.148e-01   4.260e+00  9  sdss  7170  82N  2 
  137  54425.162980  1  28.516  0.401  0.709  0.155  -7.293e+00   2.606e+00   4.812e+00   1.055e+00  9  sdss  7188  82N  2 
   25  54425.159664  2  21.938  0.514  0.983  0.142   6.035e+00   2.686e+00   5.505e+00   7.974e-01  13  sdss  7188  82N  2 
   25  54425.160493  3  23.347  1.215  4.118  0.446   1.384e+00   2.079e+00   7.143e+00   7.733e-01  14  sdss  7188  82N  2 
   24  54425.162151  4  23.161  1.121  4.536  0.931  -1.627e+00   6.610e+00   2.310e+01   4.740e+00  14  sdss  7188  82N  2 
    5  54425.161322  0  27.988  0.740  0.352  0.669  -1.120e+01   6.729e+00   3.667e+00   6.973e+00  9  sdss  7188  82N  2 
    1  54431.174222  1  23.850  2.179  1.080  1.382   9.289e-01   2.503e+00   1.127e+00   1.442e+00  9  sdss  7195  82N  2 
  153  54431.170906  2  22.297  0.705  2.800  0.332   4.315e+00   2.530e+00   1.131e+01   1.341e+00  13  sdss  7195  82N  2 
    1  54431.171735  3  24.538  1.587  1.532  1.041  -2.096e-01   2.630e+00   1.837e+00   1.249e+00  14  sdss  7195  82N  2 
    0  54431.173393  4  21.379  1.046  0.925  0.790   9.411e+00   9.083e+00   9.056e+00   7.733e+00  14  sdss  7195  82N  2 
  135  54431.172564  0  21.023  0.713  0.192  0.750   1.505e+01   8.761e+00   2.685e+00   1.049e+01  9  sdss  7195  82N  2 
    0  54433.169440  1  24.877  0.893  0.206  1.115   1.430e-01   5.952e-01   1.245e-01   6.731e-01  9  sdss  7202  82N  2 
    0  54433.166123  2  23.251  0.565  0.181  0.333   1.706e+00   9.404e-01   3.175e-01   5.849e-01  13  sdss  7202  82N  2 
    0  54433.166953  3  22.631  0.431  0.151  0.173   3.036e+00   1.252e+00   4.575e-01   5.210e-01  14  sdss  7202  82N  2 
    0  54433.168611  4  21.050  0.386  0.187  0.233   1.316e+01   4.799e+00   2.405e+00   2.989e+00  14  sdss  7202  82N  2 
    4  54433.167782  0  24.874  1.481  0.829  3.820  -2.036e-01   1.930e+00   8.182e-01   3.771e+00  9  sdss  7202  82N  2 
