# SDSS CID:   5315 IAU:          RA: 306.198059 DEC:   0.806313  (J2000)
# GALAXY_SB [ugriz] = [ 24.18 23.88 22.81 22.36 21.70 ] +/- [  0.00  0.00  0.00  0.00  0.00 ] (asinh mag/square arcsec)
# GALAXY_SB_FLUX [ugriz] = [  4.555E-01  8.982E-01  2.644E+00  3.969E+00  6.499E+00 ] +/- [  0.000E+00  0.000E+00  0.000E+00  0.000E+00  0.000E+00 ] (microJy per square arcsec)
#FLAG  MJD       FILT  MAG     MERR  MSKYERR MGALERR  FLUX       FLUXERR    SKYERR     GALERR    NPRE TELE   RUN  STRIP  IDCCD
  288  53623.155269  1  22.817  0.301  0.179  0.000   2.622e+00   7.220e-01   4.393e-01   0.000e+00  2  sdss  5590  82N  5 
  288  53623.151952  2  23.267  0.553  0.220  0.000   1.677e+00   9.106e-01   3.817e-01   0.000e+00  3  sdss  5590  82N  5 
  288  53623.152781  3  22.360  0.349  0.118  0.000   3.961e+00   1.297e+00   4.514e-01   0.000e+00  4  sdss  5590  82N  5 
  288  53623.154439  4  21.459  0.452  0.212  0.000   8.641e+00   4.088e+00   1.973e+00   0.000e+00  4  sdss  5590  82N  5 
  256  53623.153610  0  24.554  1.358  0.419  0.000   1.082e-01   1.689e+00   4.084e-01   0.000e+00  2  sdss  5590  82N  5 
  289  53626.141457  1  22.879  0.458  0.204  0.000   2.474e+00   1.012e+00   4.741e-01   0.000e+00  2  sdss  5603  82N  5 
  297  53626.138141  2  23.912  1.046  1.251  0.000   7.939e-01   1.136e+00   1.354e+00   0.000e+00  3  sdss  5603  82N  5 
  288  53626.138970  3  22.408  0.432  0.167  0.000   3.780e+00   1.518e+00   6.132e-01   0.000e+00  4  sdss  5603  82N  5 
  256  53626.140628  4  23.233  0.724  0.152  0.000  -1.999e+00   3.974e+00   7.943e-01   0.000e+00  4  sdss  5603  82N  5 
  257  53626.139799  0  26.352  1.044  0.304  0.000  -2.375e+00   2.059e+00   7.003e-01   0.000e+00  2  sdss  5603  82N  5 
  257  53628.125894  1  22.169  0.402  0.094  0.000   4.813e+00   1.701e+00   4.138e-01   0.000e+00  2  sdss  5610  82N  5 
  417  53628.122578  2  23.003  0.870  0.222  0.000   2.191e+00   1.646e+00   4.818e-01   0.000e+00  3  sdss  5610  82N  5 
  289  53628.123407  3  22.531  0.704  0.340  0.000   3.352e+00   2.104e+00   1.119e+00   0.000e+00  4  sdss  5610  82N  5 
  288  53628.125065  4  22.013  0.876  0.365  0.000   4.390e+00   5.583e+00   2.312e+00   0.000e+00  4  sdss  5610  82N  5 
  257  53628.124236  0  22.427  1.245  0.193  0.000   4.067e+00   3.508e+00   7.153e-01   0.000e+00  2  sdss  5610  82N  5 
  288  53635.133788  1  23.499  0.404  0.117  0.000   1.347e+00   5.318e-01   1.593e-01   0.000e+00  2  sdss  5622  82N  5 
  288  53635.130471  2  22.793  0.306  0.095  0.000   2.691e+00   7.786e-01   2.475e-01   0.000e+00  3  sdss  5622  82N  5 
  288  53635.131300  3  22.011  0.232  0.070  0.000   5.529e+00   1.192e+00   3.643e-01   0.000e+00  4  sdss  5622  82N  5 
  288  53635.132959  4  21.609  0.418  0.093  0.000   7.318e+00   3.397e+00   7.760e-01   0.000e+00  4  sdss  5622  82N  5 
  256  53635.132129  0  23.292  0.887  0.182  0.000   1.716e+00   1.463e+00   3.274e-01   0.000e+00  2  sdss  5622  82N  5 
  288  53637.127002  1  22.737  0.256  0.166  0.000   2.828e+00   6.644e-01   4.376e-01   0.000e+00  2  sdss  5633  82N  5 
  288  53637.123685  2  23.323  0.603  0.344  0.000   1.582e+00   9.449e-01   5.707e-01   0.000e+00  3  sdss  5633  82N  5 
  288  53637.124514  3  22.193  0.341  0.192  0.000   4.651e+00   1.468e+00   8.496e-01   0.000e+00  4  sdss  5633  82N  5 
  288  53637.126173  4  22.048  0.785  0.599  0.000   4.170e+00   4.903e+00   3.717e+00   0.000e+00  4  sdss  5633  82N  5 
  256  53637.125344  0  24.635  1.405  0.669  0.000   3.007e-02   1.774e+00   6.481e-01   0.000e+00  2  sdss  5633  82N  5 
  288  53641.123887  1  22.945  0.254  0.086  0.000   2.323e+00   5.472e-01   1.875e-01   0.000e+00  2  sdss  5654  82N  5 
  288  53641.120570  2  22.639  0.274  0.067  0.000   3.121e+00   8.007e-01   1.981e-01   0.000e+00  3  sdss  5654  82N  5 
  288  53641.121399  3  22.336  0.318  0.085  0.000   4.054e+00   1.212e+00   3.325e-01   0.000e+00  4  sdss  5654  82N  5 
  288  53641.123057  4  22.136  0.562  0.206  0.000   3.636e+00   3.347e+00   1.216e+00   0.000e+00  4  sdss  5654  82N  5 
  264  53641.122228  0  23.804  1.022  0.581  0.000   9.248e-01   1.316e+00   7.356e-01   0.000e+00  2  sdss  5654  82N  5 
  288  53644.119118  1  23.308  0.362  0.147  0.000   1.633e+00   5.614e-01   2.348e-01   0.000e+00  2  sdss  5670  82N  5 
  288  53644.115801  2  23.098  0.443  0.160  0.000   1.993e+00   8.518e-01   3.203e-01   0.000e+00  3  sdss  5670  82N  5 
  288  53644.116631  3  22.449  0.396  0.258  0.000   3.632e+00   1.352e+00   9.125e-01   0.000e+00  4  sdss  5670  82N  5 
  288  53644.118289  4  21.916  0.645  0.286  0.000   5.023e+00   4.276e+00   1.922e+00   0.000e+00  4  sdss  5670  82N  5 
  256  53644.117460  0  23.186  0.884  0.391  0.000   1.921e+00   1.561e+00   7.619e-01   0.000e+00  2  sdss  5670  82N  5 
  288  53649.113287  1  22.918  0.287  0.304  0.000   2.384e+00   6.316e-01   6.823e-01   0.000e+00  2  sdss  5702  82N  5 
  416  53649.109970  2  23.148  0.450  0.338  0.000   1.896e+00   8.296e-01   6.484e-01   0.000e+00  3  sdss  5702  82N  5 
  288  53649.110799  3  22.644  0.537  0.484  0.000   2.995e+00   1.518e+00   1.447e+00   0.000e+00  4  sdss  5702  82N  5 
  288  53649.112457  4  21.458  0.490  0.292  0.000   8.650e+00   4.409e+00   2.726e+00   0.000e+00  4  sdss  5702  82N  5 
  256  53649.111628  0  25.003  1.409  0.207  0.000  -3.324e-01   1.804e+00   2.095e-01   0.000e+00  2  sdss  5702  82N  5 
  289  53656.100137  1  22.955  0.801  0.193  0.000   2.301e+00   1.516e+00   4.184e-01   0.000e+00  2  sdss  5719  82N  5 
  417  53656.096820  2  22.953  0.763  0.327  0.000   2.302e+00   1.542e+00   7.388e-01   0.000e+00  3  sdss  5719  82N  5 
  289  53656.097649  3  22.195  0.454  0.153  0.000   4.643e+00   1.911e+00   6.768e-01   0.000e+00  4  sdss  5719  82N  5 
  288  53656.099308  4  22.758  0.989  0.411  0.000   3.662e-01   5.525e+00   2.008e+00   0.000e+00  4  sdss  5719  82N  5 
  257  53656.098478  0  26.204  1.841  0.199  0.000  -2.041e+00   3.317e+00   4.069e-01   0.000e+00  2  sdss  5719  82N  5 
  288  53668.102122  1  24.216  0.916  0.948  0.000   5.946e-01   7.281e-01   7.579e-01   0.000e+00  2  sdss  5770  82N  5 
 1440  53668.098805  2  23.773  1.013  1.016  0.000   9.515e-01   1.162e+00   1.203e+00   0.000e+00  3  sdss  5770  82N  5 
  288  53668.099634  3  21.615  0.281  0.250  0.000   8.019e+00   2.048e+00   1.862e+00   0.000e+00  4  sdss  5770  82N  5 
  288  53668.101292  4  22.260  1.021  0.689  0.000   2.924e+00   6.133e+00   3.839e+00   0.000e+00  4  sdss  5770  82N  5 
  384  53668.100463  0  25.507  1.436  1.148  0.000  -8.993e-01   1.981e+00   1.436e+00   0.000e+00  2  sdss  5770  82N  5 
  288  53670.106564  1  23.174  0.364  0.218  0.000   1.863e+00   6.326e-01   3.910e-01   0.000e+00  2  sdss  5781  82N  5 
  416  53670.103248  2  23.424  0.689  0.546  0.000   1.421e+00   9.890e-01   8.356e-01   0.000e+00  3  sdss  5781  82N  5 
  288  53670.104077  3  22.136  0.383  0.282  0.000   4.911e+00   1.721e+00   1.315e+00   0.000e+00  4  sdss  5781  82N  5 
  416  53670.105735  4  22.268  0.883  0.296  0.000   2.880e+00   5.170e+00   1.641e+00   0.000e+00  4  sdss  5781  82N  5 
  384  53670.104906  0  26.301  0.893  0.282  0.000  -2.254e+00   1.749e+00   6.229e-01   0.000e+00  2  sdss  5781  82N  5 
  288  53673.074401  1  23.052  0.300  0.184  0.000   2.096e+00   5.848e-01   3.669e-01   0.000e+00  2  sdss  5792  82N  5 
  288  53673.071084  2  23.231  0.521  0.221  0.000   1.741e+00   8.880e-01   3.954e-01   0.000e+00  3  sdss  5792  82N  5 
  288  53673.071913  3  22.050  0.278  0.162  0.000   5.329e+00   1.373e+00   8.168e-01   0.000e+00  4  sdss  5792  82N  5 
  288  53673.073572  4  22.691  0.778  0.287  0.000   6.951e-01   4.148e+00   1.410e+00   0.000e+00  4  sdss  5792  82N  5 
  256  53673.072742  0  24.250  1.257  0.450  0.000   4.130e-01   1.542e+00   4.655e-01   0.000e+00  2  sdss  5792  82N  5 
  288  53675.070986  1  22.987  0.297  0.168  0.000   2.232e+00   6.136e-01   3.538e-01   0.000e+00  2  sdss  5800  82N  5 
  288  53675.067669  2  22.891  0.432  0.194  0.000   2.447e+00   9.894e-01   4.634e-01   0.000e+00  3  sdss  5800  82N  5 
  288  53675.068498  3  22.920  0.657  0.336  0.000   2.257e+00   1.469e+00   8.021e-01   0.000e+00  4  sdss  5800  82N  5 
  256  53675.070157  4  23.307  0.775  0.388  0.000  -2.389e+00   4.359e+00   2.078e+00   0.000e+00  4  sdss  5800  82N  5 
  256  53675.069327  0  22.430  0.505  0.306  0.000   4.055e+00   1.757e+00   1.133e+00   0.000e+00  2  sdss  5800  82N  5 
  288  53677.091969  1  22.892  0.294  0.225  0.000   2.444e+00   6.620e-01   5.164e-01   0.000e+00  2  sdss  5813  82N  5 
  288  53677.088653  2  22.857  0.384  0.187  0.000   2.529e+00   9.134e-01   4.590e-01   0.000e+00  3  sdss  5813  82N  5 
  288  53677.089482  3  22.852  0.564  0.124  0.000   2.424e+00   1.349e+00   3.133e-01   0.000e+00  4  sdss  5813  82N  5 
  256  53677.091140  4  23.488  0.751  0.268  0.000  -3.392e+00   4.453e+00   1.554e+00   0.000e+00  4  sdss  5813  82N  5 
  256  53677.090311  0  22.709  0.595  0.181  0.000   3.101e+00   1.598e+00   5.237e-01   0.000e+00  2  sdss  5813  82N  5 
  288  53680.078190  1  23.034  0.296  0.103  0.000   2.133e+00   5.878e-01   2.080e-01   0.000e+00  2  sdss  5823  82N  5 
  288  53680.074873  2  22.758  0.330  0.127  0.000   2.784e+00   8.621e-01   3.391e-01   0.000e+00  3  sdss  5823  82N  5 
  288  53680.075703  3  22.083  0.268  0.089  0.000   5.165e+00   1.285e+00   4.350e-01   0.000e+00  4  sdss  5823  82N  5 
  288  53680.077361  4  22.133  0.610  0.138  0.000   3.654e+00   3.642e+00   8.172e-01   0.000e+00  4  sdss  5823  82N  5 
  256  53680.076532  0  24.967  1.250  0.257  0.000  -2.955e-01   1.515e+00   2.578e-01   0.000e+00  2  sdss  5823  82N  5 
  288  53693.078819  1  23.176  0.390  0.236  0.000   1.859e+00   6.748e-01   4.226e-01   0.000e+00  2  sdss  5878  82N  5 
  416  53693.075503  2  23.177  0.518  0.209  0.000   1.841e+00   9.216e-01   3.903e-01   0.000e+00  3  sdss  5878  82N  5 
  288  53693.076332  3  22.253  0.360  0.147  0.000   4.392e+00   1.466e+00   6.182e-01   0.000e+00  4  sdss  5878  82N  5 
  256  53693.077990  4  22.967  0.790  0.270  0.000  -6.565e-01   4.225e+00   1.326e+00   0.000e+00  4  sdss  5878  82N  5 
  264  53693.077161  0  25.774  1.124  0.998  0.000  -1.270e+00   1.601e+00   1.477e+00   0.000e+00  2  sdss  5878  82N  5 
 1444  53698.075777  1  22.966  2.090  1.209  0.000   2.277e+00   3.038e+00   2.601e+00   0.000e+00  2  sdss  5898  82N  5 
 1413  53698.072461  2  26.700  2.543  1.172  0.000  -2.416e+00   5.060e+00   2.765e+00   0.000e+00  3  sdss  5898  82N  5 
 1412  53698.073290  3  27.797  0.425  0.298  0.000  -1.519e+01   5.658e+00   4.168e+00   0.000e+00  4  sdss  5898  82N  5 
 1284  53698.074948  4  20.616  1.912  0.760  0.000   2.005e+01   2.408e+01   1.449e+01   0.000e+00  4  sdss  5898  82N  5 
 1284  53698.074119  0  22.063  1.581  0.249  0.000   5.731e+00   5.359e+00   1.279e+00   0.000e+00  2  sdss  5898  82N  5 
  288  53699.099188  1  23.314  0.422  0.254  0.000   1.623e+00   6.454e-01   4.031e-01   0.000e+00  2  sdss  5902  82N  5 
  288  53699.095872  2  23.262  0.604  0.299  0.000   1.686e+00   9.911e-01   5.212e-01   0.000e+00  3  sdss  5902  82N  5 
  288  53699.096701  3  22.195  0.363  0.174  0.000   4.643e+00   1.554e+00   7.714e-01   0.000e+00  4  sdss  5902  82N  5 
  288  53699.098359  4  21.926  0.682  0.249  0.000   4.956e+00   4.496e+00   1.660e+00   0.000e+00  4  sdss  5902  82N  5 
  256  53699.097530  0  25.913  1.189  0.172  0.000  -1.493e+00   1.803e+00   2.815e-01   0.000e+00  2  sdss  5902  82N  5 
  290  53702.073794  1  23.136  0.570  0.907  0.000   1.933e+00   9.826e-01   1.679e+00   0.000e+00  2  sdss  5909  82N  5 
 1440  53702.070477  2  23.904  1.602  2.227  0.000   8.027e-01   1.937e+00   2.422e+00   0.000e+00  3  sdss  5909  82N  5 
  290  53702.071306  3  22.397  0.591  0.658  0.000   3.822e+00   2.027e+00   2.438e+00   0.000e+00  4  sdss  5909  82N  5 
  266  53702.072965  4  23.241  1.138  2.224  0.000  -2.040e+00   6.813e+00   1.162e+01   0.000e+00  4  sdss  5909  82N  5 
  256  53702.072136  0  26.691  1.363  0.588  0.000  -3.316e+00   3.183e+00   1.809e+00   0.000e+00  2  sdss  5909  82N  5 
  290  53703.082667  1  23.444  0.577  0.582  0.000   1.425e+00   7.713e-01   8.282e-01   0.000e+00  2  sdss  5915  82N  5 
  288  53703.079350  2  23.133  0.695  0.378  0.000   1.924e+00   1.236e+00   7.330e-01   0.000e+00  3  sdss  5915  82N  5 
  288  53703.080179  3  23.952  1.194  1.135  0.000   4.975e-01   1.762e+00   1.441e+00   0.000e+00  4  sdss  5915  82N  5 
  288  53703.081837  4  21.372  0.628  0.254  0.000   9.481e+00   5.902e+00   2.540e+00   0.000e+00  4  sdss  5915  82N  5 
  266  53703.081008  0  23.165  1.384  1.706  0.000   1.962e+00   2.362e+00   3.379e+00   0.000e+00  2  sdss  5915  82N  5 
  288  53704.061152  1  23.466  0.527  0.372  0.000   1.394e+00   6.991e-01   5.189e-01   0.000e+00  2  sdss  5918  82N  5 
  416  53704.057835  2  22.670  0.348  0.260  0.000   3.030e+00   9.784e-01   7.529e-01   0.000e+00  3  sdss  5918  82N  5 
  288  53704.058664  3  22.732  0.610  0.418  0.000   2.740e+00   1.585e+00   1.162e+00   0.000e+00  4  sdss  5918  82N  5 
  288  53704.060323  4  21.150  0.411  0.181  0.000   1.191e+01   4.760e+00   2.172e+00   0.000e+00  4  sdss  5918  82N  5 
  264  53704.059493  0  23.131  1.027  0.979  0.000   2.034e+00   1.839e+00   1.994e+00   0.000e+00  2  sdss  5918  82N  5 
