# SDSS CID:   5835 IAU:          RA: 323.107697 DEC:  -0.786301  (J2000)
# GALAXY_SB [ugriz] = [ 21.85 21.86 21.73 21.41 21.30 ] +/- [  0.09  0.03  0.02  0.02  0.07 ] (asinh mag/square arcsec)
# GALAXY_SB_FLUX [ugriz] = [  6.792E+00  6.386E+00  7.332E+00  9.676E+00  1.011E+01 ] +/- [  5.506E-01  1.522E-01  1.463E-01  1.754E-01  7.511E-01 ] (microJy per square arcsec)
#FLAG  MJD       FILT  MAG     MERR  MSKYERR MGALERR  FLUX       FLUXERR    SKYERR     GALERR    NPRE TELE   RUN  STRIP  IDCCD
   32  53622.226107  1  22.587  0.260  0.168  0.537   3.257e+00   7.848e-01   5.153e-01   1.650e+00  7  sdss  5582  82S  2 
   32  53622.222790  2  22.668  0.374  0.207  0.449   3.034e+00   1.060e+00   6.065e-01   1.315e+00  10  sdss  5582  82S  2 
   32  53622.223619  3  21.998  0.297  0.297  0.270   5.599e+00   1.543e+00   1.579e+00   1.438e+00  10  sdss  5582  82S  2 
    0  53622.225278  4  23.706  0.811  0.386  0.957  -4.732e+00   5.242e+00   2.505e+00   6.219e+00  9  sdss  5582  82S  2 
    4  53622.224448  0  26.140  1.295  0.550  3.014  -1.911e+00   2.220e+00   1.093e+00   5.989e+00  7  sdss  5582  82S  2 
   33  53625.222148  1  22.137  0.156  0.009  0.106   4.961e+00   7.172e-01   3.996e-02   4.913e-01  7  sdss  5597  82S  2 
    0  53625.218831  2  22.093  0.171  0.023  0.068   5.224e+00   8.336e-01   1.128e-01   3.364e-01  10  sdss  5597  82S  2 
    0  53625.219660  3  21.785  0.179  0.032  0.057   6.840e+00   1.142e+00   2.061e-01   3.660e-01  10  sdss  5597  82S  2 
    0  53625.221318  4  21.786  0.477  0.209  0.265   5.930e+00   3.406e+00   1.515e+00   1.928e+00  9  sdss  5597  82S  2 
   32  53625.220489  0  23.566  1.300  0.079  1.450   1.257e+00   1.889e+00   1.183e-01   2.171e+00  7  sdss  5597  82S  2 
   33  53627.182851  1  21.920  0.211  0.036  0.121   6.066e+00   1.179e+00   2.054e-01   6.841e-01  7  sdss  5607  82S  2 
   33  53627.179534  2  22.461  0.339  0.092  0.169   3.698e+00   1.161e+00   3.252e-01   5.970e-01  10  sdss  5607  82S  2 
   32  53627.180363  3  22.132  0.304  0.082  0.132   4.930e+00   1.401e+00   3.853e-01   6.214e-01  10  sdss  5607  82S  2 
    0  53627.182022  4  21.107  0.373  0.162  0.226   1.244e+01   4.458e+00   1.992e+00   2.778e+00  9  sdss  5607  82S  2 
   33  53627.181192  0  22.522  0.992  0.118  0.859   3.715e+00   2.866e+00   4.151e-01   3.013e+00  7  sdss  5607  82S  2 
   35  53634.175047  1  23.315  1.848  1.008  2.365   1.622e+00   2.281e+00   1.627e+00   3.817e+00  7  sdss  5619  82S  2 
   34  53634.171730  2  23.209  1.156  0.847  1.445   1.782e+00   1.797e+00   1.556e+00   2.655e+00  10  sdss  5619  82S  2 
   34  53634.172559  3  22.009  0.430  0.622  0.635   5.540e+00   2.160e+00   3.274e+00   3.344e+00  10  sdss  5619  82S  2 
   34  53634.174217  4  21.740  1.011  1.121  1.852   6.274e+00   7.255e+00   8.401e+00   1.388e+01  9  sdss  5619  82S  2 
   35  53634.173388  0  21.737  0.901  0.695  2.360   7.773e+00   5.303e+00   4.952e+00   1.681e+01  7  sdss  5619  82S  2 
   40  53636.180406  1  22.171  0.147  0.083  0.126   4.807e+00   6.570e-01   3.743e-01   5.670e-01  7  sdss  5628  82S  2 
   32  53636.177089  2  22.509  0.261  0.025  0.139   3.533e+00   8.658e-01   8.367e-02   4.699e-01  10  sdss  5628  82S  2 
   32  53636.177918  3  22.186  0.261  0.111  0.114   4.683e+00   1.153e+00   4.986e-01   5.131e-01  10  sdss  5628  82S  2 
    0  53636.179577  4  21.370  0.389  0.191  0.237   9.493e+00   3.752e+00   1.887e+00   2.344e+00  9  sdss  5628  82S  2 
   32  53636.178748  0  22.415  0.523  0.048  0.677   4.114e+00   1.889e+00   1.834e-01   2.612e+00  7  sdss  5628  82S  2 
   33  53655.151403  1  22.374  0.341  0.094  0.288   3.975e+00   1.232e+00   3.507e-01   1.074e+00  7  sdss  5713  82S  2 
    1  53655.148086  2  21.935  0.237  0.089  0.152   6.053e+00   1.323e+00   5.024e-01   8.611e-01  10  sdss  5713  82S  2 
   32  53655.148915  3  21.572  0.217  0.077  0.138   8.346e+00   1.679e+00   6.018e-01   1.083e+00  10  sdss  5713  82S  2 
   32  53655.150574  4  22.075  0.780  0.177  0.596   4.004e+00   4.797e+00   1.073e+00   3.622e+00  9  sdss  5713  82S  2 
   33  53655.149744  0  22.386  0.984  0.465  1.208   4.229e+00   3.191e+00   1.841e+00   4.783e+00  7  sdss  5713  82S  2 
   33  53664.175428  1  21.802  0.172  0.034  0.159   6.766e+00   1.073e+00   2.129e-01   1.003e+00  7  sdss  5754  82S  2 
   32  53664.172111  2  22.175  0.246  0.096  0.157   4.839e+00   1.106e+00   4.399e-01   7.143e-01  10  sdss  5754  82S  2 
   32  53664.172940  3  21.590  0.182  0.067  0.104   8.207e+00   1.391e+00   5.118e-01   7.979e-01  10  sdss  5754  82S  2 
   32  53664.174599  4  22.282  0.780  0.428  0.715   2.803e+00   4.474e+00   2.352e+00   3.934e+00  9  sdss  5754  82S  2 
   33  53664.173769  0  22.082  0.616  0.324  0.913   5.634e+00   2.920e+00   1.685e+00   4.753e+00  7  sdss  5754  82S  2 
   32  53666.138747  1  22.062  0.114  0.011  0.094   5.318e+00   5.654e-01   5.651e-02   4.653e-01  7  sdss  5763  82S  2 
    0  53666.135430  2  22.120  0.168  0.015  0.074   5.094e+00   7.987e-01   7.261e-02   3.563e-01  10  sdss  5763  82S  2 
   32  53666.136259  3  21.708  0.200  0.043  0.053   7.351e+00   1.368e+00   2.971e-01   3.674e-01  10  sdss  5763  82S  2 
    0  53666.137918  4  21.237  0.358  0.075  0.173   1.091e+01   3.857e+00   8.243e-01   1.912e+00  9  sdss  5763  82S  2 
   40  53666.137089  0  22.668  0.548  0.168  0.695   3.227e+00   1.582e+00   5.184e-01   2.146e+00  7  sdss  5763  82S  2 
   32  53669.134071  1  22.015  0.111  0.009  0.104   5.555e+00   5.733e-01   4.674e-02   5.368e-01  7  sdss  5776  82S  2 
    0  53669.130754  2  21.899  0.141  0.032  0.079   6.258e+00   8.230e-01   1.899e-01   4.661e-01  10  sdss  5776  82S  2 
   32  53669.131583  3  21.914  0.220  0.059  0.085   6.060e+00   1.248e+00   3.394e-01   4.884e-01  10  sdss  5776  82S  2 
    0  53669.133242  4  21.057  0.308  0.067  0.179   1.307e+01   3.866e+00   8.612e-01   2.298e+00  9  sdss  5776  82S  2 
    0  53669.132413  0  25.206  1.339  0.264  2.345  -5.454e-01   1.713e+00   2.874e-01   2.551e+00  7  sdss  5776  82S  2 
   32  53674.118075  1  22.232  0.142  0.017  0.161   4.537e+00   5.983e-01   7.270e-02   6.829e-01  7  sdss  5797  82S  2 
    0  53674.114759  2  22.134  0.175  0.022  0.099   5.028e+00   8.221e-01   1.020e-01   4.678e-01  10  sdss  5797  82S  2 
   32  53674.115588  3  21.753  0.177  0.067  0.079   7.049e+00   1.166e+00   4.478e-01   5.246e-01  10  sdss  5797  82S  2 
    0  53674.117246  4  21.650  0.527  0.243  0.335   6.982e+00   4.094e+00   1.938e+00   2.679e+00  9  sdss  5797  82S  2 
   32  53674.116417  0  23.305  1.091  0.093  1.535   1.692e+00   1.780e+00   1.686e-01   2.788e+00  7  sdss  5797  82S  2 
   32  53676.207304  1  21.989  0.119  0.030  0.129   5.690e+00   6.312e-01   1.571e-01   6.868e-01  7  sdss  5807  82S  2 
    0  53676.203987  2  22.102  0.184  0.028  0.078   5.180e+00   8.881e-01   1.373e-01   3.811e-01  10  sdss  5807  82S  2 
   32  53676.204817  3  21.925  0.220  0.054  0.070   5.998e+00   1.233e+00   3.070e-01   3.955e-01  10  sdss  5807  82S  2 
    0  53676.206475  4  21.544  0.483  0.215  0.333   7.869e+00   4.051e+00   1.859e+00   2.882e+00  9  sdss  5807  82S  2 
   32  53676.205646  0  22.489  0.597  0.099  0.834   3.834e+00   1.988e+00   3.578e-01   3.014e+00  7  sdss  5807  82S  2 
   34  53679.178848  1  22.304  0.199  0.080  0.494   4.243e+00   7.824e-01   3.173e-01   1.965e+00  7  sdss  5820  82S  2 
   32  53679.175532  2  22.687  0.419  0.101  0.561   2.980e+00   1.158e+00   2.905e-01   1.615e+00  10  sdss  5820  82S  2 
   32  53679.176361  3  21.632  0.216  0.134  0.288   7.892e+00   1.582e+00   9.889e-01   2.129e+00  10  sdss  5820  82S  2 
    0  53679.178019  4  23.753  0.800  0.894  1.205  -5.047e+00   5.284e+00   5.982e+00   8.063e+00  9  sdss  5820  82S  2 
   34  53679.177190  0  22.756  1.101  0.553  2.986   2.962e+00   2.570e+00   1.580e+00   8.537e+00  7  sdss  5820  82S  2 
   40  53681.170128  1  21.984  0.136  0.080  0.123   5.717e+00   7.214e-01   4.269e-01   6.574e-01  7  sdss  5836  82S  2 
 1165  53681.166811  2  25.912  2.195  3.883  0.401  -1.050e+00   3.376e+00   4.894e+00   5.059e-01  10  sdss  5836  82S  2 
   36  53681.167640  3  22.534  1.285  0.940  0.158   3.343e+00   3.374e+00   3.114e+00   5.251e-01  10  sdss  5836  82S  2 
    4  53681.169299  4  20.745  0.330  0.234  0.179   1.773e+01   5.400e+00   3.929e+00   3.005e+00  9  sdss  5836  82S  2 
 1156  53681.168469  0  20.940  0.430  0.042  0.223   1.624e+01   6.041e+00   6.266e-01   3.300e+00  7  sdss  5836  82S  2 
   41  53685.128729  1  21.727  0.285  0.399  0.118   7.252e+00   1.879e+00   2.691e+00   7.961e-01  7  sdss  5853  82S  2 
   41  53685.125412  2  22.363  0.437  0.377  0.174   4.056e+00   1.605e+00   1.450e+00   6.700e-01  10  sdss  5853  82S  2 
   57  53685.126242  3  21.550  0.223  1.204  0.095   8.518e+00   1.753e+00   9.603e+00   7.589e-01  10  sdss  5853  82S  2 
    0  53685.127900  4  21.066  0.432  0.295  0.242   1.295e+01   5.281e+00   3.753e+00   3.078e+00  9  sdss  5853  82S  2 
    5  53685.127071  0  27.376  0.900  0.220  0.692  -6.342e+00   4.362e+00   1.284e+00   4.043e+00  7  sdss  5853  82S  2 
    1  53687.167122  1  21.673  0.258  0.090  0.131   7.623e+00   1.796e+00   6.357e-01   9.320e-01  7  sdss  5870  82S  2 
   33  53687.163806  2  22.541  0.513  0.128  0.227   3.428e+00   1.581e+00   4.214e-01   7.442e-01  10  sdss  5870  82S  2 
   33  53687.164635  3  21.952  0.270  0.103  0.114   5.846e+00   1.469e+00   5.700e-01   6.309e-01  10  sdss  5870  82S  2 
   32  53687.166293  4  21.606  0.564  0.085  0.378   7.337e+00   4.490e+00   7.031e-01   3.115e+00  9  sdss  5870  82S  2 
   33  53687.165464  0  21.333  0.578  0.070  0.447   1.129e+01   5.456e+00   7.228e-01   4.609e+00  7  sdss  5870  82S  2 
 1036  53697.125626  1  28.074  2.828  1.158  0.222  -4.843e+00   6.460e+00   5.242e+00   1.005e+00  7  sdss  5895  82S  2 
 1028  53697.122309  2  25.362  2.212  1.801  0.645  -4.673e-01   3.303e+00   1.638e+00   5.862e-01  10  sdss  5895  82S  2 
 1028  53697.123139  3  25.826  1.988  1.458  0.309  -2.308e+00   4.486e+00   3.563e+00   7.547e-01  10  sdss  5895  82S  2 
 1156  53697.124797  4  19.924  1.028  0.393  0.097   3.838e+01   2.850e+01   1.381e+01   3.395e+00  9  sdss  5895  82S  2 
 1164  53697.123968  0  20.955  0.725  0.839  0.347   1.602e+01   9.242e+00   1.223e+01   5.054e+00  7  sdss  5895  82S  2 
   32  53700.124234  1  22.167  0.159  0.070  0.261   4.824e+00   7.140e-01   3.159e-01   1.176e+00  7  sdss  5905  82S  2 
   56  53700.120917  2  22.031  0.218  0.526  0.185   5.535e+00   1.117e+00   2.734e+00   9.648e-01  10  sdss  5905  82S  2 
   32  53700.121746  3  22.110  0.310  0.230  0.213   5.035e+00   1.454e+00   1.107e+00   1.024e+00  10  sdss  5905  82S  2 
 1156  53700.123404  4  24.874  1.376  1.273  0.274  -1.695e+01   1.666e+01   2.053e+01   4.414e+00  9  sdss  5905  82S  2 
 1188  53700.122575  0  22.823  1.390  0.376  1.912   2.773e+00   2.921e+00   1.013e+00   5.159e+00  7  sdss  5905  82S  2 
   32  53705.110634  1  22.273  0.175  0.067  0.306   4.367e+00   7.090e-01   2.754e-01   1.252e+00  7  sdss  5924  82S  2 
   32  53705.107317  2  22.201  0.213  0.115  0.175   4.723e+00   9.399e-01   5.118e-01   7.812e-01  10  sdss  5924  82S  2 
   32  53705.108146  3  21.720  0.199  0.125  0.144   7.269e+00   1.349e+00   8.553e-01   9.871e-01  10  sdss  5924  82S  2 
   32  53705.109805  4  22.658  0.869  0.196  0.946   8.550e-01   4.741e+00   9.700e-01   4.673e+00  9  sdss  5924  82S  2 
   32  53705.108975  0  22.439  0.612  0.188  1.431   4.021e+00   2.120e+00   7.116e-01   5.405e+00  7  sdss  5924  82S  2 
