# SDSS CID:  14035 IAU:          RA: 349.966675 DEC:  -0.278344  (J2000)
# GALAXY_SB [ugriz] = [ 23.53 22.56 21.85 21.54 21.18 ] +/- [  0.00  0.00  0.00  0.00  0.00 ] (asinh mag/square arcsec)
# GALAXY_SB_FLUX [ugriz] = [  1.259E+00  3.320E+00  6.577E+00  8.573E+00  1.144E+01 ] +/- [  0.000E+00  0.000E+00  0.000E+00  0.000E+00  0.000E+00 ] (microJy per square arcsec)
#FLAG  MJD       FILT  MAG     MERR  MSKYERR MGALERR  FLUX       FLUXERR    SKYERR     GALERR    NPRE TELE   RUN  STRIP  IDCCD
  288  53975.277033  1  25.019  0.867  0.552  0.000   5.847e-02   5.681e-01   3.265e-01   0.000e+00  12  sdss  6287  82S  3 
  256  53975.273716  2  25.363  0.931  0.202  0.000  -4.682e-01   8.995e-01   1.836e-01   0.000e+00  11  sdss  6287  82S  3 
  288  53975.274545  3  23.161  0.748  0.093  0.000   1.731e+00   1.407e+00   1.846e-01   0.000e+00  11  sdss  6287  82S  3 
  288  53975.276204  4  22.787  0.870  0.356  0.000   2.239e-01   4.717e+00   1.738e+00   0.000e+00  12  sdss  6287  82S  3 
  384  53975.275375  0  23.729  1.349  0.103  0.000   1.024e+00   1.870e+00   1.374e-01   0.000e+00  7  sdss  6287  82S  3 
 1437  53993.344713  1  21.109  3.148  5.763  0.000   1.282e+01   1.390e+01   6.762e+01   0.000e+00  12  sdss  6348  82S  3 
  440  53993.341396  2  22.516  0.347  0.688  0.000   3.511e+00   1.116e+00   2.284e+00   0.000e+00  11  sdss  6348  82S  3 
 1464  53993.342225  3  22.360  0.449  1.928  0.000   3.961e+00   1.639e+00   7.378e+00   0.000e+00  11  sdss  6348  82S  3 
 1420  53993.343884  4  17.786  0.417  0.889  0.000   2.765e+02   1.014e+02   2.266e+02   0.000e+00  12  sdss  6348  82S  3 
 1412  53993.343054  0  25.827  2.493  1.414  0.000  -1.352e+00   5.331e+00   2.190e+00   0.000e+00  7  sdss  6348  82S  3 
  296  53996.283575  1  23.544  0.421  0.285  0.000   1.287e+00   5.360e-01   3.743e-01   0.000e+00  12  sdss  6367  82S  3 
  256  53996.280258  2  24.819  0.935  0.136  0.000  -1.360e-02   8.429e-01   1.088e-01   0.000e+00  11  sdss  6367  82S  3 
  288  53996.281087  3  22.514  0.390  0.206  0.000   3.408e+00   1.264e+00   6.893e-01   0.000e+00  11  sdss  6367  82S  3 
  288  53996.282746  4  21.731  0.613  0.230  0.000   6.341e+00   4.521e+00   1.752e+00   0.000e+00  12  sdss  6367  82S  3 
  416  53996.281917  0  23.896  1.180  0.213  0.000   8.094e-01   1.517e+00   2.579e-01   0.000e+00  7  sdss  6367  82S  3 
  288  53998.252455  1  23.553  0.411  0.097  0.000   1.275e+00   5.204e-01   1.262e-01   0.000e+00  12  sdss  6377  82S  3 
  288  53998.249138  2  22.611  0.248  0.008  0.000   3.207e+00   7.455e-01   2.435e-02   0.000e+00  11  sdss  6377  82S  3 
  288  53998.249967  3  22.195  0.273  0.087  0.000   4.642e+00   1.184e+00   3.846e-01   0.000e+00  11  sdss  6377  82S  3 
  256  53998.251626  4  22.986  0.676  0.083  0.000  -7.486e-01   3.536e+00   4.072e-01   0.000e+00  12  sdss  6377  82S  3 
  384  53998.250796  0  22.787  0.551  0.081  0.000   2.873e+00   1.418e+00   2.226e-01   0.000e+00  7  sdss  6377  82S  3 
  288  54005.282287  1  23.093  0.272  0.047  0.000   2.014e+00   5.162e-01   9.067e-02   0.000e+00  12  sdss  6402  82S  3 
  288  54005.278970  2  22.688  0.273  0.028  0.000   2.979e+00   7.632e-01   7.915e-02   0.000e+00  11  sdss  6402  82S  3 
  288  54005.279800  3  21.947  0.217  0.032  0.000   5.874e+00   1.184e+00   1.764e-01   0.000e+00  11  sdss  6402  82S  3 
  288  54005.281458  4  21.360  0.384  0.149  0.000   9.593e+00   3.784e+00   1.503e+00   0.000e+00  12  sdss  6402  82S  3 
  256  54005.280629  0  23.800  1.140  0.093  0.000   9.298e-01   1.496e+00   1.192e-01   0.000e+00  7  sdss  6402  82S  3 
  288  54008.243199  1  22.977  0.257  0.060  0.000   2.252e+00   5.408e-01   1.280e-01   0.000e+00  12  sdss  6417  82S  3 
  288  54008.239882  2  22.809  0.330  0.030  0.000   2.651e+00   8.232e-01   7.670e-02   0.000e+00  11  sdss  6417  82S  3 
  288  54008.240711  3  21.926  0.216  0.021  0.000   5.991e+00   1.199e+00   1.175e-01   0.000e+00  11  sdss  6417  82S  3 
  256  54008.242369  4  23.098  0.692  0.217  0.000  -1.305e+00   3.682e+00   1.091e+00   0.000e+00  12  sdss  6417  82S  3 
  256  54008.241540  0  23.276  0.995  0.097  0.000   1.745e+00   1.651e+00   1.776e-01   0.000e+00  7  sdss  6417  82S  3 
  289  54010.237529  1  23.071  0.393  0.081  0.000   2.057e+00   7.462e-01   1.596e-01   0.000e+00  12  sdss  6425  82S  3 
  289  54010.234212  2  22.539  0.271  0.047  0.000   3.435e+00   8.660e-01   1.533e-01   0.000e+00  11  sdss  6425  82S  3 
  288  54010.235041  3  21.966  0.227  0.044  0.000   5.770e+00   1.216e+00   2.363e-01   0.000e+00  11  sdss  6425  82S  3 
  288  54010.236700  4  22.144  0.570  0.034  0.000   3.588e+00   3.383e+00   1.981e-01   0.000e+00  12  sdss  6425  82S  3 
  265  54010.235871  0  23.488  1.167  0.384  0.000   1.378e+00   1.724e+00   6.011e-01   0.000e+00  7  sdss  6425  82S  3 
  289  54012.230191  1  23.517  1.125  0.278  0.000   1.323e+00   1.288e+00   3.740e-01   0.000e+00  12  sdss  6433  82S  3 
  257  54012.226874  2  21.743  0.198  0.059  0.000   7.229e+00   1.307e+00   3.950e-01   0.000e+00  11  sdss  6433  82S  3 
  289  54012.227704  3  22.005  0.290  0.058  0.000   5.561e+00   1.489e+00   3.064e-01   0.000e+00  11  sdss  6433  82S  3 
  288  54012.229362  4  21.763  0.551  0.046  0.000   6.101e+00   4.002e+00   3.446e-01   0.000e+00  12  sdss  6433  82S  3 
  385  54012.228533  0  27.088  0.768  0.048  0.000  -4.840e+00   2.970e+00   2.125e-01   0.000e+00  7  sdss  6433  82S  3 
  289  54020.235925  1  23.287  0.505  0.142  0.000   1.667e+00   7.820e-01   2.321e-01   0.000e+00  12  sdss  6447  82S  3 
  288  54020.232608  2  22.769  0.424  0.239  0.000   2.756e+00   1.078e+00   6.336e-01   0.000e+00  11  sdss  6447  82S  3 
  288  54020.233437  3  22.405  0.478  0.208  0.000   3.792e+00   1.671e+00   7.653e-01   0.000e+00  11  sdss  6447  82S  3 
  288  54020.235095  4  22.212  0.786  0.396  0.000   3.194e+00   4.623e+00   2.254e+00   0.000e+00  12  sdss  6447  82S  3 
  297  54020.234266  0  23.858  1.502  0.894  0.000   8.560e-01   2.097e+00   1.104e+00   0.000e+00  7  sdss  6447  82S  3 
  440  54022.285226  1  25.086  1.120  5.705  0.000   1.864e-02   7.831e-01   3.361e+00   0.000e+00  12  sdss  6453  82S  3 
  312  54022.281909  2  23.006  0.545  1.365  0.000   2.185e+00   1.107e+00   2.950e+00   0.000e+00  11  sdss  6453  82S  3 
  292  54022.282738  3  23.238  0.925  0.479  0.000   1.583e+00   1.647e+00   8.985e-01   0.000e+00  11  sdss  6453  82S  3 
  292  54022.284396  4  21.325  0.588  0.387  0.000   9.951e+00   5.768e+00   4.022e+00   0.000e+00  12  sdss  6453  82S  3 
  260  54022.283567  0  24.921  1.569  0.223  0.000  -2.501e-01   2.118e+00   2.218e-01   0.000e+00  7  sdss  6453  82S  3 
  384  54028.225834  1  25.558  0.850  0.123  0.000  -2.662e-01   5.800e-01   7.814e-02   0.000e+00  12  sdss  6468  82S  3 
  288  54028.222517  2  22.574  0.302  0.068  0.000   3.322e+00   9.313e-01   2.137e-01   0.000e+00  11  sdss  6468  82S  3 
  288  54028.223346  3  22.711  0.523  0.144  0.000   2.799e+00   1.405e+00   4.075e-01   0.000e+00  11  sdss  6468  82S  3 
  256  54028.225004  4  23.474  0.798  0.405  0.000  -3.315e+00   4.733e+00   2.329e+00   0.000e+00  12  sdss  6468  82S  3 
  288  54028.224175  0  24.022  1.380  0.093  0.000   6.610e-01   1.811e+00   1.056e-01   0.000e+00  7  sdss  6468  82S  3 
  296  54030.228807  1  24.474  0.692  0.303  0.000   4.018e-01   4.902e-01   2.100e-01   0.000e+00  12  sdss  6479  82S  3 
  288  54030.225490  2  23.084  0.401  0.110  0.000   2.023e+00   7.836e-01   2.224e-01   0.000e+00  11  sdss  6479  82S  3 
  288  54030.226319  3  22.721  0.427  0.097  0.000   2.771e+00   1.157e+00   2.722e-01   0.000e+00  11  sdss  6479  82S  3 
  288  54030.227977  4  22.291  0.647  0.239  0.000   2.752e+00   3.656e+00   1.314e+00   0.000e+00  12  sdss  6479  82S  3 
  256  54030.227148  0  23.240  0.892  0.083  0.000   1.814e+00   1.532e+00   1.574e-01   0.000e+00  7  sdss  6479  82S  3 
  290  54035.304199  1  24.711  1.123  1.006  0.000   2.456e-01   8.085e-01   6.336e-01   0.000e+00  12  sdss  6501  82S  3 
  288  54035.300882  2  24.266  1.202  0.875  0.000   4.456e-01   1.222e+00   7.858e-01   0.000e+00  11  sdss  6501  82S  3 
  288  54035.301711  3  22.474  0.542  0.108  0.000   3.544e+00   1.761e+00   3.728e-01   0.000e+00  11  sdss  6501  82S  3 
  288  54035.303370  4  21.972  1.072  0.647  0.000   4.650e+00   7.063e+00   4.200e+00   0.000e+00  12  sdss  6501  82S  3 
  266  54035.302540  0  22.823  1.242  1.259  0.000   2.773e+00   2.649e+00   3.351e+00   0.000e+00  7  sdss  6501  82S  3 
  288  54037.209619  1  24.990  1.022  0.513  0.000   7.578e-02   6.967e-01   3.042e-01   0.000e+00  12  sdss  6508  82S  3 
  292  54037.206302  2  23.477  0.747  0.160  0.000   1.342e+00   1.026e+00   2.350e-01   0.000e+00  11  sdss  6508  82S  3 
  300  54037.207132  3  22.753  0.529  0.273  0.000   2.683e+00   1.373e+00   7.475e-01   0.000e+00  11  sdss  6508  82S  3 
  260  54037.208790  4  23.030  0.857  0.337  0.000  -9.659e-01   4.669e+00   1.669e+00   0.000e+00  12  sdss  6508  82S  3 
  268  54037.207961  0  23.891  1.286  0.566  0.000   8.157e-01   1.692e+00   6.864e-01   0.000e+00  7  sdss  6508  82S  3 
  289  54040.224164  1  24.502  1.694  0.789  0.000   3.823e-01   1.495e+00   5.402e-01   0.000e+00  12  sdss  6518  82S  3 
  289  54040.220848  2  23.620  1.264  0.278  0.000   1.142e+00   1.565e+00   3.669e-01   0.000e+00  11  sdss  6518  82S  3 
  289  54040.221677  3  22.598  0.611  0.108  0.000   3.136e+00   1.767e+00   3.367e-01   0.000e+00  11  sdss  6518  82S  3 
  288  54040.223335  4  22.526  0.878  0.358  0.000   1.516e+00   4.874e+00   1.815e+00   0.000e+00  12  sdss  6518  82S  3 
  265  54040.222506  0  23.283  1.883  1.838  0.000   1.732e+00   3.291e+00   3.358e+00   0.000e+00  7  sdss  6518  82S  3 
  257  54049.249708  1  26.513  1.395  0.413  0.000  -1.066e+00   1.400e+00   4.702e-01   0.000e+00  12  sdss  6537  82S  3 
  257  54049.246391  2  25.648  1.362  0.586  0.000  -7.467e-01   1.533e+00   6.166e-01   0.000e+00  11  sdss  6537  82S  3 
  288  54049.247220  3  24.228  1.263  0.662  0.000   1.594e-01   1.862e+00   7.896e-01   0.000e+00  11  sdss  6537  82S  3 
  288  54049.248879  4  22.392  1.062  0.298  0.000   2.209e+00   6.267e+00   1.572e+00   0.000e+00  12  sdss  6537  82S  3 
  419  54049.248049  0  24.150  2.226  2.397  0.000   5.189e-01   4.049e+00   2.575e+00   0.000e+00  7  sdss  6537  82S  3 
  290  54050.207943  1  24.159  1.159  1.167  0.000   6.414e-01   9.611e-01   9.692e-01   0.000e+00  12  sdss  6542  82S  3 
  258  54050.204627  2  25.016  1.412  1.927  0.000  -1.718e-01   1.481e+00   1.569e+00   0.000e+00  11  sdss  6542  82S  3 
  290  54050.205456  3  22.651  0.737  0.667  0.000   2.975e+00   1.989e+00   1.987e+00   0.000e+00  11  sdss  6542  82S  3 
  290  54050.207114  4  21.742  1.208  1.699  0.000   6.258e+00   8.777e+00   1.283e+01   0.000e+00  12  sdss  6542  82S  3 
  394  54050.206285  0  22.106  0.590  0.806  0.000   5.507e+00   2.715e+00   4.042e+00   0.000e+00  7  sdss  6542  82S  3 
  288  54053.213742  1  24.253  0.740  0.120  0.000   5.650e-01   5.755e-01   9.401e-02   0.000e+00  12  sdss  6555  82S  3 
  288  54053.210426  2  23.926  0.863  0.361  0.000   7.788e-01   9.203e-01   3.875e-01   0.000e+00  11  sdss  6555  82S  3 
  288  54053.211255  3  23.355  0.862  0.305  0.000   1.371e+00   1.447e+00   5.275e-01   0.000e+00  11  sdss  6555  82S  3 
  288  54053.212913  4  22.608  0.808  0.711  0.000   1.104e+00   4.371e+00   3.545e+00   0.000e+00  12  sdss  6555  82S  3 
  256  54053.212084  0  26.395  0.855  0.054  0.000  -2.480e+00   1.828e+00   1.304e-01   0.000e+00  7  sdss  6555  82S  3 
  258  54056.215079  1  26.221  0.922  0.140  0.000  -7.673e-01   8.056e-01   1.280e-01   0.000e+00  12  sdss  6568  82S  3 
  258  54056.211762  2  25.791  1.266  0.499  0.000  -9.035e-01   1.458e+00   5.743e-01   0.000e+00  11  sdss  6568  82S  3 
  416  54056.212591  3  23.367  1.197  0.826  0.000   1.350e+00   2.032e+00   1.416e+00   0.000e+00  11  sdss  6568  82S  3 
  288  54056.214250  4  22.103  1.242  1.909  0.000   3.832e+00   8.096e+00   1.149e+01   0.000e+00  12  sdss  6568  82S  3 
  394  54056.213421  0  26.912  1.363  2.599  0.000  -4.096e+00   3.780e+00   9.843e+00   0.000e+00  7  sdss  6568  82S  3 
  258  54059.209060  1  25.135  1.183  1.680  0.000  -9.857e-03   8.425e-01   9.895e-01   0.000e+00  12  sdss  6580  82S  3 
  290  54059.205744  2  24.100  1.200  0.814  0.000   6.009e-01   1.262e+00   7.901e-01   0.000e+00  11  sdss  6580  82S  3 
  290  54059.206573  3  24.316  1.293  0.595  0.000   5.443e-02   1.919e+00   7.050e-01   0.000e+00  11  sdss  6580  82S  3 
  290  54059.208231  4  21.131  0.575  0.664  0.000   1.213e+01   6.585e+00   8.104e+00   0.000e+00  12  sdss  6580  82S  3 
  266  54059.207402  0  25.988  1.661  2.644  0.000  -1.623e+00   2.724e+00   4.613e+00   0.000e+00  7  sdss  6580  82S  3 
  258  54062.213640  1  25.384  1.098  0.757  0.000  -1.580e-01   7.717e-01   4.589e-01   0.000e+00  12  sdss  6596  82S  3 
  288  54062.210323  2  23.488  0.893  0.465  0.000   1.325e+00   1.197e+00   6.766e-01   0.000e+00  11  sdss  6596  82S  3 
  256  54062.211152  3  25.414  1.126  0.378  0.000  -1.449e+00   1.943e+00   6.732e-01   0.000e+00  11  sdss  6596  82S  3 
  256  54062.212811  4  23.434  1.136  0.301  0.000  -3.082e+00   7.031e+00   1.698e+00   0.000e+00  12  sdss  6596  82S  3 
  386  54062.211981  0  22.345  0.647  0.217  0.000   4.395e+00   2.372e+00   8.757e-01   0.000e+00  7  sdss  6596  82S  3 
