# SDSS CID:  13936 IAU: 2005ii   RA:   3.170734 DEC:  -0.535559  (J2000)
# GALAXY_SB [ugriz] = [ 24.62 24.64 24.38 23.96 22.80 ] +/- [  0.52  0.15  0.12  0.09  0.10 ] (asinh mag/square arcsec)
# GALAXY_SB_FLUX [ugriz] = [  1.053E-02  2.865E-01  3.425E-01  4.912E-01  1.361E-01 ] +/- [  5.048E-01  9.854E-02  1.056E-01  1.154E-01  4.964E-01 ] (microJy per square arcsec)
#FLAG  MJD       FILT  MAG     MERR  MSKYERR MGALERR  FLUX       FLUXERR    SKYERR     GALERR    NPRE TELE   RUN  STRIP  IDCCD
   32  53974.319436  1  24.984  0.737  0.413  0.717   7.918e-02   4.707e-01   2.449e-01   4.255e-01  17  sdss  6283  82N  2 
   32  53974.316119  2  24.609  0.812  0.249  0.538   1.550e-01   7.170e-01   2.024e-01   4.363e-01  19  sdss  6283  82N  2 
    0  53974.316948  3  25.056  0.743  0.300  0.302  -8.782e-01   1.082e+00   4.282e-01   4.318e-01  19  sdss  6283  82N  2 
    0  53974.318607  4  23.281  0.615  0.235  0.320  -2.249e+00   3.356e+00   1.239e+00   1.686e+00  19  sdss  6283  82N  2 
    8  53974.317777  0  23.365  0.955  0.533  1.638   1.585e+00   1.525e+00   9.264e-01   2.846e+00  10  sdss  6283  82N  2 
  129  53989.323536  1  23.222  0.922  0.201  0.279   1.778e+00   1.373e+00   3.494e-01   4.865e-01  17  sdss  6314  82N  2 
    1  53989.320219  2  22.304  0.361  0.198  0.116   4.285e+00   1.399e+00   7.948e-01   4.637e-01  19  sdss  6314  82N  2 
    1  53989.321048  3  22.165  0.325  0.132  0.096   4.777e+00   1.428e+00   5.971e-01   4.316e-01  19  sdss  6314  82N  2 
    0  53989.322707  4  22.895  0.744  0.263  0.402  -3.019e-01   3.921e+00   1.287e+00   1.966e+00  19  sdss  6314  82N  2 
    1  53989.321877  0  22.039  0.792  0.273  0.594   5.865e+00   3.705e+00   1.482e+00   3.222e+00  10  sdss  6314  82N  2 
    0  53997.419133  1  21.646  0.093  0.065  0.140   7.814e+00   6.679e-01   4.685e-01   1.011e+00  17  sdss  6373  82N  2 
    0  53997.415816  2  21.775  0.132  0.031  0.100   7.020e+00   8.508e-01   1.994e-01   6.476e-01  19  sdss  6373  82N  2 
    0  53997.416645  3  21.512  0.145  0.078  0.076   8.828e+00   1.172e+00   6.350e-01   6.152e-01  19  sdss  6373  82N  2 
   32  53997.418304  4  22.040  0.595  0.386  0.411   4.218e+00   3.668e+00   2.380e+00   2.531e+00  19  sdss  6373  82N  2 
  136  53997.417475  0  21.815  0.312  0.300  0.788   7.228e+00   2.020e+00   1.998e+00   5.243e+00  10  sdss  6373  82N  2 
    0  54000.299069  1  21.226  0.059  0.060  0.080   1.152e+01   6.279e-01   6.393e-01   8.559e-01  17  sdss  6383  82N  2 
    0  54000.295752  2  21.443  0.104  0.089  0.089   9.547e+00   9.118e-01   7.818e-01   7.799e-01  19  sdss  6383  82N  2 
    0  54000.296581  3  21.322  0.130  0.068  0.073   1.053e+01   1.253e+00   6.625e-01   7.046e-01  19  sdss  6383  82N  2 
   32  54000.298240  4  22.056  0.710  0.470  0.536   4.123e+00   4.366e+00   2.874e+00   3.277e+00  19  sdss  6383  82N  2 
    8  54000.297411  0  21.162  0.156  0.149  0.413   1.324e+01   1.876e+00   1.804e+00   4.995e+00  10  sdss  6383  82N  2 
 1156  54006.245679  1  20.923  0.100  0.088  0.074   1.523e+01   1.404e+00   1.244e+00   1.047e+00  17  sdss  6409  82N  2 
    0  54006.242361  2  21.127  0.094  0.080  0.091   1.279e+01   1.100e+00   9.339e-01   1.065e+00  19  sdss  6409  82N  2 
    0  54006.243191  3  21.167  0.120  0.083  0.072   1.216e+01   1.333e+00   9.260e-01   7.999e-01  19  sdss  6409  82N  2 
 1156  54006.244849  4  21.224  0.665  0.802  0.445   1.105e+01   6.801e+00   8.841e+00   4.898e+00  19  sdss  6409  82N  2 
 1166  54006.244020  0  21.141  0.264  0.370  0.790   1.350e+01   3.195e+00   4.561e+00   9.747e+00  10  sdss  6409  82N  2 
    0  54007.348964  1  21.040  0.045  0.025  0.036   1.367e+01   5.739e-01   3.185e-01   4.525e-01  17  sdss  6414  82N  2 
    0  54007.345647  2  21.067  0.066  0.031  0.034   1.351e+01   8.228e-01   3.831e-01   4.252e-01  19  sdss  6414  82N  2 
    0  54007.346476  3  21.021  0.089  0.038  0.028   1.391e+01   1.127e+00   4.843e-01   3.575e-01  19  sdss  6414  82N  2 
    0  54007.348135  4  20.669  0.213  0.079  0.100   1.906e+01   3.734e+00   1.402e+00   1.782e+00  19  sdss  6414  82N  2 
    0  54007.347306  0  21.160  0.149  0.021  0.237   1.326e+01   1.795e+00   2.590e-01   2.874e+00  10  sdss  6414  82N  2 
    0  54009.272967  1  20.965  0.050  0.039  0.050   1.465e+01   6.823e-01   5.292e-01   6.814e-01  17  sdss  6421  82N  2 
    0  54009.269650  2  20.978  0.063  0.031  0.037   1.467e+01   8.450e-01   4.113e-01   4.975e-01  19  sdss  6421  82N  2 
    0  54009.270479  3  20.956  0.089  0.052  0.044   1.478e+01   1.195e+00   7.050e-01   5.941e-01  19  sdss  6421  82N  2 
    0  54009.272137  4  21.090  0.304  0.208  0.207   1.266e+01   3.678e+00   2.569e+00   2.554e+00  19  sdss  6421  82N  2 
    0  54009.271308  0  21.063  0.149  0.049  0.317   1.450e+01   1.965e+00   6.443e-01   4.195e+00  10  sdss  6421  82N  2 
    1  54011.337482  1  20.954  0.071  0.032  0.033   1.480e+01   9.746e-01   4.361e-01   4.487e-01  17  sdss  6430  82N  2 
    1  54011.334165  2  20.909  0.067  0.020  0.020   1.563e+01   9.640e-01   2.804e-01   2.917e-01  19  sdss  6430  82N  2 
    0  54011.334994  3  21.075  0.099  0.034  0.023   1.324e+01   1.194e+00   4.132e-01   2.818e-01  19  sdss  6430  82N  2 
    0  54011.336653  4  21.811  0.544  0.078  0.246   5.755e+00   3.786e+00   5.521e-01   1.743e+00  19  sdss  6430  82N  2 
    1  54011.335824  0  21.195  0.191  0.073  0.210   1.285e+01   2.219e+00   8.506e-01   2.467e+00  10  sdss  6430  82N  2 
    1  54019.287447  1  20.929  0.064  0.017  0.030   1.514e+01   8.900e-01   2.418e-01   4.197e-01  17  sdss  6441  82N  2 
 1177  54019.284131  2  20.770  0.075  0.843  0.021   1.778e+01   1.220e+00   1.375e+01   3.384e-01  19  sdss  6441  82N  2 
 1048  54019.284960  3  20.867  0.090  0.627  0.026   1.605e+01   1.323e+00   9.203e+00   3.779e-01  19  sdss  6441  82N  2 
    0  54019.286618  4  20.802  0.224  0.089  0.106   1.678e+01   3.496e+00   1.403e+00   1.677e+00  19  sdss  6441  82N  2 
    1  54019.285789  0  21.305  0.239  0.092  0.286   1.160e+01   2.500e+00   9.708e-01   3.034e+00  10  sdss  6441  82N  2 
    1  54021.341042  1  20.956  0.051  0.021  0.026   1.477e+01   6.986e-01   2.810e-01   3.573e-01  17  sdss  6450  82N  2 
    0  54021.337725  2  20.897  0.059  0.009  0.023   1.580e+01   8.518e-01   1.345e-01   3.345e-01  19  sdss  6450  82N  2 
    0  54021.338555  3  20.914  0.079  0.023  0.021   1.537e+01   1.104e+00   3.257e-01   2.898e-01  19  sdss  6450  82N  2 
    0  54021.340213  4  20.707  0.193  0.091  0.083   1.838e+01   3.279e+00   1.561e+00   1.423e+00  19  sdss  6450  82N  2 
  137  54021.339384  0  21.565  0.259  0.319  0.294   9.119e+00   2.125e+00   2.664e+00   2.460e+00  10  sdss  6450  82N  2 
    0  54025.336123  1  20.895  0.049  0.049  0.067   1.562e+01   7.044e-01   7.004e-01   9.731e-01  17  sdss  6461  82N  2 
    0  54025.332806  2  20.879  0.069  0.056  0.054   1.607e+01   1.022e+00   8.248e-01   7.922e-01  19  sdss  6461  82N  2 
    0  54025.333636  3  20.941  0.101  0.084  0.057   1.499e+01   1.378e+00   1.158e+00   7.834e-01  19  sdss  6461  82N  2 
    0  54025.335294  4  20.512  0.245  0.139  0.171   2.214e+01   4.928e+00   2.825e+00   3.494e+00  19  sdss  6461  82N  2 
  136  54025.334465  0  21.177  0.195  0.151  0.522   1.306e+01   2.305e+00   1.803e+00   6.231e+00  10  sdss  6461  82N  2 
    0  54029.266019  1  21.095  0.063  0.040  0.087   1.300e+01   7.504e-01   4.763e-01   1.039e+00  17  sdss  6474  82N  2 
  128  54029.262702  2  20.900  0.091  0.078  0.080   1.576e+01   1.318e+00   1.130e+00   1.151e+00  19  sdss  6474  82N  2 
    0  54029.263531  3  20.776  0.094  0.049  0.051   1.746e+01   1.495e+00   7.771e-01   8.085e-01  19  sdss  6474  82N  2 
    0  54029.265190  4  21.065  0.504  0.313  0.371   1.296e+01   6.026e+00   3.936e+00   4.662e+00  19  sdss  6474  82N  2 
 1152  54029.264360  0  21.187  0.199  0.068  0.535   1.294e+01   2.330e+00   8.077e-01   6.323e+00  10  sdss  6474  82N  2 
    0  54031.252995  1  21.026  0.043  0.020  0.030   1.384e+01   5.479e-01   2.501e-01   3.852e-01  17  sdss  6484  82N  2 
    0  54031.249678  2  20.885  0.057  0.023  0.024   1.599e+01   8.345e-01   3.402e-01   3.468e-01  19  sdss  6484  82N  2 
    0  54031.250507  3  20.805  0.075  0.015  0.021   1.700e+01   1.163e+00   2.348e-01   3.249e-01  19  sdss  6484  82N  2 
    0  54031.252165  4  20.560  0.212  0.098  0.093   2.115e+01   4.094e+00   1.912e+00   1.816e+00  19  sdss  6484  82N  2 
    0  54031.251336  0  21.308  0.168  0.008  0.231   1.157e+01   1.763e+00   8.829e-02   2.441e+00  10  sdss  6484  82N  2 
    0  54036.257524  1  21.112  0.066  0.063  0.113   1.280e+01   7.835e-01   7.497e-01   1.330e+00  17  sdss  6504  82N  2 
    0  54036.254207  2  20.891  0.084  0.083  0.098   1.590e+01   1.220e+00   1.210e+00   1.428e+00  19  sdss  6504  82N  2 
    0  54036.255037  3  20.663  0.085  0.073  0.069   1.938e+01   1.503e+00   1.294e+00   1.227e+00  19  sdss  6504  82N  2 
    0  54036.256695  4  20.436  0.240  0.276  0.240   2.379e+01   5.166e+00   6.032e+00   5.249e+00  19  sdss  6504  82N  2 
  130  54036.255866  0  21.838  0.382  0.129  1.333   7.076e+00   2.394e+00   8.378e-01   8.686e+00  10  sdss  6504  82N  2 
    1  54039.255264  1  21.137  0.081  0.031  0.039   1.250e+01   9.390e-01   3.587e-01   4.530e-01  17  sdss  6513  82N  2 
    1  54039.251947  2  20.881  0.069  0.028  0.024   1.605e+01   1.007e+00   4.113e-01   3.552e-01  19  sdss  6513  82N  2 
    0  54039.252776  3  20.790  0.079  0.041  0.023   1.723e+01   1.237e+00   6.400e-01   3.609e-01  19  sdss  6513  82N  2 
    0  54039.254435  4  20.541  0.188  0.091  0.092   2.153e+01   3.694e+00   1.799e+00   1.820e+00  19  sdss  6513  82N  2 
    1  54039.253606  0  21.991  0.445  0.080  0.492   6.135e+00   2.396e+00   4.557e-01   2.789e+00  10  sdss  6513  82N  2 
    1  54048.249672  1  21.299  0.100  0.037  0.052   1.077e+01   9.930e-01   3.694e-01   5.140e-01  17  sdss  6533  82N  2 
    1  54048.246356  2  21.055  0.075  0.022  0.028   1.366e+01   9.409e-01   2.748e-01   3.488e-01  19  sdss  6533  82N  2 
    0  54048.247185  3  20.870  0.082  0.032  0.023   1.601e+01   1.192e+00   4.714e-01   3.356e-01  19  sdss  6533  82N  2 
    0  54048.248843  4  21.364  0.364  0.155  0.185   9.556e+00   3.500e+00   1.527e+00   1.823e+00  19  sdss  6533  82N  2 
    1  54048.248014  0  22.496  0.883  0.090  0.815   3.808e+00   2.701e+00   3.253e-01   2.936e+00  10  sdss  6533  82N  2 
    2  54052.253223  1  21.306  0.091  0.160  0.230   1.070e+01   8.950e-01   1.579e+00   2.279e+00  17  sdss  6552  82N  2 
    2  54052.249906  2  20.964  0.101  0.118  0.137   1.486e+01   1.380e+00   1.603e+00   1.867e+00  19  sdss  6552  82N  2 
    2  54052.250735  3  20.871  0.135  0.214  0.135   1.599e+01   1.963e+00   3.128e+00   1.977e+00  19  sdss  6552  82N  2 
   34  54052.252394  4  20.632  0.470  0.644  0.557   1.975e+01   8.164e+00   1.179e+01   1.020e+01  19  sdss  6552  82N  2 
    2  54054.271764  1  21.339  0.096  0.108  0.219   1.037e+01   9.165e-01   1.034e+00   2.099e+00  17  sdss  6559  82N  2 
    2  54054.268448  2  21.025  0.111  0.044  0.154   1.405e+01   1.423e+00   5.620e-01   1.988e+00  19  sdss  6559  82N  2 
    2  54054.269277  3  20.993  0.139  0.149  0.154   1.429e+01   1.808e+00   1.950e+00   2.012e+00  19  sdss  6559  82N  2 
    2  54054.270935  4  20.322  0.255  0.281  0.290   2.648e+01   6.069e+00   6.787e+00   7.024e+00  19  sdss  6559  82N  2 
    2  54054.270106  0  21.530  0.364  0.126  1.338   9.419e+00   3.035e+00   1.089e+00   1.155e+01  10  sdss  6559  82N  2 
    0  54055.249414  1  21.336  0.064  0.033  0.066   1.040e+01   6.172e-01   3.217e-01   6.358e-01  17  sdss  6564  82N  2 
    0  54055.246098  2  21.048  0.068  0.031  0.040   1.375e+01   8.518e-01   3.878e-01   5.079e-01  19  sdss  6564  82N  2 
    0  54055.246927  3  20.811  0.077  0.054  0.036   1.691e+01   1.192e+00   8.353e-01   5.600e-01  19  sdss  6564  82N  2 
    0  54055.248585  4  20.653  0.209  0.041  0.134   1.936e+01   3.727e+00   7.460e-01   2.404e+00  19  sdss  6564  82N  2 
    0  54055.247756  0  21.957  0.332  0.036  0.618   6.332e+00   1.885e+00   2.115e-01   3.611e+00  10  sdss  6564  82N  2 
    0  54058.247524  1  21.475  0.078  0.051  0.101   9.152e+00   6.579e-01   4.329e-01   8.577e-01  17  sdss  6577  82N  2 
    0  54058.244208  2  20.998  0.073  0.045  0.048   1.440e+01   9.656e-01   5.974e-01   6.358e-01  19  sdss  6577  82N  2 
    0  54058.245037  3  20.989  0.103  0.097  0.052   1.434e+01   1.342e+00   1.268e+00   6.772e-01  19  sdss  6577  82N  2 
    0  54058.246695  4  20.883  0.330  0.067  0.221   1.552e+01   4.730e+00   9.800e-01   3.254e+00  19  sdss  6577  82N  2 
   32  54058.245866  0  24.260  1.526  0.247  4.690   4.017e-01   2.046e+00   2.561e-01   4.856e+00  10  sdss  6577  82N  2 
    0  54060.269025  1  21.285  0.062  0.038  0.063   1.091e+01   6.212e-01   3.878e-01   6.335e-01  17  sdss  6584  82N  2 
    0  54060.265708  2  21.092  0.075  0.034  0.047   1.320e+01   9.088e-01   4.066e-01   5.684e-01  19  sdss  6584  82N  2 
    0  54060.266537  3  21.038  0.099  0.060  0.043   1.370e+01   1.241e+00   7.578e-01   5.402e-01  19  sdss  6584  82N  2 
    0  54060.268195  4  20.690  0.260  0.128  0.159   1.868e+01   4.457e+00   2.225e+00   2.763e+00  19  sdss  6584  82N  2 
    0  54060.267366  0  22.771  0.842  0.083  1.524   2.919e+00   2.080e+00   2.336e-01   4.310e+00  10  sdss  6584  82N  2 
    0  54063.237786  1  21.499  0.072  0.038  0.071   8.951e+00   5.914e-01   3.173e-01   5.895e-01  17  sdss  6600  82N  2 
    0  54063.234470  2  21.172  0.086  0.048  0.052   1.227e+01   9.680e-01   5.454e-01   5.818e-01  19  sdss  6600  82N  2 
    0  54063.235299  3  20.775  0.102  0.053  0.036   1.747e+01   1.629e+00   8.510e-01   5.814e-01  19  sdss  6600  82N  2 
    0  54063.236957  4  20.823  0.315  0.161  0.139   1.644e+01   4.773e+00   2.497e+00   2.149e+00  19  sdss  6600  82N  2 
    0  54063.236128  0  23.363  1.195  0.199  2.413   1.588e+00   1.887e+00   3.466e-01   4.201e+00  10  sdss  6600  82N  2 
