# SDSS CID:   8910 IAU: 2007kb   RA: 313.126160 DEC:   0.364989  (J2000)
# GALAXY_SB [ugriz] = [ 22.69 20.33 18.90 17.53 16.75 ] +/- [  0.00  0.00  0.00  0.00  0.00 ] (asinh mag/square arcsec)
# GALAXY_SB_FLUX [ugriz] = [  3.076E+00  2.624E+01  9.934E+01  3.479E+02  7.146E+02 ] +/- [  0.000E+00  0.000E+00  0.000E+00  0.000E+00  0.000E+00 ] (microJy per square arcsec)
#FLAG  MJD       FILT  MAG     MERR  MSKYERR MGALERR  FLUX       FLUXERR    SKYERR     GALERR    NPRE TELE   RUN  STRIP  IDCCD
  288  53623.174786  1  24.944  1.013  0.238  0.000   1.027e-01   6.905e-01   1.418e-01   0.000e+00  10  sdss  5590  82N  4 
  256  53623.171469  2  27.739  0.220  0.032  0.000  -6.459e+00   1.301e+00   1.909e-01   0.000e+00  11  sdss  5590  82N  4 
  256  53623.172298  3  28.781  0.062  0.008  0.000  -3.764e+01   2.150e+00   2.830e-01   0.000e+00  14  sdss  5590  82N  4 
  256  53623.173956  4  25.961  0.203  0.038  0.000  -4.705e+01   8.649e+00   1.623e+00   0.000e+00  13  sdss  5590  82N  4 
  260  53623.173127  0  24.324  1.247  0.115  0.000   3.363e-01   1.515e+00   1.165e-01   0.000e+00  7  sdss  5590  82N  4 
  257  53626.160999  1  27.017  0.621  0.190  0.000  -1.782e+00   9.971e-01   3.313e-01   0.000e+00  10  sdss  5603  82N  4 
  289  53626.157682  2  22.468  0.518  0.135  0.000   3.672e+00   1.681e+00   4.695e-01   0.000e+00  11  sdss  5603  82N  4 
  256  53626.158511  3  28.244  0.120  0.017  0.000  -2.294e+01   2.534e+00   3.540e-01   0.000e+00  14  sdss  5603  82N  4 
  288  53626.160170  4  19.237  0.153  0.027  0.000   7.254e+01   1.004e+01   1.803e+00   0.000e+00  13  sdss  5603  82N  4 
  257  53626.159340  0  25.632  1.562  0.255  0.000  -1.065e+00   2.292e+00   3.483e-01   0.000e+00  7  sdss  5603  82N  4 
  289  53628.145876  1  23.559  1.485  0.326  0.000   1.268e+00   1.616e+00   4.255e-01   0.000e+00  10  sdss  5610  82N  4 
  289  53628.142559  2  21.363  0.222  0.075  0.000   1.028e+01   2.073e+00   7.138e-01   0.000e+00  11  sdss  5610  82N  4 
  257  53628.143388  3  27.750  0.227  0.063  0.000  -1.454e+01   3.008e+00   8.514e-01   0.000e+00  14  sdss  5610  82N  4 
  256  53628.145047  4  25.835  0.240  0.107  0.000  -4.186e+01   9.064e+00   4.129e+00   0.000e+00  13  sdss  5610  82N  4 
  257  53628.144217  0  24.891  2.217  0.450  0.000  -2.198e-01   3.990e+00   4.448e-01   0.000e+00  7  sdss  5610  82N  4 
  269  53635.153820  1  27.438  0.383  0.336  0.000  -2.670e+00   9.322e-01   8.485e-01   0.000e+00  10  sdss  5622  82N  4 
  256  53635.150503  2  27.957  0.174  0.041  0.000  -7.908e+00   1.262e+00   2.969e-01   0.000e+00  11  sdss  5622  82N  4 
  280  53635.151332  3  28.169  0.119  0.124  0.000  -2.141e+01   2.330e+00   2.447e+00   0.000e+00  14  sdss  5622  82N  4 
  260  53635.152990  4  23.577  1.620  0.448  0.000  -3.923e+00   1.172e+01   2.706e+00   0.000e+00  13  sdss  5622  82N  4 
  268  53635.152161  0  23.565  1.197  0.376  0.000   1.258e+00   1.722e+00   5.613e-01   0.000e+00  7  sdss  5622  82N  4 
  256  53637.146620  1  26.988  0.473  0.318  0.000  -1.732e+00   7.639e-01   5.395e-01   0.000e+00  10  sdss  5633  82N  4 
  288  53637.143303  2  21.888  0.258  0.091  0.000   6.324e+00   1.486e+00   5.349e-01   0.000e+00  11  sdss  5633  82N  4 
  288  53637.144132  3  20.830  0.177  0.022  0.000   1.660e+01   2.680e+00   3.303e-01   0.000e+00  14  sdss  5633  82N  4 
  256  53637.145791  4  26.044  0.190  0.055  0.000  -5.081e+01   8.755e+00   2.560e+00   0.000e+00  13  sdss  5633  82N  4 
  300  53637.144962  0  24.501  1.530  1.624  0.000   1.600e-01   2.028e+00   1.591e+00   0.000e+00  7  sdss  5633  82N  4 
  256  53644.138775  1  26.342  0.645  0.259  0.000  -8.830e-01   6.188e-01   2.602e-01   0.000e+00  10  sdss  5670  82N  4 
  256  53644.135458  2  27.393  0.314  0.039  0.000  -4.678e+00   1.337e+00   1.706e-01   0.000e+00  11  sdss  5670  82N  4 
  256  53644.136288  3  28.303  0.122  0.015  0.000  -2.422e+01   2.703e+00   3.443e-01   0.000e+00  14  sdss  5670  82N  4 
  288  53644.137946  4  19.099  0.125  0.010  0.000   8.239e+01   9.353e+00   7.453e-01   0.000e+00  13  sdss  5670  82N  4 
  256  53644.137117  0  23.506  1.086  0.168  0.000   1.350e+00   1.597e+00   2.621e-01   0.000e+00  7  sdss  5670  82N  4 
 1446  53649.132968  1  21.892  0.676  0.721  0.000   6.221e+00   3.458e+00   4.141e+00   0.000e+00  10  sdss  5702  82N  4 
 1468  53649.129651  2  21.239  0.615  1.900  0.000   1.154e+01   5.916e+00   2.018e+01   0.000e+00  11  sdss  5702  82N  4 
 1318  53649.130480  3  21.495  2.823  1.643  0.000   8.966e+00   1.235e+01   1.368e+01   0.000e+00  14  sdss  5702  82N  4 
 1286  53649.132139  4  23.369  2.715  2.576  0.000  -2.721e+00   3.216e+01   1.409e+01   0.000e+00  13  sdss  5702  82N  4 
 1414  53649.131309  0  27.562  3.143  0.611  0.000  -7.541e+00   1.201e+01   4.208e+00   0.000e+00  7  sdss  5702  82N  4 
  257  53654.172709  1  26.403  0.980  0.326  0.000  -9.456e-01   9.447e-01   3.423e-01   0.000e+00  10  sdss  5709  82N  4 
  257  53654.169393  2  28.371  0.122  0.040  0.000  -1.160e+01   1.301e+00   4.265e-01   0.000e+00  11  sdss  5709  82N  4 
  256  53654.170222  3  28.630  0.093  0.013  0.000  -3.275e+01   2.785e+00   3.825e-01   0.000e+00  14  sdss  5709  82N  4 
  256  53654.171880  4  25.858  0.207  0.015  0.000  -4.277e+01   8.023e+00   5.771e-01   0.000e+00  13  sdss  5709  82N  4 
  257  53654.171051  0  26.006  1.277  0.174  0.000  -1.655e+00   2.046e+00   3.102e-01   0.000e+00  7  sdss  5709  82N  4 
  257  53656.119843  1  27.560  0.715  0.208  0.000  -2.997e+00   1.785e+00   5.857e-01   0.000e+00  10  sdss  5719  82N  4 
  289  53656.116526  2  21.732  0.318  0.110  0.000   7.309e+00   2.090e+00   7.460e-01   0.000e+00  11  sdss  5719  82N  4 
  289  53656.117355  3  21.300  0.422  0.111  0.000   1.075e+01   4.003e+00   1.109e+00   0.000e+00  14  sdss  5719  82N  4 
  256  53656.119014  4  25.606  0.334  0.221  0.000  -3.387e+01   1.013e+01   6.895e+00   0.000e+00  13  sdss  5719  82N  4 
  257  53656.118184  0  23.041  2.074  0.295  0.000   2.229e+00   4.057e+00   6.605e-01   0.000e+00  7  sdss  5719  82N  4 
  256  53668.121849  1  25.902  1.031  1.021  0.000  -5.029e-01   7.949e-01   7.640e-01   0.000e+00  10  sdss  5770  82N  4 
  288  53668.118532  2  24.563  1.476  1.000  0.000   1.923e-01   1.586e+00   8.183e-01   0.000e+00  11  sdss  5770  82N  4 
  256  53668.119361  3  28.229  0.132  0.052  0.000  -2.262e+01   2.740e+00   1.076e+00   0.000e+00  14  sdss  5770  82N  4 
  256  53668.121019  4  26.291  0.171  0.019  0.000  -6.386e+01   9.916e+00   1.097e+00   0.000e+00  13  sdss  5770  82N  4 
  288  53668.120190  0  23.865  1.586  0.304  0.000   8.480e-01   2.271e+00   3.764e-01   0.000e+00  7  sdss  5770  82N  4 
  288  53670.126292  1  23.900  0.818  0.532  0.000   8.777e-01   7.682e-01   5.320e-01   0.000e+00  10  sdss  5781  82N  4 
  288  53670.122976  2  22.824  0.576  0.216  0.000   2.612e+00   1.354e+00   5.454e-01   0.000e+00  11  sdss  5781  82N  4 
  256  53670.123805  3  28.250  0.118  0.020  0.000  -2.307e+01   2.487e+00   4.211e-01   0.000e+00  14  sdss  5781  82N  4 
  256  53670.125463  4  25.949  0.203  0.035  0.000  -4.653e+01   8.559e+00   1.478e+00   0.000e+00  13  sdss  5781  82N  4 
  296  53670.124634  0  24.552  1.383  1.091  0.000   1.103e-01   1.736e+00   1.063e+00   0.000e+00  7  sdss  5781  82N  4 
  256  53673.094128  1  25.259  1.023  0.589  0.000  -8.321e-02   6.986e-01   3.498e-01   0.000e+00  10  sdss  5792  82N  4 
  256  53673.090812  2  27.238  0.367  0.171  0.000  -4.044e+00   1.347e+00   6.495e-01   0.000e+00  11  sdss  5792  82N  4 
  288  53673.091641  3  23.608  1.582  0.494  0.000   9.663e-01   2.751e+00   7.307e-01   0.000e+00  14  sdss  5792  82N  4 
  256  53673.093299  4  25.608  0.280  0.023  0.000  -3.393e+01   8.580e+00   7.249e-01   0.000e+00  13  sdss  5792  82N  4 
  256  53673.092470  0  25.684  1.222  0.373  0.000  -1.138e+00   1.709e+00   5.271e-01   0.000e+00  7  sdss  5792  82N  4 
  256  53675.090712  1  26.071  0.826  0.456  0.000  -6.363e-01   6.719e-01   3.786e-01   0.000e+00  10  sdss  5800  82N  4 
  288  53675.087395  2  23.237  0.877  0.344  0.000   1.730e+00   1.392e+00   6.112e-01   0.000e+00  11  sdss  5800  82N  4 
  264  53675.088224  3  27.574  0.228  0.152  0.000  -1.235e+01   2.566e+00   1.734e+00   0.000e+00  14  sdss  5800  82N  4 
  256  53675.089883  4  25.693  0.252  0.131  0.000  -3.672e+01   8.381e+00   4.437e+00   0.000e+00  13  sdss  5800  82N  4 
  256  53675.089054  0  26.157  1.138  0.334  0.000  -1.944e+00   1.989e+00   6.714e-01   0.000e+00  7  sdss  5800  82N  4 
  256  53677.111694  1  25.251  0.958  0.640  0.000  -7.845e-02   6.425e-01   3.797e-01   0.000e+00  10  sdss  5813  82N  4 
  256  53677.108377  2  26.779  0.590  0.126  0.000  -2.609e+00   1.381e+00   3.189e-01   0.000e+00  11  sdss  5813  82N  4 
  256  53677.109206  3  27.814  0.200  0.037  0.000  -1.543e+01   2.821e+00   5.278e-01   0.000e+00  14  sdss  5813  82N  4 
  256  53677.110865  4  26.552  0.100  0.033  0.000  -8.127e+01   7.425e+00   2.456e+00   0.000e+00  13  sdss  5813  82N  4 
  256  53677.110035  0  25.515  1.228  0.188  0.000  -9.101e-01   1.631e+00   2.393e-01   0.000e+00  7  sdss  5813  82N  4 
  256  53680.097910  1  27.568  0.219  0.049  0.000  -3.019e+00   6.121e-01   1.389e-01   0.000e+00  10  sdss  5823  82N  4 
  256  53680.094593  2  28.190  0.138  0.020  0.000  -9.811e+00   1.240e+00   1.783e-01   0.000e+00  11  sdss  5823  82N  4 
  256  53680.095422  3  27.209  0.307  0.040  0.000  -8.803e+00   2.452e+00   3.276e-01   0.000e+00  14  sdss  5823  82N  4 
  256  53680.097081  4  25.598  0.253  0.016  0.000  -3.361e+01   7.691e+00   4.941e-01   0.000e+00  13  sdss  5823  82N  4 
  264  53680.096252  0  24.159  1.171  0.692  0.000   5.093e-01   1.424e+00   7.427e-01   0.000e+00  7  sdss  5823  82N  4 
  257  53686.152808  1  27.709  0.647  0.185  0.000  -3.447e+00   1.882e+00   5.967e-01   0.000e+00  10  sdss  5864  82N  4 
  289  53686.149492  2  21.428  0.247  0.106  0.000   9.685e+00   2.168e+00   9.451e-01   0.000e+00  11  sdss  5864  82N  4 
  257  53686.150321  3  25.181  1.707  0.956  0.000  -1.065e+00   3.120e+00   1.470e+00   0.000e+00  14  sdss  5864  82N  4 
  256  53686.151979  4  26.154  0.199  0.040  0.000  -5.626e+01   1.015e+01   2.040e+00   0.000e+00  13  sdss  5864  82N  4 
  257  53686.151150  0  27.221  1.821  0.170  0.000  -5.485e+00   5.712e+00   8.577e-01   0.000e+00  7  sdss  5864  82N  4 
  257  53693.098928  1  26.585  1.053  0.796  0.000  -1.152e+00   1.123e+00   9.643e-01   0.000e+00  10  sdss  5878  82N  4 
  256  53693.095612  2  27.002  0.571  0.273  0.000  -3.234e+00   1.625e+00   8.400e-01   0.000e+00  11  sdss  5878  82N  4 
  384  53693.096441  3  28.736  0.093  0.044  0.000  -3.610e+01   3.076e+00   1.469e+00   0.000e+00  14  sdss  5878  82N  4 
  256  53693.098099  4  25.496  0.303  0.131  0.000  -3.056e+01   8.340e+00   3.707e+00   0.000e+00  13  sdss  5878  82N  4 
  264  53693.097270  0  27.129  0.524  0.325  0.000  -5.030e+00   2.276e+00   1.514e+00   0.000e+00  7  sdss  5878  82N  4 
  256  53698.095862  1  27.213  0.346  0.148  0.000  -2.155e+00   6.946e-01   3.063e-01   0.000e+00  10  sdss  5898  82N  4 
  256  53698.092545  2  28.329  0.141  0.074  0.000  -1.115e+01   1.440e+00   7.579e-01   0.000e+00  11  sdss  5898  82N  4 
  256  53698.093374  3  28.426  0.119  0.022  0.000  -2.713e+01   2.972e+00   5.414e-01   0.000e+00  14  sdss  5898  82N  4 
  256  53698.095033  4  24.318  0.902  0.225  0.000  -9.725e+00   8.185e+00   2.276e+00   0.000e+00  13  sdss  5898  82N  4 
  268  53698.094204  0  25.823  1.181  0.969  0.000  -1.347e+00   1.740e+00   1.509e+00   0.000e+00  7  sdss  5898  82N  4 
  256  53699.118840  1  27.523  0.334  0.288  0.000  -2.894e+00   8.850e-01   7.842e-01   0.000e+00  10  sdss  5902  82N  4 
  256  53699.115523  2  27.986  0.173  0.055  0.000  -8.122e+00   1.290e+00   4.117e-01   0.000e+00  11  sdss  5902  82N  4 
  256  53699.116352  3  28.394  0.119  0.023  0.000  -2.635e+01   2.869e+00   5.611e-01   0.000e+00  14  sdss  5902  82N  4 
 1420  53699.118011  4  26.186  0.194  0.124  0.000  -5.795e+01   1.018e+01   6.562e+00   0.000e+00  13  sdss  5902  82N  4 
  256  53699.117181  0  25.838  1.294  0.476  0.000  -1.370e+00   1.930e+00   7.480e-01   0.000e+00  7  sdss  5902  82N  4 
  386  53702.093428  1  26.702  0.918  1.370  0.000  -1.300e+00   1.080e+00   1.825e+00   0.000e+00  10  sdss  5909  82N  4 
  258  53702.090111  2  26.022  1.436  0.839  0.000  -1.193e+00   1.830e+00   1.137e+00   0.000e+00  11  sdss  5909  82N  4 
  258  53702.090941  3  27.904  0.201  0.204  0.000  -1.676e+01   3.072e+00   3.156e+00   0.000e+00  14  sdss  5909  82N  4 
  258  53702.092599  4  26.101  0.231  0.136  0.000  -5.357e+01   1.113e+01   6.666e+00   0.000e+00  13  sdss  5909  82N  4 
  258  53702.091770  0  22.012  0.624  0.145  0.000   6.014e+00   3.129e+00   8.010e-01   0.000e+00  7  sdss  5909  82N  4 
  290  53703.102722  1  22.454  0.380  0.610  0.000   3.689e+00   1.260e+00   2.097e+00   0.000e+00  10  sdss  5915  82N  4 
  386  53703.099406  2  26.521  0.969  0.688  0.000  -2.023e+00   1.685e+00   1.393e+00   0.000e+00  11  sdss  5915  82N  4 
  258  53703.100235  3  28.435  0.120  0.030  0.000  -2.736e+01   3.019e+00   7.528e-01   0.000e+00  14  sdss  5915  82N  4 
  258  53703.101893  4  25.889  0.289  0.183  0.000  -4.401e+01   1.141e+01   7.374e+00   0.000e+00  13  sdss  5915  82N  4 
  264  53703.101064  0  21.538  0.500  0.347  0.000   9.349e+00   3.983e+00   2.957e+00   0.000e+00  7  sdss  5915  82N  4 
  256  53704.081202  1  26.734  0.558  0.234  0.000  -1.344e+00   7.218e-01   3.204e-01   0.000e+00  10  sdss  5918  82N  4 
  256  53704.077885  2  27.387  0.292  0.096  0.000  -4.651e+00   1.240e+00   4.160e-01   0.000e+00  11  sdss  5918  82N  4 
  256  53704.078714  3  28.383  0.104  0.021  0.000  -2.608e+01   2.480e+00   5.096e-01   0.000e+00  14  sdss  5918  82N  4 
  256  53704.080373  4  26.079  0.166  0.052  0.000  -5.249e+01   7.903e+00   2.481e+00   0.000e+00  13  sdss  5918  82N  4 
  288  53704.079543  0  24.657  1.402  0.491  0.000   8.561e-03   1.769e+00   4.756e-01   0.000e+00  7  sdss  5918  82N  4 
