# SDSS CID:   3882 IAU:          RA:   5.116168 DEC:   0.182133  (J2000)
# GALAXY_SB [ugriz] = [ 22.47 21.70 20.95 20.52 20.30 ] +/- [  0.09  0.02  0.01  0.01  0.03 ] (asinh mag/square arcsec)
# GALAXY_SB_FLUX [ugriz] = [  3.789E+00  7.397E+00  1.504E+01  2.215E+01  2.695E+01 ] +/- [  3.317E-01  1.055E-01  1.374E-01  1.869E-01  6.509E-01 ] (microJy per square arcsec)
#FLAG  MJD       FILT  MAG     MERR  MSKYERR MGALERR  FLUX       FLUXERR    SKYERR     GALERR    NPRE TELE   RUN  STRIP  IDCCD
   32  53622.342904  1  22.193  0.155  0.124  0.189   4.705e+00   6.704e-01   5.395e-01   8.197e-01  12  sdss  5582  82S  4 
   32  53622.339587  2  22.278  0.274  0.176  0.282   4.391e+00   1.103e+00   7.250e-01   1.158e+00  12  sdss  5582  82S  4 
   32  53622.340416  3  22.040  0.332  0.145  0.289   5.381e+00   1.639e+00   7.343e-01   1.465e+00  12  sdss  5582  82S  4 
    0  53622.342075  4  22.884  0.946  0.174  0.721  -2.496e-01   5.225e+00   8.483e-01   3.519e+00  10  sdss  5582  82S  4 
   36  53622.341245  0  23.764  1.360  0.409  2.274   9.778e-01   1.875e+00   5.354e-01   2.974e+00  7  sdss  5582  82S  4 
   33  53627.299975  1  24.172  1.290  0.630  0.972   6.304e-01   1.084e+00   5.192e-01   8.008e-01  12  sdss  5607  82S  4 
   32  53627.296658  2  21.970  0.214  0.074  0.126   5.857e+00   1.147e+00   3.994e-01   6.867e-01  12  sdss  5607  82S  4 
   32  53627.297487  3  21.960  0.285  0.133  0.175   5.804e+00   1.521e+00   7.253e-01   9.541e-01  12  sdss  5607  82S  4 
   32  53627.299146  4  21.146  0.417  0.296  0.277   1.196e+01   4.841e+00   3.556e+00   3.333e+00  10  sdss  5607  82S  4 
  161  53627.298316  0  23.521  1.700  0.442  2.063   1.326e+00   2.683e+00   6.781e-01   3.168e+00  7  sdss  5607  82S  4 
   33  53634.292615  1  22.332  0.392  0.141  0.215   4.138e+00   1.440e+00   5.409e-01   8.219e-01  12  sdss  5619  82S  4 
   33  53634.289298  2  22.186  0.384  0.162  0.258   4.788e+00   1.648e+00   7.247e-01   1.154e+00  12  sdss  5619  82S  4 
   32  53634.290127  3  22.127  0.408  0.180  0.296   4.955e+00   1.839e+00   8.460e-01   1.392e+00  12  sdss  5619  82S  4 
    0  53634.291786  4  23.378  0.959  0.890  0.950  -2.770e+00   5.658e+00   4.898e+00   5.229e+00  10  sdss  5619  82S  4 
    1  53634.290957  0  26.957  1.439  0.232  0.896  -4.277e+00   4.061e+00   9.178e-01   3.552e+00  7  sdss  5619  82S  4 
   33  53638.334023  1  22.782  0.250  0.034  0.145   2.713e+00   6.261e-01   8.538e-02   3.696e-01  12  sdss  5637  82S  4 
   32  53638.330706  2  22.411  0.246  0.060  0.108   3.875e+00   8.841e-01   2.186e-01   3.922e-01  12  sdss  5637  82S  4 
   32  53638.331535  3  21.964  0.236  0.036  0.097   5.783e+00   1.264e+00   1.946e-01   5.297e-01  12  sdss  5637  82S  4 
   32  53638.333193  4  21.257  0.367  0.125  0.163   1.068e+01   3.917e+00   1.372e+00   1.785e+00  10  sdss  5637  82S  4 
   33  53638.332364  0  23.812  1.255  0.087  0.939   9.143e-01   1.673e+00   1.108e-01   1.193e+00  7  sdss  5637  82S  4 
   32  53640.298003  1  22.555  0.249  0.081  0.260   3.359e+00   7.642e-01   2.547e-01   8.143e-01  12  sdss  5646  82S  4 
  160  53640.294686  2  22.481  0.365  0.395  0.380   3.626e+00   1.208e+00   1.350e+00   1.302e+00  12  sdss  5646  82S  4 
   32  53640.295515  3  22.420  0.438  0.214  0.380   3.738e+00   1.520e+00   7.746e-01   1.378e+00  12  sdss  5646  82S  4 
   32  53640.297174  4  21.971  0.736  0.102  0.557   4.660e+00   4.744e+00   6.648e-01   3.614e+00  10  sdss  5646  82S  4 
   44  53640.296345  0  22.987  0.995  0.781  1.201   2.356e+00   1.998e+00   1.818e+00   2.795e+00  7  sdss  5646  82S  4 
   33  53655.269777  1  23.460  0.825  0.406  0.692   1.403e+00   1.039e+00   5.732e-01   9.767e-01  12  sdss  5713  82S  4 
   32  53655.266460  2  22.015  0.266  0.174  0.228   5.617e+00   1.361e+00   9.086e-01   1.187e+00  12  sdss  5713  82S  4 
   32  53655.267290  3  22.211  0.407  0.161  0.332   4.573e+00   1.706e+00   7.039e-01   1.445e+00  12  sdss  5713  82S  4 
   32  53655.268948  4  20.926  0.404  0.127  0.323   1.487e+01   5.654e+00   1.839e+00   4.696e+00  10  sdss  5713  82S  4 
   33  53655.268119  0  23.189  1.421  0.589  1.516   1.914e+00   2.421e+00   1.163e+00   2.991e+00  7  sdss  5713  82S  4 
   33  53664.294670  1  22.437  0.338  0.164  0.199   3.752e+00   1.142e+00   5.711e-01   6.915e-01  12  sdss  5754  82S  4 
   57  53664.291353  2  21.746  0.181  0.448  0.087   7.212e+00   1.195e+00   2.990e+00   5.781e-01  12  sdss  5754  82S  4 
   57  53664.292183  3  23.112  0.845  1.968  0.388   1.829e+00   1.622e+00   4.039e+00   7.964e-01  12  sdss  5754  82S  4 
   32  53664.293841  4  21.291  0.491  0.243  0.244   1.031e+01   5.012e+00   2.594e+00   2.604e+00  10  sdss  5754  82S  4 
    1  53664.293012  0  22.390  0.896  0.076  0.495   4.213e+00   2.950e+00   2.971e-01   1.935e+00  7  sdss  5754  82S  4 
   32  53669.253534  1  22.401  0.159  0.073  0.128   3.880e+00   5.682e-01   2.632e-01   4.618e-01  12  sdss  5776  82S  4 
   32  53669.250217  2  22.084  0.179  0.039  0.091   5.267e+00   8.709e-01   1.932e-01   4.451e-01  12  sdss  5776  82S  4 
   32  53669.251046  3  21.884  0.223  0.047  0.098   6.235e+00   1.286e+00   2.744e-01   5.694e-01  12  sdss  5776  82S  4 
   32  53669.252705  4  22.231  0.742  0.336  0.410   3.088e+00   4.316e+00   1.896e+00   2.311e+00  10  sdss  5776  82S  4 
  136  53669.251876  0  22.381  0.399  0.138  0.436   4.250e+00   1.510e+00   5.444e-01   1.719e+00  7  sdss  5776  82S  4 
   32  53671.338126  1  22.407  0.191  0.072  0.200   3.858e+00   6.776e-01   2.581e-01   7.158e-01  12  sdss  5786  82S  4 
   32  53671.334809  2  21.960  0.202  0.096  0.158   5.912e+00   1.097e+00   5.266e-01   8.648e-01  12  sdss  5786  82S  4 
   32  53671.335638  3  22.112  0.317  0.146  0.209   5.026e+00   1.471e+00   6.964e-01   9.926e-01  12  sdss  5786  82S  4 
   32  53671.337297  4  22.022  0.804  0.382  0.552   4.334e+00   5.078e+00   2.403e+00   3.476e+00  10  sdss  5786  82S  4 
    0  53671.336467  0  26.474  1.049  0.162  1.147  -2.682e+00   2.283e+00   4.211e-01   2.979e+00  7  sdss  5786  82S  4 
   32  53674.237309  1  22.541  0.186  0.044  0.158   3.403e+00   5.828e-01   1.397e-01   4.994e-01  12  sdss  5797  82S  4 
   32  53674.233992  2  22.055  0.184  0.040  0.118   5.411e+00   9.152e-01   2.035e-01   5.957e-01  12  sdss  5797  82S  4 
   32  53674.234821  3  21.749  0.204  0.056  0.121   7.077e+00   1.331e+00   3.703e-01   7.985e-01  12  sdss  5797  82S  4 
   32  53674.236480  4  21.643  0.533  0.074  0.338   7.040e+00   4.190e+00   6.036e-01   2.742e+00  10  sdss  5797  82S  4 
   32  53674.235651  0  23.021  0.829  0.061  0.821   2.278e+00   1.681e+00   1.391e-01   1.859e+00  7  sdss  5797  82S  4 
   32  53676.326614  1  22.435  0.179  0.060  0.107   3.759e+00   6.200e-01   2.084e-01   3.721e-01  12  sdss  5807  82S  4 
   32  53676.323297  2  21.821  0.150  0.057  0.077   6.727e+00   9.308e-01   3.528e-01   4.808e-01  12  sdss  5807  82S  4 
   32  53676.324127  3  21.859  0.211  0.042  0.087   6.384e+00   1.245e+00   2.487e-01   5.204e-01  12  sdss  5807  82S  4 
   32  53676.325785  4  21.000  0.289  0.081  0.134   1.383e+01   3.862e+00   1.108e+00   1.831e+00  10  sdss  5807  82S  4 
   32  53676.324956  0  23.779  1.309  0.114  1.304   9.577e-01   1.780e+00   1.476e-01   1.689e+00  7  sdss  5807  82S  4 
   32  53679.298682  1  22.595  0.236  0.176  0.294   3.236e+00   7.023e-01   5.320e-01   8.869e-01  12  sdss  5820  82S  4 
   32  53679.295365  2  22.257  0.282  0.181  0.238   4.480e+00   1.157e+00   7.601e-01   9.976e-01  12  sdss  5820  82S  4 
   32  53679.296194  3  22.109  0.355  0.117  0.273   5.041e+00   1.641e+00   5.596e-01   1.304e+00  12  sdss  5820  82S  4 
   32  53679.297852  4  21.342  0.602  0.418  0.460   9.777e+00   5.805e+00   4.279e+00   4.708e+00  10  sdss  5820  82S  4 
   32  53679.297023  0  22.997  1.012  0.341  1.297   2.331e+00   2.011e+00   7.867e-01   2.994e+00  7  sdss  5820  82S  4 
   32  53681.290024  1  22.454  0.197  0.078  0.161   3.692e+00   6.680e-01   2.671e-01   5.517e-01  12  sdss  5836  82S  4 
   32  53681.286707  2  21.662  0.141  0.036  0.070   7.796e+00   1.010e+00   2.604e-01   5.016e-01  12  sdss  5836  82S  4 
   32  53681.287536  3  21.681  0.205  0.086  0.095   7.542e+00   1.420e+00   6.039e-01   6.663e-01  12  sdss  5836  82S  4 
   36  53681.289195  4  22.270  0.787  0.403  0.400   2.869e+00   4.546e+00   2.234e+00   2.217e+00  10  sdss  5836  82S  4 
   36  53681.288365  0  22.890  0.877  0.081  0.670   2.596e+00   1.939e+00   2.057e-01   1.693e+00  7  sdss  5836  82S  4 
   33  53685.248737  1  22.227  0.456  0.335  0.152   4.558e+00   1.815e+00   1.410e+00   6.378e-01  12  sdss  5853  82S  4 
   33  53685.245420  2  22.660  0.813  0.316  0.278   3.058e+00   2.060e+00   9.227e-01   8.109e-01  12  sdss  5853  82S  4 
   33  53685.246249  3  21.946  0.370  0.171  0.133   5.882e+00   1.971e+00   9.464e-01   7.339e-01  12  sdss  5853  82S  4 
    0  53685.247907  4  22.980  0.961  0.621  0.544  -7.206e-01   5.349e+00   3.057e+00   2.678e+00  10  sdss  5853  82S  4 
 1153  53685.247078  0  24.679  2.246  1.558  2.483  -1.323e-02   4.098e+00   1.510e+00   2.406e+00  7  sdss  5853  82S  4 
   32  53697.245865  1  22.029  0.125  0.072  0.112   5.479e+00   6.298e-01   3.623e-01   5.634e-01  12  sdss  5895  82S  4 
   32  53697.242549  2  21.651  0.136  0.066  0.089   7.876e+00   9.861e-01   4.782e-01   6.469e-01  12  sdss  5895  82S  4 
   32  53697.243378  3  21.818  0.217  0.056  0.125   6.634e+00   1.326e+00   3.475e-01   7.719e-01  12  sdss  5895  82S  4 
   32  53697.245036  4  22.474  0.738  0.067  0.519   1.780e+00   4.020e+00   3.436e-01   2.669e+00  10  sdss  5895  82S  4 
  160  53697.244207  0  23.391  1.170  0.199  1.238   1.539e+00   1.811e+00   3.356e-01   2.090e+00  7  sdss  5895  82S  4 
   32  53700.244505  1  21.968  0.136  0.125  0.181   5.797e+00   7.214e-01   6.659e-01   9.667e-01  12  sdss  5905  82S  4 
   32  53700.241189  2  21.755  0.165  0.091  0.144   7.153e+00   1.080e+00   6.025e-01   9.545e-01  12  sdss  5905  82S  4 
   32  53700.242018  3  21.551  0.213  0.124  0.200   8.514e+00   1.664e+00   9.789e-01   1.582e+00  12  sdss  5905  82S  4 
   32  53700.243676  4  21.488  0.601  0.244  0.442   8.365e+00   5.212e+00   2.220e+00   4.023e+00  10  sdss  5905  82S  4 
    8  53700.242847  0  25.962  1.315  1.309  1.979  -1.577e+00   2.061e+00   2.246e+00   3.397e+00  7  sdss  5905  82S  4 
   32  53705.230510  1  22.311  0.161  0.068  0.152   4.219e+00   6.233e-01   2.636e-01   5.936e-01  12  sdss  5924  82S  4 
   32  53705.227194  2  21.890  0.160  0.064  0.104   6.309e+00   9.302e-01   3.748e-01   6.076e-01  12  sdss  5924  82S  4 
   32  53705.228023  3  21.644  0.180  0.061  0.108   7.808e+00   1.298e+00   4.400e-01   7.830e-01  12  sdss  5924  82S  4 
   32  53705.229681  4  20.818  0.257  0.071  0.174   1.652e+01   4.037e+00   1.127e+00   2.768e+00  10  sdss  5924  82S  4 
    8  53705.228852  0  21.687  0.241  0.136  0.254   8.137e+00   1.746e+00   1.001e+00   1.876e+00  7  sdss  5924  82S  4 
