# SDSS CID:   5597 IAU:          RA: 313.984192 DEC:  -0.076551  (J2000)
# GALAXY_SB [ugriz] = [ 22.64 21.49 20.67 20.24 19.95 ] +/- [  0.12  0.02  0.01  0.01  0.02 ] (asinh mag/square arcsec)
# GALAXY_SB_FLUX [ugriz] = [  3.231E+00  9.003E+00  1.958E+01  2.873E+01  3.743E+01 ] +/- [  3.762E-01  1.415E-01  1.653E-01  1.997E-01  6.867E-01 ] (microJy per square arcsec)
#FLAG  MJD       FILT  MAG     MERR  MSKYERR MGALERR  FLUX       FLUXERR    SKYERR     GALERR    NPRE TELE   RUN  STRIP  IDCCD
   32  53623.177331  1  23.754  0.669  0.242  0.623   1.032e+00   7.028e-01   2.699e-01   6.940e-01  9  sdss  5590  82N  3 
   32  53623.174014  2  23.517  0.700  0.240  0.376   1.283e+00   9.431e-01   3.414e-01   5.358e-01  9  sdss  5590  82N  3 
   32  53623.174843  3  23.846  0.956  0.289  0.495   6.349e-01   1.360e+00   3.814e-01   6.538e-01  13  sdss  5590  82N  3 
   32  53623.176501  4  22.321  0.775  0.402  0.467   2.589e+00   4.406e+00   2.180e+00   2.537e+00  12  sdss  5590  82N  3 
   32  53623.175672  0  24.031  1.281  0.394  1.656   6.505e-01   1.637e+00   4.459e-01   1.874e+00  7  sdss  5590  82N  3 
    1  53626.163546  1  25.922  1.270  0.495  0.625  -5.174e-01   1.022e+00   3.743e-01   4.730e-01  9  sdss  5603  82N  3 
   33  53626.160229  2  22.314  0.305  0.139  0.139   4.246e+00   1.188e+00   5.552e-01   5.556e-01  9  sdss  5603  82N  3 
   32  53626.161058  3  22.635  0.524  0.079  0.193   3.024e+00   1.501e+00   2.377e-01   5.838e-01  13  sdss  5603  82N  3 
   32  53626.162717  4  22.178  0.716  0.213  0.357   3.391e+00   4.234e+00   1.232e+00   2.067e+00  12  sdss  5603  82N  3 
    1  53626.161887  0  26.298  1.175  0.542  0.738  -2.249e+00   2.219e+00   1.215e+00   1.654e+00  7  sdss  5603  82N  3 
    1  53628.148002  1  26.874  1.640  0.381  0.728  -1.547e+00   1.963e+00   5.860e-01   1.119e+00  9  sdss  5610  82N  3 
    1  53628.144685  2  25.955  1.413  0.333  0.834  -1.104e+00   1.756e+00   4.308e-01   1.078e+00  9  sdss  5610  82N  3 
   33  53628.145514  3  23.646  1.287  0.544  0.793   9.102e-01   2.050e+00   7.896e-01   1.151e+00  13  sdss  5610  82N  3 
   32  53628.147173  4  22.197  1.008  0.526  0.753   3.281e+00   6.141e+00   3.018e+00   4.319e+00  12  sdss  5610  82N  3 
    1  53628.146344  0  27.227  0.901  0.145  0.609  -5.518e+00   3.791e+00   7.311e-01   3.078e+00  7  sdss  5610  82N  3 
    1  53635.155949  1  25.768  1.001  0.494  0.671  -4.060e-01   7.373e-01   3.444e-01   4.676e-01  9  sdss  5622  82N  3 
   60  53635.152632  2  23.619  0.985  2.266  0.295   1.143e+00   1.218e+00   2.995e+00   3.896e-01  9  sdss  5622  82N  3 
   44  53635.153461  3  22.871  0.808  0.809  0.163   2.375e+00   1.828e+00   2.011e+00   4.052e-01  13  sdss  5622  82N  3 
   44  53635.155120  4  22.352  0.745  0.570  0.338   2.421e+00   4.183e+00   3.054e+00   1.813e+00  12  sdss  5622  82N  3 
    4  53635.154291  0  26.797  0.562  0.206  0.367  -3.671e+00   1.796e+00   7.074e-01   1.262e+00  7  sdss  5622  82N  3 
   32  53637.149177  1  24.675  1.035  0.426  1.695   2.682e-01   7.330e-01   2.716e-01   1.081e+00  9  sdss  5633  82N  3 
    0  53637.145860  2  25.344  1.113  0.655  1.256  -4.507e-01   1.109e+00   5.899e-01   1.131e+00  9  sdss  5633  82N  3 
   32  53637.146689  3  23.667  1.078  0.512  0.866   8.800e-01   1.639e+00   7.346e-01   1.242e+00  13  sdss  5633  82N  3 
   32  53637.148347  4  22.256  0.967  0.612  0.790   2.946e+00   5.761e+00   3.417e+00   4.407e+00  12  sdss  5633  82N  3 
    0  53637.147518  0  25.141  1.525  1.032  3.423  -4.753e-01   2.055e+00   1.092e+00   3.624e+00  7  sdss  5633  82N  3 
   32  53644.141336  1  23.409  0.431  0.150  0.443   1.477e+00   6.127e-01   2.215e-01   6.550e-01  9  sdss  5670  82N  3 
   32  53644.138019  2  22.606  0.316  0.125  0.225   3.221e+00   9.475e-01   3.846e-01   6.910e-01  9  sdss  5670  82N  3 
   32  53644.138848  3  22.649  0.478  0.095  0.230   2.982e+00   1.364e+00   2.848e-01   6.857e-01  13  sdss  5670  82N  3 
   32  53644.140507  4  21.540  0.528  0.208  0.284   7.908e+00   4.455e+00   1.820e+00   2.485e+00  12  sdss  5670  82N  3 
   32  53644.139678  0  23.888  1.227  0.073  1.693   8.200e-01   1.596e+00   8.926e-02   2.060e+00  7  sdss  5670  82N  3 
   33  53654.174845  1  22.664  0.351  0.115  0.257   3.030e+00   9.656e-01   3.254e-01   7.313e-01  9  sdss  5709  82N  3 
   33  53654.171529  2  21.505  0.141  0.036  0.081   9.017e+00   1.168e+00   2.981e-01   6.760e-01  9  sdss  5709  82N  3 
   32  53654.172358  3  21.502  0.199  0.064  0.092   8.913e+00   1.631e+00   5.286e-01   7.637e-01  13  sdss  5709  82N  3 
   32  53654.174016  4  20.856  0.375  0.258  0.200   1.591e+01   5.606e+00   3.975e+00   3.091e+00  12  sdss  5709  82N  3 
    1  53654.173187  0  25.241  1.562  0.848  1.853  -5.837e-01   2.154e+00   9.343e-01   2.042e+00  7  sdss  5709  82N  3 
    1  53656.122408  1  25.633  1.821  1.061  1.869  -3.145e-01   1.676e+00   6.958e-01   1.226e+00  9  sdss  5719  82N  3 
   33  53656.119091  2  22.760  0.931  0.401  0.700   2.779e+00   2.104e+00   1.073e+00   1.875e+00  9  sdss  5719  82N  3 
   33  53656.119921  3  21.073  0.195  0.105  0.141   1.327e+01   2.366e+00   1.285e+00   1.732e+00  13  sdss  5719  82N  3 
   32  53656.121579  4  20.848  0.427  0.121  0.283   1.604e+01   6.365e+00   1.887e+00   4.391e+00  12  sdss  5719  82N  3 
   33  53656.120750  0  22.336  1.192  0.299  0.858   4.435e+00   3.733e+00   1.226e+00   3.518e+00  7  sdss  5719  82N  3 
   32  53668.124415  1  22.699  0.257  0.113  0.383   2.932e+00   6.961e-01   3.112e-01   1.055e+00  9  sdss  5770  82N  3 
   32  53668.121098  2  22.027  0.256  0.145  0.316   5.554e+00   1.300e+00   7.514e-01   1.637e+00  9  sdss  5770  82N  3 
   32  53668.121928  3  21.762  0.301  0.092  0.262   6.992e+00   1.925e+00   6.043e-01   1.715e+00  13  sdss  5770  82N  3 
    0  53668.123586  4  22.931  1.049  0.705  0.778  -4.797e-01   5.960e+00   3.451e+00   3.810e+00  12  sdss  5770  82N  3 
    0  53668.122757  0  25.084  1.482  0.189  3.912  -4.151e-01   1.957e+00   1.960e-01   4.061e+00  7  sdss  5770  82N  3 
   32  53670.128859  1  22.930  0.323  0.137  0.482   2.355e+00   7.040e-01   3.064e-01   1.080e+00  9  sdss  5781  82N  3 
   32  53670.125541  2  22.257  0.265  0.083  0.239   4.479e+00   1.092e+00   3.474e-01   1.005e+00  9  sdss  5781  82N  3 
   32  53670.126371  3  21.103  0.146  0.066  0.104   1.291e+01   1.727e+00   7.918e-01   1.245e+00  13  sdss  5781  82N  3 
   32  53670.128029  4  21.059  0.465  0.031  0.313   1.304e+01   5.756e+00   3.979e-01   4.054e+00  12  sdss  5781  82N  3 
   32  53670.127200  0  23.860  1.400  0.179  3.120   8.539e-01   1.905e+00   2.217e-01   3.856e+00  7  sdss  5781  82N  3 
   32  53673.096693  1  23.126  0.360  0.070  0.441   1.950e+00   6.576e-01   1.326e-01   8.310e-01  9  sdss  5792  82N  3 
   32  53673.093376  2  22.004  0.201  0.074  0.163   5.674e+00   1.052e+00   3.896e-01   8.619e-01  9  sdss  5792  82N  3 
   32  53673.094205  3  21.533  0.197  0.079  0.123   8.660e+00   1.571e+00   6.396e-01   9.874e-01  13  sdss  5792  82N  3 
    0  53673.095864  4  23.216  0.858  0.320  0.553  -1.910e+00   4.802e+00   1.658e+00   2.868e+00  12  sdss  5792  82N  3 
   40  53673.095034  0  23.023  0.837  0.481  1.256   2.272e+00   1.692e+00   1.088e+00   2.839e+00  7  sdss  5792  82N  3 
   32  53675.093276  1  24.001  0.729  0.392  0.907   7.799e-01   6.490e-01   3.633e-01   8.405e-01  9  sdss  5800  82N  3 
   32  53675.089959  2  22.100  0.251  0.195  0.257   5.188e+00   1.194e+00   9.459e-01   1.245e+00  9  sdss  5800  82N  3 
   40  53675.090788  3  21.469  0.180  0.216  0.113   9.190e+00   1.523e+00   1.846e+00   9.666e-01  13  sdss  5800  82N  3 
   32  53675.092446  4  22.514  0.885  0.511  0.625   1.575e+00   4.929e+00   2.599e+00   3.179e+00  12  sdss  5800  82N  3 
   40  53675.091617  0  24.009  1.267  1.141  2.387   6.762e-01   1.620e+00   1.304e+00   2.730e+00  7  sdss  5800  82N  3 
   32  53677.114259  1  24.085  0.817  0.419  1.205   7.040e-01   6.913e-01   3.658e-01   1.053e+00  9  sdss  5813  82N  3 
   32  53677.110942  2  22.462  0.297  0.109  0.232   3.693e+00   1.014e+00   3.820e-01   8.111e-01  9  sdss  5813  82N  3 
   32  53677.111771  3  21.641  0.197  0.050  0.103   7.829e+00   1.421e+00   3.682e-01   7.512e-01  13  sdss  5813  82N  3 
   32  53677.113430  4  22.521  0.738  0.121  0.399   1.539e+00   3.989e+00   6.168e-01   2.025e+00  12  sdss  5813  82N  3 
    0  53677.112600  0  25.727  1.108  0.113  1.419  -1.200e+00   1.557e+00   1.633e-01   2.058e+00  7  sdss  5813  82N  3 
   32  53680.100472  1  24.379  0.853  0.259  0.866   4.696e-01   6.344e-01   1.892e-01   6.315e-01  9  sdss  5823  82N  3 
   32  53680.097158  2  21.900  0.162  0.034  0.090   6.251e+00   9.358e-01   1.971e-01   5.231e-01  9  sdss  5823  82N  3 
   32  53680.097987  3  21.642  0.182  0.034  0.073   7.822e+00   1.318e+00   2.497e-01   5.356e-01  13  sdss  5823  82N  3 
   32  53680.099643  4  21.653  0.519  0.184  0.265   6.958e+00   4.058e+00   1.482e+00   2.131e+00  12  sdss  5823  82N  3 
    0  53680.098816  0  25.446  1.207  0.077  1.403  -8.233e-01   1.565e+00   9.411e-02   1.710e+00  7  sdss  5823  82N  3 
    1  53686.155369  1  26.084  1.979  0.793  1.694  -6.467e-01   2.021e+00   6.627e-01   1.416e+00  9  sdss  5864  82N  3 
   33  53686.152052  2  22.533  0.690  0.249  0.473   3.452e+00   2.025e+00   8.154e-01   1.550e+00  9  sdss  5864  82N  3 
   33  53686.152881  3  21.861  0.388  0.168  0.251   6.372e+00   2.232e+00   1.005e+00   1.499e+00  13  sdss  5864  82N  3 
   32  53686.154540  4  21.462  0.809  0.065  0.552   8.613e+00   6.948e+00   6.057e-01   5.131e+00  12  sdss  5864  82N  3 
    1  53686.153710  0  21.760  0.910  0.304  0.533   7.603e+00   5.175e+00   2.098e+00   3.680e+00  7  sdss  5864  82N  3 
    1  53693.101058  1  26.627  1.096  0.893  1.121  -1.203e+00   1.192e+00   1.117e+00   1.402e+00  9  sdss  5878  82N  3 
   32  53693.097741  2  22.763  0.554  0.237  0.480   2.771e+00   1.380e+00   6.318e-01   1.282e+00  9  sdss  5878  82N  3 
   32  53693.098570  3  22.149  0.399  0.152  0.285   4.853e+00   1.770e+00   7.021e-01   1.316e+00  13  sdss  5878  82N  3 
   32  53693.100229  4  21.069  0.437  0.110  0.354   1.291e+01   5.385e+00   1.410e+00   4.541e+00  12  sdss  5878  82N  3 
    0  53693.099400  0  25.100  1.727  1.130  4.015  -4.322e-01   2.505e+00   1.180e+00   4.191e+00  7  sdss  5878  82N  3 
    0  53698.097989  1  25.736  0.979  0.587  1.339  -3.838e-01   7.126e-01   4.028e-01   9.184e-01  9  sdss  5898  82N  3 
   32  53698.094672  2  23.823  0.979  0.525  0.687   8.924e-01   1.098e+00   6.014e-01   7.868e-01  9  sdss  5898  82N  3 
   32  53698.095502  3  21.601  0.204  0.077  0.095   8.128e+00   1.524e+00   5.836e-01   7.225e-01  13  sdss  5898  82N  3 
   32  53698.097160  4  21.337  0.526  0.454  0.296   9.837e+00   5.162e+00   4.662e+00   3.038e+00  12  sdss  5898  82N  3 
  168  53698.096331  0  24.147  1.372  1.123  2.334   5.216e-01   1.767e+00   1.209e+00   2.512e+00  7  sdss  5898  82N  3 
    0  53699.121394  1  26.147  0.994  0.269  1.345  -7.007e-01   8.395e-01   2.343e-01   1.173e+00  9  sdss  5902  82N  3 
   56  53699.118077  2  22.465  0.373  1.028  0.305   3.683e+00   1.254e+00   3.580e+00   1.061e+00  9  sdss  5902  82N  3 
   36  53699.118906  3  23.532  1.255  1.047  0.608   1.082e+00   2.043e+00   1.619e+00   9.395e-01  13  sdss  5902  82N  3 
   32  53699.120564  4  21.748  0.855  0.420  0.451   6.218e+00   6.162e+00   3.158e+00   3.388e+00  12  sdss  5902  82N  3 
   12  53699.119735  0  24.984  1.582  2.169  2.766  -3.134e-01   2.152e+00   2.189e+00   2.791e+00  7  sdss  5902  82N  3 
   34  53702.095980  1  22.443  0.286  0.290  0.729   3.727e+00   9.715e-01   1.007e+00   2.529e+00  9  sdss  5909  82N  3 
    0  53702.092663  2  25.633  1.749  1.756  3.212  -7.303e-01   2.190e+00   1.833e+00   3.353e+00  9  sdss  5909  82N  3 
  130  53702.093493  3  26.357  0.721  0.727  1.097  -3.934e+00   2.459e+00   2.766e+00   4.176e+00  13  sdss  5909  82N  3 
   34  53702.095151  4  22.259  1.311  0.988  2.085   2.930e+00   8.424e+00   5.503e+00   1.162e+01  12  sdss  5909  82N  3 
   32  53702.094322  0  23.634  2.167  1.341  6.388   1.156e+00   3.950e+00   1.905e+00   9.076e+00  7  sdss  5909  82N  3 
   34  53703.104845  1  23.782  1.273  1.154  3.906   1.001e+00   1.244e+00   1.259e+00   4.260e+00  9  sdss  5915  82N  3 
    0  53703.101528  2  27.122  0.875  0.395  1.202  -3.623e+00   2.538e+00   1.353e+00   4.121e+00  9  sdss  5915  82N  3 
   34  53703.102358  3  23.859  1.498  1.300  3.330   6.178e-01   2.453e+00   1.707e+00   4.373e+00  13  sdss  5915  82N  3 
   32  53703.104016  4  21.600  1.640  1.404  1.989   7.393e+00   1.323e+01   1.175e+01   1.664e+01  12  sdss  5915  82N  3 
   34  53703.103187  0  22.923  1.834  0.344  4.873   2.512e+00   3.579e+00   8.457e-01   1.197e+01  7  sdss  5915  82N  3 
   32  53704.083324  1  23.788  0.745  0.304  1.050   9.944e-01   7.569e-01   3.303e-01   1.140e+00  9  sdss  5918  82N  3 
   32  53704.080007  2  23.325  0.662  0.220  0.501   1.580e+00   1.027e+00   3.654e-01   8.315e-01  9  sdss  5918  82N  3 
   32  53704.080837  3  22.630  0.514  0.171  0.300   3.039e+00   1.480e+00   5.196e-01   9.117e-01  13  sdss  5918  82N  3 
   32  53704.082495  4  21.860  0.717  0.367  0.477   5.407e+00   4.883e+00   2.554e+00   3.319e+00  12  sdss  5918  82N  3 
   40  53704.081666  0  23.004  0.866  0.496  1.175   2.318e+00   1.763e+00   1.139e+00   2.699e+00  7  sdss  5918  82N  3 
