# SDSS CID:  13633 IAU:          RA:   4.665596 DEC:   0.005872  (J2000)
# GALAXY_SB [ugriz] = [ 24.06 24.31 23.00 22.41 21.78 ] +/- [  0.23  0.09  0.04  0.03  0.06 ] (asinh mag/square arcsec)
# GALAXY_SB_FLUX [ugriz] = [  5.831E-01  5.175E-01  2.192E+00  3.774E+00  5.903E+00 ] +/- [  2.566E-01  6.547E-02  8.085E-02  1.009E-01  4.535E-01 ] (microJy per square arcsec)
#FLAG  MJD       FILT  MAG     MERR  MSKYERR MGALERR  FLUX       FLUXERR    SKYERR     GALERR    NPRE TELE   RUN  STRIP  IDCCD
    0  53974.323507  1  25.321  0.687  0.113  0.388  -1.200e-01   4.375e-01   6.780e-02   2.321e-01  27  sdss  6283  82N  3 
   32  53974.320190  2  23.831  0.629  0.049  0.249   8.835e-01   7.019e-01   5.631e-02   2.833e-01  27  sdss  6283  82N  3 
   32  53974.321019  3  23.438  0.671  0.151  0.177   1.232e+00   1.082e+00   2.482e-01   2.898e-01  28  sdss  6283  82N  3 
   32  53974.322677  4  22.163  0.573  0.156  0.208   3.475e+00   3.379e+00   9.141e-01   1.214e+00  27  sdss  6283  82N  3 
   40  53974.321848  0  24.097  1.095  0.819  1.003   5.763e-01   1.322e+00   8.990e-01   1.101e+00  16  sdss  6283  82N  3 
   32  53975.317155  1  24.736  0.804  0.453  0.817   2.297e-01   5.374e-01   2.833e-01   5.110e-01  27  sdss  6287  82S  4 
    0  53975.313837  2  25.399  0.825  0.299  0.489  -5.015e-01   7.917e-01   2.756e-01   4.507e-01  27  sdss  6287  82S  4 
   32  53975.314667  3  23.718  0.879  0.438  0.425   8.080e-01   1.277e+00   6.121e-01   5.944e-01  28  sdss  6287  82S  4 
   32  53975.316325  4  22.590  0.843  0.596  0.514   1.193e+00   4.608e+00   2.981e+00   2.572e+00  27  sdss  6287  82S  4 
    8  53975.315496  0  25.265  1.294  1.446  1.709  -6.111e-01   1.647e+00   1.609e+00   1.901e+00  16  sdss  6287  82S  4 
    1  53989.327644  1  22.678  0.827  0.100  0.102   2.993e+00   1.986e+00   2.804e-01   2.851e-01  27  sdss  6314  82N  3 
    1  53989.324326  2  22.069  0.263  0.076  0.059   5.342e+00   1.283e+00   3.781e-01   2.916e-01  27  sdss  6314  82N  3 
    1  53989.325156  3  22.017  0.313  0.086  0.077   5.499e+00   1.587e+00   4.457e-01   4.014e-01  28  sdss  6314  82N  3 
   32  53989.326814  4  22.083  0.652  0.304  0.258   3.956e+00   3.998e+00   1.854e+00   1.577e+00  27  sdss  6314  82N  3 
    1  53989.325985  0  25.134  1.908  0.206  1.164  -4.685e-01   2.989e+00   2.173e-01   1.229e+00  16  sdss  6314  82N  3 
    1  53990.330270  1  22.721  0.382  0.164  0.141   2.874e+00   9.941e-01   4.418e-01   3.796e-01  27  sdss  6330  82S  4 
    1  53990.326953  2  22.654  0.380  0.152  0.134   3.077e+00   1.076e+00   4.467e-01   3.918e-01  27  sdss  6330  82S  4 
    0  53990.327782  3  21.972  0.272  0.128  0.092   5.738e+00   1.441e+00   6.910e-01   4.968e-01  28  sdss  6330  82S  4 
   32  53990.329441  4  22.283  0.817  0.697  0.462   2.798e+00   4.728e+00   3.850e+00   2.550e+00  27  sdss  6330  82S  4 
    1  53990.328612  0  25.130  1.852  1.040  1.657  -4.641e-01   2.832e+00   1.096e+00   1.747e+00  16  sdss  6330  82S  4 
    0  53994.340756  1  22.361  0.136  0.080  0.071   4.028e+00   5.065e-01   3.004e-01   2.670e-01  27  sdss  6355  82S  4 
    0  53994.337438  2  22.016  0.141  0.059  0.047   5.612e+00   7.297e-01   3.071e-01   2.468e-01  27  sdss  6355  82S  4 
    0  53994.338268  3  22.154  0.254  0.074  0.066   4.828e+00   1.149e+00   3.408e-01   3.024e-01  28  sdss  6355  82S  4 
   32  53994.339926  4  21.873  0.552  0.240  0.208   5.318e+00   3.764e+00   1.667e+00   1.440e+00  27  sdss  6355  82S  4 
    0  53994.339097  0  24.979  1.211  0.436  1.166  -3.074e-01   1.452e+00   4.392e-01   1.174e+00  16  sdss  6355  82S  4 
    0  53996.324589  1  22.519  0.183  0.184  0.191   3.474e+00   5.864e-01   5.960e-01   6.200e-01  27  sdss  6367  82S  4 
   32  53996.321272  2  22.190  0.251  0.233  0.179   4.771e+00   1.096e+00   1.038e+00   7.957e-01  27  sdss  6367  82S  4 
   32  53996.322101  3  22.455  0.392  0.238  0.199   3.611e+00   1.333e+00   8.403e-01   7.028e-01  28  sdss  6367  82S  4 
    0  53996.323760  4  23.372  0.939  0.249  0.801  -2.738e+00   5.519e+00   1.369e+00   4.403e+00  27  sdss  6367  82S  4 
  162  53996.322931  0  23.661  1.461  0.542  2.543   1.118e+00   2.107e+00   7.551e-01   3.542e+00  16  sdss  6367  82S  4 
  152  53997.423263  1  22.718  0.221  0.589  0.210   2.882e+00   5.902e-01   1.593e+00   5.682e-01  27  sdss  6373  82N  3 
    0  53997.419946  2  21.849  0.165  0.133  0.127   6.556e+00   9.912e-01   8.049e-01   7.734e-01  27  sdss  6373  82N  3 
 1208  53997.420775  3  22.114  0.293  1.956  0.133   5.015e+00   1.364e+00   9.310e+00   6.327e-01  28  sdss  6373  82N  3 
  184  53997.422434  4  21.356  0.394  2.719  0.263   9.641e+00   3.905e+00   2.768e+01   2.680e+00  27  sdss  6373  82N  3 
  136  53997.421604  0  22.274  0.454  0.569  0.684   4.704e+00   1.865e+00   2.459e+00   2.955e+00  16  sdss  6373  82N  3 
    0  53998.293101  1  22.596  0.155  0.041  0.078   3.233e+00   4.643e-01   1.239e-01   2.351e-01  27  sdss  6377  82S  4 
    0  53998.289784  2  22.025  0.134  0.036  0.041   5.566e+00   6.909e-01   1.846e-01   2.132e-01  27  sdss  6377  82S  4 
    0  53998.290613  3  22.251  0.258  0.082  0.063   4.400e+00   1.071e+00   3.465e-01   2.634e-01  28  sdss  6377  82S  4 
    0  53998.292271  4  21.617  0.421  0.196  0.158   7.247e+00   3.415e+00   1.628e+00   1.308e+00  27  sdss  6377  82S  4 
   32  53998.291442  0  24.621  1.213  0.362  1.166   4.356e-02   1.435e+00   3.506e-01   1.130e+00  16  sdss  6377  82S  4 
    0  54000.303204  1  22.976  0.286  0.198  0.303   2.255e+00   6.016e-01   4.255e-01   6.521e-01  27  sdss  6383  82N  3 
    0  54000.299887  2  22.045  0.177  0.084  0.111   5.463e+00   8.917e-01   4.254e-01   5.645e-01  27  sdss  6383  82N  3 
   32  54000.300717  3  22.034  0.281  0.162  0.140   5.411e+00   1.407e+00   8.285e-01   7.141e-01  28  sdss  6383  82N  3 
   32  54000.302375  4  21.250  0.472  0.392  0.300   1.076e+01   5.026e+00   4.351e+00   3.334e+00  27  sdss  6383  82N  3 
    0  54000.301546  0  23.106  0.953  0.105  1.311   2.087e+00   1.773e+00   2.200e-01   2.758e+00  16  sdss  6383  82N  3 
    8  54005.323513  1  23.276  0.270  0.169  0.119   1.685e+00   4.392e-01   2.802e-01   1.968e-01  27  sdss  6402  82S  4 
    0  54005.320196  2  22.143  0.151  0.023  0.043   4.985e+00   6.966e-01   1.076e-01   2.013e-01  27  sdss  6402  82S  4 
    0  54005.321025  3  22.276  0.261  0.063  0.055   4.296e+00   1.060e+00   2.578e-01   2.274e-01  28  sdss  6402  82S  4 
    0  54005.322684  4  21.546  0.371  0.146  0.116   7.849e+00   3.183e+00   1.275e+00   1.012e+00  27  sdss  6402  82S  4 
    0  54005.321854  0  25.213  1.109  0.201  0.701  -5.534e-01   1.338e+00   2.188e-01   7.633e-01  16  sdss  6402  82S  4 
 1052  54006.247343  3  27.981  0.281  3.124  0.038  -1.800e+01   4.559e+00   5.182e+01   6.365e-01  28  sdss  6409  82N  3 
 1176  54006.249001  4  21.279  0.421  2.677  0.212   1.045e+01   4.415e+00   2.901e+01   2.298e+00  27  sdss  6409  82N  3 
    0  54007.353120  1  23.163  0.284  0.031  0.172   1.883e+00   5.090e-01   5.668e-02   3.131e-01  27  sdss  6414  82N  3 
    0  54007.349803  2  22.434  0.215  0.022  0.078   3.793e+00   7.584e-01   7.727e-02   2.779e-01  27  sdss  6414  82N  3 
    0  54007.350632  3  22.135  0.255  0.036  0.069   4.916e+00   1.171e+00   1.676e-01   3.211e-01  28  sdss  6414  82N  3 
   32  54007.352290  4  21.777  0.568  0.075  0.244   6.001e+00   4.101e+00   5.521e-01   1.803e+00  27  sdss  6414  82N  3 
   32  54007.351461  0  24.575  1.325  0.110  1.665   8.752e-02   1.628e+00   1.071e-01   1.619e+00  16  sdss  6414  82N  3 
    0  54008.284076  1  24.006  0.544  0.185  0.326   7.758e-01   4.893e-01   1.705e-01   3.010e-01  27  sdss  6417  82S  4 
    0  54008.280759  2  22.513  0.239  0.111  0.108   3.519e+00   7.845e-01   3.690e-01   3.578e-01  27  sdss  6417  82S  4 
   32  54008.281588  3  22.517  0.357  0.101  0.106   3.399e+00   1.160e+00   3.385e-01   3.552e-01  28  sdss  6417  82S  4 
   32  54008.283247  4  22.230  0.684  0.212  0.316   3.092e+00   3.959e+00   1.200e+00   1.786e+00  27  sdss  6417  82S  4 
    0  54008.282417  0  23.256  0.942  0.272  0.738   1.782e+00   1.592e+00   5.072e-01   1.377e+00  16  sdss  6417  82S  4 
    0  54009.273808  2  22.579  0.266  0.152  0.144   3.305e+00   8.187e-01   4.753e-01   4.512e-01  27  sdss  6421  82N  3 
   32  54009.274637  3  22.553  0.423  0.212  0.207   3.280e+00   1.319e+00   6.864e-01   6.698e-01  28  sdss  6421  82N  3 
   32  54009.276296  4  21.656  0.541  0.327  0.353   6.930e+00   4.231e+00   2.634e+00   2.847e+00  27  sdss  6421  82N  3 
    1  54010.278452  1  23.515  0.497  0.143  0.159   1.326e+00   6.418e-01   1.935e-01   2.142e-01  27  sdss  6425  82S  4 
    8  54010.275135  2  22.626  0.280  0.207  0.067   3.160e+00   8.264e-01   6.213e-01   2.013e-01  27  sdss  6425  82S  4 
    0  54010.275965  3  22.283  0.289  0.080  0.062   4.267e+00   1.162e+00   3.267e-01   2.547e-01  28  sdss  6425  82S  4 
    0  54010.277623  4  23.902  0.436  0.096  0.166  -6.099e+00   3.200e+00   7.134e-01   1.242e+00  27  sdss  6425  82S  4 
  129  54010.276794  0  26.152  0.977  0.384  0.547  -1.935e+00   1.726e+00   7.611e-01   1.085e+00  16  sdss  6425  82S  4 
   33  54011.341647  1  24.343  1.091  0.574  0.358   4.958e-01   8.450e-01   4.265e-01   2.665e-01  27  sdss  6430  82N  3 
    1  54011.338329  2  22.240  0.238  0.074  0.061   4.552e+00   9.957e-01   3.145e-01   2.578e-01  27  sdss  6430  82N  3 
   32  54011.339159  3  22.660  0.463  0.072  0.096   2.948e+00   1.311e+00   2.133e-01   2.852e-01  28  sdss  6430  82N  3 
   32  54011.340817  4  21.754  0.538  0.239  0.191   6.171e+00   3.947e+00   1.796e+00   1.432e+00  27  sdss  6430  82N  3 
    9  54011.339988  0  25.090  1.416  1.009  1.084  -4.221e-01   1.830e+00   1.049e+00   1.127e+00  16  sdss  6430  82N  3 
    1  54012.271162  1  25.319  1.503  0.501  0.354  -1.188e-01   1.201e+00   2.998e-01   2.119e-01  27  sdss  6433  82S  4 
    1  54012.267845  2  22.996  0.607  0.116  0.100   2.207e+00   1.226e+00   2.528e-01   2.176e-01  27  sdss  6433  82S  4 
    1  54012.268674  3  22.670  0.497  0.207  0.076   2.919e+00   1.389e+00   6.082e-01   2.237e-01  28  sdss  6433  82S  4 
   32  54012.270333  4  22.101  0.642  0.242  0.191   3.847e+00   3.902e+00   1.460e+00   1.151e+00  27  sdss  6433  82S  4 
    1  54012.269504  0  25.585  1.831  0.382  0.605  -1.001e+00   2.891e+00   5.045e-01   7.990e-01  16  sdss  6433  82S  4 
    1  54019.291634  1  25.180  1.158  0.649  0.467  -3.647e-02   8.193e-01   3.825e-01   2.752e-01  27  sdss  6441  82N  3 
    1  54019.288317  2  22.419  0.254  0.155  0.074   3.846e+00   9.037e-01   5.617e-01   2.676e-01  27  sdss  6441  82N  3 
   40  54019.289146  3  22.701  0.450  0.518  0.115   2.829e+00   1.235e+00   1.479e+00   3.274e-01  28  sdss  6441  82N  3 
   56  54019.290805  4  22.827  0.735  2.047  0.305   2.870e-02   3.865e+00   9.982e+00   1.489e+00  27  sdss  6441  82N  3 
  129  54019.289975  0  26.995  0.641  0.296  0.300  -4.434e+00   2.377e+00   1.210e+00   1.225e+00  16  sdss  6441  82N  3 
 1177  54020.277072  1  26.065  1.199 12.829  0.616  -6.313e-01   9.953e-01   1.059e+01   5.089e-01  27  sdss  6447  82S  4 
 1080  54020.273755  2  22.865  0.533  5.260  0.198   2.510e+00   1.221e+00   1.282e+01   4.822e-01  27  sdss  6447  82S  4 
   40  54020.274585  3  22.706  0.568  0.738  0.218   2.815e+00   1.521e+00   2.100e+00   6.202e-01  28  sdss  6447  82S  4 
  188  54020.276243  4  21.688  1.028  3.178  0.408   6.676e+00   7.632e+00   2.504e+01   3.218e+00  27  sdss  6447  82S  4 
  137  54020.275414  0  25.087  1.761  1.979  2.461  -4.190e-01   2.586e+00   2.055e+00   2.557e+00  16  sdss  6447  82S  4 
   25  54021.345234  1  23.361  0.406  1.494  0.141   1.550e+00   6.032e-01   2.296e+00   2.174e-01  27  sdss  6450  82N  3 
   32  54021.341917  2  23.265  0.454  0.137  0.127   1.681e+00   7.600e-01   2.379e-01   2.209e-01  27  sdss  6450  82N  3 
  184  54021.342746  3  23.424  0.701  3.281  0.160   1.255e+00   1.138e+00   5.421e+00   2.639e-01  28  sdss  6450  82N  3 
   24  54021.344405  4  21.604  0.391  1.950  0.147   7.355e+00   3.216e+00   1.634e+01   1.233e+00  27  sdss  6450  82N  3 
  137  54021.343575  0  25.542  1.252  1.362  0.764  -9.438e-01   1.678e+00   1.750e+00   9.821e-01  16  sdss  6450  82N  3 
   32  54024.358613  1  24.859  1.032  1.106  1.322   1.537e-01   7.124e-01   6.695e-01   8.001e-01  27  sdss  6458  82S  4 
   32  54024.355296  2  24.123  1.059  1.098  0.793   5.790e-01   1.078e+00   1.053e+00   7.605e-01  27  sdss  6458  82S  4 
  160  54024.356126  3  22.176  0.355  0.169  0.190   4.728e+00   1.552e+00   7.610e-01   8.578e-01  28  sdss  6458  82S  4 
    0  54024.357784  4  23.263  1.020  0.279  0.775  -2.156e+00   5.960e+00   1.471e+00   4.083e+00  27  sdss  6458  82S  4 
    0  54024.356955  0  25.758  1.515  0.390  2.078  -1.245e+00   2.260e+00   5.763e-01   3.069e+00  16  sdss  6458  82S  4 
   32  54025.337006  2  23.899  0.931  0.432  0.615   8.075e-01   1.008e+00   4.706e-01   6.701e-01  27  sdss  6461  82N  3 
   32  54025.337836  3  22.839  0.605  0.214  0.272   2.455e+00   1.451e+00   5.446e-01   6.926e-01  28  sdss  6461  82N  3 
   32  54025.339494  4  21.656  0.657  0.492  0.375   6.930e+00   5.081e+00   3.968e+00   3.026e+00  27  sdss  6461  82N  3 
   32  54029.266913  2  22.812  0.413  0.100  0.239   2.642e+00   1.014e+00   2.557e-01   6.110e-01  27  sdss  6474  82N  3 
   32  54029.267743  3  23.494  1.002  0.410  0.458   1.141e+00   1.594e+00   6.478e-01   7.250e-01  28  sdss  6474  82N  3 
   32  54029.269401  4  22.463  0.914  0.353  0.492   1.839e+00   5.162e+00   1.825e+00   2.543e+00  27  sdss  6474  82N  3 
    0  54030.270582  1  25.434  0.671  0.139  0.294  -1.887e-01   4.329e-01   8.499e-02   1.806e-01  27  sdss  6479  82S  4 
   32  54030.267266  2  23.542  0.535  0.083  0.157   1.249e+00   7.218e-01   1.165e-01   2.193e-01  27  sdss  6479  82S  4 
   32  54030.268095  3  23.010  0.514  0.143  0.110   2.047e+00   1.100e+00   3.172e-01   2.457e-01  28  sdss  6479  82S  4 
   32  54030.269753  4  22.110  0.560  0.178  0.175   3.793e+00   3.381e+00   1.071e+00   1.051e+00  27  sdss  6479  82S  4 
    0  54030.268924  0  25.070  1.204  0.193  0.825  -4.008e-01   1.454e+00   1.995e-01   8.520e-01  16  sdss  6479  82S  4 
    0  54031.257209  1  24.078  0.633  0.156  0.246   7.106e-01   5.415e-01   1.370e-01   2.162e-01  27  sdss  6484  82N  3 
   32  54031.253892  2  23.157  0.415  0.100  0.128   1.878e+00   7.624e-01   1.898e-01   2.440e-01  27  sdss  6484  82N  3 
   32  54031.254721  3  22.647  0.417  0.094  0.099   2.987e+00   1.202e+00   2.798e-01   2.954e-01  28  sdss  6484  82N  3 
    0  54031.256380  4  21.633  0.487  0.237  0.160   7.116e+00   3.887e+00   1.942e+00   1.314e+00  27  sdss  6484  82N  3 
    8  54031.255551  0  22.839  0.587  0.293  0.410   2.731e+00   1.440e+00   7.702e-01   1.079e+00  16  sdss  6484  82N  3 
    2  54035.346076  1  26.518  0.830  1.164  1.155  -1.072e+00   8.718e-01   1.334e+00   1.324e+00  27  sdss  6501  82S  4 
    2  54035.342759  2  26.221  0.994  0.936  0.690  -1.485e+00   1.405e+00   1.479e+00   1.090e+00  27  sdss  6501  82S  4 
   32  54035.343588  3  23.866  1.272  1.657  0.954   6.076e-01   1.942e+00   2.169e+00   1.250e+00  28  sdss  6501  82S  4 
  162  54035.345246  4  21.530  1.030  0.930  0.808   7.989e+00   8.311e+00   8.251e+00   7.166e+00  27  sdss  6501  82S  4 
 1186  54035.344417  0  23.474  1.861  1.201  2.996   1.401e+00   3.100e+00   1.902e+00   4.746e+00  16  sdss  6501  82S  4 
   32  54037.251107  1  25.091  0.747  0.513  0.422   1.621e-02   4.752e-01   3.022e-01   2.486e-01  27  sdss  6508  82S  4 
   32  54037.247790  2  23.923  0.705  0.294  0.236   7.815e-01   7.496e-01   3.155e-01   2.533e-01  27  sdss  6508  82S  4 
   32  54037.248619  3  23.135  0.576  0.124  0.142   1.782e+00   1.121e+00   2.515e-01   2.869e-01  28  sdss  6508  82S  4 
    0  54037.250278  4  21.361  0.396  0.136  0.140   9.592e+00   3.911e+00   1.379e+00   1.420e+00  27  sdss  6508  82S  4 
    4  54037.249449  0  26.365  0.632  0.103  0.435  -2.407e+00   1.387e+00   2.428e-01   1.028e+00  16  sdss  6508  82S  4 
   33  54039.259500  1  24.182  1.049  0.315  0.347   6.220e-01   8.545e-01   2.581e-01   2.844e-01  27  sdss  6513  82N  3 
   33  54039.256183  2  23.260  0.592  0.083  0.161   1.690e+00   9.733e-01   1.439e-01   2.801e-01  27  sdss  6513  82N  3 
   32  54039.257012  3  24.038  0.964  0.122  0.289   3.900e-01   1.327e+00   1.509e-01   3.581e-01  28  sdss  6513  82N  3 
   32  54039.258671  4  22.105  0.641  0.383  0.273   3.823e+00   3.891e+00   2.311e+00   1.644e+00  27  sdss  6513  82N  3 
  129  54039.257841  0  22.965  1.005  0.187  0.526   2.408e+00   2.038e+00   4.407e-01   1.243e+00  16  sdss  6513  82N  3 
   33  54040.265705  1  24.930  1.541  0.719  0.543   1.114e-01   1.248e+00   4.294e-01   3.246e-01  27  sdss  6518  82S  4 
   33  54040.262388  2  24.613  1.350  0.432  0.443   1.516e-01   1.385e+00   3.500e-01   3.594e-01  27  sdss  6518  82S  4 
    1  54040.263217  3  24.625  1.166  0.609  0.367  -3.141e-01   1.680e+00   7.418e-01   4.468e-01  28  sdss  6518  82S  4 
    0  54040.264875  4  21.609  0.593  0.236  0.208   7.313e+00   4.757e+00   1.972e+00   1.736e+00  27  sdss  6518  82S  4 
    1  54040.264046  0  25.576  1.860  0.838  1.008  -9.893e-01   2.962e+00   1.100e+00   1.323e+00  16  sdss  6518  82S  4 
  163  54047.295528  1  23.036  2.171  1.301  0.996   2.129e+00   3.090e+00   2.651e+00   2.031e+00  27  sdss  6530  82S  4 
 1153  54047.292211  2  27.352  1.344  0.559  0.507  -4.501e+00   4.028e+00   2.349e+00   2.133e+00  27  sdss  6530  82S  4 
    2  54047.293041  3  26.515  0.813  0.565  0.563  -4.582e+00   3.087e+00   2.472e+00   2.464e+00  28  sdss  6530  82S  4 
  162  54047.294699  4  22.208  1.423  1.333  1.708   3.216e+00   9.526e+00   7.621e+00   9.765e+00  27  sdss  6530  82S  4 
    3  54047.293870  0  21.773  2.556  1.053  1.223   7.514e+00   9.029e+00   7.157e+00   8.307e+00  16  sdss  6530  82S  4 
   35  54049.291394  1  22.955  0.968  0.757  0.604   2.301e+00   1.755e+00   1.656e+00   1.322e+00  27  sdss  6537  82S  4 
   33  54049.288077  2  23.139  0.927  0.669  0.494   1.913e+00   1.561e+00   1.289e+00   9.518e-01  27  sdss  6537  82S  4 
  128  54049.288906  3  24.377  1.338  0.950  0.990  -1.802e-02   2.018e+00   1.125e+00   1.172e+00  28  sdss  6537  82S  4 
    2  54049.290565  4  22.889  1.300  0.959  1.307  -2.719e-01   7.972e+00   4.683e+00   6.385e+00  27  sdss  6537  82S  4 
 1159  54049.289736  0  26.603  2.300  1.343  1.684  -3.045e+00   5.180e+00   3.885e+00   4.870e+00  16  sdss  6537  82S  4 
    2  54052.257482  1  25.264  1.092  1.332  1.922  -8.641e-02   7.596e-01   7.913e-01   1.142e+00  27  sdss  6552  82N  3 
   34  54052.254165  2  23.298  1.027  1.004  1.080   1.624e+00   1.525e+00   1.698e+00   1.825e+00  27  sdss  6552  82N  3 
   34  54052.254994  3  22.289  0.666  1.254  0.510   4.243e+00   2.463e+00   5.107e+00   2.078e+00  28  sdss  6552  82N  3 
   34  54052.256653  4  22.811  1.313  1.466  1.317   1.063e-01   8.082e+00   7.152e+00   6.426e+00  27  sdss  6552  82N  3 
    2  54052.255823  0  22.362  0.713  0.378  1.682   4.327e+00   2.534e+00   1.509e+00   6.714e+00  16  sdss  6552  82N  3 
   32  54053.255485  1  24.603  0.738  0.556  0.579   3.145e-01   5.042e-01   3.648e-01   3.797e-01  27  sdss  6555  82S  4 
    0  54053.252168  2  25.193  0.878  0.449  0.476  -3.187e-01   8.088e-01   3.820e-01   4.051e-01  27  sdss  6555  82S  4 
   32  54053.252997  3  23.287  0.695  0.456  0.254   1.492e+00   1.217e+00   8.271e-01   4.611e-01  28  sdss  6555  82S  4 
    0  54053.254656  4  21.292  0.374  0.142  0.177   1.031e+01   3.907e+00   1.526e+00   1.902e+00  27  sdss  6555  82S  4 
   32  54053.253826  0  24.574  1.319  0.360  1.648   8.851e-02   1.619e+00   3.503e-01   1.602e+00  16  sdss  6555  82S  4 
    0  54056.256859  1  25.523  0.882  0.901  0.938  -2.437e-01   6.009e-01   5.675e-01   5.905e-01  27  sdss  6568  82S  4 
 1184  54056.253543  2  23.289  0.721  0.499  0.501   1.639e+00   1.134e+00   8.494e-01   8.532e-01  27  sdss  6568  82S  4 
   32  54056.254372  3  23.741  1.197  0.859  0.852   7.761e-01   1.830e+00   1.188e+00   1.177e+00  28  sdss  6568  82S  4 
   32  54056.256030  4  22.127  0.969  0.443  0.593   3.691e+00   5.993e+00   2.638e+00   3.535e+00  27  sdss  6568  82S  4 
    8  54056.255201  0  25.958  1.326  1.052  1.462  -1.569e+00   2.073e+00   1.795e+00   2.493e+00  16  sdss  6568  82S  4 
    0  54059.250876  1  23.019  0.327  0.306  0.378   2.164e+00   6.594e-01   6.336e-01   7.815e-01  27  sdss  6580  82S  4 
    0  54059.247559  2  26.579  0.624  0.456  0.416  -2.143e+00   1.226e+00   9.679e-01   8.838e-01  27  sdss  6580  82S  4 
   32  54059.248388  3  22.579  0.579  0.600  0.416   3.197e+00   1.715e+00   1.901e+00   1.318e+00  28  sdss  6580  82S  4 
  130  54059.250046  4  24.427  0.743  0.295  0.712  -1.088e+01   7.589e+00   3.304e+00   7.975e+00  27  sdss  6580  82S  4 
    2  54059.249217  0  26.926  0.722  0.390  1.053  -4.153e+00   2.465e+00   1.499e+00   4.046e+00  16  sdss  6580  82S  4 
    0  54062.255487  1  25.159  1.019  1.316  1.458  -2.404e-02   6.924e-01   7.757e-01   8.591e-01  27  sdss  6596  82S  4 
    0  54062.252170  2  25.939  1.098  0.735  0.714  -1.084e+00   1.325e+00   9.379e-01   9.104e-01  27  sdss  6596  82S  4 
  128  54062.252999  3  25.571  0.930  0.498  0.494  -1.747e+00   1.734e+00   9.939e-01   9.857e-01  28  sdss  6596  82S  4 
    0  54062.254658  4  23.724  1.025  0.533  0.653  -4.854e+00   6.804e+00   3.533e+00   4.333e+00  27  sdss  6596  82S  4 
   34  54062.253828  0  24.029  1.756  0.809  3.673   6.531e-01   2.613e+00   9.152e-01   4.156e+00  16  sdss  6596  82S  4 
    0  54063.242065  1  25.892  0.659  0.311  0.417  -4.952e-01   4.911e-01   2.311e-01   3.104e-01  27  sdss  6600  82N  3 
   32  54063.238748  2  24.752  0.951  0.482  0.481   4.016e-02   8.613e-01   3.853e-01   3.848e-01  27  sdss  6600  82N  3 
   32  54063.239577  3  23.581  0.905  0.713  0.270   1.007e+00   1.382e+00   1.071e+00   4.059e-01  28  sdss  6600  82N  3 
    0  54063.241236  4  23.597  0.754  0.326  0.273  -4.041e+00   4.673e+00   2.006e+00   1.681e+00  27  sdss  6600  82N  3 
  128  54063.240407  0  25.364  1.241  0.124  1.467  -7.248e-01   1.590e+00   1.446e-01   1.710e+00  16  sdss  6600  82N  3 
   33  54068.235602  1  24.642  1.717  1.302  0.935   2.897e-01   1.511e+00   8.410e-01   6.042e-01  27  sdss  6618  82S  4 
   33  54068.232285  2  23.330  1.204  0.656  0.428   1.570e+00   1.719e+00   1.082e+00   7.047e-01  27  sdss  6618  82S  4 
   33  54068.233114  3  22.510  0.675  0.368  0.267   3.422e+00   2.068e+00   1.238e+00   8.963e-01  28  sdss  6618  82S  4 
    0  54068.234772  4  24.303  0.631  0.403  0.338  -9.573e+00   6.001e+00   4.082e+00   3.422e+00  27  sdss  6618  82S  4 
    3  54068.233943  0  27.269  1.004  0.288  0.624  -5.735e+00   4.208e+00   1.506e+00   3.259e+00  16  sdss  6618  82S  4 
