# SDSS CID:  11960 IAU:          RA:   9.666298 DEC:   1.078950  (J2000)
# GALAXY_SB [ugriz] = [ 22.28 20.30 19.19 18.71 18.33 ] +/- [  0.10  0.01  0.00  0.00  0.01 ] (asinh mag/square arcsec)
# GALAXY_SB_FLUX [ugriz] = [  4.557E+00  2.691E+01  7.607E+01  1.175E+02  1.660E+02 ] +/- [  4.244E-01  1.516E-01  2.623E-01  3.544E-01  9.818E-01 ] (microJy per square arcsec)
#FLAG  MJD       FILT  MAG     MERR  MSKYERR MGALERR  FLUX       FLUXERR    SKYERR     GALERR    NPRE TELE   RUN  STRIP  IDCCD
   32  53616.341723  1  23.973  1.111  0.436  2.239   8.061e-01   9.956e-01   4.148e-01   2.130e+00  19  sdss  5566  82N  6 
    0  53616.338406  2  26.814  0.625  0.256  1.111  -2.698e+00   1.503e+00   6.715e-01   2.913e+00  19  sdss  5566  82N  6 
    0  53616.339235  3  27.340  0.263  0.182  0.462  -9.944e+00   2.391e+00   1.685e+00   4.283e+00  19  sdss  5566  82N  6 
    2  53616.340894  4  24.245  0.940  0.748  1.510  -9.004e+00   8.146e+00   7.199e+00   1.452e+01  20  sdss  5566  82N  6 
    6  53616.340064  0  25.128  1.659  1.620  5.640  -4.620e-01   2.348e+00   1.711e+00   5.959e+00  10  sdss  5566  82N  6 
 1164  53623.328925  2  28.698  0.266  0.258  0.117  -1.567e+01   3.783e+00   3.744e+00   1.706e+00  19  sdss  5590  82N  6 
 1156  53623.329754  3  26.023  2.193  1.256  1.171  -2.827e+00   5.493e+00   3.607e+00   3.359e+00  19  sdss  5590  82N  6 
   32  53626.318704  1  25.036  1.069  0.637  1.393   4.824e-02   7.374e-01   3.761e-01   8.229e-01  19  sdss  5603  82N  6 
    8  53626.315387  2  26.873  0.451  0.245  0.531  -2.856e+00   1.188e+00   6.755e-01   1.466e+00  19  sdss  5603  82N  6 
    0  53626.316216  3  26.859  0.305  0.116  0.305  -6.347e+00   1.784e+00   6.943e-01   1.828e+00  19  sdss  5603  82N  6 
   32  53626.317874  4  22.105  0.864  0.512  0.950   3.824e+00   5.312e+00   3.082e+00   5.717e+00  20  sdss  5603  82N  6 
    8  53626.317045  0  23.077  0.856  0.764  1.322   2.149e+00   1.673e+00   1.670e+00   2.892e+00  10  sdss  5603  82N  6 
    1  53628.303335  1  26.382  1.392  0.309  0.925  -9.239e-01   1.328e+00   3.207e-01   9.616e-01  19  sdss  5610  82N  6 
    1  53628.300017  2  27.277  0.429  0.093  0.437  -4.193e+00   1.623e+00   3.687e-01   1.730e+00  19  sdss  5610  82N  6 
    0  53628.300847  3  26.897  0.354  0.124  0.340  -6.578e+00   2.123e+00   7.660e-01   2.108e+00  19  sdss  5610  82N  6 
    0  53628.302505  4  24.695  0.453  0.256  0.480  -1.425e+01   6.066e+00   3.585e+00   6.720e+00  20  sdss  5610  82N  6 
  129  53628.301676  0  26.639  1.365  0.366  1.118  -3.153e+00   3.151e+00   1.112e+00   3.393e+00  10  sdss  5610  82N  6 
   33  53635.311860  1  23.578  0.911  0.233  0.505   1.243e+00   1.047e+00   3.012e-01   6.531e-01  19  sdss  5622  82N  6 
   33  53635.308543  2  24.426  1.287  0.480  1.178   3.066e-01   1.312e+00   4.070e-01   9.990e-01  19  sdss  5622  82N  6 
    0  53635.309372  3  26.810  0.327  0.094  0.241  -6.061e+00   1.820e+00   5.386e-01   1.379e+00  19  sdss  5622  82N  6 
  160  53635.311031  4  21.382  0.520  0.199  0.422   9.374e+00   4.938e+00   1.973e+00   4.183e+00  20  sdss  5622  82N  6 
    1  53635.310201  0  21.763  0.359  0.148  0.286   7.584e+00   2.424e+00   1.033e+00   2.000e+00  10  sdss  5622  82N  6 
    1  53637.305244  1  26.884  0.816  0.353  0.918  -1.563e+00   1.131e+00   5.519e-01   1.436e+00  19  sdss  5633  82N  6 
    0  53637.301927  2  27.258  0.434  0.116  0.620  -4.118e+00   1.610e+00   4.507e-01   2.416e+00  19  sdss  5633  82N  6 
    0  53637.302756  3  26.631  0.474  0.217  0.526  -5.118e+00   2.187e+00   1.056e+00   2.566e+00  19  sdss  5633  82N  6 
    0  53637.304415  4  24.916  0.441  0.252  0.529  -1.766e+01   7.149e+00   4.276e+00   8.970e+00  20  sdss  5633  82N  6 
   33  53637.303585  0  24.330  1.858  0.907  4.835   3.307e-01   2.834e+00   9.201e-01   4.906e+00  10  sdss  5633  82N  6 
    0  53639.350604  1  26.396  0.722  0.119  0.601  -9.384e-01   7.149e-01   1.253e-01   6.318e-01  19  sdss  5642  82N  6 
    0  53639.347286  2  26.452  0.654  0.114  0.670  -1.887e+00   1.163e+00   2.185e-01   1.288e+00  19  sdss  5642  82N  6 
  160  53639.348116  3  20.935  0.128  0.045  0.115   1.506e+01   1.783e+00   6.275e-01   1.601e+00  19  sdss  5642  82N  6 
   32  53639.349774  4  20.920  0.328  0.137  0.285   1.496e+01   4.675e+00   2.006e+00   4.157e+00  20  sdss  5642  82N  6 
    0  53639.348945  0  25.118  1.302  0.523  2.023  -4.513e-01   1.630e+00   5.511e-01   2.129e+00  10  sdss  5642  82N  6 
    0  53644.297525  1  25.804  0.998  0.525  1.427  -4.311e-01   7.436e-01   3.740e-01   1.015e+00  19  sdss  5670  82N  6 
    0  53644.294208  2  27.333  0.291  0.083  0.377  -4.419e+00   1.187e+00   3.469e-01   1.572e+00  19  sdss  5670  82N  6 
    0  53644.295038  3  26.850  0.309  0.048  0.360  -6.293e+00   1.790e+00   2.853e-01   2.136e+00  19  sdss  5670  82N  6 
    0  53644.296696  4  23.758  0.808  0.677  1.132  -5.081e+00   5.376e+00   4.573e+00   7.646e+00  20  sdss  5670  82N  6 
    8  53644.295867  0  25.080  1.313  1.652  3.022  -4.112e-01   1.642e+00   1.716e+00   3.140e+00  10  sdss  5670  82N  6 
    0  53654.332178  1  25.947  0.894  0.412  0.910  -5.370e-01   6.923e-01   3.179e-01   7.018e-01  19  sdss  5709  82N  6 
    0  53654.328861  2  25.366  1.198  0.470  1.508  -4.714e-01   1.224e+00   4.279e-01   1.373e+00  19  sdss  5709  82N  6 
  160  53654.329690  3  21.647  0.263  0.110  0.243   7.782e+00   1.881e+00   8.028e-01   1.775e+00  19  sdss  5709  82N  6 
    0  53654.331349  4  23.156  0.958  0.204  0.924  -1.600e+00   5.420e+00   1.039e+00   4.708e+00  20  sdss  5709  82N  6 
    8  53654.330520  0  22.899  0.761  0.540  0.973   2.574e+00   1.736e+00   1.371e+00   2.469e+00  10  sdss  5709  82N  6 
    1  53663.292864  1  26.010  1.293  0.241  0.693  -5.861e-01   1.073e+00   1.935e-01   5.556e-01  19  sdss  5744  82N  6 
    1  53663.289547  2  27.397  0.314  0.089  0.239  -4.692e+00   1.350e+00   3.911e-01   1.055e+00  19  sdss  5744  82N  6 
   32  53663.290376  3  23.272  1.037  0.237  0.684   1.518e+00   1.819e+00   4.346e-01   1.257e+00  19  sdss  5744  82N  6 
    0  53663.292035  4  24.307  0.536  0.188  0.467  -9.616e+00   5.172e+00   1.897e+00   4.716e+00  20  sdss  5744  82N  6 
    1  53663.291205  0  25.994  1.545  0.126  0.915  -1.633e+00   2.509e+00   2.241e-01   1.625e+00  10  sdss  5744  82N  6 
    1  53666.362885  1  25.273  1.301  0.430  1.162  -9.134e-02   9.659e-01   2.556e-01   6.914e-01  19  sdss  5765  82N  6 
    0  53666.359568  2  27.513  0.272  0.031  0.252  -5.229e+00   1.311e+00   1.510e-01   1.237e+00  19  sdss  5765  82N  6 
    0  53666.360398  3  26.579  0.396  0.108  0.307  -4.871e+00   1.773e+00   5.014e-01   1.429e+00  19  sdss  5765  82N  6 
    0  53666.362056  4  23.968  0.638  0.201  0.458  -6.604e+00   4.797e+00   1.565e+00   3.571e+00  20  sdss  5765  82N  6 
 1153  53666.361227  0  24.043  1.811  1.566  2.349   6.364e-01   2.752e+00   1.768e+00   2.653e+00  10  sdss  5765  82N  6 
    0  53668.282583  1  25.866  1.139  0.492  1.846  -4.764e-01   8.838e-01   3.623e-01   1.359e+00  19  sdss  5770  82N  6 
    0  53668.279266  2  26.257  1.025  0.340  1.618  -1.543e+00   1.484e+00   5.566e-01   2.649e+00  19  sdss  5770  82N  6 
    0  53668.280096  3  27.669  0.178  0.137  0.267  -1.349e+01   2.212e+00   1.721e+00   3.339e+00  19  sdss  5770  82N  6 
 1152  53668.281754  4  24.012  0.791  0.448  0.974  -6.953e+00   6.036e+00   3.607e+00   7.839e+00  20  sdss  5770  82N  6 
   32  53668.280925  0  24.644  1.613  0.943  5.513   2.122e-02   2.206e+00   9.137e-01   5.342e+00  10  sdss  5770  82N  6 
   32  53670.287134  1  23.858  0.741  0.329  0.855   9.205e-01   7.242e-01   3.406e-01   8.866e-01  19  sdss  5781  82N  6 
    0  53670.283817  2  26.563  0.631  0.136  0.768  -2.110e+00   1.232e+00   2.873e-01   1.621e+00  19  sdss  5781  82N  6 
    0  53670.284646  3  27.158  0.231  0.073  0.229  -8.396e+00   1.786e+00   5.703e-01   1.795e+00  19  sdss  5781  82N  6 
  128  53670.286304  4  23.520  0.880  0.502  1.003  -3.581e+00   5.345e+00   2.951e+00   5.902e+00  20  sdss  5781  82N  6 
  128  53670.285475  0  26.418  0.720  0.181  1.253  -2.537e+00   1.639e+00   4.542e-01   3.142e+00  10  sdss  5781  82N  6 
    0  53673.255111  1  27.460  0.266  0.060  0.302  -2.726e+00   6.790e-01   1.546e-01   7.848e-01  19  sdss  5792  82N  6 
    0  53673.251794  2  25.407  1.130  0.259  1.298  -5.089e-01   1.146e+00   2.405e-01   1.204e+00  19  sdss  5792  82N  6 
   32  53673.252623  3  23.264  0.996  0.281  0.912   1.533e+00   1.754e+00   5.196e-01   1.685e+00  19  sdss  5792  82N  6 
  160  53673.254281  4  22.483  0.902  0.116  1.037   1.737e+00   5.061e+00   5.954e-01   5.322e+00  20  sdss  5792  82N  6 
   32  53673.253452  0  23.754  1.218  0.247  1.968   9.901e-01   1.647e+00   3.266e-01   2.607e+00  10  sdss  5792  82N  6 
  160  53675.251787  1  24.603  1.027  0.691  1.543   3.149e-01   7.369e-01   4.539e-01   1.014e+00  19  sdss  5800  82N  6 
    0  53675.248470  2  27.653  0.254  0.137  0.395  -5.959e+00   1.390e+00   7.619e-01   2.204e+00  19  sdss  5800  82N  6 
 1184  53675.249299  3  20.822  0.145  0.047  0.144   1.673e+01   2.231e+00   7.321e-01   2.227e+00  19  sdss  5800  82N  6 
    0  53675.250958  4  24.726  0.425  0.174  0.459  -1.469e+01   5.873e+00   2.505e+00   6.603e+00  20  sdss  5800  82N  6 
 1184  53675.250128  0  24.654  1.359  0.284  3.331   1.143e-02   1.690e+00   2.749e-01   3.228e+00  10  sdss  5800  82N  6 
    0  53677.272853  1  26.341  0.690  0.165  0.638  -8.822e-01   6.615e-01   1.665e-01   6.432e-01  19  sdss  5813  82N  6 
   32  53677.269536  2  24.065  1.139  0.446  1.435   6.349e-01   1.195e+00   4.420e-01   1.423e+00  19  sdss  5813  82N  6 
    0  53677.270365  3  24.545  1.235  0.441  1.658  -2.171e-01   1.806e+00   5.293e-01   1.991e+00  19  sdss  5813  82N  6 
    0  53677.272023  4  23.655  0.727  0.428  0.674  -4.406e+00   4.605e+00   2.712e+00   4.278e+00  20  sdss  5813  82N  6 
  136  53677.271194  0  22.629  0.509  0.343  0.712   3.353e+00   1.540e+00   1.102e+00   2.284e+00  10  sdss  5813  82N  6 
    0  53680.259188  1  27.017  0.404  0.072  0.415  -1.782e+00   6.831e-01   1.257e-01   7.280e-01  19  sdss  5823  82N  6 
    0  53680.255872  2  26.582  0.568  0.106  0.548  -2.150e+00   1.142e+00   2.271e-01   1.175e+00  19  sdss  5823  82N  6 
    0  53680.256701  3  25.478  0.965  0.213  0.862  -1.567e+00   1.714e+00   3.978e-01   1.613e+00  19  sdss  5823  82N  6 
    0  53680.258359  4  23.723  0.754  0.481  0.844  -4.846e+00   4.933e+00   3.179e+00   5.580e+00  20  sdss  5823  82N  6 
   40  53680.257530  0  23.408  0.972  0.671  1.308   1.510e+00   1.514e+00   1.130e+00   2.202e+00  10  sdss  5823  82N  6 
    1  53693.260141  1  26.741  0.980  0.152  0.553  -1.354e+00   1.179e+00   2.107e-01   7.664e-01  19  sdss  5878  82N  6 
    1  53693.256824  2  27.792  0.248  0.100  0.263  -6.781e+00   1.542e+00   6.321e-01   1.664e+00  19  sdss  5878  82N  6 
    0  53693.257653  3  26.765  0.376  0.162  0.356  -5.810e+00   1.995e+00   8.925e-01   1.960e+00  19  sdss  5878  82N  6 
    0  53693.259312  4  23.952  0.698  0.135  0.664  -6.480e+00   5.172e+00   1.039e+00   5.120e+00  20  sdss  5878  82N  6 
    1  53693.258483  0  27.212  0.725  0.083  0.523  -5.437e+00   3.231e+00   4.181e-01   2.641e+00  10  sdss  5878  82N  6 
    0  53698.257148  1  27.160  0.413  0.109  0.583  -2.047e+00   7.892e-01   2.159e-01   1.158e+00  19  sdss  5898  82N  6 
    0  53698.253832  2  27.020  0.422  0.211  0.547  -3.287e+00   1.271e+00   6.654e-01   1.721e+00  19  sdss  5898  82N  6 
    0  53698.254661  3  27.231  0.227  0.085  0.261  -8.985e+00   1.875e+00   7.125e-01   2.191e+00  19  sdss  5898  82N  6 
    0  53698.256319  4  24.940  0.329  0.056  0.352  -1.807e+01   5.551e+00   9.660e-01   6.092e+00  20  sdss  5898  82N  6 
    0  53698.255490  0  25.195  1.443  0.335  3.358  -5.333e-01   1.904e+00   3.632e-01   3.640e+00  10  sdss  5898  82N  6 
    0  53699.280565  1  26.554  0.641  0.241  0.564  -1.114e+00   7.159e-01   2.863e-01   6.701e-01  19  sdss  5902  82N  6 
  184  53699.277248  2  22.435  0.393  0.802  0.333   3.787e+00   1.358e+00   2.884e+00   1.198e+00  19  sdss  5902  82N  6 
    0  53699.278077  3  25.305  1.120  0.462  0.978  -1.263e+00   1.855e+00   7.693e-01   1.627e+00  19  sdss  5902  82N  6 
    0  53699.279735  4  24.252  0.552  0.189  0.400  -9.072e+00   5.095e+00   1.826e+00   3.872e+00  20  sdss  5902  82N  6 
    0  53699.278906  0  27.251  0.352  0.052  0.490  -5.639e+00   1.781e+00   2.738e-01   2.566e+00  10  sdss  5902  82N  6 
  128  53704.242525  1  26.113  1.075  1.176  2.268  -6.709e-01   9.007e-01   1.007e+00   1.943e+00  19  sdss  5918  82N  6 
    0  53704.239208  2  27.075  0.450  0.220  0.742  -3.464e+00   1.414e+00   7.283e-01   2.452e+00  19  sdss  5918  82N  6 
    0  53704.240037  3  26.612  0.518  0.261  0.824  -5.026e+00   2.329e+00   1.254e+00   3.952e+00  19  sdss  5918  82N  6 
   32  53704.241695  4  21.222  0.709  0.437  0.979   1.107e+01   7.352e+00   4.941e+00   1.106e+01  20  sdss  5918  82N  6 
    2  53704.240866  0  27.372  0.414  0.070  1.162  -6.315e+00   2.313e+00   4.072e-01   6.788e+00  10  sdss  5918  82N  6 
