# SDSS CID:  22284 IAU: 2007sn   RA: 333.518311 DEC:  -0.213266  (J2000)
# GALAXY_SB [ugriz] = [ 23.41 22.11 21.31 20.90 20.59 ] +/- [  0.19  0.02  0.01  0.01  0.02 ] (asinh mag/square arcsec)
# GALAXY_SB_FLUX [ugriz] = [  1.458E+00  5.057E+00  1.075E+01  1.558E+01  2.037E+01 ] +/- [  3.218E-01  8.082E-02  9.572E-02  1.346E-01  4.657E-01 ] (microJy per square arcsec)
#FLAG  MJD       FILT  MAG     MERR  MSKYERR MGALERR  FLUX       FLUXERR    SKYERR     GALERR    NPRE TELE   RUN  STRIP  IDCCD
   32  54356.262468  1  24.561  0.811  0.568  0.710   3.429e-01   5.656e-01   3.790e-01   4.736e-01  22  sdss  6951  82N  3 
   32  54356.259151  2  23.912  0.828  0.254  0.559   7.931e-01   8.878e-01   2.750e-01   6.053e-01  25  sdss  6951  82N  3 
   32  54356.259980  3  22.451  0.388  0.161  0.196   3.627e+00   1.329e+00   5.693e-01   6.933e-01  23  sdss  6951  82N  3 
    8  54356.261638  4  23.684  0.633  0.597  0.349  -4.588e+00   4.069e+00   3.864e+00   2.262e+00  27  sdss  6951  82N  3 
   32  54356.260809  0  23.650  1.254  0.158  1.759   1.134e+00   1.752e+00   2.212e-01   2.461e+00  9  sdss  6951  82N  3 
    0  54357.210230  1  25.234  0.873  0.255  0.888  -6.817e-02   5.729e-01   1.510e-01   5.256e-01  22  sdss  6955  82S  3 
    0  54357.206912  2  26.014  0.670  0.183  0.416  -1.182e+00   8.637e-01   2.470e-01   5.616e-01  25  sdss  6955  82S  3 
    0  54357.207742  3  25.716  0.590  0.254  0.271  -2.052e+00   1.254e+00   5.664e-01   6.037e-01  23  sdss  6955  82S  3 
    0  54357.209400  4  23.222  0.752  0.487  0.447  -1.940e+00   4.137e+00   2.531e+00   2.322e+00  27  sdss  6955  82S  3 
    0  54357.208571  0  24.975  1.382  0.266  2.549  -3.040e-01   1.749e+00   2.672e-01   2.564e+00  9  sdss  6955  82S  3 
   32  54358.207375  1  24.568  0.950  0.561  1.186   3.383e-01   6.763e-01   3.729e-01   7.889e-01  22  sdss  6958  82N  3 
    0  54358.204059  2  26.046  0.883  0.264  0.898  -1.226e+00   1.138e+00   3.654e-01   1.241e+00  25  sdss  6958  82N  3 
   32  54358.204888  3  24.203  1.096  0.623  1.085   1.888e-01   1.536e+00   7.453e-01   1.299e+00  23  sdss  6958  82N  3 
   32  54358.206546  4  21.811  0.736  0.470  0.536   5.755e+00   5.165e+00   3.401e+00   3.877e+00  27  sdss  6958  82N  3 
    2  54358.205717  0  26.370  1.112  0.100  1.921  -2.419e+00   2.209e+00   2.370e-01   4.534e+00  9  sdss  6958  82N  3 
    0  54359.173491  1  26.349  0.792  0.615  0.790  -8.903e-01   7.490e-01   6.180e-01   7.928e-01  22  sdss  6962  82N  3 
   60  54359.170174  2  24.451  1.362  4.923  1.163   2.857e-01   1.418e+00   4.142e+00   9.785e-01  25  sdss  6962  82N  3 
    0  54359.171003  3  25.804  0.854  0.710  0.521  -2.255e+00   1.856e+00   1.695e+00   1.246e+00  23  sdss  6962  82N  3 
  164  54359.172662  4  21.750  0.795  0.483  0.401   6.202e+00   5.758e+00   3.646e+00   3.022e+00  27  sdss  6962  82N  3 
   36  54359.171833  0  22.791  0.974  0.127  1.368   2.863e+00   2.251e+00   3.453e-01   3.729e+00  9  sdss  6962  82N  3 
    1  54365.207545  1  26.424  1.355  0.426  0.693  -9.683e-01   1.306e+00   4.525e-01   7.359e-01  22  sdss  6981  82S  3 
    1  54365.204228  2  26.917  0.531  0.250  0.286  -2.981e+00   1.420e+00   7.153e-01   8.155e-01  25  sdss  6981  82S  3 
    0  54365.205057  3  24.537  1.229  0.775  0.790  -2.084e-01   1.794e+00   9.293e-01   9.478e-01  23  sdss  6981  82S  3 
    0  54365.206715  4  24.006  0.743  0.569  0.380  -6.899e+00   5.691e+00   4.580e+00   3.057e+00  27  sdss  6981  82S  3 
    1  54365.205886  0  26.496  1.572  0.176  1.222  -2.741e+00   3.176e+00   4.621e-01   3.207e+00  9  sdss  6981  82S  3 
   33  54365.240269  1  24.905  1.229  0.814  0.545   1.263e-01   8.948e-01   4.883e-01   3.269e-01  22  sdss  6982  82N  3 
   33  54365.236952  2  23.029  0.559  0.194  0.189   2.136e+00   1.113e+00   4.109e-01   4.011e-01  25  sdss  6982  82N  3 
    0  54365.237781  3  24.432  1.067  0.434  0.419  -8.319e-02   1.478e+00   5.146e-01   4.967e-01  23  sdss  6982  82N  3 
   32  54365.239440  4  22.688  0.815  0.397  0.286   7.087e-01   4.384e+00   1.953e+00   1.406e+00  27  sdss  6982  82N  3 
   33  54365.238611  0  24.016  1.573  0.557  1.339   6.675e-01   2.194e+00   6.334e-01   1.522e+00  9  sdss  6982  82N  3 
   33  54373.314259  1  23.159  1.150  0.353  0.402   1.890e+00   1.680e+00   6.443e-01   7.324e-01  22  sdss  7006  82N  3 
  161  54373.310943  2  24.179  1.513  0.676  0.856   5.260e-01   1.704e+00   6.314e-01   7.992e-01  25  sdss  7006  82N  3 
   32  54373.311772  3  24.249  1.316  0.846  0.855   1.339e-01   1.972e+00   1.008e+00   1.018e+00  23  sdss  7006  82N  3 
    0  54373.313430  4  23.269  0.951  0.700  0.528  -2.184e+00   5.476e+00   3.700e+00   2.786e+00  27  sdss  7006  82N  3 
    1  54373.312601  0  21.486  0.605  0.262  0.372   9.810e+00   4.832e+00   2.298e+00   3.265e+00  9  sdss  7006  82N  3 
   32  54379.249077  1  24.676  0.751  0.389  0.472   2.674e-01   5.040e-01   2.482e-01   3.008e-01  22  sdss  7024  82S  3 
   32  54379.245760  2  24.151  0.792  0.278  0.347   5.524e-01   7.711e-01   2.636e-01   3.290e-01  25  sdss  7024  82S  3 
    0  54379.246590  3  25.038  0.797  0.332  0.279  -8.538e-01   1.162e+00   4.714e-01   3.968e-01  23  sdss  7024  82S  3 
    0  54379.248248  4  22.941  0.702  0.369  0.291  -5.291e-01   3.679e+00   1.811e+00   1.428e+00  27  sdss  7024  82S  3 
   32  54379.247419  0  23.282  0.926  0.212  0.781   1.734e+00   1.538e+00   3.858e-01   1.422e+00  9  sdss  7024  82S  3 
    0  54382.248434  1  26.565  0.624  0.137  0.796  -1.128e+00   6.983e-01   1.631e-01   9.448e-01  22  sdss  7037  82N  3 
   32  54382.245117  2  24.258  1.031  0.807  0.904   4.535e-01   1.010e+00   7.272e-01   8.149e-01  25  sdss  7037  82N  3 
    0  54382.245946  3  24.747  1.072  0.609  0.876  -4.659e-01   1.527e+00   7.671e-01   1.103e+00  23  sdss  7037  82N  3 
   32  54382.247605  4  22.266  0.915  0.689  0.644   2.894e+00   5.398e+00   3.835e+00   3.585e+00  27  sdss  7037  82N  3 
    0  54382.246776  0  26.528  0.844  0.291  1.355  -2.829e+00   1.996e+00   7.852e-01   3.654e+00  9  sdss  7037  82N  3 
   32  54385.256398  1  23.841  0.729  0.292  0.875   9.374e-01   7.143e-01   3.029e-01   9.094e-01  22  sdss  7051  82S  3 
    0  54385.253081  2  25.515  0.907  0.581  0.615  -6.111e-01   9.126e-01   5.678e-01   6.007e-01  25  sdss  7051  82S  3 
    0  54385.253910  3  24.434  1.002  0.453  0.765  -8.557e-02   1.364e+00   5.371e-01   9.077e-01  23  sdss  7051  82S  3 
    0  54385.255569  4  23.034  0.838  0.085  0.683  -9.890e-01   4.551e+00   4.243e-01   3.388e+00  27  sdss  7051  82S  3 
   32  54385.254740  0  24.040  1.543  0.421  3.384   6.406e-01   2.124e+00   4.730e-01   3.804e+00  9  sdss  7051  82S  3 
   32  54386.250940  1  24.683  0.781  0.479  0.587   2.629e-01   5.255e-01   3.046e-01   3.734e-01  22  sdss  7054  82N  3 
   32  54386.247623  2  24.586  0.912  0.437  0.499   1.739e-01   8.263e-01   3.558e-01   4.066e-01  25  sdss  7054  82N  3 
    0  54386.248453  3  25.504  0.677  0.290  0.281  -1.615e+00   1.237e+00   5.503e-01   5.348e-01  23  sdss  7054  82N  3 
   32  54386.250111  4  21.804  0.568  0.296  0.246   5.805e+00   4.037e+00   2.154e+00   1.789e+00  27  sdss  7054  82N  3 
    0  54386.249282  0  22.543  0.524  0.061  0.564   3.640e+00   1.663e+00   2.058e-01   1.906e+00  9  sdss  7054  82N  3 
    0  54387.257089  1  26.846  0.496  0.546  0.584  -1.504e+00   7.057e-01   8.165e-01   8.737e-01  22  sdss  7057  82S  3 
    0  54387.253772  2  25.740  0.980  0.643  0.788  -8.458e-01   1.080e+00   7.174e-01   8.789e-01  25  sdss  7057  82S  3 
    0  54387.254602  3  26.438  0.377  0.234  0.262  -4.254e+00   1.490e+00   9.564e-01   1.070e+00  23  sdss  7057  82S  3 
   32  54387.256260  4  22.572  0.890  0.517  0.665   1.286e+00   4.919e+00   2.598e+00   3.339e+00  27  sdss  7057  82S  3 
   32  54387.255431  0  23.541  1.435  0.363  2.122   1.295e+00   2.128e+00   5.462e-01   3.195e+00  9  sdss  7057  82S  3 
   32  54388.255309  1  23.410  0.467  0.324  0.457   1.476e+00   6.572e-01   4.763e-01   6.719e-01  22  sdss  7060  82N  3 
   32  54388.251992  2  24.734  1.094  0.659  0.855   5.445e-02   1.031e+00   5.281e-01   6.843e-01  25  sdss  7060  82N  3 
    0  54388.252822  3  24.700  1.044  0.475  0.650  -4.072e-01   1.467e+00   5.900e-01   8.072e-01  23  sdss  7060  82N  3 
   32  54388.254480  4  21.683  0.649  0.161  0.336   6.716e+00   4.940e+00   1.270e+00   2.655e+00  27  sdss  7060  82N  3 
  136  54388.253651  0  26.039  1.193  0.637  1.574  -1.714e+00   1.929e+00   1.152e+00   2.845e+00  9  sdss  7060  82N  3 
   32  54392.251368  1  24.450  0.939  0.909  1.050   4.188e-01   6.886e-01   6.382e-01   7.376e-01  22  sdss  7076  82S  3 
    0  54392.248051  2  27.034  0.342  0.231  0.234  -3.333e+00   1.054e+00   7.326e-01   7.410e-01  25  sdss  7076  82S  3 
    0  54392.248881  3  25.928  0.590  0.280  0.322  -2.566e+00   1.467e+00   7.403e-01   8.515e-01  23  sdss  7076  82S  3 
    0  54392.250539  4  22.980  0.931  0.561  0.730  -7.192e-01   5.142e+00   2.764e+00   3.594e+00  27  sdss  7076  82S  3 
   40  54392.249710  0  23.469  1.290  1.395  1.901   1.409e+00   1.930e+00   2.210e+00   3.011e+00  9  sdss  7076  82S  3 
  129  54393.240802  1  23.103  0.415  0.078  0.135   1.994e+00   7.640e-01   1.486e-01   2.594e-01  22  sdss  7080  82N  3 
   32  54393.237485  2  24.049  0.825  0.147  0.205   6.507e-01   8.361e-01   1.471e-01   2.049e-01  25  sdss  7080  82N  3 
    0  54393.238314  3  24.929  0.832  0.187  0.194  -7.029e-01   1.176e+00   2.529e-01   2.622e-01  23  sdss  7080  82N  3 
   32  54393.239972  4  22.151  0.608  0.213  0.191   3.546e+00   3.609e+00   1.251e+00   1.123e+00  27  sdss  7080  82N  3 
    1  54393.239143  0  23.111  0.966  0.031  0.514   2.077e+00   1.781e+00   6.428e-02   1.073e+00  9  sdss  7080  82N  3 
    3  54394.239171  1  25.775  2.138  1.635  2.153  -4.105e-01   2.279e+00   1.141e+00   1.503e+00  22  sdss  7084  82S  3 
    1  54394.235854  2  25.398  1.454  0.587  0.696  -5.000e-01   1.602e+00   5.411e-01   6.413e-01  25  sdss  7084  82S  3 
   33  54394.236683  3  23.957  1.290  0.722  0.695   4.907e-01   1.955e+00   9.153e-01   8.808e-01  23  sdss  7084  82S  3 
    0  54394.238342  4  24.777  0.461  0.385  0.305  -1.544e+01   6.645e+00   5.821e+00   4.614e+00  27  sdss  7084  82S  3 
    1  54394.237513  0  26.951  1.470  0.488  0.917  -4.253e+00   4.067e+00   1.905e+00   3.583e+00  9  sdss  7084  82S  3 
    1  54402.248794  1  27.470  0.770  0.299  0.283  -2.754e+00   1.737e+00   7.721e-01   7.301e-01  22  sdss  7101  82S  3 
   33  54402.245477  2  23.285  1.098  0.423  0.419   1.646e+00   1.630e+00   7.250e-01   7.169e-01  25  sdss  7101  82S  3 
    0  54402.246306  3  25.657  0.917  0.405  0.363  -1.923e+00   1.799e+00   8.635e-01   7.734e-01  23  sdss  7101  82S  3 
    0  54402.247965  4  23.696  0.830  0.532  0.432  -4.665e+00   5.387e+00   3.469e+00   2.819e+00  27  sdss  7101  82S  3 
   33  54402.247135  0  23.585  2.396  1.221  2.068   1.229e+00   4.859e+00   1.783e+00   3.021e+00  9  sdss  7101  82S  3 
    1  54403.167761  1  25.653  1.025  0.803  0.482  -3.277e-01   7.369e-01   5.306e-01   3.181e-01  22  sdss  7106  82N  3 
   32  54403.164444  2  24.211  0.995  0.609  0.354   4.964e-01   9.794e-01   5.602e-01   3.255e-01  25  sdss  7106  82N  3 
   32  54403.165273  3  23.862  0.947  0.148  0.305   6.133e-01   1.339e+00   1.935e-01   3.998e-01  23  sdss  7106  82N  3 
    0  54403.166931  4  23.076  0.757  0.464  0.279  -1.196e+00   4.065e+00   2.321e+00   1.393e+00  27  sdss  7106  82N  3 
    8  54403.166102  0  22.737  0.678  0.259  0.472   3.019e+00   1.761e+00   7.409e-01   1.349e+00  9  sdss  7106  82N  3 
   32  54404.167144  1  24.519  0.734  0.417  0.500   3.707e-01   5.135e-01   2.833e-01   3.394e-01  22  sdss  7110  82S  3 
    0  54404.163827  2  25.148  0.877  0.229  0.390  -2.814e-01   8.013e-01   1.924e-01   3.271e-01  25  sdss  7110  82S  3 
    0  54404.164657  3  25.007  0.868  0.359  0.342  -8.101e-01   1.261e+00   5.018e-01   4.784e-01  23  sdss  7110  82S  3 
    0  54404.166315  4  24.144  0.451  0.200  0.179  -8.070e+00   3.913e+00   1.786e+00   1.600e+00  27  sdss  7110  82S  3 
  128  54404.165486  0  25.538  1.095  0.060  1.218  -9.385e-01   1.430e+00   7.724e-02   1.558e+00  9  sdss  7110  82S  3 
    0  54406.161227  1  25.434  0.792  0.092  0.648  -1.887e-01   5.221e-01   5.636e-02   3.977e-01  22  sdss  7121  82N  3 
   32  54406.157910  2  24.397  0.947  0.147  0.539   3.315e-01   8.871e-01   1.259e-01   4.613e-01  25  sdss  7121  82N  3 
    0  54406.158739  3  24.787  1.017  0.450  0.530  -5.166e-01   1.438e+00   5.743e-01   6.765e-01  23  sdss  7121  82N  3 
   32  54406.160398  4  22.325  0.797  0.336  0.345   2.566e+00   4.545e+00   1.822e+00   1.870e+00  27  sdss  7121  82N  3 
    0  54406.159568  0  25.549  1.180  0.111  1.704  -9.532e-01   1.565e+00   1.431e-01   2.195e+00  9  sdss  7121  82N  3 
   32  54408.162306  1  25.056  0.751  0.359  0.413   3.647e-02   4.789e-01   2.119e-01   2.434e-01  22  sdss  7127  82S  3 
    0  54408.158989  2  25.363  0.863  0.317  0.272  -4.679e-01   8.245e-01   2.878e-01   2.469e-01  25  sdss  7127  82S  3 
    0  54408.159818  3  25.263  0.733  0.178  0.177  -1.192e+00   1.169e+00   2.870e-01   2.851e-01  23  sdss  7127  82S  3 
    0  54408.161477  4  22.971  0.677  0.169  0.227  -6.753e-01   3.540e+00   8.333e-01   1.116e+00  27  sdss  7127  82S  3 
   32  54408.160647  0  23.993  1.143  0.110  0.979   6.946e-01   1.424e+00   1.263e-01   1.125e+00  9  sdss  7127  82S  3 
    2  54410.163234  1  25.656  1.246  0.972  1.948  -3.297e-01   9.444e-01   6.432e-01   1.288e+00  22  sdss  7133  82S  3 
  164  54410.159917  2  24.388  1.724  2.703  1.490   3.392e-01   2.057e+00   2.319e+00   1.278e+00  25  sdss  7133  82S  3 
  132  54410.160746  3  25.542  1.497  1.499  0.962  -1.688e+00   2.815e+00   2.929e+00   1.880e+00  23  sdss  7133  82S  3 
    4  54410.162405  4  23.915  1.145  0.297  0.710  -6.196e+00   8.275e+00   2.236e+00   5.349e+00  27  sdss  7133  82S  3 
   14  54410.161576  0  20.888  0.229  0.171  0.431   1.705e+01   3.426e+00   2.605e+00   6.559e+00  9  sdss  7133  82S  3 
   32  54411.120487  1  24.833  0.785  0.327  0.540   1.696e-01   5.142e-01   1.989e-01   3.287e-01  22  sdss  7136  82S  3 
   32  54411.117170  2  24.247  0.909  0.423  0.505   4.634e-01   8.740e-01   3.831e-01   4.575e-01  25  sdss  7136  82S  3 
    0  54411.117999  3  25.447  0.699  0.224  0.223  -1.509e+00   1.232e+00   4.093e-01   4.069e-01  23  sdss  7136  82S  3 
    0  54411.119657  4  23.597  0.627  0.200  0.199  -4.044e+00   3.866e+00   1.229e+00   1.227e+00  27  sdss  7136  82S  3 
  160  54411.118828  0  23.665  1.084  0.086  1.162   1.113e+00   1.481e+00   1.189e-01   1.610e+00  9  sdss  7136  82S  3 
   32  54412.163726  1  25.057  0.935  0.429  1.050   3.587e-02   6.218e-01   2.531e-01   6.194e-01  22  sdss  7140  82N  3 
   32  54412.160410  2  24.615  0.971  0.468  0.652   1.503e-01   8.894e-01   3.799e-01   5.284e-01  25  sdss  7140  82N  3 
   32  54412.161239  3  24.071  0.942  0.434  0.489   3.486e-01   1.284e+00   5.332e-01   5.994e-01  23  sdss  7140  82N  3 
   32  54412.162897  4  22.458  0.786  0.430  0.445   1.862e+00   4.335e+00   2.226e+00   2.301e+00  27  sdss  7140  82N  3 
    4  54412.162068  0  26.750  0.613  0.053  0.817  -3.509e+00   1.843e+00   1.732e-01   2.670e+00  9  sdss  7140  82N  3 
 1188  54413.160819  1  24.356  0.899  0.739  0.482   4.863e-01   6.764e-01   5.448e-01   3.555e-01  22  sdss  7145  82S  3 
   44  54413.157502  2  23.787  0.880  0.973  0.272   9.340e-01   1.001e+00   1.142e+00   3.196e-01  25  sdss  7145  82S  3 
   32  54413.158331  3  23.415  0.848  0.398  0.236   1.270e+00   1.386e+00   6.618e-01   3.923e-01  23  sdss  7145  82S  3 
    4  54413.159990  4  23.010  0.903  0.650  0.303  -8.661e-01   4.964e+00   3.212e+00   1.497e+00  27  sdss  7145  82S  3 
  172  54413.159160  0  23.748  1.170  0.409  1.200   9.982e-01   1.566e+00   5.376e-01   1.577e+00  9  sdss  7145  82S  3 
   32  54416.159065  1  24.361  0.708  0.192  0.498   4.826e-01   5.241e-01   1.412e-01   3.659e-01  22  sdss  7155  82N  3 
   32  54416.155748  2  24.377  0.852  0.063  0.348   3.486e-01   7.861e-01   5.414e-02   3.000e-01  25  sdss  7155  82N  3 
    0  54416.156577  3  24.398  0.919  0.441  0.326  -4.287e-02   1.224e+00   5.225e-01   3.867e-01  23  sdss  7155  82N  3 
    0  54416.158236  4  23.017  0.781  0.291  0.320  -9.005e-01   4.181e+00   1.441e+00   1.585e+00  27  sdss  7155  82N  3 
   40  54416.157407  0  23.142  0.763  0.192  0.704   2.011e+00   1.425e+00   3.900e-01   1.432e+00  9  sdss  7155  82N  3 
    0  54418.160425  1  25.264  0.815  0.273  0.606  -8.611e-02   5.288e-01   1.625e-01   3.597e-01  22  sdss  7161  82S  3 
   32  54418.157108  2  23.891  0.719  0.272  0.269   8.159e-01   7.770e-01   2.978e-01   2.945e-01  25  sdss  7161  82S  3 
   32  54418.157937  3  23.809  0.862  0.320  0.284   6.836e-01   1.218e+00   4.289e-01   3.802e-01  23  sdss  7161  82S  3 
    0  54418.159596  4  23.487  0.715  0.195  0.281  -3.385e+00   4.230e+00   1.130e+00   1.629e+00  27  sdss  7161  82S  3 
  136  54418.158767  0  25.312  1.137  0.902  1.294  -6.634e-01   1.406e+00   1.024e+00   1.469e+00  9  sdss  7161  82S  3 
  184  54420.186860  1  24.565  0.968  1.753  0.546   3.403e-01   6.915e-01   1.167e+00   3.634e-01  22  sdss  7167  82N  3 
    0  54420.183543  2  25.764  0.845  0.130  0.286  -8.728e-01   9.376e-01   1.477e-01   3.235e-01  25  sdss  7167  82N  3 
    0  54420.184373  3  24.845  0.919  0.314  0.287  -5.914e-01   1.289e+00   4.086e-01   3.736e-01  23  sdss  7167  82N  3 
    0  54420.186031  4  24.443  0.403  0.037  0.146  -1.106e+01   4.437e+00   4.165e-01   1.656e+00  27  sdss  7167  82N  3 
  132  54420.185202  0  22.339  0.560  0.058  0.491   4.424e+00   2.106e+00   2.354e-01   1.991e+00  9  sdss  7167  82N  3 
    1  54421.164361  1  26.318  1.270  0.748  0.523  -8.593e-01   1.166e+00   7.341e-01   5.131e-01  22  sdss  7170  82N  3 
    1  54421.161045  2  25.040  1.259  0.596  0.523  -1.918e-01   1.257e+00   4.872e-01   4.276e-01  25  sdss  7170  82N  3 
   32  54421.161874  3  22.464  0.467  0.116  0.147   3.581e+00   1.560e+00   4.050e-01   5.150e-01  23  sdss  7170  82N  3 
   32  54421.163532  4  21.562  0.624  0.134  0.270   7.710e+00   5.156e+00   1.164e+00   2.336e+00  27  sdss  7170  82N  3 
   37  54421.162703  0  22.709  1.127  0.354  0.728   3.103e+00   2.667e+00   1.035e+00   2.131e+00  9  sdss  7170  82N  3 
    1  54422.164475  1  26.255  1.328  0.445  0.615  -7.984e-01   1.194e+00   4.173e-01   5.762e-01  22  sdss  7173  82S  3 
   33  54422.161158  2  23.918  1.175  0.489  0.494   7.866e-01   1.294e+00   5.270e-01   5.324e-01  25  sdss  7173  82S  3 
    0  54422.161987  3  24.436  1.181  0.517  0.629  -8.795e-02   1.692e+00   6.135e-01   7.460e-01  23  sdss  7173  82S  3 
   32  54422.163646  4  22.172  0.814  0.121  0.400   3.424e+00   4.869e+00   7.063e-01   2.331e+00  27  sdss  7173  82S  3 
  129  54422.162816  0  22.200  0.700  0.183  0.527   5.039e+00   2.860e+00   8.385e-01   2.416e+00  9  sdss  7173  82S  3 
    1  54423.156109  1  27.600  0.605  0.316  0.238  -3.113e+00   1.606e+00   9.188e-01   6.922e-01  22  sdss  7176  82N  3 
   33  54423.152792  2  24.307  1.435  1.308  0.668   4.098e-01   1.552e+00   1.156e+00   5.906e-01  25  sdss  7176  82N  3 
   33  54423.153621  3  23.470  1.168  1.155  0.462   1.179e+00   1.909e+00   1.856e+00   7.421e-01  23  sdss  7176  82N  3 
   32  54423.155279  4  22.594  1.014  0.283  0.574   1.176e+00   5.766e+00   1.414e+00   2.870e+00  27  sdss  7176  82N  3 
   33  54423.154450  0  22.468  1.406  0.248  0.846   3.912e+00   3.705e+00   8.945e-01   3.057e+00  9  sdss  7176  82N  3 
  153  54424.152611  1  22.210  0.312  2.982  0.088   4.634e+00   1.299e+00   1.274e+01   3.752e-01  22  sdss  7182  82S  3 
    1  54424.149294  2  26.081  0.862  0.378  0.197  -1.275e+00   1.136e+00   5.364e-01   2.803e-01  25  sdss  7182  82S  3 
  152  54424.150123  3  26.560  0.313  2.667  0.080  -4.781e+00   1.393e+00   1.216e+01   3.662e-01  23  sdss  7182  82S  3 
   56  54424.151781  4  21.646  0.492  3.223  0.177   7.010e+00   3.889e+00   2.620e+01   1.437e+00  27  sdss  7182  82S  3 
  169  54424.150952  0  23.595  1.950  1.505  1.276   1.214e+00   3.276e+00   2.182e+00   1.852e+00  9  sdss  7182  82S  3 
   33  54425.156567  1  24.284  1.707  0.773  0.579   5.409e-01   1.553e+00   5.938e-01   4.452e-01  22  sdss  7188  82N  3 
 1081  54425.153251  2  22.445  0.573  4.089  0.128   3.752e+00   1.875e+00   1.449e+01   4.546e-01  25  sdss  7188  82N  3 
   33  54425.154080  3  22.221  0.437  0.326  0.136   4.530e+00   1.808e+00   1.415e+00   5.895e-01  23  sdss  7188  82N  3 
    0  54425.155738  4  23.009  0.927  0.582  0.510  -8.613e-01   5.124e+00   2.878e+00   2.519e+00  27  sdss  7188  82N  3 
    1  54425.154909  0  26.029  2.333  0.980  1.482  -1.695e+00   4.723e+00   1.759e+00   2.657e+00  9  sdss  7188  82N  3 
    1  54431.167381  1  21.452  0.280  0.103  0.119   9.348e+00   2.343e+00   8.812e-01   1.019e+00  22  sdss  7195  82N  3 
   41  54431.164065  2  21.480  0.237  0.378  0.106   9.227e+00   1.994e+00   3.226e+00   9.047e-01  25  sdss  7195  82N  3 
   41  54431.164894  3  21.315  0.228  0.460  0.097   1.060e+01   2.206e+00   4.518e+00   9.579e-01  23  sdss  7195  82N  3 
    0  54431.166552  4  24.295  0.873  0.195  0.466  -9.491e+00   7.938e+00   1.962e+00   4.694e+00  27  sdss  7195  82N  3 
    3  54431.165723  0  20.753  0.357  0.132  0.257   1.931e+01   5.941e+00   2.277e+00   4.428e+00  9  sdss  7195  82N  3 
    0  54433.163028  1  20.886  0.052  0.034  0.034   1.576e+01   7.417e-01   4.844e-01   4.892e-01  22  sdss  7202  82N  3 
    0  54433.159711  2  20.852  0.077  0.029  0.029   1.647e+01   1.166e+00   4.344e-01   4.414e-01  25  sdss  7202  82N  3 
    0  54433.160540  3  20.640  0.113  0.055  0.031   1.980e+01   2.065e+00   9.964e-01   5.602e-01  23  sdss  7202  82N  3 
    0  54433.162199  4  20.739  0.307  0.256  0.111   1.782e+01   5.168e+00   4.415e+00   1.919e+00  27  sdss  7202  82N  3 
   12  54433.161370  0  21.681  0.290  0.185  0.307   8.186e+00   2.083e+00   1.361e+00   2.258e+00  9  sdss  7202  82N  3 
