# SDSS CID:  14581 IAU:          RA:  50.214790 DEC:  -1.162772  (J2000)
# GALAXY_SB [ugriz] = [ 23.00 22.38 22.32 22.21 21.53 ] +/- [  0.19  0.03  0.03  0.03  0.07 ] (asinh mag/square arcsec)
# GALAXY_SB_FLUX [ugriz] = [  2.263E+00  3.950E+00  4.214E+00  4.576E+00  7.933E+00 ] +/- [  4.428E-01  9.287E-02  1.096E-01  1.462E-01  6.538E-01 ] (microJy per square arcsec)
#FLAG  MJD       FILT  MAG     MERR  MSKYERR MGALERR  FLUX       FLUXERR    SKYERR     GALERR    NPRE TELE   RUN  STRIP  IDCCD
   34  53975.439811  1  22.903  0.300  0.373  0.655   2.418e+00   6.653e-01   8.456e-01   1.484e+00  11  sdss  6287  82S  1 
   32  53975.436493  2  22.828  0.386  0.288  0.464   2.600e+00   9.389e-01   7.243e-01   1.168e+00  12  sdss  6287  82S  1 
   32  53975.437323  3  23.039  0.776  0.741  0.952   1.984e+00   1.571e+00   1.608e+00   2.065e+00  12  sdss  6287  82S  1 
   32  53975.438981  4  22.001  0.717  0.702  0.990   4.468e+00   4.552e+00   4.465e+00   6.300e+00  11  sdss  6287  82S  1 
   32  53975.438152  0  24.045  1.852  0.344  8.339   6.348e-01   2.856e+00   3.832e-01   9.305e+00  6  sdss  6287  82S  1 
   32  53994.464363  1  22.840  0.251  0.092  0.204   2.567e+00   5.919e-01   2.201e-01   4.890e-01  11  sdss  6355  82S  1 
   32  53994.461046  2  23.013  0.372  0.128  0.225   2.171e+00   7.743e-01   2.750e-01   4.838e-01  12  sdss  6355  82S  1 
   32  53994.461875  3  23.008  0.555  0.255  0.295   2.052e+00   1.181e+00   5.675e-01   6.565e-01  12  sdss  6355  82S  1 
   32  53994.463534  4  22.585  0.679  0.417  0.654   1.219e+00   3.593e+00   2.086e+00   3.270e+00  11  sdss  6355  82S  1 
    0  53994.462705  0  22.631  0.581  0.229  1.120   3.344e+00   1.658e+00   7.048e-01   3.443e+00  6  sdss  6355  82S  1 
   32  53996.448311  1  22.670  0.259  0.311  0.502   3.015e+00   7.112e-01   8.687e-01   1.401e+00  11  sdss  6367  82S  1 
  160  53996.444994  2  23.061  0.541  0.533  0.821   2.069e+00   1.052e+00   1.098e+00   1.691e+00  12  sdss  6367  82S  1 
   32  53996.445823  3  22.847  0.583  0.509  0.624   2.436e+00   1.393e+00   1.287e+00   1.578e+00  12  sdss  6367  82S  1 
   32  53996.447482  4  21.810  0.638  0.193  0.875   5.761e+00   4.470e+00   1.386e+00   6.284e+00  11  sdss  6367  82S  1 
   32  53996.446652  0  24.422  1.378  0.407  5.708   2.379e-01   1.735e+00   4.031e-01   5.655e+00  6  sdss  6367  82S  1 
   32  54005.462174  1  22.661  0.191  0.087  0.163   3.040e+00   5.314e-01   2.446e-01   4.590e-01  11  sdss  6404  82S  1 
   32  54005.458856  2  22.505  0.236  0.080  0.141   3.545e+00   7.801e-01   2.678e-01   4.708e-01  12  sdss  6404  82S  1 
   32  54005.459686  3  22.705  0.419  0.186  0.180   2.819e+00   1.150e+00   5.286e-01   5.105e-01  12  sdss  6404  82S  1 
   32  54005.461344  4  22.486  0.685  0.135  0.541   1.719e+00   3.693e+00   6.938e-01   2.770e+00  11  sdss  6404  82S  1 
    0  54005.460515  0  22.996  0.811  0.122  1.357   2.336e+00   1.644e+00   2.746e-01   3.060e+00  6  sdss  6404  82S  1 
   36  54008.408550  1  22.531  0.228  0.161  0.167   3.435e+00   7.127e-01   5.082e-01   5.294e-01  11  sdss  6417  82S  1 
    4  54008.405233  2  21.851  0.304  0.284  0.101   6.541e+00   1.794e+00   1.723e+00   6.102e-01  12  sdss  6417  82S  1 
   36  54008.406062  3  22.222  0.542  0.409  0.176   4.523e+00   2.183e+00   1.765e+00   7.582e-01  12  sdss  6417  82S  1 
    4  54008.407721  4  21.131  0.564  0.196  0.251   1.214e+01   6.427e+00   2.379e+00   3.047e+00  11  sdss  6417  82S  1 
    4  54008.406892  0  22.243  0.592  0.217  0.739   4.842e+00   2.355e+00   9.381e-01   3.200e+00  6  sdss  6417  82S  1 
   32  54009.476220  1  22.843  0.216  0.106  0.177   2.559e+00   5.093e-01   2.527e-01   4.242e-01  11  sdss  6422  82S  1 
   32  54009.472902  2  22.508  0.224  0.077  0.120   3.534e+00   7.394e-01   2.557e-01   4.024e-01  12  sdss  6422  82S  1 
    0  54009.473732  3  22.270  0.273  0.081  0.113   4.320e+00   1.109e+00   3.336e-01   4.663e-01  12  sdss  6422  82S  1 
    0  54009.475390  4  21.228  0.311  0.034  0.226   1.100e+01   3.415e+00   3.850e-01   2.521e+00  11  sdss  6422  82S  1 
    0  54009.474561  0  22.197  0.345  0.109  0.613   5.057e+00   1.511e+00   4.944e-01   2.769e+00  6  sdss  6422  82S  1 
   32  54010.403065  1  22.767  0.197  0.066  0.134   2.750e+00   4.988e-01   1.678e-01   3.423e-01  11  sdss  6425  82S  1 
   32  54010.399748  2  22.504  0.221  0.067  0.116   3.548e+00   7.311e-01   2.232e-01   3.891e-01  12  sdss  6425  82S  1 
    0  54010.400577  3  22.227  0.254  0.071  0.100   4.502e+00   1.075e+00   3.033e-01   4.294e-01  12  sdss  6425  82S  1 
   32  54010.402236  4  21.442  0.350  0.102  0.240   8.799e+00   3.232e+00   9.603e-01   2.253e+00  11  sdss  6425  82S  1 
    0  54010.401407  0  22.496  0.425  0.044  0.602   3.809e+00   1.408e+00   1.515e-01   2.082e+00  6  sdss  6425  82S  1 
   33  54012.396316  1  22.433  0.249  0.152  0.134   3.765e+00   8.469e-01   5.263e-01   4.634e-01  11  sdss  6433  82S  1 
  160  54012.392998  2  22.440  0.324  0.135  0.188   3.769e+00   1.121e+00   4.789e-01   6.691e-01  12  sdss  6433  82S  1 
   32  54012.393828  3  22.954  0.712  0.665  0.385   2.176e+00   1.540e+00   1.542e+00   8.934e-01  12  sdss  6433  82S  1 
   32  54012.395487  4  22.021  0.648  0.409  0.460   4.341e+00   4.065e+00   2.574e+00   2.889e+00  11  sdss  6433  82S  1 
  161  54012.394657  0  24.380  1.595  1.166  3.715   2.799e-01   2.179e+00   1.165e+00   3.712e+00  6  sdss  6433  82S  1 
   33  54020.434524  1  22.914  0.513  0.154  0.375   2.392e+00   1.083e+00   3.454e-01   8.410e-01  11  sdss  6448  82S  1 
   32  54020.431207  2  23.201  0.709  0.247  0.467   1.796e+00   1.194e+00   4.532e-01   8.566e-01  12  sdss  6448  82S  1 
   32  54020.432036  3  23.927  1.077  0.560  0.883   5.286e-01   1.546e+00   7.160e-01   1.130e+00  12  sdss  6448  82S  1 
    0  54020.433695  4  23.230  0.829  0.527  0.857  -1.979e+00   4.625e+00   2.740e+00   4.458e+00  11  sdss  6448  82S  1 
   33  54020.432865  0  24.660  1.818  1.061  4.703   5.813e-03   2.707e+00   1.028e+00   4.556e+00  6  sdss  6448  82S  1 
   32  54024.484196  1  23.176  0.465  0.263  0.627   1.858e+00   7.903e-01   4.681e-01   1.117e+00  11  sdss  6458  82S  1 
   32  54024.480878  2  22.933  0.553  0.371  0.597   2.347e+00   1.190e+00   8.533e-01   1.371e+00  12  sdss  6458  82S  1 
   32  54024.481707  3  22.239  0.379  0.308  0.369   4.450e+00   1.557e+00   1.309e+00   1.566e+00  12  sdss  6458  82S  1 
   32  54024.483366  4  21.224  0.450  0.352  0.502   1.104e+01   4.861e+00   3.950e+00   5.627e+00  11  sdss  6458  82S  1 
    2  54024.482537  0  23.289  1.476  0.648  3.612   1.722e+00   2.387e+00   1.158e+00   6.454e+00  6  sdss  6458  82S  1 
   32  54028.472883  1  22.693  0.214  0.112  0.212   2.950e+00   5.788e-01   3.066e-01   5.798e-01  11  sdss  6471  82S  1 
   32  54028.469566  2  22.798  0.383  0.179  0.266   2.677e+00   9.566e-01   4.637e-01   6.868e-01  12  sdss  6471  82S  1 
   32  54028.470395  3  22.560  0.438  0.179  0.196   3.259e+00   1.353e+00   5.746e-01   6.293e-01  12  sdss  6471  82S  1 
 1152  54028.472054  4  23.571  0.796  0.322  0.643  -3.882e+00   4.876e+00   1.942e+00   3.879e+00  11  sdss  6471  82S  1 
    0  54028.471225  0  23.007  0.988  0.408  1.954   2.309e+00   1.919e+00   9.107e-01   4.367e+00  6  sdss  6471  82S  1 
   32  54030.428384  1  22.924  0.243  0.134  0.219   2.370e+00   5.332e-01   2.988e-01   4.880e-01  11  sdss  6480  82S  1 
    0  54030.425066  2  22.168  0.183  0.059  0.091   4.868e+00   8.224e-01   2.672e-01   4.124e-01  12  sdss  6480  82S  1 
    0  54030.425896  3  22.242  0.300  0.090  0.113   4.437e+00   1.244e+00   3.828e-01   4.771e-01  12  sdss  6480  82S  1 
   32  54030.427554  4  22.485  0.787  0.283  0.581   1.724e+00   4.316e+00   1.452e+00   2.978e+00  11  sdss  6480  82S  1 
  168  54030.426725  0  24.458  1.287  1.286  3.341   2.024e-01   1.568e+00   1.266e+00   3.290e+00  6  sdss  6480  82S  1 
   32  54035.472436  1  22.815  0.261  0.196  0.336   2.628e+00   6.279e-01   4.812e-01   8.248e-01  11  sdss  6501  82S  1 
   32  54035.469119  2  22.478  0.283  0.154  0.195   3.637e+00   9.517e-01   5.281e-01   6.684e-01  12  sdss  6501  82S  1 
    0  54035.469948  3  21.838  0.239  0.202  0.144   6.508e+00   1.431e+00   1.231e+00   8.768e-01  12  sdss  6501  82S  1 
   32  54035.471607  4  21.469  0.534  0.303  0.429   8.545e+00   4.723e+00   2.790e+00   3.946e+00  11  sdss  6501  82S  1 
    2  54035.470777  0  22.670  0.836  0.088  1.948   3.220e+00   2.164e+00   2.598e-01   5.786e+00  6  sdss  6501  82S  1 
   32  54037.378023  1  22.859  0.215  0.065  0.162   2.520e+00   5.016e-01   1.530e-01   3.823e-01  11  sdss  6508  82S  1 
   32  54037.374706  2  22.373  0.201  0.071  0.105   4.015e+00   7.483e-01   2.670e-01   3.963e-01  12  sdss  6508  82S  1 
    0  54037.375535  3  22.063  0.229  0.075  0.091   5.263e+00   1.122e+00   3.718e-01   4.521e-01  12  sdss  6508  82S  1 
   32  54037.377193  4  22.163  0.568  0.254  0.455   3.475e+00   3.335e+00   1.477e+00   2.651e+00  11  sdss  6508  82S  1 
  128  54037.376364  0  22.676  0.506  0.053  0.831   3.204e+00   1.414e+00   1.565e-01   2.458e+00  6  sdss  6508  82S  1 
   32  54040.392415  1  22.650  0.184  0.061  0.137   3.072e+00   5.192e-01   1.742e-01   3.892e-01  11  sdss  6518  82S  1 
   32  54040.389098  2  22.445  0.232  0.086  0.116   3.751e+00   8.078e-01   3.039e-01   4.093e-01  12  sdss  6518  82S  1 
    0  54040.389927  3  22.242  0.302  0.116  0.104   4.437e+00   1.253e+00   4.896e-01   4.425e-01  12  sdss  6518  82S  1 
   32  54040.391586  4  21.625  0.533  0.212  0.330   7.181e+00   4.220e+00   1.730e+00   2.695e+00  11  sdss  6518  82S  1 
    8  54040.390756  0  23.043  0.735  0.356  1.129   2.226e+00   1.460e+00   7.732e-01   2.449e+00  6  sdss  6518  82S  1 
   32  54041.427912  1  22.449  0.169  0.088  0.122   3.709e+00   5.712e-01   2.989e-01   4.168e-01  11  sdss  6525  82S  1 
    0  54041.424595  2  22.142  0.181  0.103  0.076   4.988e+00   8.345e-01   4.811e-01   3.530e-01  12  sdss  6525  82S  1 
    0  54041.425424  3  22.403  0.348  0.208  0.135   3.798e+00   1.245e+00   7.653e-01   4.981e-01  12  sdss  6525  82S  1 
   32  54041.427083  4  22.733  0.727  0.419  0.531   4.868e-01   3.826e+00   2.050e+00   2.599e+00  11  sdss  6525  82S  1 
    8  54041.426253  0  22.517  0.511  0.333  0.781   3.733e+00   1.634e+00   1.131e+00   2.651e+00  6  sdss  6525  82S  1 
   33  54047.423146  1  22.757  0.918  0.187  0.368   2.777e+00   1.975e+00   4.823e-01   9.507e-01  11  sdss  6530  82S  1 
   33  54047.419829  2  23.227  1.168  0.463  0.547   1.749e+00   1.780e+00   8.306e-01   9.805e-01  12  sdss  6530  82S  1 
  161  54047.420658  3  22.701  0.759  0.357  0.397   2.830e+00   1.960e+00   1.017e+00   1.132e+00  12  sdss  6530  82S  1 
   32  54047.422317  4  22.072  0.835  0.579  0.811   4.022e+00   5.172e+00   3.538e+00   4.952e+00  11  sdss  6530  82S  1 
    1  54047.421488  0  21.453  0.693  0.091  0.624   1.011e+01   5.446e+00   8.081e-01   5.533e+00  6  sdss  6530  82S  1 
   33  54049.418733  1  22.517  0.408  0.107  0.249   3.481e+00   1.254e+00   3.421e-01   7.985e-01  11  sdss  6537  82S  1 
   33  54049.415416  2  22.137  0.264  0.101  0.137   5.011e+00   1.210e+00   4.724e-01   6.391e-01  12  sdss  6537  82S  1 
   32  54049.416245  3  22.211  0.370  0.105  0.171   4.571e+00   1.559e+00   4.564e-01   7.451e-01  12  sdss  6537  82S  1 
   32  54049.417904  4  21.827  0.712  0.585  0.507   5.639e+00   4.923e+00   4.154e+00   3.601e+00  11  sdss  6537  82S  1 
  129  54049.417075  0  22.088  0.784  0.310  0.831   5.598e+00   3.378e+00   1.545e+00   4.133e+00  6  sdss  6537  82S  1 
  163  54050.379067  1  22.639  0.518  0.256  0.579   3.104e+00   1.391e+00   7.355e-01   1.662e+00  11  sdss  6545  82S  1 
   32  54050.375750  2  22.251  0.373  0.213  0.357   4.504e+00   1.516e+00   8.967e-01   1.502e+00  12  sdss  6545  82S  1 
   32  54050.376579  3  23.062  1.155  0.916  1.084   1.935e+00   2.235e+00   1.954e+00   2.311e+00  12  sdss  6545  82S  1 
   32  54050.378238  4  21.851  1.026  0.778  1.132   5.468e+00   7.035e+00   5.435e+00   7.904e+00  11  sdss  6545  82S  1 
    3  54050.377408  0  26.292  2.019  0.623  4.283  -2.236e+00   3.865e+00   1.357e+00   9.323e+00  6  sdss  6545  82S  1 
   34  54053.398591  1  22.561  0.289  0.210  0.395   3.340e+00   8.705e-01   6.467e-01   1.218e+00  11  sdss  6556  82S  1 
   32  54053.395274  2  22.298  0.277  0.149  0.236   4.309e+00   1.095e+00   6.025e-01   9.507e-01  12  sdss  6556  82S  1 
   32  54053.396103  3  22.319  0.436  0.360  0.244   4.120e+00   1.650e+00   1.426e+00   9.642e-01  12  sdss  6556  82S  1 
 1176  54053.397762  4  19.222  0.143  1.123  0.095   7.358e+01   9.620e+00   7.571e+01   6.434e+00  11  sdss  6556  82S  1 
   40  54053.396933  0  24.256  1.557  1.780  4.889   4.064e-01   2.109e+00   1.837e+00   5.043e+00  6  sdss  6556  82S  1 
   32  54056.384660  1  22.624  0.206  0.073  0.212   3.148e+00   5.942e-01   2.133e-01   6.159e-01  11  sdss  6568  82S  1 
   32  54056.381343  2  22.231  0.199  0.068  0.112   4.589e+00   8.449e-01   2.915e-01   4.790e-01  12  sdss  6568  82S  1 
    0  54056.382172  3  21.980  0.246  0.102  0.105   5.693e+00   1.294e+00   5.439e-01   5.631e-01  12  sdss  6568  82S  1 
   32  54056.383830  4  22.290  0.842  0.646  0.711   2.759e+00   4.866e+00   3.546e+00   3.906e+00  11  sdss  6568  82S  1 
    0  54056.383001  0  22.444  0.576  0.075  1.184   4.000e+00   1.930e+00   2.710e-01   4.285e+00  6  sdss  6568  82S  1 
   32  54059.379283  1  23.133  0.350  0.309  0.533   1.938e+00   6.303e-01   5.725e-01   9.866e-01  11  sdss  6580  82S  1 
   32  54059.375966  2  22.494  0.333  0.191  0.314   3.582e+00   1.094e+00   6.477e-01   1.062e+00  12  sdss  6580  82S  1 
   32  54059.376795  3  22.285  0.419  0.186  0.274   4.257e+00   1.641e+00   7.589e-01   1.119e+00  12  sdss  6580  82S  1 
   32  54059.378454  4  21.495  0.670  0.363  0.541   8.306e+00   5.712e+00   3.279e+00   4.878e+00  11  sdss  6580  82S  1 
    0  54059.377624  0  22.949  0.944  0.149  2.175   2.446e+00   1.925e+00   3.488e-01   5.096e+00  6  sdss  6580  82S  1 
   34  54061.390246  1  22.979  0.375  0.479  0.686   2.248e+00   7.689e-01   1.016e+00   1.453e+00  11  sdss  6592  82S  1 
  160  54061.386929  2  22.019  0.220  0.184  0.223   5.595e+00   1.130e+00   9.545e-01   1.160e+00  12  sdss  6592  82S  1 
   32  54061.387758  3  22.570  0.493  0.259  0.318   3.227e+00   1.493e+00   8.257e-01   1.014e+00  12  sdss  6592  82S  1 
   32  54061.389417  4  22.142  1.043  0.658  1.018   3.599e+00   6.476e+00   3.871e+00   5.992e+00  11  sdss  6592  82S  1 
  130  54061.388588  0  25.638  1.560  0.347  4.441  -1.073e+00   2.276e+00   4.670e-01   5.981e+00  6  sdss  6592  82S  1 
   32  54062.384082  1  22.804  0.215  0.098  0.149   2.656e+00   5.254e-01   2.438e-01   3.691e-01  11  sdss  6596  82S  1 
    0  54062.380765  2  22.217  0.178  0.056  0.067   4.649e+00   7.677e-01   2.423e-01   2.890e-01  12  sdss  6596  82S  1 
    0  54062.381595  3  22.183  0.269  0.036  0.068   4.694e+00   1.180e+00   1.612e-01   3.031e-01  12  sdss  6596  82S  1 
 1184  54062.383253  4  22.204  0.731  0.196  0.341   3.244e+00   4.278e+00   1.120e+00   1.945e+00  11  sdss  6596  82S  1 
    0  54062.382424  0  22.157  0.365  0.047  0.484   5.251e+00   1.650e+00   2.214e-01   2.263e+00  6  sdss  6596  82S  1 
   32  54064.380125  1  22.862  0.297  0.300  0.424   2.513e+00   6.839e-01   7.057e-01   9.973e-01  11  sdss  6604  82S  1 
   32  54064.376808  2  22.177  0.218  0.127  0.150   4.827e+00   9.693e-01   5.725e-01   6.751e-01  12  sdss  6604  82S  1 
    0  54064.377637  3  22.049  0.290  0.097  0.138   5.333e+00   1.428e+00   4.853e-01   6.918e-01  12  sdss  6604  82S  1 
  160  54064.379296  4  21.354  0.559  0.502  0.377   9.662e+00   5.362e+00   5.066e+00   3.799e+00  11  sdss  6604  82S  1 
    8  54064.378466  0  22.542  0.625  0.559  1.224   3.644e+00   1.903e+00   1.857e+00   4.067e+00  6  sdss  6604  82S  1 
   34  54068.364130  1  22.531  0.242  0.248  0.483   3.435e+00   7.551e-01   7.860e-01   1.528e+00  11  sdss  6618  82S  1 
 1184  54068.360813  2  22.536  0.371  0.319  0.453   3.442e+00   1.169e+00   1.041e+00   1.477e+00  12  sdss  6618  82S  1 
   32  54068.361642  3  22.019  0.337  0.264  0.320   5.487e+00   1.693e+00   1.366e+00   1.652e+00  12  sdss  6618  82S  1 
 1186  54068.363300  4  22.512  1.155  1.158  2.087   1.585e+00   6.867e+00   5.893e+00   1.062e+01  11  sdss  6618  82S  1 
 1154  54068.362471  0  21.772  0.442  0.418  1.456   7.521e+00   2.783e+00   2.772e+00   9.652e+00  6  sdss  6618  82S  1 
