# SDSS CID:    706 IAU:          RA: 355.705078 DEC:  -1.015374  (J2000)
# GALAXY_SB [ugriz] = [ 23.91 23.86 23.57 23.17 22.23 ] +/- [  0.34  0.09  0.08  0.07  0.11 ] (asinh mag/square arcsec)
# GALAXY_SB_FLUX [ugriz] = [  7.534E-01  9.103E-01  1.216E+00  1.713E+00  3.071E+00 ] +/- [  4.072E-01  9.227E-02  1.055E-01  1.430E-01  5.931E-01 ] (microJy per square arcsec)
#FLAG  MJD       FILT  MAG     MERR  MSKYERR MGALERR  FLUX       FLUXERR    SKYERR     GALERR    NPRE TELE   RUN  STRIP  IDCCD
    0  53616.303663  1  21.858  0.127  0.022  0.188   6.424e+00   7.472e-01   1.324e-01   1.110e+00  17  sdss  5566  82N  1 
    0  53616.300346  2  21.479  0.125  0.098  0.130   9.239e+00   1.058e+00   8.313e-01   1.102e+00  17  sdss  5566  82N  1 
    0  53616.301175  3  21.340  0.165  0.067  0.128   1.036e+01   1.563e+00   6.407e-01   1.222e+00  17  sdss  5566  82N  1 
   32  53616.302834  4  21.909  0.886  0.396  0.892   5.069e+00   5.880e+00   2.655e+00   5.988e+00  19  sdss  5566  82N  1 
    0  53616.302005  0  22.519  0.675  0.103  1.148   3.724e+00   2.127e+00   3.591e-01   4.007e+00  10  sdss  5566  82N  1 
    0  53623.294027  1  22.030  0.121  0.053  0.081   5.478e+00   6.098e-01   2.678e-01   4.110e-01  17  sdss  5590  82N  1 
    0  53623.290710  2  21.733  0.124  0.033  0.061   7.302e+00   8.296e-01   2.224e-01   4.118e-01  17  sdss  5590  82N  1 
   12  53623.291539  3  21.652  0.332  0.303  0.066   7.745e+00   2.322e+00   2.183e+00   4.768e-01  17  sdss  5590  82N  1 
    0  53623.293198  4  21.623  0.513  0.197  0.257   7.195e+00   4.067e+00   1.608e+00   2.096e+00  19  sdss  5590  82N  1 
    0  53623.292369  0  24.335  1.300  0.110  2.093   3.255e-01   1.605e+00   1.115e-01   2.119e+00  10  sdss  5590  82N  1 
   29  53626.280010  1  22.233  0.303  0.901  0.119   4.536e+00   1.243e+00   3.786e+00   5.015e-01  17  sdss  5603  82N  1 
    0  53626.276693  2  21.818  0.150  0.051  0.064   6.748e+00   9.320e-01   3.183e-01   3.991e-01  17  sdss  5603  82N  1 
    0  53626.277522  3  21.712  0.206  0.060  0.090   7.323e+00   1.389e+00   4.125e-01   6.120e-01  17  sdss  5603  82N  1 
   32  53626.279181  4  22.142  0.694  0.149  0.468   3.602e+00   4.137e+00   8.766e-01   2.746e+00  19  sdss  5603  82N  1 
    9  53626.278351  0  23.139  0.990  0.558  1.267   2.016e+00   1.797e+00   1.148e+00   2.607e+00  10  sdss  5603  82N  1 
    1  53628.265006  1  21.990  0.320  0.072  0.151   5.685e+00   1.633e+00   3.786e-01   7.905e-01  17  sdss  5610  82N  1 
    1  53628.261689  2  21.856  0.258  0.124  0.128   6.514e+00   1.528e+00   7.460e-01   7.728e-01  17  sdss  5610  82N  1 
    1  53628.262518  3  21.568  0.233  0.078  0.117   8.376e+00   1.786e+00   6.096e-01   9.120e-01  17  sdss  5610  82N  1 
    0  53628.264177  4  21.236  0.489  0.126  0.354   1.091e+01   5.172e+00   1.393e+00   3.909e+00  19  sdss  5610  82N  1 
    9  53628.263348  0  22.622  1.606  0.445  1.137   3.376e+00   3.694e+00   1.420e+00   3.627e+00  10  sdss  5610  82N  1 
    1  53635.273368  1  22.849  0.612  0.212  0.411   2.545e+00   1.349e+00   5.104e-01   9.901e-01  17  sdss  5622  82N  1 
    1  53635.270051  2  21.787  0.230  0.178  0.172   6.945e+00   1.453e+00   1.145e+00   1.103e+00  17  sdss  5622  82N  1 
    0  53635.270880  3  21.474  0.233  0.141  0.185   9.143e+00   1.941e+00   1.193e+00   1.563e+00  17  sdss  5622  82N  1 
   32  53635.272539  4  22.017  0.805  0.087  0.751   4.365e+00   5.082e+00   5.449e-01   4.719e+00  19  sdss  5622  82N  1 
  129  53635.271710  0  25.887  1.812  0.168  2.643  -1.448e+00   2.996e+00   2.723e-01   4.295e+00  10  sdss  5622  82N  1 
    1  53637.266707  1  22.599  0.348  0.224  0.332   3.223e+00   1.017e+00   6.759e-01   9.996e-01  17  sdss  5633  82N  1 
    0  53637.263390  2  21.805  0.203  0.038  0.170   6.830e+00   1.268e+00   2.376e-01   1.071e+00  17  sdss  5633  82N  1 
    0  53637.264219  3  21.491  0.218  0.086  0.149   8.999e+00   1.790e+00   7.164e-01   1.238e+00  17  sdss  5633  82N  1 
    0  53637.265878  4  21.693  0.824  0.551  0.668   6.639e+00   6.091e+00   4.276e+00   5.186e+00  19  sdss  5633  82N  1 
    9  53637.265048  0  22.376  0.796  0.304  1.340   4.268e+00   2.741e+00   1.206e+00   5.312e+00  10  sdss  5633  82N  1 
    0  53639.312016  1  22.714  0.228  0.036  0.200   2.893e+00   6.120e-01   9.863e-02   5.433e-01  17  sdss  5642  82N  1 
    0  53639.308699  2  22.015  0.163  0.092  0.111   5.618e+00   8.443e-01   4.793e-01   5.767e-01  17  sdss  5642  82N  1 
    0  53639.309528  3  22.003  0.234  0.102  0.116   5.571e+00   1.210e+00   5.321e-01   6.093e-01  17  sdss  5642  82N  1 
   32  53639.311187  4  22.293  0.655  0.428  0.522   2.741e+00   3.693e+00   2.344e+00   2.861e+00  19  sdss  5642  82N  1 
    0  53639.310358  0  23.915  1.330  0.133  2.641   7.861e-01   1.759e+00   1.601e-01   3.169e+00  10  sdss  5642  82N  1 
    0  53644.258824  1  22.624  0.183  0.104  0.180   3.148e+00   5.348e-01   3.052e-01   5.312e-01  17  sdss  5670  82N  1 
    0  53644.255507  2  22.049  0.154  0.027  0.100   5.443e+00   7.737e-01   1.346e-01   5.048e-01  17  sdss  5670  82N  1 
    0  53644.256336  3  21.931  0.209  0.027  0.108   5.962e+00   1.157e+00   1.519e-01   6.045e-01  17  sdss  5670  82N  1 
   32  53644.257995  4  22.522  0.689  0.496  0.667   1.537e+00   3.687e+00   2.518e+00   3.386e+00  19  sdss  5670  82N  1 
    8  53644.257166  0  22.915  0.644  0.226  1.242   2.531e+00   1.473e+00   5.605e-01   3.077e+00  10  sdss  5670  82N  1 
    0  53654.293246  1  22.874  0.240  0.073  0.219   2.486e+00   5.577e-01   1.722e-01   5.157e-01  17  sdss  5709  82N  1 
    0  53654.289929  2  21.991  0.147  0.022  0.066   5.745e+00   7.773e-01   1.171e-01   3.507e-01  17  sdss  5709  82N  1 
    0  53654.290759  3  21.963  0.233  0.063  0.089   5.785e+00   1.248e+00   3.431e-01   4.846e-01  17  sdss  5709  82N  1 
    0  53654.292417  4  21.788  0.622  0.247  0.367   5.917e+00   4.400e+00   1.791e+00   2.665e+00  19  sdss  5709  82N  1 
    0  53654.291588  0  22.922  0.910  0.034  1.117   2.514e+00   1.952e+00   8.265e-02   2.750e+00  10  sdss  5709  82N  1 
    1  53656.240892  1  22.080  0.348  0.105  0.191   5.230e+00   1.628e+00   5.050e-01   9.243e-01  17  sdss  5719  82N  1 
    1  53656.237575  2  21.882  0.310  0.116  0.185   6.359e+00   1.775e+00   6.853e-01   1.088e+00  17  sdss  5719  82N  1 
    1  53656.238404  3  21.480  0.241  0.106  0.148   9.092e+00   2.000e+00   8.900e-01   1.244e+00  17  sdss  5719  82N  1 
   32  53656.240063  4  22.084  1.034  0.316  1.156   3.946e+00   6.516e+00   1.911e+00   6.999e+00  19  sdss  5719  82N  1 
    3  53656.239234  0  26.910  1.554  0.236  1.696  -4.088e+00   4.125e+00   8.971e-01   6.458e+00  10  sdss  5719  82N  1 
    1  53663.253736  1  23.323  0.689  0.150  0.222   1.609e+00   9.974e-01   2.388e-01   3.527e-01  17  sdss  5744  82N  1 
    1  53663.250419  2  22.291  0.240  0.018  0.077   4.340e+00   9.587e-01   7.438e-02   3.136e-01  17  sdss  5744  82N  1 
    0  53663.251248  3  21.760  0.195  0.035  0.058   7.001e+00   1.259e+00   2.297e-01   3.764e-01  17  sdss  5744  82N  1 
    0  53663.252907  4  21.612  0.485  0.191  0.279   7.286e+00   3.882e+00   1.568e+00   2.292e+00  19  sdss  5744  82N  1 
    9  53663.252077  0  23.937  1.761  0.837  1.817   7.604e-01   2.649e+00   9.926e-01   2.156e+00  10  sdss  5744  82N  1 
   32  53668.242930  1  23.694  0.590  0.057  0.937   1.100e+00   6.542e-01   6.677e-02   1.094e+00  17  sdss  5770  82N  1 
    0  53668.239613  2  21.984  0.218  0.077  0.245   5.783e+00   1.153e+00   4.138e-01   1.314e+00  17  sdss  5770  82N  1 
    0  53668.240442  3  22.127  0.385  0.145  0.335   4.953e+00   1.742e+00   6.828e-01   1.574e+00  17  sdss  5770  82N  1 
   32  53668.242100  4  22.299  0.995  0.734  1.071   2.707e+00   5.891e+00   4.011e+00   5.848e+00  19  sdss  5770  82N  1 
   10  53668.241271  0  23.112  1.286  0.811  3.599   2.074e+00   2.292e+00   1.707e+00   7.572e+00  10  sdss  5770  82N  1 
    0  53670.247862  1  22.724  0.206  0.030  0.214   2.864e+00   5.488e-01   8.144e-02   5.769e-01  17  sdss  5781  82N  1 
    0  53670.244545  2  22.740  0.312  0.048  0.208   2.833e+00   8.283e-01   1.300e-01   5.645e-01  17  sdss  5781  82N  1 
    0  53670.245374  3  22.271  0.309  0.100  0.146   4.315e+00   1.248e+00   4.111e-01   6.029e-01  17  sdss  5781  82N  1 
   32  53670.247033  4  22.203  0.683  0.209  0.471   3.244e+00   3.977e+00   1.192e+00   2.684e+00  19  sdss  5781  82N  1 
    0  53670.246203  0  24.162  1.226  0.205  2.811   5.051e-01   1.511e+00   2.194e-01   3.008e+00  10  sdss  5781  82N  1 
   32  53673.215358  1  24.072  0.587  0.220  0.549   7.159e-01   5.055e-01   1.939e-01   4.842e-01  17  sdss  5792  82N  1 
    0  53673.212041  2  22.483  0.263  0.128  0.199   3.621e+00   8.830e-01   4.381e-01   6.796e-01  17  sdss  5792  82N  1 
    0  53673.212870  3  21.806  0.200  0.028  0.101   6.706e+00   1.240e+00   1.757e-01   6.317e-01  17  sdss  5792  82N  1 
   32  53673.214529  4  22.368  0.679  0.324  0.513   2.335e+00   3.752e+00   1.724e+00   2.726e+00  19  sdss  5792  82N  1 
    0  53673.213699  0  25.913  0.947  0.061  1.633  -1.492e+00   1.460e+00   1.008e-01   2.706e+00  10  sdss  5792  82N  1 
  160  53675.212419  1  23.418  0.413  0.183  0.563   1.463e+00   5.848e-01   2.688e-01   8.243e-01  17  sdss  5800  82N  1 
    0  53675.209102  2  22.731  0.385  0.143  0.328   2.858e+00   1.019e+00   3.903e-01   8.971e-01  17  sdss  5800  82N  1 
    0  53675.209931  3  21.883  0.275  0.216  0.212   6.238e+00   1.576e+00   1.259e+00   1.240e+00  17  sdss  5800  82N  1 
    0  53675.211589  4  21.395  0.528  0.168  0.471   9.253e+00   4.912e+00   1.636e+00   4.579e+00  19  sdss  5800  82N  1 
    8  53675.210760  0  23.116  0.941  0.322  2.355   2.065e+00   1.749e+00   6.751e-01   4.939e+00  10  sdss  5800  82N  1 
    0  53677.233023  1  23.449  0.347  0.141  0.266   1.419e+00   4.831e-01   2.005e-01   3.803e-01  17  sdss  5813  82N  1 
    0  53677.229707  2  22.600  0.227  0.068  0.085   3.240e+00   6.883e-01   2.101e-01   2.617e-01  17  sdss  5813  82N  1 
    0  53677.230536  3  22.086  0.224  0.028  0.073   5.150e+00   1.076e+00   1.377e-01   3.576e-01  17  sdss  5813  82N  1 
    0  53677.232194  4  21.927  0.491  0.164  0.302   4.947e+00   3.228e+00   1.089e+00   2.003e+00  19  sdss  5813  82N  1 
    0  53677.231365  0  23.654  1.022  0.037  1.497   1.128e+00   1.402e+00   5.218e-02   2.101e+00  10  sdss  5813  82N  1 
    0  53680.219729  1  23.064  0.272  0.070  0.273   2.072e+00   5.312e-01   1.387e-01   5.424e-01  17  sdss  5823  82N  1 
    0  53680.216412  2  22.676  0.299  0.153  0.218   3.013e+00   8.401e-01   4.384e-01   6.253e-01  17  sdss  5823  82N  1 
    0  53680.217242  3  21.779  0.190  0.058  0.103   6.877e+00   1.205e+00   3.703e-01   6.619e-01  17  sdss  5823  82N  1 
    0  53680.218900  4  21.729  0.477  0.260  0.366   6.359e+00   3.532e+00   1.968e+00   2.770e+00  19  sdss  5823  82N  1 
    0  53680.218071  0  24.021  1.192  0.104  2.762   6.618e-01   1.493e+00   1.183e-01   3.142e+00  10  sdss  5823  82N  1 
    1  53693.220479  1  26.563  1.247  0.337  0.526  -1.125e+00   1.289e+00   3.999e-01   6.252e-01  17  sdss  5878  82N  1 
    1  53693.217163  2  22.761  0.456  0.150  0.195   2.776e+00   1.159e+00   4.005e-01   5.200e-01  17  sdss  5878  82N  1 
    0  53693.217992  3  21.700  0.213  0.043  0.091   7.406e+00   1.449e+00   2.968e-01   6.305e-01  17  sdss  5878  82N  1 
    0  53693.219650  4  23.288  0.762  0.078  0.578  -2.289e+00   4.255e+00   4.161e-01   3.062e+00  19  sdss  5878  82N  1 
    1  53693.218821  0  26.784  1.162  0.115  0.836  -3.628e+00   3.111e+00   3.922e-01   2.849e+00  10  sdss  5878  82N  1 
   32  53699.240827  1  24.153  0.934  0.572  0.715   6.460e-01   7.654e-01   4.777e-01   5.971e-01  17  sdss  5902  82N  1 
   32  53699.237510  2  23.392  0.752  0.311  0.352   1.470e+00   1.092e+00   4.879e-01   5.515e-01  17  sdss  5902  82N  1 
    0  53699.238340  3  22.030  0.297  0.144  0.120   5.430e+00   1.486e+00   7.350e-01   6.129e-01  17  sdss  5902  82N  1 
   36  53699.239998  4  22.045  1.056  0.740  0.528   4.187e+00   6.754e+00   4.580e+00   3.264e+00  19  sdss  5902  82N  1 
  132  53699.239169  0  22.691  1.228  0.155  1.302   3.157e+00   2.899e+00   4.647e-01   3.910e+00  10  sdss  5902  82N  1 
   32  53704.202735  1  23.628  0.442  0.121  0.384   1.180e+00   5.265e-01   1.495e-01   4.731e-01  17  sdss  5918  82N  1 
    0  53704.199419  2  22.906  0.343  0.100  0.189   2.411e+00   7.838e-01   2.354e-01   4.449e-01  17  sdss  5918  82N  1 
    0  53704.200248  3  22.126  0.267  0.044  0.113   4.957e+00   1.230e+00   2.091e-01   5.317e-01  17  sdss  5918  82N  1 
   32  53704.201906  4  22.446  0.712  0.393  0.458   1.926e+00   3.883e+00   2.035e+00   2.374e+00  19  sdss  5918  82N  1 
    0  53704.201077  0  22.798  0.666  0.062  0.944   2.843e+00   1.667e+00   1.686e-01   2.585e+00  10  sdss  5918  82N  1 
