# SDSS CID:   5322 IAU:          RA:  45.179684 DEC:   0.517872  (J2000)
# GALAXY_SB [ugriz] = [ 21.66 21.59 21.47 21.24 21.05 ] +/- [  0.05  0.02  0.01  0.02  0.05 ] (asinh mag/square arcsec)
# GALAXY_SB_FLUX [ugriz] = [  8.141E+00  8.236E+00  9.286E+00  1.135E+01  1.308E+01 ] +/- [  3.652E-01  1.193E-01  1.155E-01  1.670E-01  5.990E-01 ] (microJy per square arcsec)
#FLAG  MJD       FILT  MAG     MERR  MSKYERR MGALERR  FLUX       FLUXERR    SKYERR     GALERR    NPRE TELE   RUN  STRIP  IDCCD
    0  53622.451237  1  21.724  0.086  0.030  0.063   7.268e+00   5.795e-01   2.028e-01   4.233e-01  14  sdss  5582  82S  5 
    0  53622.447920  2  21.559  0.097  0.025  0.044   8.576e+00   7.754e-01   2.033e-01   3.545e-01  16  sdss  5582  82S  5 
    0  53622.448749  3  21.422  0.133  0.038  0.049   9.596e+00   1.187e+00   3.435e-01   4.417e-01  14  sdss  5582  82S  5 
    0  53622.450408  4  21.246  0.301  0.094  0.168   1.081e+01   3.292e+00   1.047e+00   1.873e+00  15  sdss  5582  82S  5 
  136  53622.449578  0  21.504  0.174  0.069  0.145   9.644e+00   1.553e+00   6.154e-01   1.304e+00  9  sdss  5582  82S  5 
   32  53627.408965  1  21.601  0.084  0.015  0.095   8.143e+00   6.331e-01   1.168e-01   7.228e-01  14  sdss  5607  82S  5 
    0  53627.405647  2  21.593  0.107  0.045  0.063   8.311e+00   8.272e-01   3.466e-01   4.898e-01  16  sdss  5607  82S  5 
    0  53627.406476  3  21.515  0.157  0.035  0.088   8.801e+00   1.287e+00   2.920e-01   7.249e-01  14  sdss  5607  82S  5 
   32  53627.408135  4  21.428  0.383  0.203  0.287   8.934e+00   3.583e+00   1.945e+00   2.750e+00  15  sdss  5607  82S  5 
    0  53627.407306  0  21.325  0.163  0.024  0.201   1.138e+01   1.710e+00   2.543e-01   2.122e+00  9  sdss  5607  82S  5 
    1  53634.401578  1  21.653  0.214  0.085  0.093   7.761e+00   1.526e+00   6.141e-01   6.726e-01  14  sdss  5619  82S  5 
    1  53634.398261  2  21.463  0.166  0.040  0.060   9.373e+00   1.438e+00   3.473e-01   5.271e-01  16  sdss  5619  82S  5 
    1  53634.399090  3  21.234  0.152  0.020  0.053   1.142e+01   1.609e+00   2.128e-01   5.654e-01  14  sdss  5619  82S  5 
    0  53634.400749  4  21.050  0.328  0.112  0.209   1.317e+01   4.205e+00   1.463e+00   2.739e+00  15  sdss  5619  82S  5 
  129  53634.399919  0  21.847  0.549  0.103  0.282   7.013e+00   3.334e+00   6.755e-01   1.849e+00  9  sdss  5619  82S  5 
    1  53638.443215  1  21.554  0.094  0.012  0.071   8.504e+00   7.438e-01   9.540e-02   5.605e-01  14  sdss  5637  82S  5 
    0  53638.439898  2  21.515  0.110  0.026  0.052   8.933e+00   9.133e-01   2.142e-01   4.362e-01  16  sdss  5637  82S  5 
    0  53638.440727  3  21.400  0.153  0.055  0.062   9.794e+00   1.391e+00   5.075e-01   5.675e-01  14  sdss  5637  82S  5 
    0  53638.442386  4  21.240  0.378  0.069  0.220   1.088e+01   4.115e+00   7.725e-01   2.458e+00  15  sdss  5637  82S  5 
    1  53638.441557  0  21.487  0.227  0.078  0.221   9.796e+00   2.037e+00   7.134e-01   2.019e+00  9  sdss  5637  82S  5 
  128  53640.407312  1  21.508  0.093  0.012  0.092   8.873e+00   7.695e-01   1.004e-01   7.568e-01  14  sdss  5646  82S  5 
    0  53640.403995  2  21.514  0.104  0.049  0.059   8.942e+00   8.662e-01   4.109e-01   4.912e-01  16  sdss  5646  82S  5 
    0  53640.404824  3  21.599  0.180  0.048  0.102   8.138e+00   1.362e+00   3.671e-01   7.799e-01  14  sdss  5646  82S  5 
   32  53640.406483  4  21.605  0.476  0.136  0.342   7.346e+00   3.872e+00   1.140e+00   2.859e+00  15  sdss  5646  82S  5 
    0  53640.405653  0  21.441  0.205  0.030  0.212   1.022e+01   1.929e+00   2.841e-01   2.018e+00  9  sdss  5646  82S  5 
   32  53643.449973  1  21.632  0.096  0.058  0.142   7.913e+00   7.030e-01   4.244e-01   1.046e+00  14  sdss  5666  82S  5 
   32  53643.446656  2  21.484  0.114  0.024  0.105   9.193e+00   9.749e-01   2.075e-01   8.951e-01  16  sdss  5666  82S  5 
   32  53643.447485  3  21.568  0.183  0.098  0.133   8.377e+00   1.423e+00   7.668e-01   1.042e+00  14  sdss  5666  82S  5 
   32  53643.449144  4  21.140  0.368  0.181  0.330   1.203e+01   4.348e+00   2.199e+00   4.013e+00  15  sdss  5666  82S  5 
   32  53643.448315  0  22.055  0.389  0.136  0.600   5.776e+00   2.031e+00   7.378e-01   3.259e+00  9  sdss  5666  82S  5 
    0  53646.469334  1  21.571  0.087  0.046  0.061   8.371e+00   6.729e-01   3.605e-01   4.752e-01  14  sdss  5681  82S  5 
    8  53646.466017  2  21.258  0.099  0.076  0.045   1.133e+01   1.040e+00   7.966e-01   4.772e-01  16  sdss  5681  82S  5 
    0  53646.468505  4  21.096  0.328  0.099  0.155   1.258e+01   4.041e+00   1.254e+00   1.961e+00  15  sdss  5681  82S  5 
  132  53646.467676  0  21.554  0.225  0.021  0.187   9.207e+00   1.903e+00   1.842e-01   1.603e+00  9  sdss  5681  82S  5 
 1187  53657.288241  1  21.362  0.336  0.297  0.358   1.015e+01   3.078e+00   2.804e+00   3.379e+00  14  sdss  5730  82S  5 
   35  53657.284924  2  21.478  0.270  0.169  0.250   9.244e+00   2.279e+00   1.450e+00   2.152e+00  16  sdss  5730  82S  5 
   35  53657.285753  3  21.521  0.388  0.301  0.403   8.751e+00   3.059e+00   2.470e+00   3.310e+00  14  sdss  5730  82S  5 
  162  53657.287412  4  21.545  1.077  0.677  1.265   7.857e+00   8.584e+00   5.925e+00   1.107e+01  15  sdss  5730  82S  5 
  131  53657.286582  0  20.815  0.484  0.173  0.601   1.823e+01   7.677e+00   2.917e+00   1.016e+01  9  sdss  5730  82S  5 
    1  53663.470312  1  21.451  0.204  0.036  0.079   9.352e+00   1.755e+00   3.133e-01   6.875e-01  14  sdss  5745  82S  5 
    1  53663.466994  2  21.697  0.219  0.054  0.077   7.548e+00   1.525e+00   3.773e-01   5.387e-01  16  sdss  5745  82S  5 
    1  53663.467824  3  21.315  0.181  0.059  0.066   1.060e+01   1.782e+00   5.832e-01   6.546e-01  14  sdss  5745  82S  5 
    0  53663.469482  4  21.182  0.389  0.157  0.180   1.153e+01   4.427e+00   1.837e+00   2.106e+00  15  sdss  5745  82S  5 
 1185  53663.468653  0  22.057  1.028  0.032  0.358   5.765e+00   4.430e+00   1.755e-01   1.943e+00  9  sdss  5745  82S  5 
    9  53664.405471  1  21.488  0.134  0.155  0.057   9.038e+00   1.119e+00   1.304e+00   4.767e-01  14  sdss  5754  82S  5 
 1177  53664.402154  2  21.281  0.150  1.139  0.046   1.109e+01   1.541e+00   1.174e+01   4.700e-01  16  sdss  5754  82S  5 
 1049  53664.402983  3  21.197  0.196  1.435  0.053   1.182e+01   2.141e+00   1.584e+01   5.854e-01  14  sdss  5754  82S  5 
   32  53664.404642  4  21.839  0.589  0.326  0.260   5.553e+00   4.088e+00   2.305e+00   1.842e+00  15  sdss  5754  82S  5 
 1153  53664.403813  0  21.546  0.358  0.092  0.193   9.276e+00   2.988e+00   7.950e-01   1.671e+00  9  sdss  5754  82S  5 
    1  53665.470250  1  21.671  0.153  0.040  0.068   7.633e+00   1.084e+00   2.861e-01   4.844e-01  14  sdss  5760  82S  5 
    1  53665.466932  2  21.525  0.141  0.033  0.050   8.851e+00   1.158e+00   2.689e-01   4.142e-01  16  sdss  5760  82S  5 
   33  53665.467762  3  22.243  0.396  0.054  0.136   4.435e+00   1.632e+00   2.318e-01   5.806e-01  14  sdss  5760  82S  5 
   33  53665.469420  4  21.664  0.613  0.185  0.236   6.865e+00   4.731e+00   1.478e+00   1.892e+00  15  sdss  5760  82S  5 
    1  53665.468591  0  21.189  0.262  0.089  0.133   1.291e+01   3.078e+00   1.072e+00   1.598e+00  9  sdss  5760  82S  5 
   33  53668.458977  1  21.662  0.152  0.093  0.195   7.696e+00   1.084e+00   6.691e-01   1.398e+00  14  sdss  5771  82S  5 
   32  53668.455660  2  21.357  0.127  0.048  0.100   1.034e+01   1.218e+00   4.608e-01   9.646e-01  16  sdss  5771  82S  5 
   32  53668.456489  3  21.818  0.292  0.058  0.212   6.631e+00   1.789e+00   3.646e-01   1.326e+00  14  sdss  5771  82S  5 
   32  53668.458148  4  21.088  0.434  0.178  0.341   1.268e+01   5.297e+00   2.263e+00   4.331e+00  15  sdss  5771  82S  5 
   33  53668.457319  0  21.594  0.394  0.291  0.494   8.872e+00   3.125e+00   2.404e+00   4.081e+00  9  sdss  5771  82S  5 
   32  53669.365065  1  21.588  0.104  0.078  0.126   8.241e+00   7.945e-01   5.956e-01   9.687e-01  14  sdss  5776  82S  5 
   32  53669.361748  2  21.637  0.132  0.069  0.101   7.979e+00   9.774e-01   5.168e-01   7.507e-01  16  sdss  5776  82S  5 
   32  53669.362577  3  21.631  0.196  0.095  0.143   7.899e+00   1.444e+00   7.078e-01   1.060e+00  14  sdss  5776  82S  5 
   32  53669.364235  4  21.359  0.458  0.272  0.438   9.612e+00   4.484e+00   2.755e+00   4.439e+00  15  sdss  5776  82S  5 
   32  53669.363406  0  22.260  0.508  0.181  0.842   4.764e+00   2.150e+00   8.167e-01   3.800e+00  9  sdss  5776  82S  5 
    0  53670.465012  1  21.567  0.104  0.022  0.098   8.403e+00   8.144e-01   1.689e-01   7.698e-01  14  sdss  5782  82S  5 
   32  53670.461695  2  21.665  0.146  0.078  0.087   7.775e+00   1.053e+00   5.627e-01   6.299e-01  16  sdss  5782  82S  5 
  128  53670.462524  3  21.525  0.191  0.039  0.105   8.720e+00   1.547e+00   3.183e-01   8.563e-01  14  sdss  5782  82S  5 
    0  53670.464182  4  21.081  0.375  0.135  0.235   1.277e+01   4.649e+00   1.721e+00   2.999e+00  15  sdss  5782  82S  5 
   32  53670.463353  0  22.658  0.903  0.358  0.784   3.259e+00   2.438e+00   1.134e+00   2.484e+00  9  sdss  5782  82S  5 
    0  53671.449789  1  21.583  0.104  0.060  0.076   8.279e+00   7.975e-01   4.624e-01   5.894e-01  14  sdss  5786  82S  5 
    0  53671.446472  2  21.553  0.125  0.025  0.058   8.625e+00   1.000e+00   2.010e-01   4.694e-01  16  sdss  5786  82S  5 
    0  53671.447302  3  21.434  0.166  0.056  0.068   9.489e+00   1.464e+00   4.936e-01   6.057e-01  14  sdss  5786  82S  5 
    0  53671.448960  4  20.738  0.242  0.065  0.109   1.785e+01   4.104e+00   1.117e+00   1.878e+00  15  sdss  5786  82S  5 
    0  53671.448131  0  21.555  0.273  0.029  0.221   9.198e+00   2.293e+00   2.481e-01   1.892e+00  9  sdss  5786  82S  5 
   32  53674.349159  1  21.608  0.091  0.055  0.134   8.090e+00   6.821e-01   4.141e-01   1.006e+00  14  sdss  5797  82S  5 
   32  53674.345842  2  21.465  0.114  0.027  0.099   9.356e+00   9.873e-01   2.310e-01   8.589e-01  16  sdss  5797  82S  5 
   32  53674.346671  3  21.530  0.183  0.098  0.132   8.679e+00   1.475e+00   8.000e-01   1.071e+00  14  sdss  5797  82S  5 
   32  53674.348330  4  21.977  0.667  0.347  0.533   4.622e+00   4.296e+00   2.249e+00   3.454e+00  15  sdss  5797  82S  5 
    0  53674.347500  0  21.547  0.238  0.028  0.393   9.267e+00   2.019e+00   2.451e-01   3.393e+00  9  sdss  5797  82S  5 
    0  53676.438595  1  21.467  0.081  0.037  0.064   9.216e+00   6.941e-01   3.137e-01   5.476e-01  14  sdss  5807  82S  5 
  160  53676.435278  2  21.746  0.162  0.050  0.086   7.212e+00   1.084e+00   3.369e-01   5.816e-01  16  sdss  5807  82S  5 
    0  53676.436107  3  21.447  0.172  0.064  0.078   9.376e+00   1.495e+00   5.614e-01   6.829e-01  14  sdss  5807  82S  5 
    0  53676.437766  4  21.102  0.291  0.054  0.114   1.250e+01   3.587e+00   6.809e-01   1.436e+00  15  sdss  5807  82S  5 
    8  53676.436937  0  21.747  0.277  0.147  0.246   7.696e+00   1.951e+00   1.056e+00   1.771e+00  9  sdss  5807  82S  5 
   32  53679.410425  1  21.641  0.099  0.081  0.156   7.847e+00   7.244e-01   5.945e-01   1.140e+00  14  sdss  5820  82S  5 
   32  53679.407108  2  21.566  0.135  0.067  0.103   8.522e+00   1.067e+00   5.342e-01   8.141e-01  16  sdss  5820  82S  5 
   32  53679.407937  3  21.627  0.220  0.131  0.140   7.929e+00   1.621e+00   9.771e-01   1.041e+00  14  sdss  5820  82S  5 
   32  53679.409596  4  21.978  0.803  0.526  0.632   4.615e+00   5.182e+00   3.411e+00   4.099e+00  15  sdss  5820  82S  5 
    0  53679.408766  0  21.468  0.219  0.056  0.349   9.971e+00   2.007e+00   5.233e-01   3.234e+00  9  sdss  5820  82S  5 
    0  53681.401889  1  21.643  0.093  0.052  0.081   7.832e+00   6.784e-01   3.814e-01   5.936e-01  14  sdss  5836  82S  5 
    0  53681.398572  2  21.556  0.114  0.031  0.055   8.600e+00   9.101e-01   2.498e-01   4.437e-01  16  sdss  5836  82S  5 
    0  53681.399401  3  21.423  0.147  0.036  0.064   9.587e+00   1.310e+00   3.228e-01   5.771e-01  14  sdss  5836  82S  5 
    0  53681.401059  4  21.211  0.329  0.085  0.194   1.120e+01   3.680e+00   9.732e-01   2.226e+00  15  sdss  5836  82S  5 
   32  53681.400230  0  21.885  0.326  0.049  0.313   6.769e+00   2.006e+00   3.090e-01   1.984e+00  9  sdss  5836  82S  5 
    4  53684.363497  1  21.592  0.145  0.131  0.109   8.210e+00   1.099e+00   9.994e-01   8.343e-01  14  sdss  5847  82S  5 
 1164  53684.360180  2  21.157  0.281  0.416  0.061   1.244e+01   3.173e+00   4.811e+00   7.075e-01  16  sdss  5847  82S  5 
 1188  53684.361009  3  22.595  1.628  0.879  0.264   3.147e+00   3.965e+00   2.770e+00   8.307e-01  14  sdss  5847  82S  5 
 1156  53684.362668  4  21.040  0.834  0.479  0.224   1.330e+01   9.714e+00   6.333e+00   2.957e+00  15  sdss  5847  82S  5 
 1028  53684.361838  0  21.293  0.429  0.262  0.247   1.172e+01   4.443e+00   2.860e+00   2.691e+00  9  sdss  5847  82S  5 
   33  53687.304748  1  22.361  0.648  0.549  0.366   4.025e+00   2.207e+00   2.076e+00   1.385e+00  14  sdss  5871  82S  5 
  161  53687.301431  2  21.712  0.327  0.229  0.192   7.444e+00   2.206e+00   1.592e+00   1.335e+00  16  sdss  5871  82S  5 
   57  53687.302260  3  21.432  0.289  1.713  0.200   9.507e+00   2.516e+00   1.525e+01   1.781e+00  14  sdss  5871  82S  5 
  160  53687.303919  4  22.523  1.034  0.375  1.164   1.531e+00   5.951e+00   1.904e+00   5.909e+00  15  sdss  5871  82S  5 
  129  53687.303089  0  21.460  0.714  0.350  0.618   1.004e+01   5.868e+00   3.275e+00   5.773e+00  9  sdss  5871  82S  5 
    1  53696.367563  1  21.667  0.119  0.035  0.069   7.661e+00   8.462e-01   2.500e-01   4.958e-01  14  sdss  5889  82S  5 
    0  53696.364246  2  21.725  0.153  0.047  0.084   7.354e+00   1.040e+00   3.217e-01   5.759e-01  16  sdss  5889  82S  5 
    0  53696.365076  3  21.735  0.213  0.066  0.101   7.167e+00   1.424e+00   4.428e-01   6.797e-01  14  sdss  5889  82S  5 
    0  53696.366734  4  21.165  0.321  0.089  0.149   1.173e+01   3.737e+00   1.060e+00   1.776e+00  15  sdss  5889  82S  5 
  129  53696.365905  0  21.675  0.341  0.046  0.258   8.230e+00   2.539e+00   3.554e-01   1.979e+00  9  sdss  5889  82S  5 
   33  53697.358637  1  21.998  0.154  0.069  0.107   5.640e+00   8.046e-01   3.616e-01   5.636e-01  14  sdss  5895  82S  5 
    0  53697.355320  2  21.554  0.127  0.045  0.075   8.616e+00   1.013e+00   3.600e-01   6.036e-01  16  sdss  5895  82S  5 
    0  53697.356149  3  21.507  0.176  0.074  0.090   8.866e+00   1.449e+00   6.157e-01   7.441e-01  14  sdss  5895  82S  5 
    0  53697.357808  4  21.163  0.345  0.102  0.192   1.175e+01   4.014e+00   1.219e+00   2.284e+00  15  sdss  5895  82S  5 
  129  53697.356979  0  21.616  0.300  0.058  0.270   8.692e+00   2.375e+00   4.711e-01   2.192e+00  9  sdss  5895  82S  5 
  128  53700.357433  1  21.492  0.089  0.071  0.115   9.005e+00   7.412e-01   5.917e-01   9.664e-01  14  sdss  5905  82S  5 
   32  53700.354116  2  21.740  0.146  0.039  0.115   7.253e+00   9.827e-01   2.607e-01   7.766e-01  16  sdss  5905  82S  5 
   32  53700.354946  3  21.672  0.208  0.043  0.116   7.602e+00   1.473e+00   3.062e-01   8.293e-01  14  sdss  5905  82S  5 
   32  53700.356604  4  21.576  0.551  0.184  0.338   7.590e+00   4.538e+00   1.576e+00   2.890e+00  15  sdss  5905  82S  5 
    0  53700.355775  0  21.520  0.216  0.093  0.272   9.501e+00   1.888e+00   8.205e-01   2.405e+00  9  sdss  5905  82S  5 
   32  53705.344105  1  21.908  0.120  0.016  0.142   6.130e+00   6.820e-01   9.383e-02   8.143e-01  14  sdss  5924  82S  5 
   32  53705.340788  2  21.790  0.159  0.113  0.151   6.924e+00   1.023e+00   7.333e-01   9.794e-01  16  sdss  5924  82S  5 
   32  53705.341617  3  21.451  0.194  0.097  0.170   9.341e+00   1.683e+00   8.478e-01   1.490e+00  14  sdss  5924  82S  5 
   32  53705.343275  4  21.456  0.499  0.179  0.366   8.660e+00   4.504e+00   1.677e+00   3.431e+00  15  sdss  5924  82S  5 
   32  53705.342446  0  21.735  0.314  0.084  0.522   7.783e+00   2.222e+00   6.094e-01   3.797e+00  9  sdss  5924  82S  5 
