# SDSS CID:   4680 IAU:          RA:  19.817331 DEC:  -0.863773  (J2000)
# GALAXY_SB [ugriz] = [ 23.82 23.37 22.77 22.04 21.55 ] +/- [  0.37  0.06  0.03  0.03  0.06 ] (asinh mag/square arcsec)
# GALAXY_SB_FLUX [ugriz] = [  8.644E-01  1.535E+00  2.762E+00  5.375E+00  7.732E+00 ] +/- [  4.579E-01  9.516E-02  8.979E-02  1.295E-01  5.199E-01 ] (microJy per square arcsec)
#FLAG  MJD       FILT  MAG     MERR  MSKYERR MGALERR  FLUX       FLUXERR    SKYERR     GALERR    NPRE TELE   RUN  STRIP  IDCCD
   32  53616.369403  1  23.052  0.355  0.165  0.569   2.095e+00   6.852e-01   3.281e-01   1.131e+00  13  sdss  5566  82N  1 
   32  53616.366086  2  23.892  0.924  0.975  0.884   8.149e-01   1.004e+00   1.069e+00   9.693e-01  19  sdss  5566  82N  1 
   32  53616.366915  3  22.359  0.432  0.262  0.349   3.965e+00   1.588e+00   1.007e+00   1.342e+00  16  sdss  5566  82N  1 
   32  53616.368574  4  21.240  0.471  0.453  0.392   1.087e+01   5.033e+00   5.048e+00   4.368e+00  18  sdss  5566  82N  1 
    0  53616.367745  0  23.994  1.369  0.566  4.427   6.935e-01   1.794e+00   6.447e-01   5.043e+00  9  sdss  5566  82N  1 
    0  53626.346103  1  23.200  0.320  0.022  0.298   1.816e+00   5.470e-01   3.839e-02   5.207e-01  13  sdss  5603  82N  1 
    0  53626.342786  2  22.792  0.300  0.085  0.153   2.693e+00   7.661e-01   2.216e-01   3.992e-01  19  sdss  5603  82N  1 
   32  53626.343615  3  22.440  0.347  0.073  0.160   3.665e+00   1.207e+00   2.625e-01   5.740e-01  16  sdss  5603  82N  1 
    0  53626.345274  4  21.627  0.450  0.082  0.252   7.170e+00   3.606e+00   6.769e-01   2.070e+00  18  sdss  5603  82N  1 
  128  53626.344445  0  22.783  0.562  0.057  1.032   2.886e+00   1.408e+00   1.524e-01   2.759e+00  9  sdss  5603  82N  1 
   33  53628.331170  1  23.046  0.807  0.266  0.421   2.107e+00   1.409e+00   5.313e-01   8.418e-01  13  sdss  5610  82N  1 
 1185  53628.327853  2  22.831  0.569  0.121  0.268   2.593e+00   1.336e+00   3.047e-01   6.741e-01  19  sdss  5610  82N  1 
   32  53628.328682  3  22.930  0.757  0.123  0.379   2.232e+00   1.659e+00   2.925e-01   8.999e-01  16  sdss  5610  82N  1 
   32  53628.330341  4  21.632  0.643  0.153  0.468   7.129e+00   5.040e+00   1.250e+00   3.830e+00  18  sdss  5610  82N  1 
    3  53628.329511  0  27.025  1.120  0.197  1.601  -4.563e+00   3.556e+00   7.995e-01   6.501e+00  9  sdss  5610  82N  1 
    1  53635.339792  1  23.393  0.895  0.210  0.365   1.500e+00   1.161e+00   3.109e-01   5.403e-01  13  sdss  5622  82N  1 
    1  53635.336475  2  24.946  1.019  0.148  0.307  -1.153e-01   9.421e-01   1.191e-01   2.475e-01  19  sdss  5622  82N  1 
   32  53635.337304  3  22.636  0.459  0.084  0.125   3.020e+00   1.331e+00   2.543e-01   3.769e-01  16  sdss  5622  82N  1 
  128  53635.338963  4  23.330  0.699  0.264  0.417  -2.513e+00   3.919e+00   1.426e+00   2.249e+00  18  sdss  5622  82N  1 
    1  53635.338134  0  24.081  1.657  0.418  2.101   5.946e-01   2.359e+00   4.580e-01   2.304e+00  9  sdss  5622  82N  1 
    1  53637.333204  1  22.473  0.291  0.143  0.209   3.625e+00   9.489e-01   4.770e-01   6.994e-01  13  sdss  5633  82N  1 
    0  53637.329887  2  22.469  0.330  0.076  0.174   3.667e+00   1.114e+00   2.627e-01   6.044e-01  19  sdss  5633  82N  1 
   32  53637.330716  3  22.818  0.661  0.228  0.331   2.510e+00   1.598e+00   5.925e-01   8.597e-01  16  sdss  5633  82N  1 
   32  53637.332374  4  22.459  0.959  0.314  0.760   1.858e+00   5.471e+00   1.622e+00   3.927e+00  18  sdss  5633  82N  1 
    1  53637.331545  0  22.345  0.708  0.142  1.174   4.398e+00   2.477e+00   5.560e-01   4.604e+00  9  sdss  5633  82N  1 
    0  53639.378592  1  22.682  0.229  0.074  0.187   2.979e+00   6.245e-01   2.037e-01   5.176e-01  13  sdss  5642  82N  1 
   32  53639.375274  2  22.970  0.358  0.155  0.162   2.263e+00   7.767e-01   3.470e-01   3.622e-01  19  sdss  5642  82N  1 
   32  53639.376104  3  22.463  0.336  0.134  0.133   3.584e+00   1.149e+00   4.707e-01   4.656e-01  16  sdss  5642  82N  1 
   32  53639.377762  4  22.773  0.700  0.561  0.557   2.922e-01   3.661e+00   2.739e+00   2.722e+00  18  sdss  5642  82N  1 
  128  53639.376933  0  22.743  0.658  0.172  1.221   3.002e+00   1.669e+00   4.756e-01   3.379e+00  9  sdss  5642  82N  1 
    0  53641.377809  1  22.758  0.224  0.026  0.203   2.773e+00   5.721e-01   6.833e-02   5.250e-01  13  sdss  5658  82N  1 
    0  53641.374492  2  22.687  0.256  0.045  0.095   2.980e+00   7.191e-01   1.285e-01   2.724e-01  19  sdss  5658  82N  1 
   32  53641.375321  3  22.892  0.471  0.041  0.149   2.323e+00   1.110e+00   9.935e-02   3.653e-01  16  sdss  5658  82N  1 
   32  53641.376980  4  22.469  0.642  0.267  0.366   1.806e+00   3.453e+00   1.378e+00   1.887e+00  18  sdss  5658  82N  1 
    0  53641.376150  0  23.051  0.749  0.072  1.061   2.209e+00   1.467e+00   1.550e-01   2.270e+00  9  sdss  5658  82N  1 
    0  53644.325589  1  22.548  0.176  0.022  0.192   3.379e+00   5.445e-01   6.979e-02   5.985e-01  13  sdss  5670  82N  1 
   32  53644.322272  2  22.822  0.332  0.025  0.224   2.616e+00   8.208e-01   6.325e-02   5.699e-01  19  sdss  5670  82N  1 
   32  53644.323101  3  22.442  0.362  0.172  0.232   3.658e+00   1.255e+00   6.153e-01   8.301e-01  16  sdss  5670  82N  1 
    0  53644.324759  4  21.588  0.427  0.290  0.299   7.495e+00   3.525e+00   2.456e+00   2.529e+00  18  sdss  5670  82N  1 
    0  53644.323930  0  22.476  0.462  0.074  0.973   3.881e+00   1.534e+00   2.581e-01   3.398e+00  9  sdss  5670  82N  1 
    8  53654.360389  1  22.910  0.237  0.110  0.205   2.400e+00   5.269e-01   2.471e-01   4.627e-01  13  sdss  5709  82N  1 
   32  53654.357072  2  23.251  0.484  0.212  0.203   1.705e+00   8.174e-01   3.741e-01   3.584e-01  19  sdss  5709  82N  1 
   32  53654.357901  3  22.917  0.568  0.279  0.194   2.263e+00   1.295e+00   6.703e-01   4.658e-01  16  sdss  5709  82N  1 
   32  53654.359559  4  22.488  0.836  0.408  0.491   1.710e+00   4.629e+00   2.091e+00   2.515e+00  18  sdss  5709  82N  1 
    8  53654.358730  0  22.639  0.553  0.261  0.947   3.320e+00   1.564e+00   7.908e-01   2.867e+00  9  sdss  5709  82N  1 
    1  53663.321207  1  22.174  0.243  0.039  0.075   4.791e+00   1.050e+00   1.723e-01   3.287e-01  13  sdss  5744  82N  1 
  129  53663.317890  2  22.541  0.330  0.078  0.081   3.425e+00   1.045e+00   2.553e-01   2.632e-01  19  sdss  5744  82N  1 
   32  53663.318719  3  22.579  0.426  0.091  0.105   3.196e+00   1.302e+00   2.906e-01   3.346e-01  16  sdss  5744  82N  1 
   32  53663.320377  4  22.247  0.645  0.228  0.316   2.995e+00   3.695e+00   1.278e+00   1.771e+00  18  sdss  5744  82N  1 
    1  53663.319548  0  22.332  0.723  0.094  0.468   4.449e+00   2.544e+00   3.728e-01   1.856e+00  9  sdss  5744  82N  1 
    1  53666.391272  1  23.038  0.485  0.170  0.249   2.123e+00   9.239e-01   3.422e-01   5.012e-01  13  sdss  5765  82N  1 
    0  53666.387955  2  22.956  0.437  0.019  0.147   2.295e+00   9.474e-01   4.344e-02   3.327e-01  19  sdss  5765  82N  1 
   32  53666.388784  3  22.445  0.378  0.082  0.121   3.647e+00   1.304e+00   2.930e-01   4.329e-01  16  sdss  5765  82N  1 
    0  53666.390442  4  23.133  0.735  0.286  0.388  -1.481e+00   3.962e+00   1.446e+00   1.963e+00  18  sdss  5765  82N  1 
  129  53666.389613  0  21.828  0.443  0.037  0.465   7.137e+00   2.627e+00   2.326e-01   2.904e+00  9  sdss  5765  82N  1 
   32  53668.310579  1  23.430  0.533  0.282  0.547   1.445e+00   7.249e-01   4.059e-01   7.854e-01  13  sdss  5770  82N  1 
   32  53668.307262  2  23.108  0.532  0.245  0.353   1.972e+00   1.000e+00   4.872e-01   7.018e-01  19  sdss  5770  82N  1 
   32  53668.308091  3  22.677  0.511  0.188  0.281   2.898e+00   1.418e+00   5.496e-01   8.222e-01  16  sdss  5770  82N  1 
    0  53668.309749  4  22.886  0.861  0.274  0.728  -2.588e-01   4.655e+00   1.336e+00   3.553e+00  18  sdss  5770  82N  1 
    0  53668.308920  0  24.405  1.456  0.643  4.746   2.549e-01   1.885e+00   6.390e-01   4.715e+00  9  sdss  5770  82N  1 
   32  53670.315577  1  23.031  0.304  0.082  0.407   2.137e+00   6.029e-01   1.660e-01   8.238e-01  13  sdss  5781  82N  1 
   32  53670.312260  2  23.843  0.785  0.090  0.520   8.695e-01   8.696e-01   1.019e-01   5.887e-01  19  sdss  5781  82N  1 
   32  53670.313089  3  22.627  0.441  0.152  0.222   3.047e+00   1.293e+00   4.643e-01   6.782e-01  16  sdss  5781  82N  1 
   32  53670.314748  4  21.893  0.675  0.463  0.519   5.175e+00   4.528e+00   3.160e+00   3.539e+00  18  sdss  5781  82N  1 
    0  53670.313918  0  22.149  0.375  0.100  0.981   5.290e+00   1.690e+00   4.662e-01   4.582e+00  9  sdss  5781  82N  1 
    0  53673.283595  1  22.954  0.241  0.034  0.210   2.302e+00   5.149e-01   7.352e-02   4.549e-01  13  sdss  5792  82N  1 
   32  53673.280278  2  23.060  0.439  0.120  0.273   2.070e+00   8.724e-01   2.475e-01   5.640e-01  19  sdss  5792  82N  1 
   32  53673.281107  3  22.317  0.314  0.085  0.133   4.129e+00   1.222e+00   3.404e-01   5.311e-01  16  sdss  5792  82N  1 
   32  53673.282766  4  22.432  0.667  0.314  0.377   1.998e+00   3.629e+00   1.635e+00   1.967e+00  18  sdss  5792  82N  1 
    0  53673.281936  0  22.460  0.435  0.097  0.727   3.941e+00   1.473e+00   3.446e-01   2.573e+00  9  sdss  5792  82N  1 
  128  53675.280299  1  23.055  0.296  0.043  0.376   2.088e+00   5.747e-01   8.542e-02   7.457e-01  13  sdss  5800  82N  1 
   32  53675.276982  2  22.634  0.330  0.132  0.219   3.135e+00   9.620e-01   3.954e-01   6.563e-01  19  sdss  5800  82N  1 
   32  53675.277811  3  22.411  0.390  0.121  0.203   3.769e+00   1.383e+00   4.453e-01   7.466e-01  16  sdss  5800  82N  1 
   32  53675.279470  4  22.267  0.892  0.789  0.751   2.885e+00   5.236e+00   4.383e+00   4.169e+00  18  sdss  5800  82N  1 
  128  53675.278641  0  22.708  0.590  0.118  1.451   3.103e+00   1.562e+00   3.370e-01   4.138e+00  9  sdss  5800  82N  1 
    8  53677.300973  1  22.532  0.161  0.071  0.139   3.430e+00   5.054e-01   2.243e-01   4.415e-01  13  sdss  5813  82N  1 
    0  53677.297656  2  22.935  0.331  0.050  0.140   2.342e+00   7.423e-01   1.161e-01   3.217e-01  19  sdss  5813  82N  1 
   32  53677.298485  3  22.550  0.353  0.018  0.123   3.290e+00   1.119e+00   5.928e-02   4.001e-01  16  sdss  5813  82N  1 
   32  53677.300144  4  22.159  0.562  0.117  0.321   3.499e+00   3.316e+00   6.827e-01   1.876e+00  18  sdss  5813  82N  1 
    8  53677.299314  0  23.021  0.662  0.374  1.042   2.276e+00   1.347e+00   8.205e-01   2.284e+00  9  sdss  5813  82N  1 
    0  53680.287769  1  23.068  0.285  0.029  0.299   2.065e+00   5.486e-01   5.619e-02   5.863e-01  13  sdss  5823  82N  1 
   32  53680.284452  2  23.086  0.400  0.181  0.186   2.017e+00   7.824e-01   3.665e-01   3.765e-01  19  sdss  5823  82N  1 
   32  53680.285281  3  23.219  0.643  0.259  0.263   1.617e+00   1.179e+00   4.925e-01   5.017e-01  16  sdss  5823  82N  1 
    0  53680.286939  4  23.444  0.624  0.109  0.420  -3.143e+00   3.606e+00   6.161e-01   2.385e+00  18  sdss  5823  82N  1 
    0  53680.286110  0  22.242  0.370  0.044  0.739   4.845e+00   1.538e+00   1.905e-01   3.176e+00  9  sdss  5823  82N  1 
   33  53686.286960  1  23.489  1.669  0.433  0.632   1.361e+00   1.872e+00   5.921e-01   8.639e-01  13  sdss  5866  82N  1 
   33  53686.283643  2  23.301  1.107  0.478  0.312   1.618e+00   1.627e+00   8.089e-01   5.284e-01  19  sdss  5866  82N  1 
   33  53686.284472  3  22.934  0.914  0.596  0.336   2.222e+00   1.952e+00   1.410e+00   7.961e-01  16  sdss  5866  82N  1 
   32  53686.286131  4  22.563  0.940  0.258  0.686   1.329e+00   5.263e+00   1.296e+00   3.451e+00  18  sdss  5866  82N  1 
    1  53686.285302  0  22.520  1.790  0.526  1.451   3.720e+00   4.176e+00   1.768e+00   4.871e+00  9  sdss  5866  82N  1 
    1  53693.288883  1  22.471  0.371  0.074  0.156   3.632e+00   1.198e+00   2.483e-01   5.215e-01  13  sdss  5878  82N  1 
    1  53693.285566  2  22.355  0.304  0.055  0.107   4.084e+00   1.140e+00   2.128e-01   4.106e-01  19  sdss  5878  82N  1 
    0  53693.286395  3  22.039  0.278  0.065  0.088   5.385e+00   1.393e+00   3.328e-01   4.474e-01  16  sdss  5878  82N  1 
  160  53693.288054  4  22.095  0.672  0.288  0.398   3.879e+00   4.094e+00   1.744e+00   2.409e+00  18  sdss  5878  82N  1 
  129  53693.287224  0  23.962  1.904  0.098  2.447   7.302e-01   3.017e+00   1.137e-01   2.829e+00  9  sdss  5878  82N  1 
    0  53698.285945  1  22.232  0.147  0.023  0.175   4.539e+00   6.070e-01   9.714e-02   7.281e-01  13  sdss  5898  82N  1 
    0  53698.282628  2  22.539  0.272  0.173  0.161   3.432e+00   8.702e-01   5.635e-01   5.261e-01  19  sdss  5898  82N  1 
   32  53698.283457  3  22.671  0.461  0.174  0.214   2.915e+00   1.297e+00   5.111e-01   6.293e-01  16  sdss  5898  82N  1 
   32  53698.285115  4  22.073  0.689  0.456  0.467   4.013e+00   4.238e+00   2.790e+00   2.857e+00  18  sdss  5898  82N  1 
    0  53698.284286  0  23.417  1.126  0.261  2.624   1.495e+00   1.693e+00   4.215e-01   4.237e+00  9  sdss  5898  82N  1 
    0  53704.271381  1  22.581  0.193  0.021  0.218   3.277e+00   5.782e-01   6.254e-02   6.615e-01  13  sdss  5918  82N  1 
  160  53704.268064  2  23.227  0.523  0.201  0.362   1.748e+00   8.954e-01   3.614e-01   6.507e-01  19  sdss  5918  82N  1 
   32  53704.268893  3  22.229  0.324  0.166  0.159   4.494e+00   1.360e+00   7.171e-01   6.836e-01  16  sdss  5918  82N  1 
    0  53704.270551  4  24.137  0.499  0.252  0.283  -8.005e+00   4.269e+00   2.229e+00   2.507e+00  18  sdss  5918  82N  1 
    0  53704.269722  0  24.024  1.243  0.261  2.971   6.585e-01   1.568e+00   2.937e-01   3.338e+00  9  sdss  5918  82N  1 
