# SDSS CID:  13050 IAU:          RA: 336.401398 DEC:  -0.237513  (J2000)
# GALAXY_SB [ugriz] = [ 22.71 22.10 21.42 20.91 20.57 ] +/- [  0.00  0.00  0.00  0.00  0.00 ] (asinh mag/square arcsec)
# GALAXY_SB_FLUX [ugriz] = [  3.002E+00  5.100E+00  9.792E+00  1.540E+01  2.079E+01 ] +/- [  0.000E+00  0.000E+00  0.000E+00  0.000E+00  0.000E+00 ] (microJy per square arcsec)
#FLAG  MJD       FILT  MAG     MERR  MSKYERR MGALERR  FLUX       FLUXERR    SKYERR     GALERR    NPRE TELE   RUN  STRIP  IDCCD
  288  53975.239447  1  22.733  0.225  0.149  0.000   2.840e+00   5.907e-01   3.978e-01   0.000e+00  10  sdss  6287  82S  3 
  288  53975.236130  2  22.919  0.367  0.091  0.000   2.381e+00   8.299e-01   2.124e-01   0.000e+00  11  sdss  6287  82S  3 
  288  53975.236959  3  22.449  0.375  0.120  0.000   3.634e+00   1.285e+00   4.225e-01   0.000e+00  11  sdss  6287  82S  3 
  288  53975.238618  4  21.421  0.491  0.123  0.000   8.994e+00   4.556e+00   1.184e+00   0.000e+00  11  sdss  6287  82S  3 
  288  53975.237789  0  22.984  0.804  0.112  0.000   2.364e+00   1.686e+00   2.630e-01   0.000e+00  3  sdss  6287  82S  3 
  288  53993.307155  1  22.252  0.152  0.050  0.000   4.456e+00   6.239e-01   2.073e-01   0.000e+00  10  sdss  6348  82S  3 
  288  53993.303838  2  22.516  0.261  0.091  0.000   3.509e+00   8.510e-01   3.025e-01   0.000e+00  11  sdss  6348  82S  3 
  288  53993.304667  3  22.247  0.291  0.065  0.000   4.419e+00   1.205e+00   2.760e-01   0.000e+00  11  sdss  6348  82S  3 
  288  53993.306326  4  22.058  0.603  0.235  0.000   4.106e+00   3.728e+00   1.455e+00   0.000e+00  11  sdss  6348  82S  3 
  384  53993.305496  0  22.325  0.439  0.019  0.000   4.482e+00   1.736e+00   8.077e-02   0.000e+00  3  sdss  6348  82S  3 
  288  53996.245956  1  22.199  0.134  0.066  0.000   4.680e+00   5.773e-01   2.870e-01   0.000e+00  10  sdss  6367  82S  3 
  288  53996.242639  2  22.735  0.309  0.087  0.000   2.846e+00   8.250e-01   2.368e-01   0.000e+00  11  sdss  6367  82S  3 
  288  53996.243469  3  22.169  0.273  0.076  0.000   4.762e+00   1.213e+00   3.437e-01   0.000e+00  11  sdss  6367  82S  3 
  256  53996.245127  4  22.928  0.753  0.251  0.000  -4.626e-01   3.984e+00   1.231e+00   0.000e+00  11  sdss  6367  82S  3 
  288  53996.244298  0  23.253  1.028  0.111  0.000   1.788e+00   1.730e+00   2.092e-01   0.000e+00  3  sdss  6367  82S  3 
  288  53998.214377  1  22.336  0.150  0.037  0.000   4.121e+00   5.695e-01   1.393e-01   0.000e+00  10  sdss  6377  82S  3 
  288  53998.211060  2  22.311  0.204  0.052  0.000   4.258e+00   8.054e-01   2.062e-01   0.000e+00  11  sdss  6377  82S  3 
  288  53998.211889  3  22.466  0.366  0.105  0.000   3.575e+00   1.238e+00   3.650e-01   0.000e+00  11  sdss  6377  82S  3 
  288  53998.213548  4  22.036  0.602  0.249  0.000   4.242e+00   3.759e+00   1.561e+00   0.000e+00  11  sdss  6377  82S  3 
  264  53998.212719  0  22.017  0.281  0.148  0.000   5.984e+00   1.506e+00   8.089e-01   0.000e+00  3  sdss  6377  82S  3 
  288  54005.244487  1  22.612  0.187  0.089  0.000   3.183e+00   5.495e-01   2.632e-01   0.000e+00  10  sdss  6402  82S  3 
  288  54005.241170  2  22.672  0.286  0.082  0.000   3.023e+00   8.089e-01   2.371e-01   0.000e+00  11  sdss  6402  82S  3 
  288  54005.241999  3  23.652  0.831  0.185  0.000   9.013e-01   1.227e+00   2.667e-01   0.000e+00  11  sdss  6402  82S  3 
  256  54005.243658  4  23.091  0.705  0.311  0.000  -1.271e+00   3.757e+00   1.559e+00   0.000e+00  11  sdss  6402  82S  3 
  416  54005.242828  0  23.686  1.110  0.142  0.000   1.084e+00   1.512e+00   1.954e-01   0.000e+00  3  sdss  6402  82S  3 
  288  54008.204921  1  22.933  0.332  0.220  0.000   2.349e+00   7.194e-01   4.901e-01   0.000e+00  10  sdss  6417  82S  3 
  312  54008.201604  2  23.193  0.670  2.826  0.000   1.810e+00   1.143e+00   5.212e+00   0.000e+00  11  sdss  6417  82S  3 
 1464  54008.202433  3  22.614  0.539  5.490  0.000   3.088e+00   1.561e+00   1.685e+01   0.000e+00  11  sdss  6417  82S  3 
  288  54008.204092  4  21.408  0.491  0.134  0.000   9.119e+00   4.604e+00   1.302e+00   0.000e+00  11  sdss  6417  82S  3 
  288  54008.203262  0  24.007  1.503  0.168  0.000   6.779e-01   2.054e+00   1.922e-01   0.000e+00  3  sdss  6417  82S  3 
  289  54010.199211  1  22.680  0.330  0.118  0.000   2.986e+00   8.971e-01   3.301e-01   0.000e+00  10  sdss  6425  82S  3 
  289  54010.195893  2  22.605  0.327  0.080  0.000   3.224e+00   9.756e-01   2.463e-01   0.000e+00  11  sdss  6425  82S  3 
  288  54010.196724  3  23.130  0.672  0.129  0.000   1.792e+00   1.297e+00   2.603e-01   0.000e+00  11  sdss  6425  82S  3 
  288  54010.198382  4  22.641  0.717  0.277  0.000   9.424e-01   3.794e+00   1.370e+00   0.000e+00  11  sdss  6425  82S  3 
  289  54010.197553  0  24.430  1.550  0.105  0.000   2.302e-01   2.077e+00   1.039e-01   0.000e+00  3  sdss  6425  82S  3 
  289  54012.192258  1  24.008  1.505  0.838  0.000   7.732e-01   1.377e+00   7.718e-01   0.000e+00  10  sdss  6433  82S  3 
  289  54012.188942  2  22.534  0.448  0.083  0.000   3.448e+00   1.394e+00   2.708e-01   0.000e+00  11  sdss  6433  82S  3 
  289  54012.189771  3  22.142  0.354  0.048  0.000   4.885e+00   1.591e+00   2.201e-01   0.000e+00  11  sdss  6433  82S  3 
  256  54012.191429  4  23.702  0.649  0.133  0.000  -4.709e+00   4.206e+00   8.705e-01   0.000e+00  11  sdss  6433  82S  3 
  417  54012.190600  0  23.280  1.827  0.075  0.000   1.737e+00   3.158e+00   1.386e-01   0.000e+00  3  sdss  6433  82S  3 
  288  54020.197426  1  23.012  0.315  0.119  0.000   2.178e+00   6.384e-01   2.476e-01   0.000e+00  10  sdss  6447  82S  3 
  288  54020.194109  2  22.750  0.350  0.124  0.000   2.805e+00   9.163e-01   3.339e-01   0.000e+00  11  sdss  6447  82S  3 
  288  54020.194938  3  23.627  0.933  0.324  0.000   9.378e-01   1.405e+00   4.739e-01   0.000e+00  11  sdss  6447  82S  3 
  288  54020.196597  4  22.360  0.771  0.320  0.000   2.376e+00   4.335e+00   1.712e+00   0.000e+00  11  sdss  6447  82S  3 
  416  54020.195768  0  23.354  1.045  0.126  0.000   1.603e+00   1.657e+00   2.199e-01   0.000e+00  3  sdss  6447  82S  3 
  312  54022.246694  1  23.362  0.339  0.516  0.000   1.547e+00   5.068e-01   7.917e-01   0.000e+00  10  sdss  6453  82S  3 
  288  54022.243377  2  23.143  0.440  0.202  0.000   1.904e+00   8.147e-01   3.885e-01   0.000e+00  11  sdss  6453  82S  3 
  288  54022.244206  3  23.278  0.688  0.098  0.000   1.509e+00   1.211e+00   1.782e-01   0.000e+00  11  sdss  6453  82S  3 
  288  54022.245864  4  21.523  0.423  0.165  0.000   8.052e+00   3.668e+00   1.472e+00   0.000e+00  11  sdss  6453  82S  3 
  424  54022.245035  0  22.611  0.478  0.266  0.000   3.411e+00   1.460e+00   8.584e-01   0.000e+00  3  sdss  6453  82S  3 
  288  54028.187633  1  23.352  0.385  0.188  0.000   1.563e+00   5.776e-01   2.915e-01   0.000e+00  10  sdss  6468  82S  3 
  288  54028.184316  2  23.047  0.455  0.120  0.000   2.097e+00   9.081e-01   2.506e-01   0.000e+00  11  sdss  6468  82S  3 
  288  54028.185145  3  23.471  0.827  0.184  0.000   1.177e+00   1.313e+00   2.951e-01   0.000e+00  11  sdss  6468  82S  3 
  256  54028.186804  4  23.533  0.740  0.488  0.000  -3.654e+00   4.459e+00   2.892e+00   0.000e+00  11  sdss  6468  82S  3 
  424  54028.185974  0  23.589  1.192  0.721  0.000   1.223e+00   1.696e+00   1.059e+00   0.000e+00  3  sdss  6468  82S  3 
  288  54030.190575  1  23.298  0.340  0.072  0.000   1.648e+00   5.371e-01   1.165e-01   0.000e+00  10  sdss  6479  82S  3 
  288  54030.187258  2  23.345  0.516  0.162  0.000   1.545e+00   8.051e-01   2.644e-01   0.000e+00  11  sdss  6479  82S  3 
  288  54030.188088  3  22.573  0.390  0.069  0.000   3.217e+00   1.200e+00   2.193e-01   0.000e+00  11  sdss  6479  82S  3 
  288  54030.189746  4  22.023  0.602  0.058  0.000   4.323e+00   3.786e+00   3.674e-01   0.000e+00  11  sdss  6479  82S  3 
  296  54030.188917  0  23.637  1.049  0.469  0.000   1.152e+00   1.452e+00   6.657e-01   0.000e+00  3  sdss  6479  82S  3 
  290  54035.265898  1  23.222  0.492  0.203  0.000   1.776e+00   8.071e-01   3.503e-01   0.000e+00  10  sdss  6501  82S  3 
 1442  54035.262581  2  23.835  1.440  1.845  0.000   8.790e-01   1.699e+00   2.096e+00   0.000e+00  11  sdss  6501  82S  3 
  288  54035.263410  3  22.920  0.939  0.571  0.000   2.256e+00   2.010e+00   1.361e+00   0.000e+00  11  sdss  6501  82S  3 
  288  54035.265069  4  21.846  0.965  0.326  0.000   5.505e+00   6.635e+00   2.296e+00   0.000e+00  11  sdss  6501  82S  3 
  426  54035.264239  0  22.601  1.124  1.516  0.000   3.443e+00   2.916e+00   4.925e+00   0.000e+00  3  sdss  6501  82S  3 
  289  54037.171294  1  24.118  0.813  0.628  0.000   6.759e-01   6.763e-01   5.359e-01   0.000e+00  10  sdss  6508  82S  3 
  288  54037.167978  2  24.050  0.934  0.394  0.000   6.499e-01   9.549e-01   3.929e-01   0.000e+00  11  sdss  6508  82S  3 
  296  54037.168807  3  23.558  0.892  0.604  0.000   1.042e+00   1.373e+00   9.185e-01   0.000e+00  11  sdss  6508  82S  3 
  288  54037.170465  4  22.489  0.757  0.252  0.000   1.705e+00   4.131e+00   1.291e+00   0.000e+00  11  sdss  6508  82S  3 
  392  54037.169636  0  22.473  0.518  0.152  0.000   3.894e+00   1.770e+00   5.545e-01   0.000e+00  3  sdss  6508  82S  3 
  289  54040.185378  1  22.583  0.650  0.149  0.000   3.270e+00   1.788e+00   4.532e-01   0.000e+00  10  sdss  6518  82S  3 
  289  54040.182061  2  23.311  1.349  1.018  0.000   1.602e+00   1.931e+00   1.704e+00   0.000e+00  11  sdss  6518  82S  3 
  289  54040.182891  3  22.880  0.957  0.538  0.000   2.353e+00   2.098e+00   1.323e+00   0.000e+00  11  sdss  6518  82S  3 
  257  54040.184549  4  24.093  0.728  0.239  0.000  -7.619e+00   5.884e+00   2.046e+00   0.000e+00  11  sdss  6518  82S  3 
  393  54040.183720  0  21.867  0.615  0.368  0.000   6.883e+00   3.507e+00   2.308e+00   0.000e+00  3  sdss  6518  82S  3 
  290  54050.169058  1  23.309  0.519  0.600  0.000   1.630e+00   7.865e-01   9.621e-01   0.000e+00  10  sdss  6542  82S  3 
  290  54050.165741  2  22.680  0.517  0.360  0.000   3.000e+00   1.394e+00   1.033e+00   0.000e+00  11  sdss  6542  82S  3 
  258  54050.166570  3  24.626  1.384  2.418  0.000  -3.161e-01   2.137e+00   2.948e+00   0.000e+00  11  sdss  6542  82S  3 
  256  54050.168229  4  23.797  0.994  0.911  0.000  -5.345e+00   6.777e+00   6.322e+00   0.000e+00  11  sdss  6542  82S  3 
  426  54050.167400  0  23.461  1.517  1.712  0.000   1.422e+00   2.346e+00   2.750e+00   0.000e+00  3  sdss  6542  82S  3 
  288  54053.174834  1  23.388  0.481  0.201  0.000   1.507e+00   6.890e-01   3.022e-01   0.000e+00  10  sdss  6555  82S  3 
  256  54053.171517  2  25.142  1.045  0.498  0.000  -2.760e-01   9.909e-01   4.171e-01   0.000e+00  11  sdss  6555  82S  3 
  288  54053.172346  3  23.694  1.004  0.548  0.000   8.425e-01   1.497e+00   7.746e-01   0.000e+00  11  sdss  6555  82S  3 
  288  54053.174004  4  22.330  0.903  1.140  0.000   2.543e+00   5.227e+00   6.172e+00   0.000e+00  11  sdss  6555  82S  3 
  296  54053.173175  0  23.064  0.918  0.865  0.000   2.179e+00   1.776e+00   1.892e+00   0.000e+00  3  sdss  6555  82S  3 
  288  54056.176150  1  24.533  1.045  0.871  0.000   3.612e-01   7.628e-01   5.885e-01   0.000e+00  10  sdss  6568  82S  3 
  288  54056.172833  2  24.481  1.308  1.239  0.000   2.601e-01   1.335e+00   1.033e+00   0.000e+00  11  sdss  6568  82S  3 
  416  54056.173662  3  23.155  1.204  1.047  0.000   1.742e+00   2.227e+00   2.080e+00   0.000e+00  11  sdss  6568  82S  3 
 1408  54056.175321  4  24.347  0.770  0.677  0.000  -1.002e+01   7.367e+00   7.091e+00   0.000e+00  11  sdss  6568  82S  3 
 1418  54056.174492  0  25.519  1.875  3.248  0.000  -9.141e-01   2.984e+00   4.133e+00   0.000e+00  3  sdss  6568  82S  3 
  288  54057.144722  1  24.146  0.666  0.255  0.000   6.521e-01   5.468e-01   2.136e-01   0.000e+00  10  sdss  6571  82S  3 
  288  54057.141405  2  24.391  0.955  0.328  0.000   3.363e-01   8.965e-01   2.806e-01   0.000e+00  11  sdss  6571  82S  3 
  256  54057.142234  3  24.692  1.009  0.316  0.000  -3.963e-01   1.404e+00   3.914e-01   0.000e+00  11  sdss  6571  82S  3 
  288  54057.143893  4  21.670  0.593  0.271  0.000   6.819e+00   4.567e+00   2.159e+00   0.000e+00  11  sdss  6571  82S  3 
  256  54057.143063  0  24.754  1.405  0.056  0.000  -8.559e-02   1.775e+00   5.470e-02   0.000e+00  3  sdss  6571  82S  3 
  288  54059.170115  1  23.894  0.731  0.700  0.000   8.832e-01   6.935e-01   7.000e-01   0.000e+00  10  sdss  6580  82S  3 
  288  54059.166799  2  23.561  0.767  0.447  0.000   1.222e+00   9.967e-01   6.166e-01   0.000e+00  11  sdss  6580  82S  3 
  288  54059.167628  3  22.883  0.639  0.271  0.000   2.345e+00   1.472e+00   6.643e-01   0.000e+00  11  sdss  6580  82S  3 
  256  54059.169286  4  24.181  0.594  0.491  0.000  -8.405e+00   5.193e+00   4.501e+00   0.000e+00  11  sdss  6580  82S  3 
  424  54059.168457  0  22.401  0.504  0.206  0.000   4.170e+00   1.840e+00   7.991e-01   0.000e+00  3  sdss  6580  82S  3 
  288  54061.181323  1  24.670  0.937  0.608  0.000   2.714e-01   6.504e-01   3.882e-01   0.000e+00  10  sdss  6590  82S  3 
  256  54061.178006  2  25.374  1.037  0.596  0.000  -4.779e-01   1.024e+00   5.436e-01   0.000e+00  11  sdss  6590  82S  3 
  256  54061.178836  3  24.745  1.045  0.647  0.000  -4.627e-01   1.478e+00   8.135e-01   0.000e+00  11  sdss  6590  82S  3 
  384  54061.180494  4  23.366  0.925  0.549  0.000  -2.707e+00   5.417e+00   3.012e+00   0.000e+00  11  sdss  6590  82S  3 
 1440  54061.179665  0  23.492  1.244  0.176  0.000   1.372e+00   1.847e+00   2.770e-01   0.000e+00  3  sdss  6590  82S  3 
  416  54062.175110  1  23.291  0.475  0.333  0.000   1.660e+00   7.379e-01   5.430e-01   0.000e+00  10  sdss  6596  82S  3 
  288  54062.171793  2  23.849  0.997  0.521  0.000   8.632e-01   1.106e+00   5.866e-01   0.000e+00  11  sdss  6596  82S  3 
  288  54062.172622  3  23.748  1.153  0.692  0.000   7.667e-01   1.744e+00   9.535e-01   0.000e+00  11  sdss  6596  82S  3 
  256  54062.174281  4  24.136  0.703  0.259  0.000  -7.991e+00   5.867e+00   2.296e+00   0.000e+00  11  sdss  6596  82S  3 
  424  54062.173452  0  23.656  1.469  0.913  0.000   1.125e+00   2.129e+00   1.280e+00   0.000e+00  3  sdss  6596  82S  3 
  419  54068.164135  1  23.784  2.026  1.294  0.000   9.987e-01   2.227e+00   1.407e+00   0.000e+00  10  sdss  6615  82S  3 
  257  54068.160818  2  26.073  1.644  1.346  0.000  -1.262e+00   2.195e+00   1.896e+00   0.000e+00  11  sdss  6615  82S  3 
  257  54068.161648  3  26.044  1.124  1.059  0.000  -2.889e+00   2.735e+00   3.074e+00   0.000e+00  11  sdss  6615  82S  3 
  256  54068.163306  4  23.173  1.360  1.389  0.000  -1.685e+00   8.632e+00   7.113e+00   0.000e+00  11  sdss  6615  82S  3 
 1409  54068.162477  0  21.220  0.825  0.129  0.000   1.254e+01   7.914e+00   1.466e+00   0.000e+00  3  sdss  6615  82S  3 
