# SDSS CID:   7209 IAU:          RA:  44.037888 DEC:   0.578148  (J2000)
# GALAXY_SB [ugriz] = [ 22.09 20.08 19.12 18.61 18.28 ] +/- [  0.00  0.00  0.00  0.00  0.00 ] (asinh mag/square arcsec)
# GALAXY_SB_FLUX [ugriz] = [  5.424E+00  3.289E+01  8.161E+01  1.287E+02  1.749E+02 ] +/- [  0.000E+00  0.000E+00  0.000E+00  0.000E+00  0.000E+00 ] (microJy per square arcsec)
#FLAG  MJD       FILT  MAG     MERR  MSKYERR MGALERR  FLUX       FLUXERR    SKYERR     GALERR    NPRE TELE   RUN  STRIP  IDCCD
  256  53622.448422  1  26.264  0.913  0.379  0.000  -8.070e-01   8.209e-01   3.608e-01   0.000e+00  16  sdss  5582  82S  5 
  288  53622.445105  2  23.822  1.128  0.495  0.000   8.941e-01   1.280e+00   5.696e-01   0.000e+00  16  sdss  5582  82S  5 
  288  53622.445934  3  21.153  0.166  0.060  0.000   1.233e+01   1.891e+00   6.903e-01   0.000e+00  16  sdss  5582  82S  5 
  288  53622.447593  4  21.042  0.389  0.129  0.000   1.327e+01   4.993e+00   1.712e+00   0.000e+00  14  sdss  5582  82S  5 
  256  53622.446764  0  25.811  0.977  0.407  0.000  -1.327e+00   1.430e+00   6.300e-01   0.000e+00  16  sdss  5582  82S  5 
  256  53627.405743  1  26.812  0.666  0.361  0.000  -1.454e+00   9.012e-01   5.303e-01   0.000e+00  16  sdss  5607  82S  5 
  256  53627.402425  2  25.065  1.373  0.814  0.000  -2.117e-01   1.426e+00   6.697e-01   0.000e+00  16  sdss  5607  82S  5 
  288  53627.403255  3  22.710  0.826  0.343  0.000   2.804e+00   2.106e+00   9.803e-01   0.000e+00  16  sdss  5607  82S  5 
  256  53627.404913  4  25.308  0.320  0.075  0.000  -2.560e+01   7.561e+00   1.826e+00   0.000e+00  14  sdss  5607  82S  5 
  384  53627.404084  0  25.978  0.958  0.334  0.000  -1.604e+00   1.538e+00   5.857e-01   0.000e+00  16  sdss  5607  82S  5 
  257  53634.398751  1  27.086  1.074  0.362  0.000  -1.906e+00   1.628e+00   6.741e-01   0.000e+00  16  sdss  5619  82S  5 
  289  53634.395434  2  20.241  0.073  0.027  0.000   2.896e+01   1.947e+00   7.301e-01   0.000e+00  16  sdss  5619  82S  5 
  289  53634.396263  3  20.086  0.078  0.033  0.000   3.299e+01   2.393e+00   1.009e+00   0.000e+00  16  sdss  5619  82S  5 
  288  53634.397922  4  22.738  1.039  0.319  0.000   4.645e-01   5.885e+00   1.562e+00   0.000e+00  14  sdss  5619  82S  5 
  257  53634.397092  0  25.905  1.859  0.459  0.000  -1.480e+00   3.135e+00   7.615e-01   0.000e+00  16  sdss  5619  82S  5 
  289  53638.440384  1  24.489  1.227  0.704  0.000   3.913e-01   9.422e-01   4.862e-01   0.000e+00  16  sdss  5637  82S  5 
  256  53638.437066  2  26.655  0.660  0.195  0.000  -2.311e+00   1.380e+00   4.464e-01   0.000e+00  16  sdss  5637  82S  5 
  256  53638.437896  3  25.397  1.190  0.490  0.000  -1.419e+00   2.056e+00   8.678e-01   0.000e+00  16  sdss  5637  82S  5 
  288  53638.439554  4  22.589  1.001  0.326  0.000   1.200e+00   5.672e+00   1.629e+00   0.000e+00  14  sdss  5637  82S  5 
  289  53638.438725  0  23.657  1.316  0.559  0.000   1.124e+00   1.860e+00   7.867e-01   0.000e+00  16  sdss  5637  82S  5 
  256  53640.404478  1  25.384  1.305  0.881  0.000  -1.579e-01   9.760e-01   5.342e-01   0.000e+00  16  sdss  5646  82S  5 
  288  53640.401160  2  20.972  0.114  0.058  0.000   1.476e+01   1.552e+00   7.897e-01   0.000e+00  16  sdss  5646  82S  5 
  288  53640.401990  3  20.772  0.139  0.059  0.000   1.753e+01   2.253e+00   9.539e-01   0.000e+00  16  sdss  5646  82S  5 
  256  53640.403648  4  23.971  0.789  0.240  0.000  -6.623e+00   5.902e+00   1.883e+00   0.000e+00  14  sdss  5646  82S  5 
  288  53640.402819  0  24.163  1.410  0.783  0.000   5.047e-01   1.835e+00   8.393e-01   0.000e+00  16  sdss  5646  82S  5 
  288  53643.447135  1  24.956  1.399  1.623  0.000   9.554e-02   1.074e+00   9.664e-01   0.000e+00  16  sdss  5666  82S  5 
  256  53643.443818  2  26.390  0.980  0.419  0.000  -1.772e+00   1.561e+00   7.648e-01   0.000e+00  16  sdss  5666  82S  5 
  256  53643.444647  3  26.742  0.460  0.240  0.000  -5.684e+00   2.358e+00   1.299e+00   0.000e+00  16  sdss  5666  82S  5 
  288  53643.446305  4  20.925  0.462  0.172  0.000   1.488e+01   6.455e+00   2.515e+00   0.000e+00  14  sdss  5666  82S  5 
  288  53643.445476  0  22.708  0.741  0.446  0.000   3.106e+00   1.976e+00   1.331e+00   0.000e+00  16  sdss  5666  82S  5 
  272  53646.466086  1  25.506  1.320  1.567  0.000  -2.333e-01   1.003e+00   9.827e-01   0.000e+00  16  sdss  5681  82S  5 
  284  53646.462768  2  26.460  1.060  1.307  0.000  -1.903e+00   1.745e+00   2.531e+00   0.000e+00  16  sdss  5681  82S  5 
  316  53646.463598  3  23.342  1.459  1.897  0.000   1.394e+00   2.604e+00   3.326e+00   0.000e+00  16  sdss  5681  82S  5 
  256  53646.465256  4  23.538  1.064  0.463  0.000  -3.684e+00   6.678e+00   2.760e+00   0.000e+00  14  sdss  5681  82S  5 
  260  53646.464427  0  25.110  1.556  1.635  0.000  -4.430e-01   2.115e+00   1.715e+00   0.000e+00  16  sdss  5681  82S  5 
  259  53657.285382  1  27.798  0.902  0.955  0.000  -3.745e+00   2.629e+00   3.357e+00   0.000e+00  16  sdss  5730  82S  5 
  419  53657.282065  2  20.358  0.148  0.214  0.000   2.599e+01   3.556e+00   5.165e+00   0.000e+00  16  sdss  5730  82S  5 
 1409  53657.282894  3  28.896  0.174  0.166  0.000  -4.183e+01   6.691e+00   6.446e+00   0.000e+00  16  sdss  5730  82S  5 
  290  53657.284553  4  21.777  1.422  1.135  0.000   6.002e+00   1.049e+01   8.404e+00   0.000e+00  14  sdss  5730  82S  5 
 1411  53657.283724  0  27.568  1.664  0.905  0.000  -7.581e+00   7.202e+00   6.297e+00   0.000e+00  16  sdss  5730  82S  5 
  289  53663.467033  1  22.549  0.624  0.238  0.000   3.377e+00   1.802e+00   7.579e-01   0.000e+00  16  sdss  5745  82S  5 
  289  53663.463716  2  23.265  1.233  0.463  0.000   1.682e+00   1.833e+00   8.096e-01   0.000e+00  16  sdss  5745  82S  5 
  257  53663.464545  3  27.000  0.379  0.186  0.000  -7.242e+00   2.489e+00   1.269e+00   0.000e+00  16  sdss  5745  82S  5 
  256  53663.466204  4  23.243  0.986  0.309  0.000  -2.047e+00   5.699e+00   1.616e+00   0.000e+00  14  sdss  5745  82S  5 
  289  53663.465374  0  22.099  1.070  0.227  0.000   5.542e+00   4.308e+00   1.164e+00   0.000e+00  16  sdss  5745  82S  5 
  313  53664.402601  1  23.742  1.522  6.605  0.000   1.045e+00   1.534e+00   7.480e+00   0.000e+00  16  sdss  5754  82S  5 
  313  53664.399284  2  22.488  0.618  0.997  0.000   3.602e+00   1.936e+00   3.421e+00   0.000e+00  16  sdss  5754  82S  5 
  289  53664.400113  3  20.921  0.197  0.165  0.000   1.528e+01   2.777e+00   2.348e+00   0.000e+00  16  sdss  5754  82S  5 
  280  53664.401771  4  23.011  1.073  3.432  0.000  -8.749e-01   6.163e+00   1.697e+01   0.000e+00  14  sdss  5754  82S  5 
  289  53664.400942  0  22.567  1.288  0.274  0.000   3.557e+00   3.305e+00   9.231e-01   0.000e+00  16  sdss  5754  82S  5 
  289  53665.466967  1  22.080  0.261  0.095  0.000   5.229e+00   1.249e+00   4.642e-01   0.000e+00  16  sdss  5760  82S  5 
  289  53665.463650  2  21.536  0.209  0.112  0.000   8.765e+00   1.687e+00   9.151e-01   0.000e+00  16  sdss  5760  82S  5 
  289  53665.464479  3  21.473  0.274  0.150  0.000   9.157e+00   2.299e+00   1.284e+00   0.000e+00  16  sdss  5760  82S  5 
  289  53665.466138  4  21.174  0.501  0.240  0.000   1.162e+01   5.654e+00   2.840e+00   0.000e+00  14  sdss  5760  82S  5 
  257  53665.465308  0  25.922  1.816  0.539  0.000  -1.508e+00   3.039e+00   9.047e-01   0.000e+00  16  sdss  5760  82S  5 
  289  53668.455689  1  22.611  0.476  0.273  0.000   3.187e+00   1.353e+00   8.208e-01   0.000e+00  16  sdss  5771  82S  5 
  288  53668.452372  2  22.079  0.398  0.296  0.000   5.289e+00   1.897e+00   1.472e+00   0.000e+00  16  sdss  5771  82S  5 
  256  53668.453201  3  26.506  0.686  0.409  0.000  -4.542e+00   2.702e+00   1.791e+00   0.000e+00  16  sdss  5771  82S  5 
  288  53668.454860  4  21.480  0.895  0.350  0.000   8.446e+00   7.554e+00   3.235e+00   0.000e+00  14  sdss  5771  82S  5 
  257  53668.454030  0  26.130  1.694  1.153  0.000  -1.890e+00   2.941e+00   2.274e+00   0.000e+00  16  sdss  5771  82S  5 
  256  53669.361775  1  26.241  1.253  0.938  0.000  -7.854e-01   1.119e+00   8.772e-01   0.000e+00  16  sdss  5776  82S  5 
  256  53669.358457  2  25.504  1.457  1.134  0.000  -6.010e-01   1.633e+00   1.104e+00   0.000e+00  16  sdss  5776  82S  5 
  256  53669.359287  3  27.355  0.257  0.161  0.000  -1.008e+01   2.381e+00   1.517e+00   0.000e+00  16  sdss  5776  82S  5 
  256  53669.360945  4  24.469  0.560  0.191  0.000  -1.135e+01   6.131e+00   2.219e+00   0.000e+00  14  sdss  5776  82S  5 
  384  53669.360116  0  25.015  1.516  1.560  0.000  -3.446e-01   2.016e+00   1.588e+00   0.000e+00  16  sdss  5776  82S  5 
  288  53670.461720  1  22.018  0.231  0.120  0.000   5.538e+00   1.173e+00   6.212e-01   0.000e+00  16  sdss  5782  82S  5 
  288  53670.458403  2  22.548  0.574  0.345  0.000   3.403e+00   1.726e+00   1.123e+00   0.000e+00  16  sdss  5782  82S  5 
  256  53670.459232  3  27.387  0.244  0.132  0.000  -1.039e+01   2.334e+00   1.280e+00   0.000e+00  16  sdss  5782  82S  5 
  288  53670.460890  4  22.204  1.032  0.425  0.000   3.243e+00   6.307e+00   2.436e+00   0.000e+00  14  sdss  5782  82S  5 
  256  53670.460061  0  26.670  0.955  0.362  0.000  -3.250e+00   2.497e+00   1.127e+00   0.000e+00  16  sdss  5782  82S  5 
  288  53671.446495  1  23.602  0.895  0.481  0.000   1.212e+00   1.014e+00   6.091e-01   0.000e+00  16  sdss  5786  82S  5 
  288  53671.443178  2  20.419  0.070  0.028  0.000   2.457e+01   1.588e+00   6.340e-01   0.000e+00  16  sdss  5786  82S  5 
  288  53671.444008  3  22.693  0.783  0.276  0.000   2.852e+00   2.041e+00   7.996e-01   0.000e+00  16  sdss  5786  82S  5 
  256  53671.445666  4  24.090  0.703  0.164  0.000  -7.600e+00   5.705e+00   1.405e+00   0.000e+00  14  sdss  5786  82S  5 
  416  53671.444837  0  23.114  1.106  0.526  0.000   2.069e+00   2.018e+00   1.114e+00   0.000e+00  16  sdss  5786  82S  5 
  288  53674.345859  1  24.873  1.376  1.161  0.000   1.456e-01   1.053e+00   7.011e-01   0.000e+00  16  sdss  5797  82S  5 
  288  53674.342542  2  24.078  1.516  1.311  0.000   6.225e-01   1.736e+00   1.292e+00   0.000e+00  16  sdss  5797  82S  5 
  256  53674.343371  3  25.632  1.279  0.790  0.000  -1.871e+00   2.449e+00   1.661e+00   0.000e+00  16  sdss  5797  82S  5 
  256  53674.345030  4  23.583  1.044  0.500  0.000  -3.960e+00   6.616e+00   3.055e+00   0.000e+00  14  sdss  5797  82S  5 
  256  53674.344200  0  27.179  0.429  0.364  0.000  -5.272e+00   2.001e+00   1.779e+00   0.000e+00  16  sdss  5797  82S  5 
  288  53676.435291  1  23.287  0.736  0.448  0.000   1.666e+00   1.093e+00   7.391e-01   0.000e+00  16  sdss  5807  82S  5 
  288  53676.431974  2  23.848  1.375  0.857  0.000   8.646e-01   1.599e+00   9.690e-01   0.000e+00  16  sdss  5807  82S  5 
  288  53676.432803  3  20.199  0.083  0.032  0.000   2.974e+01   2.289e+00   8.971e-01   0.000e+00  16  sdss  5807  82S  5 
  288  53676.434462  4  22.392  0.907  0.214  0.000   2.207e+00   5.182e+00   1.132e+00   0.000e+00  14  sdss  5807  82S  5 
  288  53676.433633  0  23.073  0.989  0.370  0.000   2.159e+00   1.889e+00   8.104e-01   0.000e+00  16  sdss  5807  82S  5 
  288  53679.407529  1  24.431  1.340  0.995  0.000   4.325e-01   1.070e+00   7.085e-01   0.000e+00  16  sdss  5820  82S  5 
  256  53679.404212  2  25.357  1.507  1.612  0.000  -4.629e-01   1.681e+00   1.461e+00   0.000e+00  16  sdss  5820  82S  5 
  256  53679.405041  3  26.954  0.386  0.193  0.000  -6.937e+00   2.430e+00   1.263e+00   0.000e+00  16  sdss  5820  82S  5 
  256  53679.406700  4  24.415  0.617  0.195  0.000  -1.075e+01   6.417e+00   2.166e+00   0.000e+00  14  sdss  5820  82S  5 
  256  53679.405870  0  24.822  1.489  1.507  0.000  -1.519e-01   1.943e+00   1.475e+00   0.000e+00  16  sdss  5820  82S  5 
  288  53681.398989  1  23.141  0.527  0.242  0.000   1.922e+00   9.275e-01   4.525e-01   0.000e+00  16  sdss  5836  82S  5 
  288  53681.395672  2  22.147  0.356  0.284  0.000   4.963e+00   1.609e+00   1.326e+00   0.000e+00  16  sdss  5836  82S  5 
  256  53681.396501  3  24.982  1.376  1.035  0.000  -7.752e-01   2.206e+00   1.434e+00   0.000e+00  16  sdss  5836  82S  5 
  288  53681.398160  4  21.406  0.577  0.161  0.000   9.144e+00   5.372e+00   1.574e+00   0.000e+00  14  sdss  5836  82S  5 
  288  53681.397331  0  24.251  1.449  0.870  0.000   4.117e-01   1.893e+00   9.032e-01   0.000e+00  16  sdss  5836  82S  5 
 1316  53684.360177  1  24.401  2.204  5.500  0.000   4.539e-01   2.433e+00   3.978e+00   0.000e+00  16  sdss  5847  82S  5 
  404  53684.356860  2  26.940  1.150  1.437  0.000  -3.046e+00   2.646e+00   4.218e+00   0.000e+00  16  sdss  5847  82S  5 
  260  53684.357689  3  26.773  0.813  0.660  0.000  -5.852e+00   3.883e+00   3.668e+00   0.000e+00  16  sdss  5847  82S  5 
  420  53684.359348  4  20.231  0.550  0.209  0.000   2.885e+01   1.387e+01   5.678e+00   0.000e+00  14  sdss  5847  82S  5 
  260  53684.358519  0  26.804  1.675  1.417  0.000  -3.697e+00   4.074e+00   4.955e+00   0.000e+00  16  sdss  5847  82S  5 
  257  53687.301422  1  28.359  0.437  0.335  0.000  -6.307e+00   2.434e+00   1.967e+00   0.000e+00  16  sdss  5871  82S  5 
  289  53687.298105  2  23.116  1.619  1.671  0.000   1.957e+00   2.551e+00   3.311e+00   0.000e+00  16  sdss  5871  82S  5 
  257  53687.298934  3  27.762  0.250  0.237  0.000  -1.470e+01   3.365e+00   3.246e+00   0.000e+00  16  sdss  5871  82S  5 
  264  53687.300593  4  23.793  1.284  2.427  0.000  -5.320e+00   9.003e+00   1.686e+01   0.000e+00  14  sdss  5871  82S  5 
  259  53687.299763  0  26.460  2.659  1.505  0.000  -2.645e+00   6.568e+00   3.900e+00   0.000e+00  16  sdss  5871  82S  5 
  289  53696.364220  1  23.870  1.178  0.635  0.000   9.080e-01   1.108e+00   6.510e-01   0.000e+00  16  sdss  5889  82S  5 
  256  53696.360902  2  25.789  1.405  1.086  0.000  -9.021e-01   1.659e+00   1.255e+00   0.000e+00  16  sdss  5889  82S  5 
  288  53696.361732  3  21.096  0.199  0.124  0.000   1.299e+01   2.384e+00   1.504e+00   0.000e+00  16  sdss  5889  82S  5 
  256  53696.363390  4  24.092  0.685  0.192  0.000  -7.617e+00   5.582e+00   1.651e+00   0.000e+00  14  sdss  5889  82S  5 
  257  53696.362561  0  26.204  1.456  0.423  0.000  -2.042e+00   2.568e+00   8.866e-01   0.000e+00  16  sdss  5889  82S  5 
  289  53697.355710  1  23.007  0.551  0.374  0.000   2.190e+00   1.084e+00   7.888e-01   0.000e+00  16  sdss  5895  82S  5 
  288  53697.352393  2  21.008  0.124  0.058  0.000   1.427e+01   1.633e+00   7.623e-01   0.000e+00  16  sdss  5895  82S  5 
  256  53697.353222  3  26.717  0.429  0.211  0.000  -5.551e+00   2.165e+00   1.117e+00   0.000e+00  16  sdss  5895  82S  5 
  288  53697.354881  4  21.808  0.779  0.235  0.000   5.776e+00   5.470e+00   1.702e+00   0.000e+00  14  sdss  5895  82S  5 
  289  53697.354051  0  22.250  0.554  0.248  0.000   4.809e+00   2.302e+00   1.111e+00   0.000e+00  16  sdss  5895  82S  5 
  256  53700.354501  1  26.259  1.169  0.898  0.000  -8.022e-01   1.047e+00   8.506e-01   0.000e+00  16  sdss  5905  82S  5 
  288  53700.351184  2  23.591  1.267  0.800  0.000   1.181e+00   1.593e+00   1.084e+00   0.000e+00  16  sdss  5905  82S  5 
  288  53700.352013  3  21.683  0.336  0.239  0.000   7.529e+00   2.309e+00   1.691e+00   0.000e+00  16  sdss  5905  82S  5 
  256  53700.353671  4  23.950  0.861  0.341  0.000  -6.462e+00   6.338e+00   2.635e+00   0.000e+00  14  sdss  5905  82S  5 
  256  53700.352842  0  25.492  1.403  0.788  0.000  -8.801e-01   1.922e+00   9.903e-01   0.000e+00  16  sdss  5905  82S  5 
  256  53705.340744  1  27.211  0.595  0.528  0.000  -2.150e+00   1.139e+00   1.094e+00   0.000e+00  16  sdss  5924  82S  5 
  256  53705.337427  2  26.729  0.820  0.706  0.000  -2.485e+00   1.750e+00   1.720e+00   0.000e+00  16  sdss  5924  82S  5 
  256  53705.338256  3  26.825  0.464  0.244  0.000  -6.146e+00   2.556e+00   1.421e+00   0.000e+00  16  sdss  5924  82S  5 
  256  53705.339915  4  23.377  1.095  0.464  0.000  -2.765e+00   6.645e+00   2.557e+00   0.000e+00  14  sdss  5924  82S  5 
  256  53705.339085  0  24.699  1.567  1.272  0.000  -3.271e-02   2.103e+00   1.233e+00   0.000e+00  16  sdss  5924  82S  5 
