# SDSS CID:  14442 IAU:          RA: 329.443756 DEC:  -0.769841  (J2000)
# GALAXY_SB [ugriz] = [ 22.93 22.53 22.21 22.39 21.60 ] +/- [  0.20  0.03  0.03  0.04  0.07 ] (asinh mag/square arcsec)
# GALAXY_SB_FLUX [ugriz] = [  2.411E+00  3.433E+00  4.680E+00  3.856E+00  7.374E+00 ] +/- [  4.769E-01  1.088E-01  1.271E-01  1.335E-01  5.542E-01 ] (microJy per square arcsec)
#FLAG  MJD       FILT  MAG     MERR  MSKYERR MGALERR  FLUX       FLUXERR    SKYERR     GALERR    NPRE TELE   RUN  STRIP  IDCCD
   32  53975.219916  1  23.344  0.358  0.257  0.312   1.576e+00   5.499e-01   4.052e-01   4.918e-01  10  sdss  6287  82S  2 
   32  53975.216599  2  22.327  0.207  0.113  0.125   4.194e+00   8.134e-01   4.514e-01   4.964e-01  9  sdss  6287  82S  2 
    0  53975.217428  3  22.397  0.325  0.098  0.129   3.822e+00   1.183e+00   3.657e-01   4.826e-01  10  sdss  6287  82S  2 
    0  53975.219086  4  21.409  0.425  0.246  0.191   9.114e+00   3.964e+00   2.368e+00   1.831e+00  11  sdss  6287  82S  2 
   40  53975.218257  0  23.419  1.038  0.620  1.511   1.492e+00   1.601e+00   1.035e+00   2.524e+00  10  sdss  6287  82S  2 
   32  53993.287420  1  22.532  0.211  0.153  0.213   3.430e+00   6.748e-01   4.955e-01   6.888e-01  10  sdss  6348  82S  2 
  162  53993.284103  2  21.918  0.196  0.155  0.247   6.147e+00   1.121e+00   8.927e-01   1.423e+00  9  sdss  6348  82S  2 
    0  53993.284933  3  21.864  0.213  0.129  0.127   6.352e+00   1.260e+00   7.735e-01   7.586e-01  10  sdss  6348  82S  2 
   32  53993.286591  4  22.493  0.757  0.262  0.595   1.682e+00   4.118e+00   1.337e+00   3.040e+00  11  sdss  6348  82S  2 
   32  53993.285762  0  22.747  0.806  0.257  1.380   2.988e+00   2.054e+00   7.450e-01   3.994e+00  10  sdss  6348  82S  2 
   32  53996.226191  1  22.489  0.168  0.107  0.150   3.571e+00   5.613e-01   3.598e-01   5.056e-01  10  sdss  6367  82S  2 
    0  53996.222874  2  22.096  0.165  0.077  0.102   5.207e+00   8.020e-01   3.759e-01   4.985e-01  9  sdss  6367  82S  2 
    0  53996.223703  3  21.786  0.175  0.066  0.076   6.833e+00   1.115e+00   4.261e-01   4.871e-01  10  sdss  6367  82S  2 
   32  53996.225362  4  21.627  0.437  0.301  0.244   7.168e+00   3.477e+00   2.445e+00   1.983e+00  11  sdss  6367  82S  2 
   32  53996.224533  0  22.358  0.428  0.112  0.643   4.343e+00   1.670e+00   4.572e-01   2.623e+00  10  sdss  6367  82S  2 
   32  53998.195012  1  22.438  0.156  0.071  0.116   3.746e+00   5.474e-01   2.507e-01   4.111e-01  10  sdss  6377  82S  2 
    0  53998.191695  2  21.936  0.139  0.049  0.076   6.044e+00   7.850e-01   2.785e-01   4.306e-01  9  sdss  6377  82S  2 
    0  53998.192524  3  21.689  0.156  0.045  0.051   7.483e+00   1.086e+00   3.153e-01   3.588e-01  10  sdss  6377  82S  2 
   32  53998.194183  4  21.907  0.532  0.195  0.263   5.079e+00   3.530e+00   1.312e+00   1.764e+00  11  sdss  6377  82S  2 
   32  53998.193354  0  22.468  0.459  0.084  0.570   3.912e+00   1.614e+00   3.123e-01   2.107e+00  10  sdss  6377  82S  2 
   32  54008.185460  1  22.759  0.275  0.155  0.245   2.770e+00   7.115e-01   4.099e-01   6.471e-01  10  sdss  6417  82S  2 
    0  54008.182143  2  21.859  0.162  0.115  0.118   6.492e+00   9.783e-01   7.012e-01   7.210e-01  9  sdss  6417  82S  2 
    0  54008.182973  3  22.072  0.269  0.153  0.167   5.220e+00   1.313e+00   7.621e-01   8.282e-01  10  sdss  6417  82S  2 
   32  54008.184631  4  22.002  0.647  0.221  0.449   4.457e+00   4.087e+00   1.403e+00   2.849e+00  11  sdss  6417  82S  2 
   32  54008.183802  0  22.523  0.680  0.166  1.138   3.711e+00   2.159e+00   5.853e-01   4.009e+00  10  sdss  6417  82S  2 
   33  54010.179731  1  22.575  0.295  0.113  0.127   3.295e+00   8.995e-01   3.537e-01   3.947e-01  10  sdss  6425  82S  2 
    1  54010.176414  2  21.877  0.163  0.055  0.064   6.385e+00   9.667e-01   3.282e-01   3.854e-01  9  sdss  6425  82S  2 
    0  54010.177244  3  21.737  0.179  0.050  0.053   7.155e+00   1.192e+00   3.396e-01   3.594e-01  10  sdss  6425  82S  2 
   32  54010.178902  4  22.253  0.600  0.176  0.293   2.967e+00   3.413e+00   9.818e-01   1.635e+00  11  sdss  6425  82S  2 
   33  54010.178073  0  22.872  1.033  0.297  0.826   2.642e+00   2.258e+00   7.709e-01   2.145e+00  10  sdss  6425  82S  2 
   57  54012.172338  1  22.435  0.561  1.085  0.096   3.755e+00   1.833e+00   3.843e+00   3.411e-01  10  sdss  6433  82S  2 
   25  54012.169021  2  21.921  0.352  1.080  0.056   6.129e+00   1.961e+00   6.217e+00   3.198e-01  9  sdss  6433  82S  2 
 1049  54012.169851  3  22.012  0.405  2.236  0.059   5.524e+00   2.038e+00   1.174e+01   3.092e-01  10  sdss  6433  82S  2 
   57  54012.171509  4  21.866  0.754  1.831  0.211   5.362e+00   5.096e+00   1.262e+01   1.454e+00  11  sdss  6433  82S  2 
   37  54012.170680  0  24.651  2.267  1.201  2.104   1.435e-02   4.178e+00   1.164e+00   2.039e+00  10  sdss  6433  82S  2 
   32  54020.177864  1  22.178  0.143  0.087  0.128   4.771e+00   6.356e-01   3.893e-01   5.729e-01  10  sdss  6447  82S  2 
    0  54020.174547  2  21.868  0.149  0.054  0.089   6.439e+00   8.917e-01   3.275e-01   5.383e-01  9  sdss  6447  82S  2 
    0  54020.175376  3  21.815  0.209  0.075  0.089   6.650e+00   1.296e+00   4.714e-01   5.602e-01  10  sdss  6447  82S  2 
   32  54020.177035  4  22.496  0.822  0.389  0.485   1.667e+00   4.525e+00   1.988e+00   2.475e+00  11  sdss  6447  82S  2 
   40  54020.176206  0  23.150  1.053  0.850  1.869   1.995e+00   1.897e+00   1.751e+00   3.854e+00  10  sdss  6447  82S  2 
   36  54022.227117  1  22.516  0.265  0.444  0.201   3.482e+00   8.568e-01   1.459e+00   6.601e-01  10  sdss  6453  82S  2 
  152  54022.223800  2  21.863  0.190  0.734  0.122   6.468e+00   1.140e+00   4.453e+00   7.426e-01  9  sdss  6453  82S  2 
   36  54022.224629  3  22.323  0.460  0.197  0.139   4.106e+00   1.742e+00   7.839e-01   5.548e-01  10  sdss  6453  82S  2 
   36  54022.226288  4  21.836  1.008  0.633  0.441   5.574e+00   6.929e+00   4.447e+00   3.102e+00  11  sdss  6453  82S  2 
 1196  54022.225458  0  22.573  1.155  0.833  1.041   3.537e+00   3.067e+00   2.805e+00   3.509e+00  10  sdss  6453  82S  2 
   32  54028.167588  1  22.692  0.244  0.131  0.353   2.952e+00   6.744e-01   3.665e-01   9.915e-01  10  sdss  6468  82S  2 
   32  54028.164272  2  21.954  0.183  0.122  0.154   5.943e+00   1.015e+00   6.806e-01   8.611e-01  9  sdss  6468  82S  2 
    0  54028.165101  3  21.625  0.182  0.097  0.100   7.944e+00   1.340e+00   7.189e-01   7.445e-01  10  sdss  6468  82S  2 
    0  54028.166759  4  21.230  0.454  0.316  0.311   1.098e+01   4.851e+00   3.512e+00   3.448e+00  11  sdss  6468  82S  2 
   32  54028.165930  0  22.667  0.804  0.209  1.575   3.230e+00   2.187e+00   6.492e-01   4.886e+00  10  sdss  6468  82S  2 
   32  54030.170519  1  22.468  0.164  0.061  0.126   3.641e+00   5.600e-01   2.099e-01   4.320e-01  10  sdss  6479  82S  2 
    0  54030.167202  2  21.949  0.150  0.078  0.081   5.971e+00   8.361e-01   4.377e-01   4.519e-01  9  sdss  6479  82S  2 
    0  54030.168031  3  21.946  0.203  0.073  0.066   5.880e+00   1.118e+00   4.053e-01   3.648e-01  10  sdss  6479  82S  2 
    0  54030.169689  4  21.545  0.427  0.145  0.205   7.857e+00   3.605e+00   1.251e+00   1.772e+00  11  sdss  6479  82S  2 
   32  54030.168860  0  22.097  0.347  0.167  0.465   5.554e+00   1.736e+00   8.626e-01   2.397e+00  10  sdss  6479  82S  2 
 1028  54032.159696  1  21.555  0.704  0.656  0.063   8.495e+00   4.911e+00   5.192e+00   5.023e-01  10  sdss  6488  82S  2 
 1060  54032.156379  2  23.054  3.661  9.133  0.317   2.084e+00   1.279e+01   1.915e+01   6.641e-01  9  sdss  6488  82S  2 
 1028  54032.157208  3  28.488  0.361  0.177  0.020  -2.873e+01   9.273e+00   4.711e+00   5.309e-01  10  sdss  6488  82S  2 
 1028  54032.158867  4  19.023  0.461  0.227  0.029   8.840e+01   3.504e+01   1.827e+01   2.366e+00  11  sdss  6488  82S  2 
 1164  54032.158037  0  27.180  3.348  2.718  0.685  -5.277e+00   1.258e+01   1.336e+01   3.366e+00  10  sdss  6488  82S  2 
   34  54035.245814  1  22.302  0.231  0.289  0.493   4.252e+00   9.101e-01   1.155e+00   1.969e+00  10  sdss  6501  82S  2 
   32  54035.242498  2  21.843  0.229  0.243  0.273   6.590e+00   1.395e+00   1.502e+00   1.690e+00  9  sdss  6501  82S  2 
    0  54035.243327  3  21.629  0.250  0.253  0.230   7.914e+00   1.821e+00   1.875e+00   1.708e+00  10  sdss  6501  82S  2 
   32  54035.244985  4  21.461  0.823  0.709  0.824   8.618e+00   6.999e+00   6.540e+00   7.599e+00  11  sdss  6501  82S  2 
  130  54035.244156  0  24.845  1.942  1.941  8.374  -1.742e-01   3.062e+00   1.906e+00   8.222e+00  10  sdss  6501  82S  2 
    1  54037.151200  1  22.248  0.233  0.266  0.098   4.471e+00   9.618e-01   1.114e+00   4.095e-01  10  sdss  6508  82S  2 
   25  54037.147883  2  21.972  0.216  0.507  0.068   5.845e+00   1.172e+00   2.783e+00   3.740e-01  9  sdss  6508  82S  2 
   24  54037.148712  3  21.887  0.248  0.445  0.060   6.215e+00   1.432e+00   2.613e+00   3.502e-01  10  sdss  6508  82S  2 
    0  54037.150370  4  21.268  0.536  0.201  0.167   1.056e+01   5.485e+00   2.166e+00   1.792e+00  11  sdss  6508  82S  2 
    4  54037.149541  0  21.793  0.378  0.112  0.345   7.377e+00   2.477e+00   7.611e-01   2.347e+00  10  sdss  6508  82S  2 
   33  54040.165270  1  22.223  0.375  0.176  0.118   4.576e+00   1.551e+00   7.572e-01   5.075e-01  10  sdss  6518  82S  2 
   33  54040.161953  2  22.957  0.817  0.338  0.245   2.294e+00   1.640e+00   7.709e-01   5.578e-01  9  sdss  6518  82S  2 
    1  54040.162783  3  21.337  0.174  0.093  0.049   1.038e+01   1.667e+00   8.982e-01   4.777e-01  10  sdss  6518  82S  2 
    0  54040.164441  4  21.328  0.537  0.175  0.242   9.929e+00   5.247e+00   1.797e+00   2.477e+00  11  sdss  6518  82S  2 
    1  54040.163612  0  27.233  0.946  0.202  0.637  -5.547e+00   3.993e+00   1.041e+00   3.284e+00  10  sdss  6518  82S  2 
 1029  54047.155313  1  21.207  1.001  1.680  0.063   1.172e+01   8.617e+00   1.832e+01   6.888e-01  10  sdss  6528  82S  2 
 1053  54047.151997  2  21.318  3.902  7.935  0.074   1.072e+01   1.912e+01   7.930e+01   7.428e-01  9  sdss  6528  82S  2 
 1181  54047.152826  3  22.123  3.553 36.383  0.135   4.973e+00   1.765e+01   1.729e+02   6.434e-01  10  sdss  6528  82S  2 
 1181  54047.154484  4  19.461  0.967  5.683  0.052   5.898e+01   4.174e+01   3.058e+02   2.816e+00  11  sdss  6528  82S  2 
 1029  54047.153655  0  28.992  2.001  0.818  0.137  -2.827e+01   2.684e+01   2.114e+01   3.544e+00  10  sdss  6528  82S  2 
   32  54050.149345  1  22.835  0.272  0.263  0.360   2.578e+00   6.582e-01   6.482e-01   8.885e-01  10  sdss  6542  82S  2 
   32  54050.146028  2  22.067  0.198  0.111  0.148   5.350e+00   9.886e-01   5.591e-01   7.436e-01  9  sdss  6542  82S  2 
    0  54050.146857  3  21.799  0.228  0.197  0.126   6.751e+00   1.432e+00   1.250e+00   8.036e-01  10  sdss  6542  82S  2 
    0  54050.148515  4  23.553  0.834  0.374  0.556  -3.773e+00   5.081e+00   2.227e+00   3.313e+00  11  sdss  6542  82S  2 
   32  54050.147686  0  22.843  0.882  0.236  1.605   2.719e+00   2.043e+00   6.281e-01   4.276e+00  10  sdss  6542  82S  2 
   32  54053.155116  1  22.402  0.181  0.198  0.239   3.873e+00   6.532e-01   7.238e-01   8.732e-01  10  sdss  6555  82S  2 
   32  54053.151799  2  22.002  0.207  0.151  0.213   5.684e+00   1.094e+00   8.078e-01   1.136e+00  9  sdss  6555  82S  2 
    0  54053.152628  3  21.625  0.203  0.169  0.138   7.944e+00   1.494e+00   1.260e+00   1.028e+00  10  sdss  6555  82S  2 
   40  54053.154286  4  22.124  0.814  1.250  0.610   3.706e+00   4.934e+00   7.406e+00   3.618e+00  11  sdss  6555  82S  2 
   40  54053.153457  0  22.232  0.467  0.552  1.187   4.892e+00   2.019e+00   2.522e+00   5.423e+00  10  sdss  6555  82S  2 
   34  54056.156426  1  23.528  1.074  1.349  2.661   1.308e+00   1.244e+00   1.823e+00   3.594e+00  10  sdss  6568  82S  2 
   34  54056.153110  2  22.266  0.434  0.468  0.724   4.442e+00   1.738e+00   1.969e+00   3.045e+00  9  sdss  6568  82S  2 
  162  54056.153939  3  22.033  0.396  0.429  0.442   5.416e+00   1.961e+00   2.209e+00   2.278e+00  10  sdss  6568  82S  2 
  160  54056.155597  4  22.077  1.110  1.105  1.407   3.992e+00   7.088e+00   6.716e+00   8.550e+00  11  sdss  6568  82S  2 
    0  54056.154768  0  26.859  1.898  0.533  3.260  -3.895e+00   4.667e+00   1.962e+00   1.201e+01  10  sdss  6568  82S  2 
   32  54057.124997  1  22.990  0.286  0.211  0.299   2.224e+00   6.016e-01   4.528e-01   6.427e-01  10  sdss  6571  82S  2 
    0  54057.121681  2  21.878  0.152  0.077  0.095   6.379e+00   9.059e-01   4.619e-01   5.668e-01  9  sdss  6571  82S  2 
    0  54057.122510  3  22.265  0.306  0.123  0.124   4.342e+00   1.252e+00   5.136e-01   5.213e-01  10  sdss  6571  82S  2 
   32  54057.124168  4  21.398  0.509  0.120  0.293   9.221e+00   4.737e+00   1.164e+00   2.836e+00  11  sdss  6571  82S  2 
  168  54057.123339  0  22.222  0.431  0.413  0.876   4.938e+00   1.895e+00   1.901e+00   4.039e+00  10  sdss  6571  82S  2 
   32  54059.150388  1  22.749  0.267  0.253  0.376   2.797e+00   6.978e-01   6.737e-01   1.003e+00  10  sdss  6580  82S  2 
   32  54059.147072  2  21.987  0.212  0.224  0.231   5.764e+00   1.135e+00   1.215e+00   1.250e+00  9  sdss  6580  82S  2 
   32  54059.147901  3  22.213  0.371  0.349  0.315   4.564e+00   1.574e+00   1.533e+00   1.380e+00  10  sdss  6580  82S  2 
   32  54059.149559  4  22.419  0.935  0.485  0.871   2.065e+00   5.341e+00   2.534e+00   4.553e+00  11  sdss  6580  82S  2 
   34  54059.148730  0  22.841  1.097  0.811  2.471   2.724e+00   2.417e+00   2.164e+00   6.593e+00  10  sdss  6580  82S  2 
   32  54061.161166  1  23.530  0.515  0.513  0.644   1.305e+00   6.619e-01   6.908e-01   8.679e-01  10  sdss  6590  82S  2 
   32  54061.157849  2  22.499  0.314  0.276  0.270   3.566e+00   1.044e+00   9.408e-01   9.199e-01  9  sdss  6590  82S  2 
    0  54061.158679  3  21.929  0.274  0.215  0.173   5.974e+00   1.517e+00   1.218e+00   9.755e-01  10  sdss  6590  82S  2 
   32  54061.160337  4  22.108  0.926  0.261  0.731   3.802e+00   5.710e+00   1.562e+00   4.369e+00  11  sdss  6590  82S  2 
  128  54061.159508  0  26.508  0.963  0.410  2.105  -2.775e+00   2.221e+00   1.111e+00   5.708e+00  10  sdss  6590  82S  2 
   32  54062.154954  1  23.048  0.367  0.411  0.542   2.104e+00   7.262e-01   8.396e-01   1.106e+00  10  sdss  6596  82S  2 
   32  54062.151637  2  22.340  0.316  0.241  0.332   4.143e+00   1.211e+00   9.498e-01   1.304e+00  9  sdss  6596  82S  2 
    0  54062.152467  3  21.817  0.263  0.219  0.184   6.638e+00   1.618e+00   1.367e+00   1.149e+00  10  sdss  6596  82S  2 
    0  54062.154125  4  24.260  0.706  0.667  0.540  -9.145e+00   6.343e+00   6.422e+00   5.202e+00  11  sdss  6596  82S  2 
    2  54062.153296  0  25.763  1.629  0.972  4.724  -1.254e+00   2.508e+00   1.457e+00   7.081e+00  10  sdss  6596  82S  2 
  163  54068.144411  1  22.495  0.984  0.795  0.677   3.551e+00   2.662e+00   2.665e+00   2.271e+00  10  sdss  6615  82S  2 
  163  54068.141094  2  21.948  0.529  0.379  0.432   5.977e+00   2.765e+00   2.131e+00   2.424e+00  9  sdss  6615  82S  2 
   35  54068.141923  3  22.023  0.522  0.364  0.368   5.468e+00   2.537e+00   1.891e+00   1.910e+00  10  sdss  6615  82S  2 
  162  54068.143581  4  22.004  1.332  1.648  1.630   4.445e+00   9.042e+00   1.043e+01   1.032e+01  11  sdss  6615  82S  2 
    5  54068.142752  0  21.360  1.557  0.195  1.086   1.102e+01   9.965e+00   1.969e+00   1.098e+01  10  sdss  6615  82S  2 
