# SDSS CID:   5191 IAU:          RA: 346.408295 DEC:  -0.981238  (J2000)
# GALAXY_SB [ugriz] = [ 24.07 22.26 20.79 20.13 19.74 ] +/- [  0.00  0.00  0.00  0.00  0.00 ] (asinh mag/square arcsec)
# GALAXY_SB_FLUX [ugriz] = [  5.761E-01  4.390E+00  1.747E+01  3.164E+01  4.511E+01 ] +/- [  0.000E+00  0.000E+00  0.000E+00  0.000E+00  0.000E+00 ] (microJy per square arcsec)
#FLAG  MJD       FILT  MAG     MERR  MSKYERR MGALERR  FLUX       FLUXERR    SKYERR     GALERR    NPRE TELE   RUN  STRIP  IDCCD
  296  53616.278091  1  22.496  0.212  0.146  0.000   3.549e+00   6.885e-01   4.795e-01   0.000e+00  15  sdss  5566  82N  1 
  296  53616.274774  2  23.381  0.728  0.516  0.000   1.489e+00   1.073e+00   8.190e-01   0.000e+00  17  sdss  5566  82N  1 
  288  53616.275603  3  22.910  0.782  0.157  0.000   2.280e+00   1.733e+00   3.789e-01   0.000e+00  20  sdss  5566  82N  1 
  288  53616.277262  4  22.106  0.878  0.159  0.000   3.815e+00   5.393e+00   9.499e-01   0.000e+00  19  sdss  5566  82N  1 
  296  53616.276433  0  22.437  0.558  0.554  0.000   4.030e+00   1.907e+00   2.036e+00   0.000e+00  15  sdss  5566  82N  1 
  424  53623.268353  1  22.855  0.296  0.195  0.000   2.531e+00   6.889e-01   4.635e-01   0.000e+00  15  sdss  5590  82N  1 
  300  53623.265036  2  23.541  1.488  1.751  0.000   1.249e+00   1.938e+00   2.451e+00   0.000e+00  17  sdss  5590  82N  1 
  312  53623.265865  3  21.879  0.303  0.615  0.000   6.263e+00   1.744e+00   3.625e+00   0.000e+00  20  sdss  5590  82N  1 
  288  53623.267524  4  21.034  0.454  0.046  0.000   1.337e+01   5.703e+00   6.036e-01   0.000e+00  19  sdss  5590  82N  1 
  264  53623.266695  0  22.044  0.331  0.192  0.000   5.837e+00   1.682e+00   1.005e+00   0.000e+00  15  sdss  5590  82N  1 
  289  53626.254291  1  22.586  0.352  0.104  0.000   3.262e+00   1.035e+00   3.147e-01   0.000e+00  15  sdss  5603  82N  1 
  289  53626.250974  2  22.235  0.270  0.095  0.000   4.573e+00   1.133e+00   4.048e-01   0.000e+00  17  sdss  5603  82N  1 
  288  53626.251803  3  22.402  0.429  0.155  0.000   3.803e+00   1.523e+00   5.746e-01   0.000e+00  20  sdss  5603  82N  1 
  256  53626.253461  4  22.942  0.838  0.083  0.000  -5.338e-01   4.517e+00   4.082e-01   0.000e+00  19  sdss  5603  82N  1 
  297  53626.252632  0  22.641  0.721  0.279  0.000   3.315e+00   1.986e+00   8.573e-01   0.000e+00  15  sdss  5603  82N  1 
  289  53628.239259  1  24.258  1.740  0.304  0.000   5.610e-01   1.607e+00   2.375e-01   0.000e+00  15  sdss  5610  82N  1 
  417  53628.235942  2  22.943  0.686  0.068  0.000   2.326e+00   1.426e+00   1.560e-01   0.000e+00  17  sdss  5610  82N  1 
  289  53628.236771  3  21.783  0.271  0.086  0.000   6.853e+00   1.707e+00   5.521e-01   0.000e+00  20  sdss  5610  82N  1 
  256  53628.238429  4  23.531  0.842  0.582  0.000  -3.642e+00   5.101e+00   3.432e+00   0.000e+00  19  sdss  5610  82N  1 
  289  53628.237600  0  23.616  1.995  0.359  0.000   1.183e+00   3.395e+00   5.109e-01   0.000e+00  15  sdss  5610  82N  1 
  289  53635.247519  1  23.266  0.652  0.087  0.000   1.702e+00   9.941e-01   1.443e-01   0.000e+00  15  sdss  5622  82N  1 
  288  53635.244202  2  23.160  0.612  0.067  0.000   1.873e+00   1.085e+00   1.266e-01   0.000e+00  17  sdss  5622  82N  1 
  288  53635.245031  3  22.729  0.566  0.152  0.000   2.750e+00   1.493e+00   4.264e-01   0.000e+00  20  sdss  5622  82N  1 
  288  53635.246690  4  22.535  0.767  0.395  0.000   1.472e+00   4.156e+00   1.999e+00   0.000e+00  19  sdss  5622  82N  1 
  425  53635.245860  0  22.591  0.834  0.301  0.000   3.476e+00   2.322e+00   9.655e-01   0.000e+00  15  sdss  5622  82N  1 
  289  53637.240829  1  22.928  0.487  0.097  0.000   2.360e+00   1.027e+00   2.175e-01   0.000e+00  15  sdss  5633  82N  1 
  256  53637.237512  2  25.454  1.253  0.230  0.000  -5.524e-01   1.319e+00   2.173e-01   0.000e+00  17  sdss  5633  82N  1 
  288  53637.238342  3  22.963  0.902  0.334  0.000   2.155e+00   1.894e+00   7.739e-01   0.000e+00  20  sdss  5633  82N  1 
  288  53637.240000  4  22.649  1.107  0.520  0.000   9.012e-01   6.424e+00   2.570e+00   0.000e+00  19  sdss  5633  82N  1 
  266  53637.239171  0  25.694  1.702  2.304  0.000  -1.153e+00   2.615e+00   3.230e+00   0.000e+00  15  sdss  5633  82N  1 
  256  53644.232847  1  22.492  0.159  0.012  0.000   3.562e+00   5.205e-01   3.988e-02   0.000e+00  15  sdss  5670  82N  1 
  288  53644.229530  2  22.691  0.284  0.040  0.000   2.969e+00   7.928e-01   1.135e-01   0.000e+00  17  sdss  5670  82N  1 
  288  53644.230359  3  22.148  0.273  0.053  0.000   4.856e+00   1.242e+00   2.438e-01   0.000e+00  20  sdss  5670  82N  1 
  288  53644.232017  4  21.792  0.536  0.227  0.000   5.889e+00   3.807e+00   1.646e+00   0.000e+00  19  sdss  5670  82N  1 
  264  53644.231188  0  22.072  0.274  0.149  0.000   5.685e+00   1.368e+00   7.600e-01   0.000e+00  15  sdss  5670  82N  1 
  296  53654.267135  1  22.916  0.260  0.095  0.000   2.387e+00   5.776e-01   2.136e-01   0.000e+00  15  sdss  5709  82N  1 
  296  53654.263818  2  22.696  0.311  0.221  0.000   2.955e+00   8.620e-01   6.274e-01   0.000e+00  17  sdss  5709  82N  1 
  296  53654.264647  3  22.524  0.504  0.545  0.000   3.376e+00   1.590e+00   1.815e+00   0.000e+00  20  sdss  5709  82N  1 
  288  53654.266306  4  22.263  0.794  0.335  0.000   2.908e+00   4.595e+00   1.857e+00   0.000e+00  19  sdss  5709  82N  1 
  288  53654.265476  0  23.561  1.142  0.164  0.000   1.265e+00   1.625e+00   2.416e-01   0.000e+00  15  sdss  5709  82N  1 
  419  53656.214756  1  22.124  0.491  0.181  0.000   5.020e+00   2.127e+00   8.364e-01   0.000e+00  15  sdss  5719  82N  1 
  257  53656.211439  2  27.084  0.725  0.221  0.000  -3.496e+00   2.130e+00   7.323e-01   0.000e+00  17  sdss  5719  82N  1 
  289  53656.212268  3  22.566  1.087  0.436  0.000   3.238e+00   2.899e+00   1.402e+00   0.000e+00  20  sdss  5719  82N  1 
  256  53656.213927  4  23.691  1.124  0.540  0.000  -4.633e+00   7.426e+00   3.483e+00   0.000e+00  19  sdss  5719  82N  1 
  299  53656.213098  0  22.110  1.389  0.680  0.000   5.486e+00   4.814e+00   3.349e+00   0.000e+00  15  sdss  5719  82N  1 
  289  53663.227514  1  23.254  0.602  0.082  0.000   1.722e+00   9.371e-01   1.377e-01   0.000e+00  15  sdss  5744  82N  1 
  289  53663.224197  2  22.620  0.346  0.069  0.000   3.179e+00   1.019e+00   2.079e-01   0.000e+00  17  sdss  5744  82N  1 
  288  53663.225026  3  21.769  0.218  0.059  0.000   6.944e+00   1.402e+00   3.864e-01   0.000e+00  20  sdss  5744  82N  1 
  288  53663.226685  4  21.800  0.550  0.120  0.000   5.831e+00   3.886e+00   8.619e-01   0.000e+00  19  sdss  5744  82N  1 
  257  53663.225856  0  22.089  0.518  0.059  0.000   5.595e+00   2.430e+00   2.956e-01   0.000e+00  15  sdss  5744  82N  1 
  416  53668.216651  1  23.541  0.516  0.202  0.000   1.292e+00   6.484e-01   2.663e-01   0.000e+00  15  sdss  5770  82N  1 
  288  53668.213334  2  22.449  0.345  0.236  0.000   3.739e+00   1.183e+00   8.349e-01   0.000e+00  17  sdss  5770  82N  1 
  288  53668.214163  3  21.983  0.340  0.186  0.000   5.678e+00   1.775e+00   9.992e-01   0.000e+00  20  sdss  5770  82N  1 
  256  53668.215822  4  22.848  1.071  0.715  0.000  -7.435e-02   6.115e+00   3.486e+00   0.000e+00  19  sdss  5770  82N  1 
  264  53668.214993  0  24.725  1.419  1.366  0.000  -5.715e-02   1.802e+00   1.325e+00   0.000e+00  15  sdss  5770  82N  1 
  288  53670.221563  1  23.247  0.354  0.038  0.000   1.734e+00   5.811e-01   6.464e-02   0.000e+00  15  sdss  5781  82N  1 
  288  53670.218246  2  22.897  0.409  0.169  0.000   2.433e+00   9.359e-01   4.012e-01   0.000e+00  17  sdss  5781  82N  1 
  288  53670.219075  3  22.568  0.503  0.189  0.000   3.232e+00   1.530e+00   6.068e-01   0.000e+00  20  sdss  5781  82N  1 
  288  53670.220734  4  22.266  0.841  0.187  0.000   2.890e+00   4.891e+00   1.037e+00   0.000e+00  19  sdss  5781  82N  1 
  296  53670.219905  0  23.376  1.090  0.624  0.000   1.565e+00   1.687e+00   1.051e+00   0.000e+00  15  sdss  5781  82N  1 
  296  53673.189027  1  23.143  0.310  0.164  0.000   1.919e+00   5.607e-01   3.029e-01   0.000e+00  15  sdss  5792  82N  1 
  288  53673.185711  2  23.600  0.730  0.165  0.000   1.169e+00   9.299e-01   2.214e-01   0.000e+00  17  sdss  5792  82N  1 
  288  53673.186540  3  21.786  0.238  0.075  0.000   6.834e+00   1.503e+00   4.796e-01   0.000e+00  20  sdss  5792  82N  1 
  288  53673.188198  4  21.231  0.385  0.180  0.000   1.097e+01   4.158e+00   2.006e+00   0.000e+00  19  sdss  5792  82N  1 
  288  53673.187369  0  22.738  0.574  0.074  0.000   3.015e+00   1.511e+00   2.082e-01   0.000e+00  15  sdss  5792  82N  1 
  288  53675.186070  1  23.161  0.328  0.035  0.000   1.886e+00   5.815e-01   6.286e-02   0.000e+00  15  sdss  5800  82N  1 
  288  53675.182753  2  23.519  0.755  0.262  0.000   1.280e+00   1.009e+00   3.737e-01   0.000e+00  17  sdss  5800  82N  1 
  288  53675.183583  3  22.868  0.708  0.343  0.000   2.383e+00   1.637e+00   8.564e-01   0.000e+00  20  sdss  5800  82N  1 
  288  53675.185241  4  22.210  0.826  0.496  0.000   3.208e+00   4.873e+00   2.821e+00   0.000e+00  19  sdss  5800  82N  1 
  288  53675.184412  0  23.278  0.924  0.106  0.000   1.742e+00   1.530e+00   1.921e-01   0.000e+00  15  sdss  5800  82N  1 
  288  53677.206655  1  23.170  0.309  0.046  0.000   1.869e+00   5.451e-01   8.329e-02   0.000e+00  15  sdss  5813  82N  1 
  288  53677.203338  2  23.015  0.421  0.040  0.000   2.166e+00   8.699e-01   8.588e-02   0.000e+00  17  sdss  5813  82N  1 
  288  53677.204167  3  22.484  0.376  0.097  0.000   3.511e+00   1.257e+00   3.351e-01   0.000e+00  20  sdss  5813  82N  1 
  288  53677.205825  4  21.052  0.308  0.082  0.000   1.314e+01   3.903e+00   1.063e+00   0.000e+00  19  sdss  5813  82N  1 
  288  53677.204996  0  22.601  0.478  0.014  0.000   3.442e+00   1.441e+00   4.290e-02   0.000e+00  15  sdss  5813  82N  1 
  288  53680.193335  1  23.289  0.376  0.030  0.000   1.663e+00   5.940e-01   4.823e-02   0.000e+00  15  sdss  5823  82N  1 
  288  53680.190018  2  23.055  0.503  0.145  0.000   2.081e+00   9.905e-01   3.015e-01   0.000e+00  17  sdss  5823  82N  1 
  288  53680.190847  3  22.491  0.456  0.236  0.000   3.487e+00   1.493e+00   8.100e-01   0.000e+00  20  sdss  5823  82N  1 
  256  53680.192506  4  23.240  0.791  0.068  0.000  -2.033e+00   4.389e+00   3.525e-01   0.000e+00  19  sdss  5823  82N  1 
  288  53680.191676  0  23.956  1.258  0.100  0.000   7.378e-01   1.617e+00   1.160e-01   0.000e+00  15  sdss  5823  82N  1 
  289  53693.193992  1  22.683  0.539  0.022  0.000   2.978e+00   1.394e+00   6.247e-02   0.000e+00  15  sdss  5878  82N  1 
  289  53693.190675  2  22.055  0.238  0.047  0.000   5.412e+00   1.180e+00   2.372e-01   0.000e+00  17  sdss  5878  82N  1 
  288  53693.191505  3  21.839  0.264  0.096  0.000   6.503e+00   1.587e+00   5.878e-01   0.000e+00  20  sdss  5878  82N  1 
  256  53693.193163  4  23.361  0.792  0.444  0.000  -2.680e+00   4.528e+00   2.424e+00   0.000e+00  19  sdss  5878  82N  1 
  265  53693.192334  0  21.320  0.344  0.162  0.000   1.143e+01   3.362e+00   1.634e+00   0.000e+00  15  sdss  5878  82N  1 
 1420  53698.190910  1  20.883  0.384  0.456  0.000   1.580e+01   5.320e+00   6.578e+00   0.000e+00  15  sdss  5898  82N  1 
  412  53698.187594  2  25.973  1.483  4.336  0.000  -1.127e+00   1.871e+00   5.674e+00   0.000e+00  17  sdss  5898  82N  1 
  300  53698.188423  3  22.692  1.066  1.440  0.000   2.855e+00   2.612e+00   4.161e+00   0.000e+00  20  sdss  5898  82N  1 
 1284  53698.190081  4  19.236  0.876  0.515  0.000   7.261e+01   4.819e+01   3.413e+01   0.000e+00  19  sdss  5898  82N  1 
 1444  53698.189252  0  23.823  1.852  0.250  0.000   9.009e-01   2.913e+00   3.126e-01   0.000e+00  15  sdss  5898  82N  1 
 1420  53699.214310  1  28.362  0.471  0.494  0.000  -6.325e+00   2.574e+00   2.864e+00   0.000e+00  15  sdss  5902  82N  1 
 1437  53699.210993  2  28.946  0.290  1.325  0.000  -1.971e+01   5.143e+00   2.404e+01   0.000e+00  17  sdss  5902  82N  1 
 1420  53699.211823  3  28.564  0.209  0.217  0.000  -3.082e+01   5.868e+00   6.168e+00   0.000e+00  20  sdss  5902  82N  1 
 1412  53699.213481  4  26.028  2.974  0.209  0.000  -5.007e+01   6.385e+01   9.592e+00   0.000e+00  19  sdss  5902  82N  1 
 1412  53699.212652  0  27.293  4.217  0.482  0.000  -5.867e+00   2.616e+01   2.534e+00   0.000e+00  15  sdss  5902  82N  1 
  288  53702.185558  2  21.070  0.411  0.241  0.000   1.348e+01   4.873e+00   2.989e+00   0.000e+00  17  sdss  5909  82N  1 
  288  53704.176201  1  22.614  0.203  0.041  0.000   3.178e+00   5.935e-01   1.205e-01   0.000e+00  15  sdss  5918  82N  1 
  288  53704.172884  2  22.818  0.392  0.057  0.000   2.627e+00   9.637e-01   1.461e-01   0.000e+00  17  sdss  5918  82N  1 
  288  53704.173713  3  22.944  0.679  0.128  0.000   2.199e+00   1.493e+00   3.016e-01   0.000e+00  20  sdss  5918  82N  1 
  288  53704.175372  4  22.286  0.784  0.091  0.000   2.779e+00   4.502e+00   5.027e-01   0.000e+00  19  sdss  5918  82N  1 
  288  53704.174542  0  22.321  0.451  0.071  0.000   4.496e+00   1.746e+00   2.884e-01   0.000e+00  15  sdss  5918  82N  1 
