# SDSS CID:  21881 IAU:          RA:  55.083298 DEC:   1.121977  (J2000)
# GALAXY_SB [ugriz] = [ 22.95 21.22 20.38 20.00 19.65 ] +/- [  0.10  0.01  0.01  0.01  0.02 ] (asinh mag/square arcsec)
# GALAXY_SB_FLUX [ugriz] = [  2.376E+00  1.149E+01  2.538E+01  3.568E+01  4.940E+01 ] +/- [  2.443E-01  9.796E-02  1.619E-01  2.639E-01  7.782E-01 ] (microJy per square arcsec)
#FLAG  MJD       FILT  MAG     MERR  MSKYERR MGALERR  FLUX       FLUXERR    SKYERR     GALERR    NPRE TELE   RUN  STRIP  IDCCD
   33  54348.473973  1  22.837  0.386  0.149  0.307   2.573e+00   9.045e-01   3.623e-01   7.462e-01  20  sdss  6934  82N  6 
   32  54348.470655  2  22.864  0.525  0.228  0.473   2.512e+00   1.213e+00   5.609e-01   1.161e+00  21  sdss  6934  82N  6 
    0  54348.471485  3  26.551  0.402  0.164  0.481  -4.741e+00   1.756e+00   7.457e-01   2.186e+00  22  sdss  6934  82N  6 
   32  54348.473143  4  22.426  0.867  0.590  1.040   2.031e+00   4.881e+00   3.081e+00   5.432e+00  22  sdss  6934  82N  6 
    5  54348.472314  0  25.091  1.645  0.346  2.057  -4.225e-01   2.308e+00   3.590e-01   2.136e+00  15  sdss  6934  82N  6 
    0  54358.430623  1  25.591  0.859  0.359  0.885  -2.874e-01   5.912e-01   2.316e-01   5.707e-01  20  sdss  6958  82N  6 
   32  54358.427306  2  24.328  0.933  0.337  0.788   3.910e-01   8.842e-01   2.954e-01   6.913e-01  21  sdss  6958  82N  6 
    0  54358.428135  3  25.492  0.756  0.216  0.524  -1.593e+00   1.367e+00   4.082e-01   9.901e-01  22  sdss  6958  82N  6 
    0  54358.429794  4  23.545  0.710  0.316  0.626  -3.726e+00   4.289e+00   1.883e+00   3.733e+00  22  sdss  6958  82N  6 
  132  54358.428964  0  25.571  1.206  0.298  1.206  -9.826e-01   1.614e+00   3.881e-01   1.570e+00  15  sdss  6958  82N  6 
   32  54365.464311  1  23.826  0.514  0.207  0.320   9.534e-01   5.234e-01   2.177e-01   3.370e-01  20  sdss  6982  82N  6 
   32  54365.460994  2  22.326  0.223  0.035  0.158   4.197e+00   8.709e-01   1.395e-01   6.258e-01  21  sdss  6982  82N  6 
   32  54365.461823  3  22.815  0.535  0.168  0.442   2.517e+00   1.330e+00   4.386e-01   1.156e+00  22  sdss  6982  82N  6 
   40  54365.463482  4  21.648  0.461  0.331  0.370   6.994e+00   3.640e+00   2.675e+00   2.988e+00  22  sdss  6982  82N  6 
   32  54365.462653  0  24.163  1.127  0.280  0.866   5.050e-01   1.352e+00   2.988e-01   9.241e-01  15  sdss  6982  82N  6 
   32  54381.485128  1  24.473  0.920  0.253  1.131   4.027e-01   6.686e-01   1.760e-01   7.857e-01  20  sdss  7034  82N  6 
   32  54381.481811  2  23.261  0.623  0.327  0.600   1.688e+00   1.024e+00   5.743e-01   1.052e+00  21  sdss  7034  82N  6 
   32  54381.482640  3  24.101  1.118  0.677  1.510   3.127e-01   1.589e+00   8.257e-01   1.840e+00  22  sdss  7034  82N  6 
    0  54381.484299  4  22.839  0.878  0.158  0.957  -2.964e-02   4.767e+00   7.721e-01   4.665e+00  22  sdss  7034  82N  6 
    0  54381.483470  0  25.381  1.443  0.615  1.995  -7.438e-01   1.950e+00   7.202e-01   2.337e+00  15  sdss  7034  82N  6 
   32  54386.477487  1  25.048  0.887  0.572  0.857   4.110e-02   5.827e-01   3.377e-01   5.058e-01  20  sdss  7054  82N  6 
    0  54386.474170  2  25.887  0.784  0.345  0.643  -1.018e+00   9.297e-01   4.265e-01   7.936e-01  21  sdss  7054  82N  6 
   32  54386.474999  3  23.991  1.002  0.456  1.044   4.479e-01   1.401e+00   5.725e-01   1.310e+00  22  sdss  7054  82N  6 
    0  54386.476658  4  23.117  0.740  0.456  0.705  -1.401e+00   3.981e+00   2.298e+00   3.555e+00  22  sdss  7054  82N  6 
    8  54386.475829  0  25.037  1.240  1.479  1.259  -3.668e-01   1.508e+00   1.511e+00   1.286e+00  15  sdss  7054  82N  6 
    0  54388.482085  1  26.241  0.661  0.071  0.520  -7.855e-01   5.927e-01   6.567e-02   4.832e-01  20  sdss  7060  82N  6 
    0  54388.478768  2  25.654  0.925  0.346  0.731  -7.529e-01   9.826e-01   3.665e-01   7.744e-01  21  sdss  7060  82N  6 
    0  54388.479598  3  26.203  0.483  0.139  0.434  -3.386e+00   1.540e+00   4.646e-01   1.454e+00  22  sdss  7060  82N  6 
    0  54388.481256  4  23.052  0.807  0.469  0.639  -1.076e+00   4.363e+00   2.333e+00   3.180e+00  22  sdss  7060  82N  6 
    0  54388.480427  0  26.570  0.668  0.233  0.513  -2.949e+00   1.699e+00   6.488e-01   1.429e+00  15  sdss  7060  82N  6 
    0  54392.479822  1  25.579  0.912  0.510  0.957  -2.795e-01   6.319e-01   3.272e-01   6.147e-01  20  sdss  7077  82N  6 
   32  54392.476504  2  22.956  0.483  0.115  0.371   2.296e+00   1.041e+00   2.611e-01   8.407e-01  21  sdss  7077  82N  6 
   32  54392.477334  3  23.730  1.057  0.370  0.957   7.913e-01   1.576e+00   5.153e-01   1.332e+00  22  sdss  7077  82N  6 
    0  54392.478992  4  22.915  0.847  0.346  0.709  -4.006e-01   4.567e+00   1.691e+00   3.470e+00  22  sdss  7077  82N  6 
   32  54392.478163  0  24.622  1.343  0.160  1.305   4.203e-02   1.660e+00   1.551e-01   1.265e+00  15  sdss  7077  82N  6 
    0  54393.485680  1  25.286  0.926  0.430  0.875  -9.898e-02   6.178e-01   2.560e-01   5.213e-01  20  sdss  7081  82N  6 
   32  54393.482363  2  23.192  0.568  0.091  0.346   1.813e+00   9.952e-01   1.693e-01   6.434e-01  21  sdss  7081  82N  6 
   40  54393.483192  3  22.836  0.688  0.693  0.427   2.463e+00   1.639e+00   1.781e+00   1.097e+00  22  sdss  7081  82N  6 
   32  54393.484851  4  22.790  0.923  0.230  0.765   2.093e-01   5.069e+00   1.124e+00   3.735e+00  22  sdss  7081  82N  6 
 1156  54393.484022  0  23.254  1.299  0.404  0.665   1.787e+00   2.131e+00   7.487e-01   1.233e+00  15  sdss  7081  82N  6 
   33  54396.349487  1  23.806  1.618  0.629  1.138   9.748e-01   1.606e+00   6.730e-01   1.218e+00  20  sdss  7095  82N  6 
    1  54396.346170  2  26.026  1.380  0.794  1.413  -1.198e+00   1.757e+00   1.084e+00   1.929e+00  21  sdss  7095  82N  6 
    0  54396.346999  3  25.937  0.904  0.410  1.138  -2.592e+00   2.143e+00   1.097e+00   3.044e+00  22  sdss  7095  82N  6 
    0  54396.348658  4  24.747  0.425  0.160  0.582  -1.498e+01   5.971e+00   2.335e+00   8.510e+00  22  sdss  7095  82N  6 
    1  54396.347829  0  27.279  0.879  0.607  0.580  -5.793e+00   3.844e+00   3.166e+00   3.024e+00  15  sdss  7095  82N  6 
 1181  54403.396280  1  31.506  5.578  7.846  0.008  -1.148e+02   1.265e+02   8.254e+02   8.045e-01  20  sdss  7106  82N  6 
 1081  54403.392962  2  22.125  0.408  2.348  0.192   5.067e+00   1.855e+00   1.115e+01   9.109e-01  21  sdss  7106  82N  6 
 1213  54403.393792  3  24.086  1.919 108.360  1.573   3.309e-01   3.669e+00   1.325e+02   1.924e+00  22  sdss  7106  82N  6 
 1213  54403.395450  4  19.266  2.890 20.363  0.065   7.061e+01   7.948e+01   1.328e+03   4.208e+00  22  sdss  7106  82N  6 
 1181  54403.394621  0  28.150  0.859  2.500  0.128  -1.300e+01   8.286e+00   2.888e+01   1.480e+00  15  sdss  7106  82N  6 
    1  54406.390083  1  25.982  0.793  0.095  0.454  -5.644e-01   6.180e-01   7.437e-02   3.556e-01  20  sdss  7121  82N  6 
   32  54406.386766  2  23.145  0.520  0.144  0.337   1.901e+00   9.537e-01   2.787e-01   6.501e-01  21  sdss  7121  82N  6 
   32  54406.387595  3  22.137  0.309  0.061  0.213   4.909e+00   1.416e+00   2.843e-01   1.000e+00  22  sdss  7121  82N  6 
 1184  54406.389254  4  20.697  0.243  0.164  0.222   1.856e+01   4.261e+00   2.922e+00   3.943e+00  22  sdss  7121  82N  6 
    0  54406.388425  0  23.239  0.977  0.148  0.535   1.816e+00   1.651e+00   2.776e-01   1.004e+00  15  sdss  7121  82N  6 
   32  54409.394960  1  24.906  0.915  0.400  1.031   1.259e-01   6.108e-01   2.398e-01   6.186e-01  20  sdss  7130  82N  6 
   32  54409.391643  2  23.505  0.717  0.255  0.530   1.302e+00   9.751e-01   3.683e-01   7.656e-01  21  sdss  7130  82N  6 
   32  54409.392473  3  21.667  0.227  0.082  0.200   7.642e+00   1.607e+00   5.911e-01   1.437e+00  22  sdss  7130  82N  6 
    0  54409.394131  4  24.013  0.601  0.086  0.487  -6.955e+00   4.666e+00   6.952e-01   3.920e+00  22  sdss  7130  82N  6 
    8  54409.393302  0  26.528  0.634  0.404  0.528  -2.829e+00   1.569e+00   1.086e+00   1.417e+00  15  sdss  7130  82N  6 
    0  54412.416143  1  26.533  0.615  0.231  0.372  -1.091e+00   6.749e-01   2.676e-01   4.319e-01  20  sdss  7142  82N  6 
   36  54412.412826  2  22.153  0.296  0.187  0.184   4.936e+00   1.338e+00   8.685e-01   8.539e-01  21  sdss  7142  82N  6 
   36  54412.413655  3  22.663  0.659  0.223  0.431   2.939e+00   1.804e+00   6.614e-01   1.279e+00  22  sdss  7142  82N  6 
    4  54412.415313  4  24.482  0.450  0.049  0.284  -1.151e+01   5.053e+00   5.753e-01   3.309e+00  22  sdss  7142  82N  6 
   36  54412.414484  0  23.645  1.340  0.151  0.869   1.140e+00   1.895e+00   2.106e-01   1.215e+00  15  sdss  7142  82N  6 
    0  54416.388969  1  25.191  0.854  0.081  0.655  -4.300e-02   5.574e-01   4.802e-02   3.867e-01  20  sdss  7155  82N  6 
   32  54416.385652  2  22.468  0.283  0.105  0.211   3.671e+00   9.658e-01   3.665e-01   7.363e-01  21  sdss  7155  82N  6 
   32  54416.386481  3  23.247  0.859  0.332  0.749   1.564e+00   1.531e+00   6.210e-01   1.401e+00  22  sdss  7155  82N  6 
    0  54416.388140  4  24.090  0.523  0.220  0.350  -7.594e+00   4.313e+00   1.872e+00   2.983e+00  22  sdss  7155  82N  6 
   32  54416.387311  0  24.068  1.241  0.099  0.981   6.092e-01   1.557e+00   1.099e-01   1.088e+00  15  sdss  7155  82N  6 
   32  54421.394744  1  23.848  0.624  0.358  0.530   9.303e-01   6.178e-01   3.708e-01   5.492e-01  20  sdss  7170  82N  6 
    0  54421.391427  2  25.868  0.949  0.475  1.001  -9.949e-01   1.109e+00   5.790e-01   1.219e+00  21  sdss  7170  82N  6 
   32  54421.392256  3  22.050  0.362  0.162  0.358   5.332e+00   1.780e+00   8.200e-01   1.818e+00  22  sdss  7170  82N  6 
    0  54421.393915  4  24.493  0.473  0.077  0.366  -1.164e+01   5.336e+00   9.084e-01   4.307e+00  22  sdss  7170  82N  6 
   40  54421.393086  0  23.722  1.291  1.480  1.216   1.034e+00   1.770e+00   1.973e+00   1.620e+00  15  sdss  7170  82N  6 
    0  54423.371290  1  26.532  0.539  0.210  0.515  -1.090e+00   5.976e-01   2.428e-01   5.965e-01  20  sdss  7177  82N  6 
   32  54423.367973  2  23.555  0.746  0.225  0.661   1.231e+00   9.784e-01   3.127e-01   9.189e-01  21  sdss  7177  82N  6 
   32  54423.368802  3  23.663  1.035  0.483  1.252   8.856e-01   1.566e+00   6.953e-01   1.804e+00  22  sdss  7177  82N  6 
   32  54423.370461  4  21.615  0.530  0.305  0.478   7.264e+00   4.249e+00   2.529e+00   3.957e+00  22  sdss  7177  82N  6 
    0  54423.369632  0  26.023  0.991  0.217  0.928  -1.686e+00   1.605e+00   3.870e-01   1.651e+00  15  sdss  7177  82N  6 
   33  54433.393995  1  23.928  1.702  0.652  1.133   8.494e-01   1.658e+00   6.364e-01   1.106e+00  20  sdss  7202  82N  6 
   33  54433.390678  2  23.459  1.314  0.720  0.950   1.369e+00   1.754e+00   1.078e+00   1.421e+00  21  sdss  7202  82N  6 
    0  54433.391507  3  25.691  1.235  0.618  1.179  -1.996e+00   2.428e+00   1.356e+00   2.588e+00  22  sdss  7202  82N  6 
    0  54433.393166  4  24.381  0.693  0.324  0.582  -1.038e+01   6.876e+00   3.481e+00   6.243e+00  22  sdss  7202  82N  6 
   33  54433.392337  0  24.015  2.369  3.594  2.587   6.687e-01   4.645e+00   4.080e+00   2.937e+00  15  sdss  7202  82N  6 
