# SDSS CID:  10751 IAU:          RA:  45.351131 DEC:   1.172923  (J2000)
# GALAXY_SB [ugriz] = [ 20.53 19.90 19.49 19.03 18.81 ] +/- [  0.00  0.00  0.00  0.00  0.00 ] (asinh mag/square arcsec)
# GALAXY_SB_FLUX [ugriz] = [  2.313E+01  3.883E+01  5.807E+01  8.718E+01  1.074E+02 ] +/- [  0.000E+00  0.000E+00  0.000E+00  0.000E+00  0.000E+00 ] (microJy per square arcsec)
#FLAG  MJD       FILT  MAG     MERR  MSKYERR MGALERR  FLUX       FLUXERR    SKYERR     GALERR    NPRE TELE   RUN  STRIP  IDCCD
  288  53616.437929  1  24.507  1.536  2.463  0.000   3.791e-01   1.283e+00   1.687e+00   0.000e+00  22  sdss  5566  82N  6 
  256  53616.434612  2  26.415  1.073  0.961  0.000  -1.817e+00   1.709e+00   1.791e+00   0.000e+00  23  sdss  5566  82N  6 
  288  53616.435441  3  24.323  1.572  1.292  0.000   4.572e-02   2.585e+00   1.531e+00   0.000e+00  23  sdss  5566  82N  6 
  384  53616.437100  4  23.666  1.031  0.474  0.000  -4.476e+00   6.688e+00   3.023e+00   0.000e+00  16  sdss  5566  82N  6 
  256  53616.436271  0  24.932  1.886  2.215  0.000  -2.608e-01   2.904e+00   2.208e+00   0.000e+00  15  sdss  5566  82N  6 
 1414  53626.415321  1  30.544  0.117  0.190  0.000  -4.732e+01   5.089e+00   8.318e+00   0.000e+00  22  sdss  5603  82N  6 
  290  53626.412004  2  20.779  0.125  0.244  0.000   1.762e+01   2.028e+00   3.990e+00   0.000e+00  23  sdss  5603  82N  6 
  256  53626.412833  3  25.446  1.500  1.748  0.000  -1.508e+00   2.745e+00   3.202e+00   0.000e+00  23  sdss  5603  82N  6 
 1436  53626.414492  4  25.934  0.510  2.281  0.000  -4.593e+01   2.020e+01   9.678e+01   0.000e+00  16  sdss  5603  82N  6 
 1414  53626.413662  0  30.337  0.136  0.209  0.000  -9.764e+01   1.185e+01   1.829e+01   0.000e+00  15  sdss  5603  82N  6 
  289  53628.400450  1  21.502  0.177  0.333  0.000   8.921e+00   1.454e+00   2.755e+00   0.000e+00  22  sdss  5610  82N  6 
  288  53628.397133  2  21.628  0.256  0.277  0.000   8.044e+00   1.886e+00   2.078e+00   0.000e+00  23  sdss  5610  82N  6 
  288  53628.397962  3  22.018  0.529  0.433  0.000   5.492e+00   2.579e+00   2.259e+00   0.000e+00  23  sdss  5610  82N  6 
  256  53628.399621  4  22.950  1.355  0.702  0.000  -5.740e-01   8.480e+00   3.444e+00   0.000e+00  16  sdss  5610  82N  6 
  288  53628.398791  0  21.316  0.318  0.207  0.000   1.149e+01   3.194e+00   2.135e+00   0.000e+00  15  sdss  5610  82N  6 
  289  53635.409311  1  21.945  0.330  0.227  0.000   5.923e+00   1.768e+00   1.249e+00   0.000e+00  22  sdss  5622  82N  6 
  289  53635.405994  2  21.178  0.181  0.102  0.000   1.220e+01   2.037e+00   1.154e+00   0.000e+00  23  sdss  5622  82N  6 
  289  53635.406823  3  21.020  0.244  0.090  0.000   1.393e+01   3.111e+00   1.162e+00   0.000e+00  23  sdss  5622  82N  6 
  384  53635.408482  4  23.851  0.924  0.330  0.000  -5.723e+00   6.423e+00   2.364e+00   0.000e+00  16  sdss  5622  82N  6 
  289  53635.407653  0  21.417  0.385  0.099  0.000   1.046e+01   3.486e+00   9.347e-01   0.000e+00  15  sdss  5622  82N  6 
  288  53639.447851  1  21.300  0.139  0.159  0.000   1.075e+01   1.376e+00   1.587e+00   0.000e+00  22  sdss  5642  82N  6 
  288  53639.444534  2  21.260  0.181  0.125  0.000   1.130e+01   1.889e+00   1.320e+00   0.000e+00  23  sdss  5642  82N  6 
  288  53639.445363  3  19.579  0.062  0.037  0.000   5.261e+01   2.999e+00   1.828e+00   0.000e+00  23  sdss  5642  82N  6 
  416  53639.447022  4  20.779  0.380  0.163  0.000   1.715e+01   6.057e+00   2.688e+00   0.000e+00  16  sdss  5642  82N  6 
  288  53639.446193  0  24.227  1.881  1.414  0.000   4.362e-01   2.910e+00   1.477e+00   0.000e+00  15  sdss  5642  82N  6 
  288  53641.447145  1  21.282  0.147  0.290  0.000   1.093e+01   1.476e+00   2.935e+00   0.000e+00  22  sdss  5658  82N  6 
  288  53641.443827  2  21.487  0.220  0.224  0.000   9.166e+00   1.856e+00   1.916e+00   0.000e+00  23  sdss  5658  82N  6 
  288  53641.444657  3  21.326  0.285  0.170  0.000   1.049e+01   2.730e+00   1.667e+00   0.000e+00  23  sdss  5658  82N  6 
  256  53641.446315  4  22.854  1.239  0.632  0.000  -1.031e-01   7.438e+00   3.083e+00   0.000e+00  16  sdss  5658  82N  6 
 1440  53641.445486  0  20.684  0.191  0.138  0.000   2.057e+01   3.481e+00   2.548e+00   0.000e+00  15  sdss  5658  82N  6 
  288  53644.395442  1  22.161  0.305  0.195  0.000   4.848e+00   1.344e+00   8.833e-01   0.000e+00  22  sdss  5670  82N  6 
  288  53644.392125  2  21.828  0.285  0.169  0.000   6.683e+00   1.744e+00   1.054e+00   0.000e+00  23  sdss  5670  82N  6 
  288  53644.392954  3  19.937  0.074  0.026  0.000   3.783e+01   2.598e+00   9.160e-01   0.000e+00  23  sdss  5670  82N  6 
  288  53644.394613  4  20.328  0.309  0.070  0.000   2.632e+01   7.431e+00   1.713e+00   0.000e+00  16  sdss  5670  82N  6 
  288  53644.393784  0  21.781  0.416  0.140  0.000   7.460e+00   2.682e+00   9.460e-01   0.000e+00  15  sdss  5670  82N  6 
  291  53657.407146  1  21.068  0.144  0.382  0.000   1.331e+01   1.770e+00   4.706e+00   0.000e+00  22  sdss  5731  82N  6 
  288  53657.403829  2  21.341  0.239  0.400  0.000   1.049e+01   2.293e+00   3.907e+00   0.000e+00  23  sdss  5731  82N  6 
  288  53657.404658  3  20.480  0.147  0.146  0.000   2.293e+01   3.118e+00   3.105e+00   0.000e+00  23  sdss  5731  82N  6 
  256  53657.406317  4  23.849  1.161  0.952  0.000  -5.709e+00   8.151e+00   6.812e+00   0.000e+00  16  sdss  5731  82N  6 
  290  53657.405487  0  20.988  0.297  0.261  0.000   1.555e+01   4.043e+00   3.636e+00   0.000e+00  15  sdss  5731  82N  6 
  417  53663.391839  1  23.121  1.284  0.974  0.000   1.961e+00   1.885e+00   1.857e+00   0.000e+00  22  sdss  5744  82N  6 
  289  53663.388521  2  23.740  1.650  1.252  0.000   9.899e-01   2.093e+00   1.524e+00   0.000e+00  23  sdss  5744  82N  6 
  289  53663.389351  3  20.658  0.172  0.071  0.000   1.946e+01   3.082e+00   1.279e+00   0.000e+00  23  sdss  5744  82N  6 
 1440  53663.391009  4  22.642  1.174  0.623  0.000   9.341e-01   6.945e+00   3.083e+00   0.000e+00  16  sdss  5744  82N  6 
  289  53663.390180  0  21.333  0.399  0.067  0.000   1.130e+01   3.884e+00   6.856e-01   0.000e+00  15  sdss  5744  82N  6 
  289  53666.461624  1  21.060  0.124  0.104  0.000   1.341e+01   1.540e+00   1.286e+00   0.000e+00  22  sdss  5765  82N  6 
  289  53666.458306  2  22.320  0.533  0.394  0.000   4.222e+00   1.985e+00   1.574e+00   0.000e+00  23  sdss  5765  82N  6 
  288  53666.459136  3  23.739  1.683  0.935  0.000   7.783e-01   2.980e+00   1.296e+00   0.000e+00  23  sdss  5765  82N  6 
  416  53666.460794  4  22.017  1.002  0.378  0.000   4.367e+00   6.445e+00   2.388e+00   0.000e+00  16  sdss  5765  82N  6 
  417  53666.459965  0  21.267  0.363  0.103  0.000   1.201e+01   3.787e+00   1.110e+00   0.000e+00  15  sdss  5765  82N  6 
  290  53668.381426  1  21.514  0.192  0.427  0.000   8.824e+00   1.558e+00   3.494e+00   0.000e+00  22  sdss  5770  82N  6 
  288  53668.378109  2  21.678  0.264  0.306  0.000   7.681e+00   1.856e+00   2.195e+00   0.000e+00  23  sdss  5770  82N  6 
  288  53668.378938  3  21.191  0.255  0.221  0.000   1.189e+01   2.770e+00   2.446e+00   0.000e+00  23  sdss  5770  82N  6 
  256  53668.380597  4  23.364  1.173  0.800  0.000  -2.698e+00   7.225e+00   4.376e+00   0.000e+00  16  sdss  5770  82N  6 
  288  53668.379767  0  21.432  0.383  0.262  0.000   1.032e+01   3.415e+00   2.431e+00   0.000e+00  15  sdss  5770  82N  6 
  289  53669.469092  1  22.746  0.664  1.061  0.000   2.805e+00   1.591e+00   2.822e+00   0.000e+00  22  sdss  5777  82N  6 
  288  53669.465774  2  21.697  0.306  0.418  0.000   7.547e+00   2.098e+00   2.946e+00   0.000e+00  23  sdss  5777  82N  6 
  288  53669.466603  3  21.045  0.217  0.149  0.000   1.361e+01   2.707e+00   1.881e+00   0.000e+00  23  sdss  5777  82N  6 
  288  53669.468262  4  21.812  1.074  0.571  0.000   5.743e+00   7.507e+00   4.104e+00   0.000e+00  16  sdss  5777  82N  6 
  289  53669.467433  0  21.807  0.781  0.650  0.000   7.281e+00   4.442e+00   4.283e+00   0.000e+00  15  sdss  5777  82N  6 
  288  53670.386095  1  20.367  0.070  0.096  0.000   2.540e+01   1.632e+00   2.247e+00   0.000e+00  22  sdss  5781  82N  6 
  288  53670.382778  2  20.567  0.091  0.078  0.000   2.143e+01   1.804e+00   1.541e+00   0.000e+00  23  sdss  5781  82N  6 
  416  53670.383608  3  20.378  0.111  0.080  0.000   2.520e+01   2.575e+00   1.860e+00   0.000e+00  23  sdss  5781  82N  6 
  288  53670.385266  4  21.315  0.709  0.280  0.000   1.006e+01   6.846e+00   2.926e+00   0.000e+00  16  sdss  5781  82N  6 
  416  53670.384437  0  21.401  0.324  0.186  0.000   1.061e+01   3.011e+00   1.773e+00   0.000e+00  15  sdss  5781  82N  6 
  288  53673.354238  1  21.851  0.218  0.166  0.000   6.462e+00   1.293e+00   9.969e-01   0.000e+00  22  sdss  5792  82N  6 
  288  53673.350921  2  21.674  0.234  0.143  0.000   7.709e+00   1.656e+00   1.027e+00   0.000e+00  23  sdss  5792  82N  6 
  288  53673.351750  3  21.444  0.329  0.100  0.000   9.400e+00   2.812e+00   8.793e-01   0.000e+00  23  sdss  5792  82N  6 
  288  53673.353409  4  22.556  1.048  0.341  0.000   1.365e+00   6.025e+00   1.717e+00   0.000e+00  16  sdss  5792  82N  6 
  288  53673.352579  0  22.495  0.890  0.184  0.000   3.814e+00   2.681e+00   6.548e-01   0.000e+00  15  sdss  5792  82N  6 
  288  53675.351029  1  21.296  0.127  0.169  0.000   1.079e+01   1.265e+00   1.687e+00   0.000e+00  22  sdss  5800  82N  6 
  288  53675.347712  2  22.182  0.398  0.302  0.000   4.805e+00   1.729e+00   1.366e+00   0.000e+00  23  sdss  5800  82N  6 
  288  53675.348541  3  20.712  0.160  0.075  0.000   1.851e+01   2.731e+00   1.295e+00   0.000e+00  23  sdss  5800  82N  6 
  256  53675.350199  4  24.719  0.591  0.173  0.000  -1.458e+01   7.815e+00   2.463e+00   0.000e+00  16  sdss  5800  82N  6 
  288  53675.349370  0  21.502  0.341  0.241  0.000   9.666e+00   2.878e+00   2.100e+00   0.000e+00  15  sdss  5800  82N  6 
  288  53680.358710  1  20.211  0.054  0.059  0.000   2.934e+01   1.476e+00   1.614e+00   0.000e+00  22  sdss  5823  82N  6 
  288  53680.355392  2  19.774  0.050  0.036  0.000   4.449e+01   2.046e+00   1.476e+00   0.000e+00  23  sdss  5823  82N  6 
  288  53680.356222  3  19.692  0.065  0.034  0.000   4.741e+01   2.854e+00   1.499e+00   0.000e+00  23  sdss  5823  82N  6 
  416  53680.357880  4  19.802  0.167  0.067  0.000   4.299e+01   6.587e+00   2.682e+00   0.000e+00  16  sdss  5823  82N  6 
  288  53680.357051  0  20.680  0.160  0.047  0.000   2.064e+01   2.944e+00   8.607e-01   0.000e+00  15  sdss  5823  82N  6 
  436  53683.417376  1  21.888  0.501  1.150  0.000   6.245e+00   2.720e+00   6.677e+00   0.000e+00  22  sdss  5842  82N  6 
 1317  53683.414059  2  22.028  1.415  0.696  0.000   5.548e+00   5.039e+00   3.622e+00   0.000e+00  23  sdss  5842  82N  6 
 1444  53683.414889  3  21.443  0.883  0.469  0.000   9.409e+00   6.459e+00   4.125e+00   0.000e+00  23  sdss  5842  82N  6 
 1413  53683.416547  4  24.983  1.101  0.360  0.000  -1.882e+01   1.573e+01   6.462e+00   0.000e+00  16  sdss  5842  82N  6 
 1444  53683.415718  0  20.586  0.330  0.235  0.000   2.251e+01   6.464e+00   4.737e+00   0.000e+00  15  sdss  5842  82N  6 
  289  53686.358148  1  21.242  0.173  0.254  0.000   1.134e+01   1.807e+00   2.668e+00   0.000e+00  22  sdss  5866  82N  6 
  289  53686.354831  2  21.333  0.213  0.215  0.000   1.057e+01   2.070e+00   2.112e+00   0.000e+00  23  sdss  5866  82N  6 
  288  53686.355661  3  21.014  0.218  0.176  0.000   1.400e+01   2.802e+00   2.294e+00   0.000e+00  23  sdss  5866  82N  6 
  288  53686.357319  4  21.732  0.986  0.397  0.000   6.336e+00   7.135e+00   3.014e+00   0.000e+00  16  sdss  5866  82N  6 
  289  53686.356490  0  21.269  0.406  0.229  0.000   1.199e+01   4.190e+00   2.469e+00   0.000e+00  15  sdss  5866  82N  6 
  257  53687.415661  1  25.375  2.338  7.034  0.000  -1.525e-01   2.720e+00   4.258e+00   0.000e+00  22  sdss  5872  82N  6 
  291  53687.412344  2  22.371  1.299  1.683  0.000   4.024e+00   3.615e+00   6.419e+00   0.000e+00  23  sdss  5872  82N  6 
  289  53687.413173  3  20.576  0.195  0.242  0.000   2.099e+01   3.760e+00   4.714e+00   0.000e+00  23  sdss  5872  82N  6 
  384  53687.414832  4  24.971  0.512  0.157  0.000  -1.861e+01   8.552e+00   2.795e+00   0.000e+00  16  sdss  5872  82N  6 
  291  53687.414002  0  22.513  2.647  1.638  0.000   3.749e+00   6.972e+00   5.722e+00   0.000e+00  15  sdss  5872  82N  6 
  289  53693.360769  1  21.322  0.206  0.283  0.000   1.054e+01   1.990e+00   2.766e+00   0.000e+00  22  sdss  5878  82N  6 
  289  53693.357452  2  21.533  0.279  0.331  0.000   8.785e+00   2.236e+00   2.706e+00   0.000e+00  23  sdss  5878  82N  6 
  289  53693.358281  3  20.700  0.162  0.121  0.000   1.871e+01   2.792e+00   2.099e+00   0.000e+00  23  sdss  5878  82N  6 
  288  53693.359939  4  20.921  0.508  0.246  0.000   1.494e+01   6.988e+00   3.578e+00   0.000e+00  16  sdss  5878  82N  6 
  289  53693.359110  0  21.792  0.839  0.264  0.000   7.384e+00   4.743e+00   1.765e+00   0.000e+00  15  sdss  5878  82N  6 
  256  53699.381068  1  27.905  0.362  0.456  0.000  -4.140e+00   1.355e+00   1.768e+00   0.000e+00  22  sdss  5902  82N  6 
  256  53699.377751  2  24.997  1.653  2.416  0.000  -1.564e-01   1.898e+00   1.962e+00   0.000e+00  23  sdss  5902  82N  6 
  288  53699.378581  3  20.762  0.172  0.083  0.000   1.768e+01   2.808e+00   1.357e+00   0.000e+00  23  sdss  5902  82N  6 
  384  53699.380239  4  24.172  0.749  0.344  0.000  -8.318e+00   6.336e+00   3.122e+00   0.000e+00  16  sdss  5902  82N  6 
  416  53699.379410  0  22.135  0.785  0.549  0.000   5.358e+00   3.328e+00   2.689e+00   0.000e+00  15  sdss  5902  82N  6 
  288  53704.343677  1  21.821  0.222  0.425  0.000   6.644e+00   1.351e+00   2.622e+00   0.000e+00  22  sdss  5918  82N  6 
  288  53704.340360  2  21.977  0.329  0.348  0.000   5.818e+00   1.745e+00   1.899e+00   0.000e+00  23  sdss  5918  82N  6 
  288  53704.341189  3  21.290  0.263  0.217  0.000   1.085e+01   2.611e+00   2.191e+00   0.000e+00  23  sdss  5918  82N  6 
  256  53704.342847  4  23.511  1.137  0.621  0.000  -3.527e+00   7.161e+00   3.635e+00   0.000e+00  16  sdss  5918  82N  6 
  288  53704.342018  0  21.187  0.272  0.194  0.000   1.294e+01   3.094e+00   2.256e+00   0.000e+00  15  sdss  5918  82N  6 
