# SDSS CID:  19355 IAU:          RA:  45.777729 DEC:   0.283961  (J2000)
# GALAXY_SB [ugriz] = [ 24.19 24.88 24.72 24.15 22.68 ] +/- [  0.24  0.09  0.09  0.08  0.09 ] (asinh mag/square arcsec)
# GALAXY_SB_FLUX [ugriz] = [  4.430E-01  1.414E-01  6.817E-02  2.563E-01  7.076E-01 ] +/- [  2.568E-01  5.603E-02  7.247E-02  1.014E-01  4.387E-01 ] (microJy per square arcsec)
#FLAG  MJD       FILT  MAG     MERR  MSKYERR MGALERR  FLUX       FLUXERR    SKYERR     GALERR    NPRE TELE   RUN  STRIP  IDCCD
    1  54346.444860  1  23.812  1.030  0.225  0.288   9.679e-01   9.996e-01   2.393e-01   3.069e-01  20  sdss  6921  82N  4 
    1  54346.441543  2  22.926  0.499  0.155  0.151   2.364e+00   1.096e+00   3.597e-01   3.512e-01  23  sdss  6921  82N  4 
    0  54346.442372  3  22.323  0.362  0.115  0.142   4.105e+00   1.387e+00   4.546e-01   5.614e-01  24  sdss  6921  82N  4 
    0  54346.444031  4  21.484  0.424  0.187  0.234   8.403e+00   3.761e+00   1.699e+00   2.130e+00  23  sdss  6921  82N  4 
    5  54346.443201  0  27.262  0.563  0.092  0.335  -5.698e+00   2.701e+00   4.749e-01   1.739e+00  9  sdss  6921  82N  4 
    1  54348.449129  1  23.909  0.678  0.340  0.276   8.689e-01   6.412e-01   3.372e-01   2.733e-01  20  sdss  6934  82N  4 
    0  54348.445812  2  23.313  0.542  0.075  0.191   1.599e+00   8.656e-01   1.255e-01   3.203e-01  23  sdss  6934  82N  4 
    0  54348.446641  3  22.259  0.290  0.094  0.095   4.367e+00   1.188e+00   3.914e-01   3.986e-01  24  sdss  6934  82N  4 
    0  54348.448300  4  21.800  0.498  0.059  0.220   5.831e+00   3.534e+00   4.286e-01   1.586e+00  23  sdss  6934  82N  4 
   12  54348.447470  0  25.479  1.423  1.099  1.246  -8.635e-01   1.948e+00   1.362e+00   1.545e+00  9  sdss  6934  82N  4 
   32  54358.405707  1  24.283  0.696  0.496  0.579   5.413e-01   5.342e-01   3.822e-01   4.459e-01  20  sdss  6958  82N  4 
    0  54358.402389  2  23.155  0.433  0.261  0.219   1.882e+00   7.963e-01   4.981e-01   4.174e-01  23  sdss  6958  82N  4 
    0  54358.403219  3  22.195  0.300  0.131  0.134   4.643e+00   1.297e+00   5.800e-01   5.932e-01  24  sdss  6958  82N  4 
    0  54358.404877  4  22.455  0.784  0.217  0.449   1.878e+00   4.324e+00   1.121e+00   2.324e+00  23  sdss  6958  82N  4 
  132  54358.404048  0  26.164  1.026  0.221  1.093  -1.960e+00   1.814e+00   4.429e-01   2.190e+00  9  sdss  6958  82N  4 
   32  54365.439331  1  24.808  0.674  0.129  0.372   1.849e-01   4.349e-01   7.906e-02   2.281e-01  20  sdss  6982  82N  4 
    0  54365.436013  2  22.836  0.286  0.020  0.115   2.580e+00   7.038e-01   5.111e-02   2.877e-01  23  sdss  6982  82N  4 
    0  54365.436843  3  22.644  0.382  0.148  0.137   2.996e+00   1.110e+00   4.436e-01   4.089e-01  24  sdss  6982  82N  4 
    0  54365.438501  4  21.550  0.424  0.117  0.201   7.813e+00   3.576e+00   1.009e+00   1.741e+00  23  sdss  6982  82N  4 
  128  54365.437672  0  25.570  1.073  0.129  1.073  -9.813e-01   1.414e+00   1.685e-01   1.403e+00  9  sdss  6982  82N  4 
   32  54381.459556  1  24.905  0.723  0.248  0.428   1.265e-01   4.641e-01   1.487e-01   2.568e-01  20  sdss  7034  82N  4 
    0  54381.456239  2  22.582  0.234  0.062  0.083   3.294e+00   7.252e-01   1.957e-01   2.598e-01  23  sdss  7034  82N  4 
    0  54381.457068  3  22.346  0.290  0.110  0.083   4.015e+00   1.100e+00   4.253e-01   3.206e-01  24  sdss  7034  82N  4 
    0  54381.458727  4  22.540  0.697  0.268  0.323   1.446e+00   3.729e+00   1.355e+00   1.634e+00  23  sdss  7034  82N  4 
    4  54381.457898  0  26.108  0.899  0.034  0.676  -1.847e+00   1.561e+00   6.481e-02   1.294e+00  9  sdss  7034  82N  4 
   32  54386.452254  1  24.668  0.706  0.273  0.435   2.729e-01   4.718e-01   1.746e-01   2.780e-01  20  sdss  7054  82N  4 
    0  54386.448937  2  22.615  0.243  0.136  0.097   3.192e+00   7.297e-01   4.156e-01   2.968e-01  23  sdss  7054  82N  4 
    0  54386.449766  3  22.314  0.282  0.138  0.100   4.141e+00   1.103e+00   5.489e-01   3.998e-01  24  sdss  7054  82N  4 
    0  54386.451425  4  21.450  0.364  0.095  0.181   8.720e+00   3.335e+00   8.866e-01   1.694e+00  23  sdss  7054  82N  4 
    4  54386.450595  0  24.990  1.262  0.072  1.255  -3.189e-01   1.539e+00   7.300e-02   1.267e+00  9  sdss  7054  82N  4 
    0  54388.456418  1  24.324  0.621  0.283  0.303   5.108e-01   4.671e-01   2.129e-01   2.281e-01  20  sdss  7060  82N  4 
    0  54388.453100  2  22.350  0.201  0.072  0.066   4.103e+00   7.668e-01   2.782e-01   2.565e-01  23  sdss  7060  82N  4 
    0  54388.453930  3  22.193  0.255  0.056  0.068   4.652e+00   1.111e+00   2.477e-01   3.009e-01  24  sdss  7060  82N  4 
    0  54388.455588  4  22.487  0.659  0.354  0.276   1.712e+00   3.538e+00   1.813e+00   1.414e+00  23  sdss  7060  82N  4 
   36  54388.454759  0  23.799  1.206  0.050  0.869   9.312e-01   1.599e+00   6.428e-02   1.110e+00  9  sdss  7060  82N  4 
    0  54392.454094  1  23.999  0.537  0.202  0.281   7.821e-01   4.852e-01   1.876e-01   2.605e-01  20  sdss  7077  82N  4 
  128  54392.450777  2  22.645  0.298  0.073  0.119   3.102e+00   8.645e-01   2.167e-01   3.520e-01  23  sdss  7077  82N  4 
  128  54392.451606  3  22.122  0.352  0.162  0.224   4.978e+00   1.612e+00   7.668e-01   1.056e+00  24  sdss  7077  82N  4 
    0  54392.453265  4  21.375  0.389  0.176  0.150   9.447e+00   3.759e+00   1.746e+00   1.485e+00  23  sdss  7077  82N  4 
    4  54392.452436  0  25.998  1.147  0.078  1.025  -1.641e+00   1.825e+00   1.368e-01   1.803e+00  9  sdss  7077  82N  4 
    8  54393.460348  1  24.430  0.764  0.625  0.350   4.329e-01   5.534e-01   4.440e-01   2.483e-01  20  sdss  7081  82N  4 
    0  54393.457031  2  22.797  0.350  0.171  0.112   2.680e+00   8.819e-01   4.431e-01   2.902e-01  23  sdss  7081  82N  4 
    0  54393.457861  3  22.640  0.494  0.186  0.137   3.008e+00   1.412e+00   5.578e-01   4.129e-01  24  sdss  7081  82N  4 
    0  54393.459519  4  22.892  0.789  0.344  0.291  -2.904e-01   4.199e+00   1.680e+00   1.421e+00  23  sdss  7081  82N  4 
   36  54393.458690  0  24.496  1.554  0.284  1.566   1.649e-01   2.081e+00   2.782e-01   1.535e+00  9  sdss  7081  82N  4 
 1153  54396.323703  1  22.599  1.861  0.530  0.436   3.223e+00   3.462e+00   1.596e+00   1.312e+00  20  sdss  7095  82N  4 
  129  54396.320386  2  22.255  1.342  0.520  0.472   4.487e+00   4.028e+00   2.190e+00   1.988e+00  23  sdss  7095  82N  4 
  130  54396.321215  3  21.610  0.428  0.457  0.405   8.056e+00   3.058e+00   3.426e+00   3.034e+00  24  sdss  7095  82N  4 
 1152  54396.322874  4  23.766  1.633  1.312  1.687  -5.135e+00   1.223e+01   8.880e+00   1.142e+01  23  sdss  7095  82N  4 
    9  54403.370798  1  25.817  1.589  3.324  0.396  -4.403e-01   1.365e+00   2.372e+00   2.828e-01  20  sdss  7106  82N  4 
    1  54403.367481  2  22.354  0.285  0.092  0.082   4.088e+00   1.073e+00   3.548e-01   3.148e-01  23  sdss  7106  82N  4 
    8  54403.368310  3  21.875  0.233  0.253  0.071   6.286e+00   1.351e+00   1.488e+00   4.192e-01  24  sdss  7106  82N  4 
   24  54403.369968  4  22.257  0.801  1.699  0.311   2.941e+00   4.644e+00   9.460e+00   1.731e+00  23  sdss  7106  82N  4 
   13  54403.369139  0  23.293  1.713  0.673  0.713   1.713e+00   2.877e+00   1.220e+00   1.293e+00  9  sdss  7106  82N  4 
    1  54406.364554  1  24.173  0.660  0.147  0.265   6.293e-01   5.353e-01   1.211e-01   2.187e-01  20  sdss  7121  82N  4 
    0  54406.361236  2  23.353  0.498  0.227  0.175   1.533e+00   7.760e-01   3.683e-01   2.838e-01  23  sdss  7121  82N  4 
    0  54406.362066  3  22.264  0.262  0.061  0.071   4.346e+00   1.071e+00   2.523e-01   2.964e-01  24  sdss  7121  82N  4 
    0  54406.363724  4  21.609  0.394  0.230  0.180   7.318e+00   3.197e+00   1.904e+00   1.492e+00  23  sdss  7121  82N  4 
    0  54406.362895  0  24.923  1.355  0.180  1.255  -2.519e-01   1.693e+00   1.792e-01   1.248e+00  9  sdss  7121  82N  4 
    8  54409.369383  1  24.052  0.500  0.274  0.221   7.337e-01   4.381e-01   2.449e-01   1.980e-01  20  sdss  7130  82N  4 
    0  54409.366066  2  22.977  0.330  0.115  0.091   2.249e+00   7.144e-01   2.560e-01   2.029e-01  23  sdss  7130  82N  4 
    0  54409.366895  3  22.604  0.367  0.026  0.093   3.117e+00   1.104e+00   7.982e-02   2.884e-01  24  sdss  7130  82N  4 
    0  54409.368554  4  21.492  0.406  0.177  0.139   8.330e+00   3.580e+00   1.600e+00   1.253e+00  23  sdss  7130  82N  4 
    0  54409.367725  0  25.574  1.085  0.120  0.740  -9.867e-01   1.435e+00   1.567e-01   9.698e-01  9  sdss  7130  82N  4 
    4  54412.390104  1  24.128  0.857  0.593  0.348   6.672e-01   7.097e-01   5.036e-01   2.954e-01  20  sdss  7142  82N  4 
    4  54412.386787  2  23.373  0.755  0.502  0.203   1.501e+00   1.114e+00   8.017e-01   3.241e-01  23  sdss  7142  82N  4 
    4  54412.387616  3  22.070  0.315  0.101  0.079   5.229e+00   1.522e+00   4.989e-01   3.889e-01  24  sdss  7142  82N  4 
    4  54412.389275  4  22.956  0.974  0.306  0.313  -6.009e-01   5.433e+00   1.504e+00   1.536e+00  23  sdss  7142  82N  4 
   44  54412.388446  0  23.893  1.645  1.806  1.248   8.134e-01   2.388e+00   2.188e+00   1.512e+00  9  sdss  7142  82N  4 
   32  54416.363280  1  24.653  0.638  0.278  0.269   2.825e-01   4.247e-01   1.789e-01   1.731e-01  20  sdss  7155  82N  4 
  128  54416.359963  2  23.805  0.570  0.034  0.150   9.132e-01   6.483e-01   3.987e-02   1.739e-01  23  sdss  7155  82N  4 
    0  54416.360793  3  23.130  0.529  0.064  0.103   1.793e+00   1.038e+00   1.305e-01   2.089e-01  24  sdss  7155  82N  4 
    0  54416.362451  4  22.849  0.629  0.237  0.211  -7.900e-02   3.241e+00   1.157e+00   1.031e+00  23  sdss  7155  82N  4 
    4  54416.361622  0  23.678  1.084  0.062  0.666   1.094e+00   1.476e+00   8.539e-02   9.168e-01  9  sdss  7155  82N  4 
   32  54421.368976  1  24.676  0.824  0.881  0.721   2.677e-01   5.598e-01   5.622e-01   4.598e-01  20  sdss  7170  82N  4 
    0  54421.365659  2  23.910  0.814  0.274  0.424   7.954e-01   8.739e-01   2.974e-01   4.592e-01  23  sdss  7170  82N  4 
    0  54421.366488  3  22.608  0.470  0.158  0.198   3.105e+00   1.388e+00   4.893e-01   6.100e-01  24  sdss  7170  82N  4 
    0  54421.368147  4  21.678  0.672  0.262  0.315   6.757e+00   5.079e+00   2.061e+00   2.479e+00  23  sdss  7170  82N  4 
  132  54421.367317  0  24.736  1.466  0.214  1.923  -6.818e-02   1.894e+00   2.081e-01   1.867e+00  9  sdss  7170  82N  4 
    8  54423.345489  1  25.507  0.718  0.647  0.497  -2.342e-01   4.741e-01   4.052e-01   3.117e-01  20  sdss  7177  82N  4 
    0  54423.342172  2  24.221  0.809  0.373  0.365   4.866e-01   7.715e-01   3.416e-01   3.339e-01  23  sdss  7177  82N  4 
    0  54423.343002  3  23.314  0.655  0.195  0.244   1.443e+00   1.132e+00   3.472e-01   4.345e-01  24  sdss  7177  82N  4 
    0  54423.344660  4  21.800  0.513  0.046  0.270   5.831e+00   3.640e+00   3.314e-01   1.952e+00  23  sdss  7177  82N  4 
    0  54423.343831  0  26.102  0.946  0.068  0.892  -1.834e+00   1.624e+00   1.289e-01   1.701e+00  9  sdss  7177  82N  4 
    1  54433.368037  1  23.173  0.926  1.009  0.278   1.865e+00   1.425e+00   1.824e+00   5.024e-01  20  sdss  7202  82N  4 
    9  54433.364720  2  24.188  1.378  2.880  0.552   5.171e-01   1.488e+00   2.680e+00   5.137e-01  23  sdss  7202  82N  4 
    0  54433.365549  3  22.876  0.775  0.502  0.266   2.362e+00   1.755e+00   1.241e+00   6.580e-01  24  sdss  7202  82N  4 
  128  54433.367208  4  21.984  0.950  0.721  0.457   4.576e+00   6.145e+00   4.633e+00   2.940e+00  23  sdss  7202  82N  4 
   13  54433.366378  0  27.507  0.931  0.553  0.509  -7.164e+00   4.943e+00   3.587e+00   3.298e+00  9  sdss  7202  82N  4 
