# SDSS CID:   6065 IAU:          RA:  55.401829 DEC:  -0.315056  (J2000)
# GALAXY_SB [ugriz] = [ 22.37 22.26 22.15 21.89 21.58 ] +/- [  0.07  0.02  0.02  0.02  0.06 ] (asinh mag/square arcsec)
# GALAXY_SB_FLUX [ugriz] = [  4.161E+00  4.417E+00  4.929E+00  6.216E+00  7.478E+00 ] +/- [  2.700E-01  9.648E-02  1.022E-01  1.328E-01  5.275E-01 ] (microJy per square arcsec)
#FLAG  MJD       FILT  MAG     MERR  MSKYERR MGALERR  FLUX       FLUXERR    SKYERR     GALERR    NPRE TELE   RUN  STRIP  IDCCD
   48  53622.478936  1  22.378  0.142  0.159  0.086   3.962e+00   5.193e-01   5.853e-01   3.174e-01  13  sdss  5582  82S  3 
    0  53622.475619  2  22.342  0.184  0.137  0.074   4.134e+00   7.072e-01   5.328e-01   2.865e-01  13  sdss  5582  82S  3 
   32  53622.476448  3  22.344  0.283  0.094  0.090   4.024e+00   1.077e+00   3.646e-01   3.484e-01  13  sdss  5582  82S  3 
    0  53622.478107  4  21.512  0.350  0.130  0.163   8.148e+00   3.080e+00   1.162e+00   1.461e+00  13  sdss  5582  82S  3 
   32  53622.477278  0  22.823  0.580  0.140  0.431   2.774e+00   1.449e+00   3.757e-01   1.154e+00  13  sdss  5582  82S  3 
   48  53627.436299  1  22.271  0.140  0.227  0.130   4.377e+00   5.675e-01   9.245e-01   5.281e-01  13  sdss  5607  82S  3 
   32  53627.432981  2  22.156  0.185  0.211  0.132   4.922e+00   8.429e-01   9.704e-01   6.074e-01  13  sdss  5607  82S  3 
   32  53627.433811  3  22.686  0.422  0.233  0.200   2.873e+00   1.177e+00   6.735e-01   5.781e-01  13  sdss  5607  82S  3 
    0  53627.435469  4  21.560  0.445  0.215  0.299   7.727e+00   3.744e+00   1.860e+00   2.580e+00  13  sdss  5607  82S  3 
   32  53627.434640  0  22.260  0.381  0.300  0.412   4.763e+00   1.614e+00   1.319e+00   1.810e+00  13  sdss  5607  82S  3 
   33  53634.429377  1  22.277  0.361  0.325  0.135   4.353e+00   1.410e+00   1.313e+00   5.466e-01  13  sdss  5619  82S  3 
   33  53634.426060  2  22.149  0.380  0.279  0.178   4.954e+00   1.692e+00   1.289e+00   8.239e-01  13  sdss  5619  82S  3 
   33  53634.426889  3  22.117  0.355  0.254  0.136   5.002e+00   1.635e+00   1.204e+00   6.473e-01  13  sdss  5619  82S  3 
   32  53634.428548  4  22.036  0.695  0.473  0.439   4.244e+00   4.352e+00   2.960e+00   2.747e+00  13  sdss  5619  82S  3 
   33  53634.427719  0  23.159  2.106  1.135  1.262   1.976e+00   4.035e+00   2.299e+00   2.556e+00  13  sdss  5619  82S  3 
   32  53640.435175  1  22.265  0.159  0.212  0.122   4.402e+00   6.446e-01   8.677e-01   5.006e-01  13  sdss  5646  82S  3 
   32  53640.431857  2  22.442  0.246  0.249  0.144   3.762e+00   8.600e-01   8.837e-01   5.095e-01  13  sdss  5646  82S  3 
   32  53640.432687  3  22.091  0.265  0.105  0.128   5.128e+00   1.263e+00   5.078e-01   6.233e-01  13  sdss  5646  82S  3 
   32  53640.434345  4  22.403  0.699  0.164  0.403   2.153e+00   3.849e+00   8.644e-01   2.123e+00  13  sdss  5646  82S  3 
   32  53640.433516  0  22.727  0.713  0.169  0.622   3.048e+00   1.870e+00   4.906e-01   1.809e+00  13  sdss  5646  82S  3 
   48  53643.477870  1  22.075  0.135  0.353  0.184   5.253e+00   6.508e-01   1.714e+00   8.955e-01  13  sdss  5666  82S  3 
   32  53643.474553  2  22.245  0.203  0.236  0.159   4.528e+00   8.488e-01   1.000e+00   6.722e-01  13  sdss  5666  82S  3 
   32  53643.475382  3  22.175  0.288  0.231  0.178   4.734e+00   1.273e+00   1.042e+00   8.020e-01  13  sdss  5666  82S  3 
  160  53643.477041  4  22.177  0.672  0.443  0.499   3.397e+00   3.964e+00   2.569e+00   2.893e+00  13  sdss  5666  82S  3 
   40  53643.476211  0  22.389  0.486  0.572  0.604   4.215e+00   1.798e+00   2.241e+00   2.363e+00  13  sdss  5666  82S  3 
  163  53657.316322  1  22.438  0.692  1.186  0.592   3.747e+00   2.149e+00   4.141e+00   2.068e+00  13  sdss  5730  82S  3 
  163  53657.313005  2  22.617  0.849  1.105  0.695   3.189e+00   2.210e+00   3.357e+00   2.110e+00  13  sdss  5730  82S  3 
  162  53657.313834  3  22.933  1.340  1.666  1.201   2.225e+00   2.757e+00   3.936e+00   2.839e+00  13  sdss  5730  82S  3 
    0  53657.315493  4  24.253  0.784  0.733  0.644  -9.081e+00   6.995e+00   7.109e+00   6.239e+00  13  sdss  5730  82S  3 
   35  53657.314664  0  22.024  1.935  1.511  1.365   5.946e+00   6.272e+00   8.213e+00   7.420e+00  13  sdss  5730  82S  3 
   48  53657.480291  1  22.271  0.157  0.417  0.201   4.377e+00   6.351e-01   1.695e+00   8.187e-01  13  sdss  5732  82S  3 
   32  53657.476973  2  22.106  0.185  0.204  0.132   5.158e+00   8.796e-01   9.788e-01   6.334e-01  13  sdss  5732  82S  3 
   32  53657.477803  3  21.891  0.229  0.126  0.142   6.194e+00   1.313e+00   7.346e-01   8.268e-01  13  sdss  5732  82S  3 
    0  53657.479461  4  20.728  0.288  0.298  0.212   1.802e+01   4.886e+00   5.156e+00   3.682e+00  13  sdss  5732  82S  3 
   32  53657.478632  0  22.290  0.502  0.568  0.642   4.629e+00   2.016e+00   2.431e+00   2.745e+00  13  sdss  5732  82S  3 
  153  53664.433249  1  21.722  0.367  9.865  0.079   7.283e+00   2.375e+00   6.627e+01   5.309e-01  13  sdss  5754  82S  3 
   29  53664.429932  2  26.134  2.353 20.412  0.406  -1.352e+00   3.961e+00   3.015e+01   5.993e-01  13  sdss  5754  82S  3 
   57  53664.430761  3  21.793  0.569  2.981  0.109   6.792e+00   3.332e+00   1.895e+01   6.915e-01  13  sdss  5754  82S  3 
   29  53664.432420  4  21.523  1.157  3.600  0.260   8.051e+00   9.285e+00   3.198e+01   2.311e+00  13  sdss  5754  82S  3 
    5  53664.431590  0  21.312  0.515  0.417  0.177   1.152e+01   5.002e+00   4.350e+00   1.847e+00  13  sdss  5754  82S  3 
   33  53665.498044  1  22.212  0.260  0.213  0.098   4.625e+00   1.094e+00   9.145e-01   4.206e-01  13  sdss  5760  82S  3 
    1  53665.494727  2  21.767  0.174  0.092  0.056   7.070e+00   1.130e+00   5.996e-01   3.634e-01  13  sdss  5760  82S  3 
   33  53665.495556  3  22.434  0.427  0.182  0.111   3.687e+00   1.471e+00   6.550e-01   3.966e-01  13  sdss  5760  82S  3 
   33  53665.497215  4  22.775  0.964  0.312  0.389   2.821e-01   5.346e+00   1.522e+00   1.898e+00  13  sdss  5760  82S  3 
   33  53665.496385  0  22.609  1.273  0.617  0.451   3.418e+00   3.153e+00   1.989e+00   1.453e+00  13  sdss  5760  82S  3 
   35  53668.486816  1  22.128  0.286  0.711  0.406   5.000e+00   1.294e+00   3.293e+00   1.878e+00  13  sdss  5771  82S  3 
   32  53668.483501  2  22.505  0.454  0.630  0.404   3.548e+00   1.449e+00   2.113e+00   1.355e+00  13  sdss  5771  82S  3 
   32  53668.484331  3  22.210  0.474  0.364  0.352   4.578e+00   1.964e+00   1.592e+00   1.537e+00  13  sdss  5771  82S  3 
   34  53668.485990  4  22.137  1.269  1.536  1.361   3.631e+00   8.262e+00   9.084e+00   8.053e+00  13  sdss  5771  82S  3 
    3  53668.485160  0  21.366  0.412  0.313  0.534   1.096e+01   3.897e+00   3.100e+00   5.291e+00  13  sdss  5771  82S  3 
   32  53669.392918  1  22.280  0.177  0.312  0.174   4.341e+00   7.082e-01   1.259e+00   7.028e-01  13  sdss  5776  82S  3 
   32  53669.389601  2  22.392  0.255  0.283  0.182   3.944e+00   9.317e-01   1.051e+00   6.756e-01  13  sdss  5776  82S  3 
  160  53669.390430  3  22.175  0.326  0.269  0.235   4.734e+00   1.431e+00   1.212e+00   1.058e+00  13  sdss  5776  82S  3 
  128  53669.392089  4  21.383  0.466  0.398  0.367   9.363e+00   4.458e+00   3.950e+00   3.640e+00  13  sdss  5776  82S  3 
   34  53669.391259  0  22.086  0.568  0.636  0.958   5.610e+00   2.692e+00   3.267e+00   4.923e+00  13  sdss  5776  82S  3 
   34  53670.492883  1  22.600  0.348  0.708  0.486   3.219e+00   1.018e+00   2.136e+00   1.465e+00  13  sdss  5782  82S  3 
   32  53670.489566  2  22.912  0.662  0.714  0.581   2.398e+00   1.417e+00   1.673e+00   1.361e+00  13  sdss  5782  82S  3 
   34  53670.490395  3  22.475  0.660  0.676  0.573   3.542e+00   2.090e+00   2.341e+00   1.985e+00  13  sdss  5782  82S  3 
 1154  53670.492054  4  23.013  1.327  2.191  1.666  -8.808e-01   8.240e+00   1.083e+01   8.237e+00  13  sdss  5782  82S  3 
   34  53670.491224  0  22.909  1.827  0.882  2.137   2.549e+00   3.587e+00   2.195e+00   5.320e+00  13  sdss  5782  82S  3 
   32  53671.477676  1  22.459  0.188  0.212  0.117   3.674e+00   6.386e-01   7.256e-01   4.000e-01  13  sdss  5786  82S  3 
   32  53671.474359  2  22.368  0.251  0.182  0.112   4.034e+00   9.364e-01   6.893e-01   4.253e-01  13  sdss  5786  82S  3 
   32  53671.475188  3  22.323  0.318  0.096  0.093   4.106e+00   1.229e+00   3.807e-01   3.690e-01  13  sdss  5786  82S  3 
    0  53671.476847  4  21.466  0.504  0.220  0.215   8.568e+00   4.511e+00   2.042e+00   1.994e+00  13  sdss  5786  82S  3 
   32  53671.476018  0  21.995  0.385  0.208  0.260   6.109e+00   2.066e+00   1.164e+00   1.450e+00  13  sdss  5786  82S  3 
   48  53674.377093  1  22.371  0.186  0.624  0.330   3.988e+00   6.841e-01   2.315e+00   1.223e+00  13  sdss  5797  82S  3 
   32  53674.373776  2  22.494  0.328  0.604  0.355   3.585e+00   1.081e+00   2.048e+00   1.205e+00  13  sdss  5797  82S  3 
   32  53674.374605  3  22.908  0.741  0.550  0.692   2.284e+00   1.651e+00   1.325e+00   1.668e+00  13  sdss  5797  82S  3 
    0  53674.376264  4  21.030  0.473  0.571  0.473   1.344e+01   6.005e+00   7.603e+00   6.302e+00  13  sdss  5797  82S  3 
   34  53674.375434  0  24.080  1.642  1.145  5.352   5.957e-01   2.331e+00   1.268e+00   5.926e+00  13  sdss  5797  82S  3 
   48  53676.466564  1  22.291  0.177  0.330  0.133   4.297e+00   6.992e-01   1.317e+00   5.305e-01  13  sdss  5807  82S  3 
   32  53676.463247  2  22.424  0.395  0.525  0.197   3.826e+00   1.368e+00   1.892e+00   7.101e-01  13  sdss  5807  82S  3 
   32  53676.464076  3  22.016  0.369  0.219  0.165   5.506e+00   1.854e+00   1.136e+00   8.593e-01  13  sdss  5807  82S  3 
    4  53676.465734  4  21.293  0.541  0.122  0.224   1.028e+01   5.486e+00   1.305e+00   2.389e+00  13  sdss  5807  82S  3 
  132  53676.464905  0  25.532  1.775  1.040  2.138  -9.308e-01   2.728e+00   1.332e+00   2.739e+00  13  sdss  5807  82S  3 
   32  53679.438443  1  22.673  0.211  0.328  0.227   3.006e+00   5.889e-01   9.256e-01   6.406e-01  13  sdss  5820  82S  3 
   32  53679.435126  2  22.700  0.341  0.339  0.219   2.945e+00   9.361e-01   9.567e-01   6.182e-01  13  sdss  5820  82S  3 
   32  53679.435955  3  22.497  0.402  0.147  0.182   3.467e+00   1.318e+00   4.986e-01   6.195e-01  13  sdss  5820  82S  3 
    0  53679.437613  4  23.004  0.883  0.638  0.622  -8.364e-01   4.831e+00   3.150e+00   3.070e+00  13  sdss  5820  82S  3 
   32  53679.436784  0  23.643  1.296  1.070  1.570   1.143e+00   1.829e+00   1.512e+00   2.219e+00  13  sdss  5820  82S  3 
   32  53681.430352  1  22.544  0.210  0.282  0.127   3.393e+00   6.583e-01   8.936e-01   4.040e-01  13  sdss  5836  82S  3 
   32  53681.427034  2  22.478  0.279  0.187  0.126   3.636e+00   9.379e-01   6.423e-01   4.319e-01  13  sdss  5836  82S  3 
   32  53681.427864  3  22.580  0.424  0.189  0.146   3.194e+00   1.292e+00   5.985e-01   4.621e-01  13  sdss  5836  82S  3 
    4  53681.429522  4  21.893  0.610  0.350  0.234   5.176e+00   4.099e+00   2.386e+00   1.600e+00  13  sdss  5836  82S  3 
   36  53681.428693  0  22.161  0.458  0.421  0.332   5.229e+00   2.085e+00   2.019e+00   1.596e+00  13  sdss  5836  82S  3 
   48  53684.391597  1  22.581  0.201  0.538  0.176   3.276e+00   6.086e-01   1.650e+00   5.390e-01  13  sdss  5847  82S  3 
   32  53684.388280  2  22.593  0.294  0.360  0.125   3.263e+00   8.928e-01   1.116e+00   3.866e-01  13  sdss  5847  82S  3 
   32  53684.389109  3  22.216  0.311  0.219  0.104   4.551e+00   1.320e+00   9.510e-01   4.506e-01  13  sdss  5847  82S  3 
    0  53684.390767  4  21.218  0.412  0.069  0.185   1.111e+01   4.526e+00   7.836e-01   2.096e+00  13  sdss  5847  82S  3 
   32  53684.389938  0  22.527  0.559  0.298  0.443   3.698e+00   1.804e+00   1.033e+00   1.535e+00  13  sdss  5847  82S  3 
    1  53687.332900  1  21.585  0.795  0.812  0.390   8.266e+00   5.175e+00   6.190e+00   2.967e+00  13  sdss  5871  82S  3 
   35  53687.329582  2  22.222  0.741  1.038  0.561   4.627e+00   2.811e+00   4.493e+00   2.427e+00  13  sdss  5871  82S  3 
  163  53687.330412  3  23.670  1.495  2.559  1.470   8.764e-01   2.506e+00   3.664e+00   2.105e+00  13  sdss  5871  82S  3 
 1186  53687.332070  4  22.590  1.392  1.253  2.248   1.193e+00   8.869e+00   6.265e+00   1.124e+01  13  sdss  5871  82S  3 
   33  53696.395865  1  22.930  0.379  0.425  0.194   2.356e+00   8.199e-01   9.522e-01   4.341e-01  13  sdss  5889  82S  3 
   32  53696.392548  2  22.322  0.255  0.207  0.114   4.212e+00   9.915e-01   8.186e-01   4.503e-01  13  sdss  5889  82S  3 
   32  53696.393377  3  22.630  0.437  0.206  0.124   3.039e+00   1.275e+00   6.235e-01   3.767e-01  13  sdss  5889  82S  3 
    0  53696.395036  4  21.773  0.594  0.317  0.245   6.028e+00   4.280e+00   2.345e+00   1.809e+00  13  sdss  5889  82S  3 
    1  53696.394207  0  25.057  1.652  0.703  1.251  -3.870e-01   2.318e+00   7.239e-01   1.288e+00  13  sdss  5889  82S  3 
   33  53697.387372  1  22.844  0.310  0.374  0.175   2.557e+00   7.317e-01   9.057e-01   4.233e-01  13  sdss  5895  82S  3 
   32  53697.384054  2  22.458  0.327  0.443  0.147   3.705e+00   1.114e+00   1.547e+00   5.126e-01  13  sdss  5895  82S  3 
   32  53697.384884  3  22.670  0.491  0.265  0.164   2.920e+00   1.372e+00   7.757e-01   4.808e-01  13  sdss  5895  82S  3 
    0  53697.386542  4  21.848  0.582  0.319  0.261   5.488e+00   4.015e+00   2.240e+00   1.837e+00  13  sdss  5895  82S  3 
   33  53697.385713  0  22.292  0.604  0.370  0.378   4.621e+00   2.361e+00   1.577e+00   1.613e+00  13  sdss  5895  82S  3 
   32  53700.386218  1  22.666  0.208  0.282  0.171   3.025e+00   5.845e-01   8.020e-01   4.855e-01  13  sdss  5905  82S  3 
   32  53700.382901  2  22.761  0.321  0.257  0.159   2.777e+00   8.371e-01   6.885e-01   4.252e-01  13  sdss  5905  82S  3 
   32  53700.383731  3  23.997  0.942  0.431  0.412   4.399e-01   1.298e+00   5.393e-01   5.156e-01  13  sdss  5905  82S  3 
   32  53700.385389  4  22.520  0.852  0.419  0.464   1.544e+00   4.702e+00   2.130e+00   2.359e+00  13  sdss  5905  82S  3 
   32  53700.384560  0  23.145  0.932  0.464  0.804   2.005e+00   1.700e+00   9.501e-01   1.647e+00  13  sdss  5905  82S  3 
   50  53705.372554  1  22.950  0.371  1.367  0.733   2.311e+00   7.899e-01   3.014e+00   1.615e+00  13  sdss  5924  82S  3 
   32  53705.369237  2  22.916  0.526  1.092  0.601   2.389e+00   1.158e+00   2.551e+00   1.404e+00  13  sdss  5924  82S  3 
   32  53705.370066  3  22.735  0.694  0.895  0.648   2.733e+00   1.773e+00   2.484e+00   1.799e+00  13  sdss  5924  82S  3 
   32  53705.371725  4  21.524  0.827  0.755  0.763   8.042e+00   6.816e+00   6.705e+00   6.771e+00  13  sdss  5924  82S  3 
    2  53705.370895  0  25.316  1.850  1.935  4.951  -6.689e-01   2.859e+00   2.206e+00   5.647e+00  13  sdss  5924  82S  3 
