# SDSS CID:  14811 IAU:          RA: 335.133026 DEC:  -0.767024  (J2000)
# GALAXY_SB [ugriz] = [ 23.79 25.25 24.95 24.35 22.90 ] +/- [  0.60  0.17  0.14  0.12  0.12 ] (asinh mag/square arcsec)
# GALAXY_SB_FLUX [ugriz] = [  9.064E-01 -7.828E-02 -1.193E-01  1.009E-02 -3.793E-01 ] +/- [  7.669E-01  1.017E-01  1.127E-01  1.374E-01  5.954E-01 ] (microJy per square arcsec)
#FLAG  MJD       FILT  MAG     MERR  MSKYERR MGALERR  FLUX       FLUXERR    SKYERR     GALERR    NPRE TELE   RUN  STRIP  IDCCD
   32  53975.235720  1  25.108  0.764  0.186  0.808   6.063e-03   4.878e-01   1.094e-01   4.760e-01  10  sdss  6287  82S  2 
   32  53975.232403  2  24.291  0.862  0.261  0.697   4.239e-01   8.137e-01   2.325e-01   6.214e-01  11  sdss  6287  82S  2 
   32  53975.233232  3  23.914  0.874  0.327  0.472   5.456e-01   1.206e+00   4.207e-01   6.080e-01  10  sdss  6287  82S  2 
    0  53975.234891  4  22.982  0.744  0.354  0.431  -7.294e-01   3.940e+00   1.741e+00   2.122e+00  11  sdss  6287  82S  2 
    8  53975.234061  0  25.416  1.225  0.428  4.309  -7.869e-01   1.586e+00   5.158e-01   5.198e+00  8  sdss  6287  82S  2 
   32  53993.303383  1  25.016  0.898  0.497  0.835   6.041e-02   5.924e-01   2.938e-01   4.937e-01  10  sdss  6348  82S  2 
    0  53993.300066  2  23.314  0.494  0.212  0.302   1.598e+00   8.000e-01   3.579e-01   5.094e-01  11  sdss  6348  82S  2 
    0  53993.300895  3  25.530  0.594  0.268  0.269  -1.667e+00   1.115e+00   5.214e-01   5.238e-01  10  sdss  6348  82S  2 
    0  53993.302554  4  21.996  0.571  0.230  0.358   4.495e+00   3.612e+00   1.463e+00   2.280e+00  11  sdss  6348  82S  2 
    0  53993.301725  0  26.705  0.698  0.085  2.011  -3.361e+00   2.022e+00   2.729e-01   6.472e+00  8  sdss  6348  82S  2 
    0  53996.242178  1  24.332  0.679  0.039  0.731   5.044e-01   5.118e-01   2.949e-02   5.505e-01  10  sdss  6367  82S  2 
    0  53996.238861  2  23.033  0.363  0.111  0.244   2.128e+00   7.526e-01   2.375e-01   5.206e-01  11  sdss  6367  82S  2 
    0  53996.239691  3  23.345  0.635  0.185  0.324   1.389e+00   1.083e+00   3.227e-01   5.665e-01  10  sdss  6367  82S  2 
    0  53996.241349  4  23.251  0.607  0.180  0.449  -2.092e+00   3.290e+00   9.406e-01   2.351e+00  11  sdss  6367  82S  2 
    8  53996.240520  0  24.180  1.270  1.317  4.550   4.863e-01   1.582e+00   1.404e+00   4.849e+00  8  sdss  6367  82S  2 
    0  53998.211015  1  23.580  0.398  0.244  0.358   1.240e+00   5.002e-01   3.161e-01   4.633e-01  10  sdss  6377  82S  2 
    0  53998.207698  2  22.947  0.317  0.031  0.160   2.317e+00   7.123e-01   7.182e-02   3.675e-01  11  sdss  6377  82S  2 
  128  53998.208527  3  22.850  0.426  0.125  0.169   2.427e+00   1.047e+00   3.161e-01   4.286e-01  10  sdss  6377  82S  2 
    0  53998.210185  4  21.614  0.448  0.100  0.303   7.275e+00   3.592e+00   8.193e-01   2.485e+00  11  sdss  6377  82S  2 
    8  53998.209356  0  25.081  1.233  1.003  4.129  -4.127e-01   1.506e+00   1.042e+00   4.292e+00  8  sdss  6377  82S  2 
    0  54008.201539  1  24.181  1.146  1.276  0.921   6.231e-01   9.461e-01   1.053e+00   7.607e-01  10  sdss  6417  82S  2 
    0  54008.198222  2  22.397  0.271  0.123  0.197   3.926e+00   9.935e-01   4.615e-01   7.348e-01  11  sdss  6417  82S  2 
    0  54008.199051  3  22.900  0.570  0.305  0.310   2.303e+00   1.319e+00   7.439e-01   7.545e-01  10  sdss  6417  82S  2 
    8  54008.200710  4  24.173  0.529  0.602  0.338  -8.331e+00   4.585e+00   5.424e+00   3.044e+00  11  sdss  6417  82S  2 
    4  54008.199881  0  25.321  1.546  0.490  5.826  -6.742e-01   2.142e+00   5.624e-01   6.688e+00  8  sdss  6417  82S  2 
    1  54010.195825  1  23.647  0.779  0.284  0.328   1.157e+00   8.754e-01   3.479e-01   4.028e-01  10  sdss  6425  82S  2 
    1  54010.192508  2  22.309  0.221  0.060  0.077   4.265e+00   8.829e-01   2.420e-01   3.109e-01  11  sdss  6425  82S  2 
    0  54010.193337  3  22.210  0.271  0.057  0.088   4.578e+00   1.169e+00   2.491e-01   3.866e-01  10  sdss  6425  82S  2 
    0  54010.194996  4  22.219  0.592  0.249  0.333   3.154e+00   3.407e+00   1.407e+00   1.883e+00  11  sdss  6425  82S  2 
    1  54010.194167  0  25.785  1.479  0.103  2.495  -1.287e+00   2.221e+00   1.564e-01   3.800e+00  8  sdss  6425  82S  2 
  129  54012.188446  1  22.964  0.940  0.193  0.136   2.280e+00   1.726e+00   4.248e-01   3.000e-01  10  sdss  6433  82S  2 
  129  54012.185129  2  22.407  0.403  0.132  0.067   3.890e+00   1.431e+00   4.894e-01   2.485e-01  11  sdss  6433  82S  2 
  129  54012.185958  3  22.081  0.312  0.077  0.055   5.176e+00   1.503e+00   3.807e-01   2.720e-01  10  sdss  6433  82S  2 
  128  54012.187617  4  21.508  0.459  0.139  0.161   8.184e+00   3.961e+00   1.235e+00   1.433e+00  11  sdss  6433  82S  2 
    1  54012.186788  0  26.918  1.175  0.180  0.718  -4.121e+00   3.523e+00   6.984e-01   2.790e+00  8  sdss  6433  82S  2 
    0  54020.194023  1  23.443  0.453  0.215  0.349   1.427e+00   6.309e-01   3.123e-01   5.066e-01  10  sdss  6447  82S  2 
    0  54020.190706  2  23.084  0.430  0.054  0.211   2.023e+00   8.460e-01   1.104e-01   4.306e-01  11  sdss  6447  82S  2 
    0  54020.191535  3  22.854  0.495  0.174  0.185   2.416e+00   1.200e+00   4.389e-01   4.686e-01  10  sdss  6447  82S  2 
    0  54020.193193  4  21.991  0.659  0.322  0.355   4.528e+00   4.188e+00   2.053e+00   2.267e+00  11  sdss  6447  82S  2 
    0  54020.192364  0  22.827  0.762  0.075  1.725   2.763e+00   1.841e+00   2.028e-01   4.662e+00  8  sdss  6447  82S  2 
    0  54022.243287  1  23.928  0.518  0.309  0.456   8.500e-01   4.955e-01   3.046e-01   4.493e-01  10  sdss  6453  82S  2 
    0  54022.239970  2  22.801  0.295  0.050  0.153   2.671e+00   7.529e-01   1.300e-01   4.001e-01  11  sdss  6453  82S  2 
    0  54022.240800  3  23.160  0.564  0.166  0.208   1.732e+00   1.084e+00   3.308e-01   4.139e-01  10  sdss  6453  82S  2 
    0  54022.242458  4  23.012  0.658  0.088  0.401  -8.795e-01   3.440e+00   4.361e-01   1.980e+00  11  sdss  6453  82S  2 
  136  54022.241629  0  25.120  1.244  1.657  4.315  -4.528e-01   1.532e+00   1.745e+00   4.545e+00  8  sdss  6453  82S  2 
    0  54028.183791  1  24.374  0.719  0.140  0.779   4.735e-01   5.325e-01   1.029e-01   5.730e-01  10  sdss  6468  82S  2 
    0  54028.180474  2  23.097  0.465  0.261  0.306   1.997e+00   9.006e-01   5.284e-01   6.192e-01  11  sdss  6468  82S  2 
    0  54028.181303  3  23.257  0.762  0.347  0.442   1.546e+00   1.357e+00   6.450e-01   8.216e-01  10  sdss  6468  82S  2 
    0  54028.182961  4  21.335  0.435  0.199  0.254   9.855e+00   4.292e+00   2.031e+00   2.591e+00  11  sdss  6468  82S  2 
    0  54028.182132  0  24.644  1.447  0.075  5.832   2.119e-02   1.856e+00   7.277e-02   5.652e+00  8  sdss  6468  82S  2 
   32  54030.186731  1  24.815  0.737  0.394  0.626   1.805e-01   4.799e-01   2.410e-01   3.834e-01  10  sdss  6479  82S  2 
    0  54030.183414  2  23.088  0.371  0.089  0.153   2.015e+00   7.343e-01   1.804e-01   3.120e-01  11  sdss  6479  82S  2 
  128  54030.184243  3  22.906  0.455  0.113  0.152   2.289e+00   1.065e+00   2.736e-01   3.683e-01  10  sdss  6479  82S  2 
    0  54030.185901  4  22.335  0.644  0.307  0.331   2.516e+00   3.583e+00   1.652e+00   1.781e+00  11  sdss  6479  82S  2 
    8  54030.185072  0  24.588  1.270  1.109  3.992   7.499e-02   1.532e+00   1.077e+00   3.878e+00  8  sdss  6479  82S  2 
  130  54035.262048  1  25.969  1.175  0.261  2.680  -5.539e-01   9.454e-01   2.038e-01   2.096e+00  10  sdss  6501  82S  2 
  162  54035.258731  2  24.308  1.326  1.229  1.871   4.081e-01   1.387e+00   1.087e+00   1.655e+00  11  sdss  6501  82S  2 
   32  54035.259561  3  24.117  1.150  0.791  1.234   2.923e-01   1.647e+00   9.614e-01   1.498e+00  10  sdss  6501  82S  2 
    0  54035.261219  4  20.983  0.454  0.279  0.434   1.406e+01   5.944e+00   3.821e+00   5.939e+00  11  sdss  6501  82S  2 
    2  54035.260390  0  25.929  1.777  0.525  7.539  -1.519e+00   2.950e+00   8.885e-01   1.276e+01  8  sdss  6501  82S  2 
    1  54037.167441  1  24.453  0.908  0.357  0.624   4.164e-01   6.646e-01   2.515e-01   4.394e-01  10  sdss  6508  82S  2 
   24  54037.164124  2  23.840  0.958  1.893  0.365   8.728e-01   1.070e+00   2.156e+00   4.162e-01  11  sdss  6508  82S  2 
    0  54037.164953  3  23.190  0.734  0.513  0.232   1.674e+00   1.363e+00   1.000e+00   4.526e-01  10  sdss  6508  82S  2 
    0  54037.166611  4  21.987  0.653  0.391  0.367   4.554e+00   4.155e+00   2.498e+00   2.349e+00  11  sdss  6508  82S  2 
    4  54037.165782  0  25.686  1.388  0.233  3.258  -1.141e+00   1.994e+00   3.317e-01   4.635e+00  8  sdss  6508  82S  2 
    1  54040.181521  1  23.334  1.657  0.874  0.460   1.591e+00   2.025e+00   1.391e+00   7.327e-01  10  sdss  6518  82S  2 
    1  54040.178205  2  25.800  1.393  0.499  0.371  -9.138e-01   1.647e+00   5.819e-01   4.326e-01  11  sdss  6518  82S  2 
    1  54040.179034  3  23.507  1.125  0.580  0.326   1.120e+00   1.808e+00   9.132e-01   5.124e-01  10  sdss  6518  82S  2 
  128  54040.180692  4  21.172  0.528  0.091  0.268   1.165e+01   5.834e+00   1.066e+00   3.125e+00  11  sdss  6518  82S  2 
    1  54040.179863  0  26.291  2.095  0.613  2.346  -2.233e+00   4.131e+00   1.384e+00   5.296e+00  8  sdss  6518  82S  2 
   34  54050.165620  1  24.717  1.186  1.481  2.928   2.414e-01   8.681e-01   9.330e-01   1.845e+00  10  sdss  6542  82S  2 
    2  54050.162303  2  25.235  1.334  1.382  2.412  -3.552e-01   1.388e+00   1.195e+00   2.085e+00  11  sdss  6542  82S  2 
   34  54050.163133  3  23.818  1.216  0.260  1.494   6.709e-01   1.843e+00   3.478e-01   1.998e+00  10  sdss  6542  82S  2 
    0  54050.164791  4  22.005  1.056  1.067  1.212   4.437e+00   6.841e+00   6.755e+00   7.669e+00  11  sdss  6542  82S  2 
    2  54050.163962  0  21.748  0.386  0.090  2.212   7.693e+00   2.629e+00   6.402e-01   1.568e+01  8  sdss  6542  82S  2 
    0  54053.171395  1  25.373  0.921  1.036  1.524  -1.517e-01   6.188e-01   6.276e-01   9.229e-01  10  sdss  6555  82S  2 
    0  54053.168079  2  23.852  0.882  0.600  0.846   8.594e-01   9.770e-01   6.777e-01   9.559e-01  11  sdss  6555  82S  2 
    0  54053.168908  3  23.766  0.973  0.817  0.819   7.423e-01   1.416e+00   1.119e+00   1.121e+00  10  sdss  6555  82S  2 
    0  54053.170566  4  22.145  0.826  0.692  0.784   3.586e+00   4.978e+00   4.061e+00   4.596e+00  11  sdss  6555  82S  2 
    8  54053.169737  0  22.499  0.585  0.503  2.459   3.797e+00   1.947e+00   1.810e+00   8.856e+00  8  sdss  6555  82S  2 
    2  54056.172709  1  23.736  0.820  1.200  1.512   1.052e+00   8.604e-01   1.370e+00   1.726e+00  10  sdss  6568  82S  2 
 1152  54056.169393  2  25.442  1.334  1.341  2.124  -5.409e-01   1.430e+00   1.266e+00   2.005e+00  11  sdss  6568  82S  2 
  160  54056.170222  3  23.894  1.024  0.830  0.916   5.714e-01   1.462e+00   1.076e+00   1.188e+00  10  sdss  6568  82S  2 
  128  54056.171880  4  22.077  0.871  1.080  0.832   3.991e+00   5.395e+00   6.565e+00   5.058e+00  11  sdss  6568  82S  2 
    2  54056.171051  0  24.795  1.963  0.415 16.974  -1.257e-01   3.123e+00   4.050e-01   1.656e+01  8  sdss  6568  82S  2 
    0  54057.141281  1  25.435  0.805  0.560  0.982  -1.891e-01   5.326e-01   3.439e-01   6.034e-01  10  sdss  6571  82S  2 
    0  54057.137964  2  24.354  0.849  0.313  0.484   3.682e-01   7.885e-01   2.724e-01   4.203e-01  11  sdss  6571  82S  2 
    0  54057.138794  3  23.394  0.717  0.244  0.270   1.305e+00   1.186e+00   4.132e-01   4.561e-01  10  sdss  6571  82S  2 
    0  54057.140452  4  22.432  0.778  0.403  0.505   2.001e+00   4.300e+00   2.099e+00   2.627e+00  11  sdss  6571  82S  2 
    0  54057.139623  0  23.589  1.182  0.126  3.329   1.222e+00   1.687e+00   1.863e-01   4.922e+00  8  sdss  6571  82S  2 
    0  54059.166673  1  24.048  0.722  0.772  1.052   7.368e-01   6.293e-01   6.979e-01   9.502e-01  10  sdss  6580  82S  2 
    0  54059.163356  2  23.952  0.829  0.436  0.619   7.509e-01   8.771e-01   4.626e-01   6.573e-01  11  sdss  6580  82S  2 
    0  54059.164185  3  23.756  0.873  0.212  0.527   7.560e-01   1.256e+00   2.911e-01   7.252e-01  10  sdss  6580  82S  2 
   32  54059.165844  4  22.635  0.887  0.828  0.868   9.690e-01   4.869e+00   4.104e+00   4.304e+00  11  sdss  6580  82S  2 
    0  54059.165014  0  25.916  1.380  0.224  5.008  -1.497e+00   2.142e+00   3.757e-01   8.391e+00  8  sdss  6580  82S  2 
    0  54061.177451  1  25.310  0.935  0.138  1.535  -1.135e-01   6.266e-01   8.247e-02   9.183e-01  10  sdss  6590  82S  2 
    0  54061.174134  2  23.700  0.782  0.263  0.567   1.040e+00   9.399e-01   3.303e-01   7.108e-01  11  sdss  6590  82S  2 
    0  54061.174963  3  22.850  0.553  0.280  0.291   2.427e+00   1.333e+00   7.096e-01   7.389e-01  10  sdss  6590  82S  2 
    0  54061.176622  4  21.527  0.622  0.381  0.443   8.014e+00   5.195e+00   3.339e+00   3.883e+00  11  sdss  6590  82S  2 
  136  54061.175792  0  24.024  1.451  2.058  6.205   6.584e-01   1.949e+00   2.347e+00   7.075e+00  8  sdss  6590  82S  2 
    0  54062.171239  1  25.197  0.987  1.292  1.782  -4.649e-02   6.657e-01   7.629e-01   1.052e+00  10  sdss  6596  82S  2 
    0  54062.167922  2  23.122  0.571  0.403  0.484   1.947e+00   1.061e+00   7.980e-01   9.572e-01  11  sdss  6596  82S  2 
    0  54062.168751  3  25.314  0.916  0.764  0.641  -1.277e+00   1.505e+00   1.278e+00   1.072e+00  10  sdss  6596  82S  2 
    0  54062.170410  4  24.291  0.552  0.371  0.410  -9.450e+00   5.198e+00   3.667e+00   4.052e+00  11  sdss  6596  82S  2 
    2  54062.169580  0  24.542  1.659  0.391 11.237   1.201e-01   2.312e+00   3.813e-01   1.096e+01  8  sdss  6596  82S  2 
    3  54068.160690  1  26.190  2.118  1.274  1.671  -7.388e-01   2.316e+00   1.153e+00   1.512e+00  10  sdss  6615  82S  2 
    1  54068.157374  2  24.043  1.828  1.053  1.481   6.568e-01   2.338e+00   1.059e+00   1.489e+00  11  sdss  6615  82S  2 
   33  54068.158203  3  24.270  1.513  1.630  1.375   1.095e-01   2.431e+00   1.937e+00   1.634e+00  10  sdss  6615  82S  2 
    0  54068.159861  4  21.352  0.766  0.435  0.638   9.681e+00   7.083e+00   4.369e+00   6.417e+00  11  sdss  6615  82S  2 
    3  54068.159032  0  26.051  2.615  0.653  7.101  -1.737e+00   6.039e+00   1.213e+00   1.320e+01  8  sdss  6615  82S  2 
