# SDSS CID:  19110 IAU:          RA:  22.098515 DEC:   0.051514  (J2000)
# GALAXY_SB [ugriz] = [ 24.57 24.65 24.59 24.06 22.81 ] +/- [  0.33  0.09  0.10  0.09  0.09 ] (asinh mag/square arcsec)
# GALAXY_SB_FLUX [ugriz] = [  6.173E-02  2.802E-01  1.686E-01  3.649E-01  8.666E-02 ] +/- [  3.216E-01  6.053E-02  7.735E-02  1.085E-01  4.368E-01 ] (microJy per square arcsec)
#FLAG  MJD       FILT  MAG     MERR  MSKYERR MGALERR  FLUX       FLUXERR    SKYERR     GALERR    NPRE TELE   RUN  STRIP  IDCCD
   33  54347.368695  1  23.612  0.787  0.468  0.420   1.200e+00   8.963e-01   5.835e-01   5.238e-01  12  sdss  6930  82S  4 
    0  54347.365377  2  22.985  0.501  0.330  0.253   2.231e+00   1.042e+00   7.247e-01   5.542e-01  12  sdss  6930  82S  4 
  128  54347.366207  3  24.122  1.018  0.482  0.608   2.868e-01   1.406e+00   5.846e-01   7.377e-01  11  sdss  6930  82S  4 
  128  54347.367865  4  21.692  0.647  0.096  0.425   6.646e+00   4.853e+00   7.471e-01   3.302e+00  11  sdss  6930  82S  4 
  133  54347.367036  0  22.665  1.039  0.058  1.030   3.237e+00   2.622e+00   1.792e-01   3.160e+00  8  sdss  6930  82S  4 
    0  54357.344105  1  22.677  0.172  0.132  0.103   2.995e+00   4.779e-01   3.697e-01   2.902e-01  12  sdss  6955  82S  4 
    0  54357.340788  2  23.094  0.359  0.040  0.148   2.001e+00   6.994e-01   7.998e-02   2.955e-01  12  sdss  6955  82S  4 
    0  54357.341617  3  23.324  0.626  0.255  0.217   1.426e+00   1.074e+00   4.489e-01   3.808e-01  11  sdss  6955  82S  4 
    0  54357.343275  4  22.233  0.565  0.431  0.272   3.075e+00   3.230e+00   2.424e+00   1.528e+00  11  sdss  6955  82S  4 
    4  54357.342446  0  23.196  0.835  0.082  0.835   1.900e+00   1.494e+00   1.614e-01   1.639e+00  8  sdss  6955  82S  4 
    0  54359.375893  1  23.345  0.422  0.283  0.253   1.574e+00   6.339e-01   4.411e-01   3.945e-01  12  sdss  6964  82S  4 
    8  54359.372576  2  22.525  0.299  0.280  0.167   3.479e+00   9.615e-01   9.188e-01   5.500e-01  12  sdss  6964  82S  4 
    0  54359.373405  3  22.588  0.468  0.269  0.212   3.168e+00   1.397e+00   8.410e-01   6.606e-01  11  sdss  6964  82S  4 
    4  54359.375063  4  23.165  0.835  0.448  0.398  -1.647e+00   4.611e+00   2.284e+00   2.032e+00  11  sdss  6964  82S  4 
    4  54359.374234  0  22.474  0.559  0.083  0.619   3.890e+00   1.886e+00   3.007e-01   2.246e+00  8  sdss  6964  82S  4 
    0  54362.394037  1  23.037  0.233  0.097  0.123   2.127e+00   4.690e-01   1.976e-01   2.499e-01  12  sdss  6976  82S  4 
    0  54362.390720  2  22.977  0.336  0.046  0.122   2.248e+00   7.235e-01   1.026e-01   2.698e-01  12  sdss  6976  82S  4 
    0  54362.391549  3  23.164  0.591  0.204  0.166   1.724e+00   1.122e+00   4.011e-01   3.258e-01  11  sdss  6976  82S  4 
    0  54362.393208  4  22.015  0.588  0.223  0.205   4.379e+00   3.696e+00   1.406e+00   1.294e+00  11  sdss  6976  82S  4 
   12  54362.392378  0  25.097  1.139  0.647  1.283  -4.286e-01   1.357e+00   6.751e-01   1.337e+00  8  sdss  6976  82S  4 
    1  54376.389504  1  23.105  0.299  0.080  0.094   1.991e+00   5.607e-01   1.539e-01   1.798e-01  12  sdss  7016  82S  4 
    0  54376.386187  2  22.919  0.347  0.035  0.098   2.381e+00   7.837e-01   8.125e-02   2.270e-01  12  sdss  7016  82S  4 
    0  54376.387016  3  22.662  0.422  0.131  0.102   2.943e+00   1.195e+00   3.853e-01   2.996e-01  11  sdss  7016  82S  4 
    0  54376.388675  4  23.803  0.528  0.194  0.146  -5.388e+00   3.598e+00   1.341e+00   1.008e+00  11  sdss  7016  82S  4 
    1  54376.387846  0  22.166  0.387  0.031  0.249   5.203e+00   1.778e+00   1.468e-01   1.188e+00  8  sdss  7016  82S  4 
   34  54382.374765  1  22.898  0.295  0.485  0.420   2.429e+00   6.654e-01   1.117e+00   9.686e-01  12  sdss  7038  82S  4 
    0  54382.371448  2  22.814  0.419  0.402  0.338   2.637e+00   1.024e+00   1.022e+00   8.591e-01  12  sdss  7038  82S  4 
    0  54382.372277  3  23.794  1.114  0.387  0.904   7.039e-01   1.652e+00   5.211e-01   1.218e+00  11  sdss  7038  82S  4 
    0  54382.373936  4  22.572  1.086  0.694  1.023   1.284e+00   6.300e+00   3.480e+00   5.133e+00  11  sdss  7038  82S  4 
   34  54382.373107  0  23.957  1.619  0.757  5.034   7.361e-01   2.311e+00   8.874e-01   5.907e+00  8  sdss  7038  82S  4 
    0  54385.392748  1  22.989  0.231  0.088  0.127   2.227e+00   4.853e-01   1.879e-01   2.698e-01  12  sdss  7051  82S  4 
    0  54385.389431  2  23.000  0.332  0.032  0.109   2.198e+00   7.015e-01   6.979e-02   2.369e-01  12  sdss  7051  82S  4 
    0  54385.390260  3  23.302  0.623  0.165  0.197   1.465e+00   1.083e+00   2.950e-01   3.522e-01  11  sdss  7051  82S  4 
    0  54385.391919  4  21.545  0.391  0.132  0.157   7.858e+00   3.317e+00   1.143e+00   1.362e+00  11  sdss  7051  82S  4 
    0  54385.391090  0  23.001  0.738  0.123  0.656   2.323e+00   1.547e+00   2.838e-01   1.510e+00  8  sdss  7051  82S  4 
  162  54387.393156  1  24.422  1.015  1.464  1.636   4.387e-01   7.595e-01   1.044e+00   1.167e+00  12  sdss  7057  82S  4 
    0  54387.389839  2  22.778  0.389  0.252  0.270   2.731e+00   9.854e-01   6.625e-01   7.096e-01  12  sdss  7057  82S  4 
    0  54387.390669  3  22.888  0.636  0.153  0.387   2.332e+00   1.453e+00   3.736e-01   9.410e-01  11  sdss  7057  82S  4 
  128  54387.392327  4  21.872  0.866  0.973  0.759   5.324e+00   5.845e+00   6.694e+00   5.224e+00  11  sdss  7057  82S  4 
   10  54387.391498  0  23.097  1.213  0.988  2.096   2.107e+00   2.194e+00   2.104e+00   4.460e+00  8  sdss  7057  82S  4 
    0  54390.385442  1  23.001  0.311  0.198  0.304   2.201e+00   6.384e-01   4.159e-01   6.384e-01  12  sdss  7071  82S  4 
 1180  54390.382125  2  21.542  0.649  3.563  0.087   8.715e+00   4.672e+00   2.858e+01   7.003e-01  12  sdss  7071  82S  4 
 1156  54390.382955  3  23.389  2.596  4.638  0.500   1.312e+00   7.080e+00   7.807e+00   8.408e-01  11  sdss  7071  82S  4 
    0  54390.384613  4  20.949  0.461  0.349  0.288   1.454e+01   6.212e+00   4.930e+00   4.070e+00  11  sdss  7071  82S  4 
    6  54390.383784  0  22.297  0.586  0.157  0.924   4.603e+00   2.294e+00   6.691e-01   3.929e+00  8  sdss  7071  82S  4 
   32  54391.394081  1  24.385  1.321  0.460  1.701   4.654e-01   1.058e+00   3.346e-01   1.237e+00  12  sdss  7074  82S  4 
   34  54391.390764  2  24.330  1.306  1.667  1.381   3.888e-01   1.352e+00   1.458e+00   1.208e+00  12  sdss  7074  82S  4 
    2  54391.391593  3  26.085  0.706  0.492  0.517  -3.013e+00   1.927e+00   1.472e+00   1.545e+00  11  sdss  7074  82S  4 
    2  54391.393252  4  20.637  0.460  0.494  0.383   1.966e+01   8.123e+00   9.167e+00   7.114e+00  11  sdss  7074  82S  4 
   12  54391.392423  0  22.313  1.375  0.905  1.574   4.533e+00   4.147e+00   3.791e+00   6.594e+00  8  sdss  7074  82S  4 
    0  54394.375706  1  22.717  0.244  0.248  0.235   2.884e+00   6.499e-01   6.723e-01   6.370e-01  12  sdss  7084  82S  4 
    0  54394.372389  2  22.625  0.385  0.211  0.238   3.164e+00   1.115e+00   6.354e-01   7.137e-01  12  sdss  7084  82S  4 
    0  54394.373218  3  22.884  0.630  0.537  0.324   2.342e+00   1.446e+00   1.312e+00   7.901e-01  11  sdss  7084  82S  4 
    0  54394.374877  4  21.995  0.878  0.891  0.636   4.500e+00   5.620e+00   5.678e+00   4.052e+00  11  sdss  7084  82S  4 
   10  54394.374047  0  24.710  1.679  2.748  4.139  -4.300e-02   2.357e+00   2.664e+00   4.014e+00  8  sdss  7084  82S  4 
    3  54396.396182  1  25.479  2.188  3.871  1.583  -2.166e-01   2.364e+00   2.405e+00   9.836e-01  12  sdss  7096  82S  4 
  131  54396.392865  2  25.404  1.944  1.362  1.373  -5.062e-01   2.570e+00   1.258e+00   1.268e+00  12  sdss  7096  82S  4 
    3  54396.393695  3  21.559  0.366  0.232  0.201   8.447e+00   2.753e+00   1.809e+00   1.569e+00  11  sdss  7096  82S  4 
    0  54396.395353  4  24.070  1.057  0.413  0.733  -7.429e+00   8.156e+00   3.446e+00   6.114e+00  11  sdss  7096  82S  4 
  131  54396.394524  0  27.063  2.089  0.614  1.250  -4.729e+00   5.658e+00   2.678e+00   5.453e+00  8  sdss  7096  82S  4 
    1  54402.386243  1  22.494  0.507  0.140  0.131   3.556e+00   1.573e+00   4.649e-01   4.336e-01  12  sdss  7101  82S  4 
    1  54402.382926  2  23.135  0.946  0.311  0.263   1.920e+00   1.590e+00   6.014e-01   5.084e-01  12  sdss  7101  82S  4 
    1  54402.383755  3  23.062  0.859  0.300  0.277   1.935e+00   1.692e+00   6.364e-01   5.891e-01  11  sdss  7101  82S  4 
    0  54402.385414  4  21.467  0.567  0.064  0.246   8.561e+00   4.983e+00   5.900e-01   2.267e+00  11  sdss  7101  82S  4 
    1  54402.384585  0  27.358  1.196  0.120  0.467  -6.232e+00   5.073e+00   6.800e-01   2.655e+00  8  sdss  7101  82S  4 
    0  54408.300087  1  22.925  0.200  0.079  0.083   2.367e+00   4.449e-01   1.770e-01   1.867e-01  12  sdss  7127  82S  4 
    0  54408.296770  2  23.153  0.384  0.066  0.106   1.885e+00   7.097e-01   1.259e-01   2.020e-01  12  sdss  7127  82S  4 
  128  54408.297599  3  23.611  0.715  0.119  0.157   9.626e-01   1.062e+00   1.761e-01   2.312e-01  11  sdss  7127  82S  4 
    0  54408.299258  4  21.765  0.472  0.068  0.141   6.087e+00   3.423e+00   5.027e-01   1.044e+00  11  sdss  7127  82S  4 
    4  54408.298429  0  23.073  0.686  0.055  0.508   2.160e+00   1.376e+00   1.185e-01   1.102e+00  8  sdss  7127  82S  4 
    0  54411.257997  1  23.122  0.250  0.089  0.124   1.959e+00   4.656e-01   1.688e-01   2.340e-01  12  sdss  7136  82S  4 
    0  54411.254680  2  23.239  0.447  0.077  0.208   1.726e+00   7.631e-01   1.356e-01   3.683e-01  12  sdss  7136  82S  4 
    0  54411.255509  3  23.510  0.734  0.267  0.305   1.115e+00   1.140e+00   4.168e-01   4.756e-01  11  sdss  7136  82S  4 
    0  54411.257167  4  22.577  0.640  0.111  0.300   1.258e+00   3.372e+00   5.567e-01   1.501e+00  11  sdss  7136  82S  4 
 1164  54411.256338  0  23.089  0.827  0.549  0.999   2.124e+00   1.597e+00   1.176e+00   2.141e+00  8  sdss  7136  82S  4 
  162  54413.298854  1  23.442  0.546  0.732  0.858   1.429e+00   7.410e-01   1.052e+00   1.231e+00  12  sdss  7145  82S  4 
  130  54413.295537  2  22.994  0.735  1.159  0.841   2.211e+00   1.442e+00   2.521e+00   1.830e+00  12  sdss  7145  82S  4 
 1154  54413.296367  3  23.058  1.204  1.455  1.314   1.943e+00   2.325e+00   3.100e+00   2.799e+00  11  sdss  7145  82S  4 
    0  54413.298025  4  21.453  0.625  0.167  0.454   8.693e+00   5.510e+00   1.551e+00   4.219e+00  11  sdss  7145  82S  4 
   38  54413.297196  0  23.999  1.675  0.245  5.317   6.874e-01   2.427e+00   2.818e-01   6.111e+00  8  sdss  7145  82S  4 
    0  54415.310225  1  22.857  0.212  0.186  0.143   2.526e+00   5.018e-01   4.447e-01   3.425e-01  12  sdss  7152  82S  4 
    0  54415.306909  2  23.689  0.633  0.058  0.298   1.053e+00   7.671e-01   7.323e-02   3.730e-01  12  sdss  7152  82S  4 
    0  54415.307738  3  23.108  0.582  0.126  0.223   1.838e+00   1.148e+00   2.579e-01   4.567e-01  11  sdss  7152  82S  4 
    0  54415.309396  4  22.937  0.705  0.073  0.382  -5.089e-01   3.694e+00   3.573e-01   1.870e+00  11  sdss  7152  82S  4 
    0  54415.308567  0  22.989  0.758  0.138  0.765   2.351e+00   1.597e+00   3.206e-01   1.779e+00  8  sdss  7152  82S  4 
    0  54417.300341  1  23.131  0.250  0.140  0.133   1.942e+00   4.612e-01   2.625e-01   2.491e-01  12  sdss  7158  82S  4 
    8  54417.297025  2  22.792  0.286  0.162  0.115   2.694e+00   7.280e-01   4.189e-01   2.970e-01  12  sdss  7158  82S  4 
    0  54417.297854  3  22.717  0.414  0.111  0.118   2.783e+00   1.120e+00   3.120e-01   3.300e-01  11  sdss  7158  82S  4 
    0  54417.299512  4  21.789  0.539  0.059  0.209   5.909e+00   3.832e+00   4.322e-01   1.516e+00  11  sdss  7158  82S  4 
   36  54417.298683  0  23.277  0.881  0.094  0.812   1.744e+00   1.485e+00   1.733e-01   1.497e+00  8  sdss  7158  82S  4 
    0  54418.298691  1  23.294  0.312  0.171  0.219   1.656e+00   4.977e-01   2.778e-01   3.560e-01  12  sdss  7161  82S  4 
    0  54418.295374  2  22.973  0.374  0.060  0.190   2.257e+00   8.037e-01   1.329e-01   4.219e-01  12  sdss  7161  82S  4 
    0  54418.296204  3  23.272  0.673  0.126  0.269   1.519e+00   1.186e+00   2.303e-01   4.895e-01  11  sdss  7161  82S  4 
    0  54418.297862  4  23.102  0.736  0.458  0.409  -1.325e+00   3.951e+00   2.299e+00   2.057e+00  11  sdss  7161  82S  4 
    8  54418.297033  0  21.814  0.257  0.230  0.339   7.232e+00   1.662e+00   1.513e+00   2.229e+00  8  sdss  7161  82S  4 
    0  54422.302909  1  22.916  0.268  0.260  0.268   2.388e+00   5.961e-01   5.903e-01   6.072e-01  12  sdss  7173  82S  4 
    0  54422.299592  2  23.054  0.489  0.264  0.335   2.083e+00   9.634e-01   5.461e-01   6.929e-01  12  sdss  7173  82S  4 
    0  54422.300422  3  23.182  0.738  0.435  0.413   1.688e+00   1.366e+00   8.446e-01   8.016e-01  11  sdss  7173  82S  4 
    0  54422.302080  4  23.542  0.814  0.859  0.590  -3.713e+00   4.941e+00   5.098e+00   3.500e+00  11  sdss  7173  82S  4 
    0  54422.301251  0  22.509  0.651  0.255  1.020   3.762e+00   2.081e+00   8.964e-01   3.591e+00  8  sdss  7173  82S  4 
    1  54424.238795  1  23.562  0.760  0.185  0.161   1.264e+00   9.020e-01   2.404e-01   2.090e-01  12  sdss  7183  82S  4 
    1  54424.235478  2  22.849  0.403  0.094  0.089   2.549e+00   9.590e-01   2.314e-01   2.199e-01  12  sdss  7183  82S  4 
    0  54424.236307  3  23.322  0.742  0.237  0.183   1.429e+00   1.267e+00   4.171e-01   3.218e-01  11  sdss  7183  82S  4 
    0  54424.237965  4  22.578  0.680  0.054  0.285   1.253e+00   3.606e+00   2.687e-01   1.428e+00  11  sdss  7183  82S  4 
   33  54424.237136  0  23.714  1.685  0.187  1.040   1.045e+00   2.547e+00   2.524e-01   1.404e+00  8  sdss  7183  82S  4 
