# SDSS CID:    829 IAU:          RA:  41.353649 DEC:  -0.979606  (J2000)
# GALAXY_SB [ugriz] = [ 23.53 23.05 22.32 21.82 21.30 ] +/- [  0.21  0.04  0.02  0.02  0.05 ] (asinh mag/square arcsec)
# GALAXY_SB_FLUX [ugriz] = [  1.266E+00  2.091E+00  4.213E+00  6.623E+00  1.012E+01 ] +/- [  3.221E-01  7.739E-02  9.646E-02  1.363E-01  5.031E-01 ] (microJy per square arcsec)
#FLAG  MJD       FILT  MAG     MERR  MSKYERR MGALERR  FLUX       FLUXERR    SKYERR     GALERR    NPRE TELE   RUN  STRIP  IDCCD
    0  53616.427515  1  21.275  0.067  0.032  0.069   1.100e+01   6.716e-01   3.193e-01   6.913e-01  20  sdss  5566  82N  1 
   32  53616.424198  2  21.591  0.124  0.059  0.103   8.326e+00   9.501e-01   4.568e-01   7.969e-01  20  sdss  5566  82N  1 
   32  53616.425027  3  21.769  0.219  0.160  0.142   6.941e+00   1.408e+00   1.040e+00   9.230e-01  23  sdss  5566  82N  1 
   32  53616.426686  4  20.865  0.291  0.026  0.194   1.579e+01   4.333e+00   3.971e-01   2.953e+00  22  sdss  5566  82N  1 
  128  53616.425857  0  21.204  0.166  0.026  0.289   1.274e+01   1.853e+00   2.946e-01   3.247e+00  11  sdss  5566  82N  1 
  128  53626.404458  1  21.350  0.088  0.054  0.095   1.027e+01   8.213e-01   5.065e-01   8.885e-01  20  sdss  5603  82N  1 
 1214  53626.401141  2  22.458  0.940 13.659  0.496   3.706e+00   2.724e+00   4.782e+01   1.737e+00  20  sdss  5603  82N  1 
   32  53626.401970  3  21.924  0.297  0.320  0.343   6.001e+00   1.643e+00   1.815e+00   1.941e+00  23  sdss  5603  82N  1 
 1194  53626.403629  4  20.502  0.330  0.601  0.530   2.236e+01   6.731e+00   1.258e+01   1.111e+01  22  sdss  5603  82N  1 
    8  53626.402799  0  21.186  0.174  0.074  0.327   1.295e+01   1.966e+00   8.457e-01   3.729e+00  11  sdss  5603  82N  1 
    1  53628.389576  1  21.379  0.131  0.060  0.066   9.994e+00   1.190e+00   5.491e-01   6.016e-01  20  sdss  5610  82N  1 
    0  53628.386259  2  21.491  0.133  0.067  0.069   9.133e+00   1.120e+00   5.642e-01   5.848e-01  20  sdss  5610  82N  1 
   32  53628.387088  3  21.558  0.205  0.142  0.106   8.453e+00   1.602e+00   1.122e+00   8.347e-01  23  sdss  5610  82N  1 
   32  53628.388747  4  21.306  0.505  0.432  0.321   1.016e+01   5.059e+00   4.526e+00   3.363e+00  22  sdss  5610  82N  1 
    9  53628.387917  0  21.501  0.275  0.128  0.344   9.672e+00   2.306e+00   1.094e+00   2.942e+00  11  sdss  5610  82N  1 
    1  53635.398397  1  21.358  0.121  0.025  0.028   1.019e+01   1.122e+00   2.345e-01   2.648e-01  20  sdss  5622  82N  1 
    1  53635.395079  2  21.577  0.148  0.051  0.037   8.435e+00   1.150e+00   3.972e-01   2.917e-01  20  sdss  5622  82N  1 
    1  53635.395909  3  21.418  0.158  0.049  0.040   9.638e+00   1.408e+00   4.386e-01   3.547e-01  23  sdss  5622  82N  1 
    0  53635.397567  4  23.087  0.683  0.170  0.309  -1.253e+00   3.623e+00   8.512e-01   1.546e+00  22  sdss  5622  82N  1 
    1  53635.396738  0  21.312  0.264  0.010  0.146   1.152e+01   2.629e+00   1.065e-01   1.485e+00  11  sdss  5622  82N  1 
    0  53639.437316  1  21.208  0.069  0.030  0.053   1.170e+01   7.420e-01   3.190e-01   5.720e-01  20  sdss  5642  82N  1 
    0  53639.433999  2  21.404  0.091  0.020  0.040   9.899e+00   8.261e-01   1.810e-01   3.700e-01  20  sdss  5642  82N  1 
   32  53639.434828  3  21.740  0.190  0.106  0.098   7.133e+00   1.256e+00   7.103e-01   6.534e-01  23  sdss  5642  82N  1 
   32  53639.436487  4  21.051  0.298  0.075  0.191   1.315e+01   3.781e+00   9.657e-01   2.477e+00  22  sdss  5642  82N  1 
  128  53639.435657  0  21.284  0.183  0.010  0.226   1.183e+01   1.890e+00   1.038e-01   2.353e+00  11  sdss  5642  82N  1 
    0  53641.436595  1  21.236  0.072  0.031  0.051   1.140e+01   7.456e-01   3.211e-01   5.296e-01  20  sdss  5658  82N  1 
    0  53641.433278  2  21.647  0.118  0.072  0.076   7.905e+00   8.627e-01   5.273e-01   5.570e-01  20  sdss  5658  82N  1 
   32  53641.434107  3  21.708  0.189  0.113  0.110   7.349e+00   1.291e+00   7.803e-01   7.555e-01  23  sdss  5658  82N  1 
   32  53641.435766  4  21.523  0.469  0.076  0.343   8.052e+00   4.011e+00   6.701e-01   3.020e+00  22  sdss  5658  82N  1 
    8  53641.434936  0  21.326  0.195  0.107  0.246   1.137e+01   1.941e+00   1.079e+00   2.474e+00  11  sdss  5658  82N  1 
    0  53644.384470  1  21.208  0.056  0.010  0.030   1.170e+01   6.030e-01   1.034e-01   3.254e-01  20  sdss  5670  82N  1 
    0  53644.381152  2  21.360  0.079  0.015  0.033   1.031e+01   7.523e-01   1.453e-01   3.129e-01  20  sdss  5670  82N  1 
   32  53644.381982  3  21.605  0.150  0.059  0.057   8.091e+00   1.129e+00   4.439e-01   4.285e-01  23  sdss  5670  82N  1 
    0  53644.383640  4  21.264  0.304  0.102  0.174   1.061e+01   3.233e+00   1.103e+00   1.880e+00  22  sdss  5670  82N  1 
    0  53644.382811  0  21.325  0.151  0.027  0.144   1.139e+01   1.503e+00   2.730e-01   1.450e+00  11  sdss  5670  82N  1 
    1  53657.396079  1  21.443  0.138  0.115  0.084   9.421e+00   1.185e+00   9.898e-01   7.230e-01  20  sdss  5731  82N  1 
   33  53657.392761  2  21.682  0.213  0.137  0.141   7.653e+00   1.493e+00   9.701e-01   9.986e-01  20  sdss  5731  82N  1 
   32  53657.393591  3  22.116  0.406  0.197  0.239   5.004e+00   1.857e+00   9.403e-01   1.141e+00  23  sdss  5731  82N  1 
   32  53657.395249  4  21.173  0.472  0.119  0.319   1.163e+01   5.271e+00   1.384e+00   3.718e+00  22  sdss  5731  82N  1 
  137  53657.394420  0  21.630  0.359  0.258  0.516   8.581e+00   2.637e+00   1.964e+00   3.922e+00  11  sdss  5731  82N  1 
    1  53663.380727  1  21.172  0.140  0.020  0.032   1.209e+01   1.540e+00   2.251e-01   3.582e-01  20  sdss  5744  82N  1 
    1  53663.377409  2  21.496  0.150  0.033  0.044   9.091e+00   1.252e+00   2.760e-01   3.667e-01  20  sdss  5744  82N  1 
   33  53663.378239  3  21.693  0.222  0.096  0.070   7.453e+00   1.529e+00   6.675e-01   4.893e-01  23  sdss  5744  82N  1 
   32  53663.379897  4  22.318  0.843  0.456  0.451   2.606e+00   4.837e+00   2.473e+00   2.446e+00  22  sdss  5744  82N  1 
    1  53663.379068  0  21.565  0.513  0.101  0.266   9.115e+00   3.863e+00   8.167e-01   2.146e+00  11  sdss  5744  82N  1 
    1  53666.450898  1  21.327  0.108  0.034  0.046   1.049e+01   1.033e+00   3.219e-01   4.406e-01  20  sdss  5765  82N  1 
    1  53666.447581  2  21.387  0.115  0.019  0.044   1.006e+01   1.068e+00   1.738e-01   4.082e-01  20  sdss  5765  82N  1 
    0  53666.448410  3  21.406  0.153  0.062  0.051   9.746e+00   1.382e+00   5.586e-01   4.656e-01  23  sdss  5765  82N  1 
    0  53666.450069  4  21.018  0.325  0.125  0.144   1.358e+01   4.219e+00   1.660e+00   1.912e+00  22  sdss  5765  82N  1 
    1  53666.449240  0  21.336  0.306  0.059  0.214   1.127e+01   2.963e+00   5.906e-01   2.127e+00  11  sdss  5765  82N  1 
    1  53668.370275  1  21.198  0.085  0.065  0.082   1.181e+01   9.153e-01   6.965e-01   8.840e-01  20  sdss  5770  82N  1 
   32  53668.366958  2  21.545  0.137  0.065  0.109   8.689e+00   1.091e+00   5.212e-01   8.768e-01  20  sdss  5770  82N  1 
   32  53668.367787  3  21.598  0.215  0.183  0.171   8.144e+00   1.619e+00   1.390e+00   1.300e+00  23  sdss  5770  82N  1 
   32  53668.369445  4  21.308  0.536  0.293  0.487   1.014e+01   5.334e+00   3.067e+00   5.089e+00  22  sdss  5770  82N  1 
  130  53668.368616  0  21.273  0.245  0.066  0.427   1.194e+01   2.535e+00   6.916e-01   4.501e+00  11  sdss  5770  82N  1 
    1  53669.457932  1  21.289  0.096  0.049  0.064   1.086e+01   9.534e-01   4.866e-01   6.348e-01  20  sdss  5777  82N  1 
    0  53669.454615  2  21.447  0.127  0.070  0.065   9.512e+00   1.109e+00   6.152e-01   5.706e-01  20  sdss  5777  82N  1 
   32  53669.455444  3  21.452  0.176  0.085  0.086   9.338e+00   1.522e+00   7.382e-01   7.465e-01  23  sdss  5777  82N  1 
    0  53669.457103  4  20.985  0.362  0.026  0.196   1.404e+01   4.817e+00   3.599e-01   2.687e+00  22  sdss  5777  82N  1 
   33  53669.456273  0  22.019  0.583  0.036  0.512   5.971e+00   2.858e+00   1.914e-01   2.733e+00  11  sdss  5777  82N  1 
    0  53670.375341  1  21.205  0.070  0.021  0.063   1.173e+01   7.532e-01   2.303e-01   6.779e-01  20  sdss  5781  82N  1 
    0  53670.372024  2  21.504  0.119  0.048  0.090   9.024e+00   9.854e-01   3.969e-01   7.493e-01  20  sdss  5781  82N  1 
   32  53670.372853  3  21.730  0.211  0.167  0.138   7.200e+00   1.407e+00   1.127e+00   9.324e-01  23  sdss  5781  82N  1 
   32  53670.374511  4  21.682  0.575  0.116  0.478   6.725e+00   4.365e+00   9.063e-01   3.742e+00  22  sdss  5781  82N  1 
  128  53670.373682  0  21.563  0.258  0.034  0.416   9.132e+00   2.046e+00   2.732e-01   3.360e+00  11  sdss  5781  82N  1 
    0  53673.343048  1  21.398  0.061  0.015  0.034   9.820e+00   5.448e-01   1.377e-01   3.012e-01  20  sdss  5792  82N  1 
    0  53673.339731  2  21.501  0.096  0.039  0.039   9.049e+00   8.027e-01   3.265e-01   3.297e-01  20  sdss  5792  82N  1 
   32  53673.340560  3  21.603  0.151  0.061  0.050   8.106e+00   1.140e+00   4.603e-01   3.792e-01  23  sdss  5792  82N  1 
    0  53673.342219  4  21.251  0.329  0.110  0.167   1.075e+01   3.532e+00   1.204e+00   1.833e+00  22  sdss  5792  82N  1 
    0  53673.341389  0  21.463  0.178  0.012  0.161   1.002e+01   1.560e+00   1.091e-01   1.423e+00  11  sdss  5792  82N  1 
    0  53675.340236  1  21.348  0.068  0.031  0.051   1.029e+01   6.390e-01   2.869e-01   4.821e-01  20  sdss  5800  82N  1 
    0  53675.336919  2  21.449  0.100  0.045  0.049   9.495e+00   8.753e-01   3.922e-01   4.314e-01  20  sdss  5800  82N  1 
   32  53675.337748  3  21.471  0.156  0.068  0.072   9.174e+00   1.327e+00   5.836e-01   6.172e-01  23  sdss  5800  82N  1 
    0  53675.339406  4  20.980  0.318  0.134  0.201   1.411e+01   4.270e+00   1.839e+00   2.767e+00  22  sdss  5800  82N  1 
  128  53675.338577  0  21.393  0.173  0.012  0.220   1.069e+01   1.620e+00   1.123e-01   2.073e+00  11  sdss  5800  82N  1 
    0  53677.360983  1  21.376  0.059  0.014  0.030   1.002e+01   5.445e-01   1.315e-01   2.733e-01  20  sdss  5813  82N  1 
    0  53677.357666  2  21.698  0.110  0.025  0.041   7.540e+00   7.622e-01   1.766e-01   2.835e-01  20  sdss  5813  82N  1 
   32  53677.358495  3  21.712  0.166  0.063  0.056   7.321e+00   1.133e+00   4.328e-01   3.864e-01  23  sdss  5813  82N  1 
   32  53677.360154  4  21.532  0.394  0.172  0.190   7.972e+00   3.370e+00   1.504e+00   1.661e+00  22  sdss  5813  82N  1 
    0  53677.359325  0  21.491  0.182  0.031  0.173   9.762e+00   1.556e+00   2.701e-01   1.489e+00  11  sdss  5813  82N  1 
    0  53680.347879  1  21.368  0.068  0.022  0.038   1.010e+01   6.306e-01   1.995e-01   3.545e-01  20  sdss  5823  82N  1 
    0  53680.344562  2  21.703  0.118  0.042  0.045   7.506e+00   8.186e-01   2.894e-01   3.155e-01  20  sdss  5823  82N  1 
   32  53680.345391  3  21.596  0.161  0.059  0.057   8.159e+00   1.222e+00   4.464e-01   4.354e-01  23  sdss  5823  82N  1 
   32  53680.347049  4  21.601  0.462  0.219  0.243   7.386e+00   3.739e+00   1.817e+00   2.018e+00  22  sdss  5823  82N  1 
    0  53680.346220  0  21.523  0.206  0.012  0.193   9.477e+00   1.705e+00   1.020e-01   1.617e+00  11  sdss  5823  82N  1 
    0  53683.406108  1  21.646  0.093  0.030  0.047   7.809e+00   6.620e-01   2.131e-01   3.357e-01  20  sdss  5842  82N  1 
    0  53683.402791  2  21.537  0.119  0.060  0.036   8.753e+00   9.571e-01   4.894e-01   2.931e-01  20  sdss  5842  82N  1 
   36  53683.403621  3  21.914  0.302  0.156  0.065   6.058e+00   1.688e+00   8.918e-01   3.717e-01  23  sdss  5842  82N  1 
    1  53683.405279  4  20.739  0.346  0.126  0.100   1.783e+01   5.703e+00   2.144e+00   1.695e+00  22  sdss  5842  82N  1 
    0  53683.404450  0  21.733  0.299  0.016  0.271   7.798e+00   2.022e+00   1.141e-01   1.877e+00  11  sdss  5842  82N  1 
    1  53686.347272  1  21.483  0.171  0.047  0.067   9.078e+00   1.410e+00   3.893e-01   5.554e-01  20  sdss  5866  82N  1 
   33  53686.343956  2  21.718  0.237  0.108  0.122   7.402e+00   1.600e+00   7.377e-01   8.395e-01  20  sdss  5866  82N  1 
   32  53686.344785  3  21.377  0.194  0.101  0.098   1.001e+01   1.790e+00   9.435e-01   9.163e-01  23  sdss  5866  82N  1 
   32  53686.346443  4  21.265  0.436  0.049  0.295   1.060e+01   4.557e+00   5.317e-01   3.188e+00  22  sdss  5866  82N  1 
    9  53686.345614  0  21.152  0.308  0.161  0.261   1.336e+01   3.538e+00   1.901e+00   3.070e+00  11  sdss  5866  82N  1 
    1  53687.404360  1  28.777  3.282  0.835  0.395  -9.284e+00   1.125e+01   7.089e+00   3.351e+00  20  sdss  5872  82N  1 
 1187  53687.401043  2  21.726  0.618  0.357  0.333   7.347e+00   3.812e+00   2.430e+00   2.268e+00  20  sdss  5872  82N  1 
 1187  53687.401872  3  21.430  0.595  0.592  0.427   9.532e+00   4.825e+00   5.257e+00   3.794e+00  23  sdss  5872  82N  1 
  162  53687.403531  4  21.818  1.371  1.043  1.473   5.699e+00   9.864e+00   7.428e+00   1.050e+01  22  sdss  5872  82N  1 
    3  53687.402702  0  20.958  0.941  0.575  0.790   1.598e+01   1.071e+01   8.096e+00   1.112e+01  11  sdss  5872  82N  1 
    1  53693.349425  1  21.716  0.323  0.145  0.134   7.321e+00   2.105e+00   9.735e-01   9.009e-01  20  sdss  5878  82N  1 
   33  53693.346108  2  22.112  0.338  0.160  0.167   5.131e+00   1.569e+00   7.644e-01   7.983e-01  20  sdss  5878  82N  1 
   32  53693.346938  3  21.809  0.283  0.176  0.137   6.686e+00   1.743e+00   1.109e+00   8.602e-01  23  sdss  5878  82N  1 
   32  53693.348596  4  21.568  0.740  0.672  0.620   7.658e+00   5.947e+00   5.717e+00   5.276e+00  22  sdss  5878  82N  1 
   35  53693.347767  0  22.002  1.393  0.143  0.747   6.067e+00   5.261e+00   7.769e-01   4.048e+00  11  sdss  5878  82N  1 
    0  53699.370100  1  21.621  0.098  0.029  0.054   7.992e+00   7.184e-01   2.131e-01   3.984e-01  20  sdss  5902  82N  1 
   32  53699.366783  2  22.378  0.243  0.088  0.115   3.998e+00   9.005e-01   3.310e-01   4.318e-01  20  sdss  5902  82N  1 
   32  53699.367613  3  21.830  0.209  0.106  0.086   6.555e+00   1.271e+00   6.550e-01   5.314e-01  23  sdss  5902  82N  1 
   32  53699.369271  4  21.828  0.542  0.072  0.301   5.627e+00   3.768e+00   5.102e-01   2.127e+00  22  sdss  5902  82N  1 
  160  53699.368442  0  22.418  0.704  0.155  0.650   4.101e+00   2.349e+00   5.778e-01   2.425e+00  11  sdss  5902  82N  1 
    0  53704.332256  1  21.662  0.111  0.084  0.144   7.695e+00   7.794e-01   5.906e-01   1.012e+00  20  sdss  5918  82N  1 
   32  53704.328939  2  21.847  0.148  0.091  0.101   6.567e+00   8.972e-01   5.534e-01   6.143e-01  20  sdss  5918  82N  1 
   32  53704.329768  3  22.364  0.374  0.163  0.212   3.945e+00   1.387e+00   6.253e-01   8.109e-01  23  sdss  5918  82N  1 
  160  53704.331426  4  21.649  0.583  0.273  0.377   6.990e+00   4.519e+00   2.187e+00   3.023e+00  22  sdss  5918  82N  1 
  136  53704.330597  0  21.588  0.234  0.110  0.310   8.923e+00   1.823e+00   8.671e-01   2.447e+00  11  sdss  5918  82N  1 
