# SDSS CID:   8694 IAU: 2007lw   RA: 354.229431 DEC:  -0.802580  (J2000)
# GALAXY_SB [ugriz] = [ 23.52 24.15 23.39 22.49 21.68 ] +/- [  0.29  0.11  0.07  0.04  0.08 ] (asinh mag/square arcsec)
# GALAXY_SB_FLUX [ugriz] = [  1.275E+00  6.444E-01  1.467E+00  3.487E+00  6.704E+00 ] +/- [  4.397E-01  9.354E-02  1.106E-01  1.448E-01  6.001E-01 ] (microJy per square arcsec)
#FLAG  MJD       FILT  MAG     MERR  MSKYERR MGALERR  FLUX       FLUXERR    SKYERR     GALERR    NPRE TELE   RUN  STRIP  IDCCD
    0  53622.312862  1  22.670  0.223  0.146  0.247   3.013e+00   6.255e-01   4.162e-01   7.033e-01  13  sdss  5582  82S  2 
    0  53622.309545  2  22.704  0.348  0.110  0.295   2.932e+00   9.569e-01   3.106e-01   8.357e-01  13  sdss  5582  82S  2 
   32  53622.310374  3  22.562  0.440  0.180  0.266   3.252e+00   1.366e+00   5.814e-01   8.606e-01  13  sdss  5582  82S  2 
   32  53622.312032  4  21.453  0.582  0.544  0.423   8.693e+00   5.143e+00   5.045e+00   3.921e+00  14  sdss  5582  82S  2 
   12  53622.311203  0  26.939  0.495  0.398  0.985  -4.204e+00   1.826e+00   1.560e+00   3.859e+00  10  sdss  5582  82S  2 
    1  53627.269845  1  23.040  0.469  0.122  0.181   2.120e+00   9.120e-01   2.498e-01   3.703e-01  13  sdss  5607  82S  2 
    1  53627.266528  2  22.537  0.300  0.043  0.115   3.438e+00   9.637e-01   1.418e-01   3.760e-01  13  sdss  5607  82S  2 
    0  53627.267357  3  22.311  0.393  0.059  0.124   4.154e+00   1.524e+00   2.363e-01   4.997e-01  13  sdss  5607  82S  2 
    0  53627.269016  4  22.839  0.678  0.249  0.386  -3.013e-02   3.527e+00   1.213e+00   1.881e+00  14  sdss  5607  82S  2 
    1  53627.268186  0  26.164  1.368  0.126  1.120  -1.959e+00   2.361e+00   2.533e-01   2.258e+00  10  sdss  5607  82S  2 
    3  53634.262362  1  21.659  0.266  0.136  0.189   7.718e+00   1.869e+00   9.763e-01   1.356e+00  13  sdss  5619  82S  2 
    3  53634.259045  2  22.470  0.680  0.342  0.561   3.667e+00   2.127e+00   1.191e+00   1.955e+00  13  sdss  5619  82S  2 
   32  53634.259874  3  24.262  1.422  1.051  1.914   1.189e-01   2.211e+00   1.250e+00   2.276e+00  13  sdss  5619  82S  2 
   32  53634.261533  4  21.377  0.673  0.626  0.753   9.431e+00   6.196e+00   6.161e+00   7.409e+00  14  sdss  5619  82S  2 
    3  53634.260703  0  28.008  0.518  0.185  0.728  -1.140e+01   4.985e+00   1.911e+00   7.520e+00  10  sdss  5619  82S  2 
   57  53636.267813  1  25.101  1.427  6.474  1.293   1.021e-02   1.104e+00   3.811e+00   7.615e-01  13  sdss  5628  82S  2 
    9  53636.264496  2  22.502  0.456  0.842  0.204   3.558e+00   1.468e+00   2.856e+00   6.903e-01  13  sdss  5628  82S  2 
   56  53636.265325  3  23.120  0.780  2.496  0.325   1.813e+00   1.507e+00   5.128e+00   6.685e-01  13  sdss  5628  82S  2 
    0  53636.266984  4  22.903  0.846  0.604  0.778  -3.426e-01   4.560e+00   2.950e+00   3.803e+00  14  sdss  5628  82S  2 
    5  53636.266154  0  22.738  1.388  0.753  1.438   3.014e+00   3.071e+00   2.175e+00   4.155e+00  10  sdss  5628  82S  2 
    0  53640.267643  1  23.023  0.333  0.313  0.449   2.155e+00   6.737e-01   6.499e-01   9.321e-01  13  sdss  5646  82S  2 
 1164  53640.264326  2  22.605  0.495  0.491  0.318   3.222e+00   1.441e+00   1.517e+00   9.817e-01  13  sdss  5646  82S  2 
 1196  53640.265155  3  23.487  1.768  2.996  0.701   1.152e+00   3.327e+00   4.775e+00   1.117e+00  13  sdss  5646  82S  2 
   32  53640.266814  4  22.590  0.868  0.996  0.849   1.194e+00   4.764e+00   4.973e+00   4.243e+00  14  sdss  5646  82S  2 
  132  53640.265985  0  22.631  0.985  0.243  1.804   3.344e+00   2.599e+00   7.717e-01   5.721e+00  10  sdss  5646  82S  2 
    3  53655.239157  1  21.979  0.338  0.220  0.378   5.740e+00   1.750e+00   1.171e+00   2.018e+00  13  sdss  5713  82S  2 
    3  53655.235840  2  22.159  0.486  0.401  0.534   4.913e+00   2.113e+00   1.851e+00   2.467e+00  13  sdss  5713  82S  2 
   34  53655.236669  3  21.732  0.309  0.324  0.341   7.188e+00   2.039e+00   2.190e+00   2.305e+00  13  sdss  5713  82S  2 
   32  53655.238327  4  22.017  1.017  0.824  1.318   4.365e+00   6.528e+00   5.177e+00   8.278e+00  14  sdss  5713  82S  2 
  131  53655.237498  0  27.280  1.153  0.145  2.119  -5.798e+00   4.665e+00   7.743e-01   1.128e+01  10  sdss  5713  82S  2 
  153  53664.263905  1  22.678  0.510  2.038  0.238   2.990e+00   1.350e+00   5.757e+00   6.733e-01  13  sdss  5754  82S  2 
    9  53664.260588  2  23.433  1.056  2.024  0.435   1.408e+00   1.446e+00   3.096e+00   6.644e-01  13  sdss  5754  82S  2 
 1081  53664.261417  3  22.918  0.851  4.369  0.328   2.260e+00   1.859e+00   1.051e+01   7.892e-01  13  sdss  5754  82S  2 
    0  53664.263075  4  23.466  0.904  0.770  0.580  -3.266e+00   5.398e+00   4.390e+00   3.310e+00  14  sdss  5754  82S  2 
    5  53664.262246  0  22.990  1.989  0.802  1.623   2.349e+00   3.877e+00   1.869e+00   3.783e+00  10  sdss  5754  82S  2 
    1  53666.227284  1  22.638  0.221  0.087  0.125   3.105e+00   6.387e-01   2.554e-01   3.671e-01  13  sdss  5763  82S  2 
    0  53666.223967  2  22.573  0.264  0.024  0.103   3.322e+00   8.254e-01   7.742e-02   3.265e-01  13  sdss  5763  82S  2 
   32  53666.224796  3  23.185  0.602  0.156  0.183   1.684e+00   1.136e+00   3.056e-01   3.588e-01  13  sdss  5763  82S  2 
   32  53666.226454  4  22.322  0.688  0.059  0.354   2.582e+00   3.858e+00   3.179e-01   1.913e+00  14  sdss  5763  82S  2 
    1  53666.225625  0  22.533  0.562  0.041  0.648   3.676e+00   1.806e+00   1.403e-01   2.241e+00  10  sdss  5763  82S  2 
    0  53669.222692  1  22.713  0.183  0.023  0.154   2.894e+00   4.957e-01   6.219e-02   4.210e-01  13  sdss  5776  82S  2 
    8  53669.219375  2  22.798  0.308  0.135  0.181   2.677e+00   7.853e-01   3.523e-01   4.721e-01  13  sdss  5776  82S  2 
   32  53669.220205  3  22.701  0.434  0.150  0.201   2.830e+00   1.202e+00   4.307e-01   5.784e-01  13  sdss  5776  82S  2 
   32  53669.221863  4  22.237  0.690  0.371  0.426   3.053e+00   3.972e+00   2.083e+00   2.389e+00  14  sdss  5776  82S  2 
   40  53669.221034  0  24.186  1.242  0.897  2.744   4.799e-01   1.532e+00   9.520e-01   2.913e+00  10  sdss  5776  82S  2 
    0  53671.307252  1  22.700  0.262  0.104  0.325   2.930e+00   7.117e-01   2.884e-01   8.995e-01  13  sdss  5786  82S  2 
    0  53671.303936  2  22.293  0.253  0.028  0.185   4.333e+00   1.017e+00   1.163e-01   7.575e-01  13  sdss  5786  82S  2 
    0  53671.304765  3  22.287  0.373  0.101  0.204   4.252e+00   1.485e+00   4.157e-01   8.388e-01  13  sdss  5786  82S  2 
   32  53671.306423  4  21.813  0.728  0.176  0.601   5.738e+00   5.055e+00   1.253e+00   4.287e+00  14  sdss  5786  82S  2 
    8  53671.305594  0  23.447  1.644  1.539  3.222   1.444e+00   2.612e+00   2.499e+00   5.233e+00  10  sdss  5786  82S  2 
    0  53674.206819  1  22.661  0.198  0.068  0.226   3.039e+00   5.627e-01   1.951e-01   6.498e-01  13  sdss  5797  82S  2 
    0  53674.203502  2  22.885  0.337  0.028  0.189   2.460e+00   7.925e-01   6.867e-02   4.569e-01  13  sdss  5797  82S  2 
   32  53674.204331  3  22.771  0.437  0.137  0.215   2.636e+00   1.143e+00   3.718e-01   5.826e-01  13  sdss  5797  82S  2 
   32  53674.205990  4  22.642  0.704  0.434  0.574   9.361e-01   3.719e+00   2.149e+00   2.840e+00  14  sdss  5797  82S  2 
    0  53674.205160  0  26.122  0.936  0.117  1.497  -1.873e+00   1.638e+00   2.281e-01   2.918e+00  10  sdss  5797  82S  2 
    0  53676.296095  1  22.601  0.214  0.135  0.245   3.216e+00   6.390e-01   4.095e-01   7.413e-01  13  sdss  5807  82S  2 
    8  53676.292778  2  23.104  0.534  0.348  0.424   1.981e+00   1.011e+00   6.968e-01   8.488e-01  13  sdss  5807  82S  2 
   32  53676.293608  3  22.540  0.379  0.158  0.200   3.324e+00   1.211e+00   5.207e-01   6.583e-01  13  sdss  5807  82S  2 
   32  53676.295266  4  22.783  0.814  0.219  0.765   2.426e-01   4.356e+00   1.070e+00   3.735e+00  14  sdss  5807  82S  2 
   32  53676.294437  0  24.059  1.739  0.282  4.990   6.188e-01   2.565e+00   3.155e-01   5.581e+00  10  sdss  5807  82S  2 
    0  53679.267701  1  22.951  0.312  0.101  0.447   2.309e+00   6.746e-01   2.225e-01   9.897e-01  13  sdss  5820  82S  2 
    0  53679.264384  2  22.968  0.503  0.075  0.413   2.268e+00   1.071e+00   1.684e-01   9.276e-01  13  sdss  5820  82S  2 
   32  53679.265213  3  23.047  0.679  0.501  0.469   1.966e+00   1.392e+00   1.089e+00   1.019e+00  13  sdss  5820  82S  2 
   32  53679.266872  4  22.125  0.898  0.591  0.947   3.702e+00   5.488e+00   3.496e+00   5.608e+00  14  sdss  5820  82S  2 
    0  53679.266042  0  26.592  0.796  0.196  1.531  -3.013e+00   2.028e+00   5.662e-01   4.421e+00  10  sdss  5820  82S  2 
    0  53681.259018  1  22.905  0.232  0.080  0.167   2.412e+00   5.287e-01   1.850e-01   3.852e-01  13  sdss  5836  82S  2 
    8  53681.255701  2  22.453  0.219  0.115  0.091   3.727e+00   7.655e-01   4.073e-01   3.240e-01  13  sdss  5836  82S  2 
    0  53681.256530  3  22.318  0.339  0.080  0.087   4.126e+00   1.319e+00   3.212e-01   3.470e-01  13  sdss  5836  82S  2 
   32  53681.258188  4  22.400  0.644  0.222  0.340   2.166e+00   3.516e+00   1.168e+00   1.787e+00  14  sdss  5836  82S  2 
    4  53681.257359  0  23.308  1.010  0.345  1.146   1.686e+00   1.651e+00   6.225e-01   2.068e+00  10  sdss  5836  82S  2 
    9  53685.217683  1  22.600  1.587  2.890  0.409   3.219e+00   3.180e+00   8.758e+00   1.239e+00  13  sdss  5853  82S  2 
   41  53685.214366  2  23.785  2.104  4.013  0.886   9.366e-01   3.084e+00   4.731e+00   1.044e+00  13  sdss  5853  82S  2 
    9  53685.215195  3  21.609  0.427  0.655  0.157   8.064e+00   3.076e+00   4.953e+00   1.189e+00  13  sdss  5853  82S  2 
    1  53685.216853  4  20.928  0.580  0.499  0.341   1.484e+01   7.720e+00   7.138e+00   4.878e+00  14  sdss  5853  82S  2 
    7  53685.216024  0  27.836  1.002  0.424  0.794  -9.720e+00   7.018e+00   3.747e+00   7.006e+00  10  sdss  5853  82S  2 
    4  53697.214692  1  22.886  0.445  0.192  0.263   2.456e+00   9.932e-01   4.514e-01   6.171e-01  13  sdss  5895  82S  2 
   44  53697.211376  2  24.380  1.365  1.928  0.712   3.457e-01   1.432e+00   1.659e+00   6.131e-01  13  sdss  5895  82S  2 
    4  53697.212205  3  24.680  1.192  0.224  0.574  -3.826e-01   1.740e+00   2.775e-01   7.100e-01  13  sdss  5895  82S  2 
   36  53697.213863  4  21.886  0.946  0.570  0.429   5.228e+00   6.347e+00   3.875e+00   2.916e+00  14  sdss  5895  82S  2 
    4  53697.213034  0  22.607  1.415  0.080  1.141   3.423e+00   3.405e+00   2.579e-01   3.694e+00  10  sdss  5895  82S  2 
    0  53700.213309  1  22.663  0.216  0.161  0.246   3.033e+00   6.114e-01   4.610e-01   7.037e-01  13  sdss  5905  82S  2 
    0  53700.209992  2  22.988  0.402  0.034  0.237   2.224e+00   8.577e-01   7.467e-02   5.225e-01  13  sdss  5905  82S  2 
   32  53700.210821  3  22.900  0.654  0.127  0.255   2.303e+00   1.493e+00   3.106e-01   6.227e-01  13  sdss  5905  82S  2 
   32  53700.212480  4  22.024  0.739  0.489  0.530   4.320e+00   4.632e+00   3.059e+00   3.312e+00  14  sdss  5905  82S  2 
    8  53700.211651  0  25.405  1.377  1.167  2.966  -7.727e-01   1.840e+00   1.393e+00   3.541e+00  10  sdss  5905  82S  2 
    0  53705.199706  1  22.946  0.270  0.113  0.300   2.320e+00   5.900e-01   2.502e-01   6.672e-01  13  sdss  5924  82S  2 
    8  53705.196390  2  22.702  0.307  0.169  0.232   2.937e+00   8.507e-01   4.796e-01   6.583e-01  13  sdss  5924  82S  2 
   32  53705.197219  3  22.412  0.376  0.101  0.214   3.767e+00   1.340e+00   3.714e-01   7.885e-01  13  sdss  5924  82S  2 
   32  53705.198877  4  22.793  0.680  0.155  0.587   1.930e-01   3.537e+00   7.549e-01   2.862e+00  14  sdss  5924  82S  2 
    8  53705.198048  0  24.840  1.446  1.977  4.283  -1.701e-01   1.860e+00   1.940e+00   4.201e+00  10  sdss  5924  82S  2 
