# SDSS CID:   8343 IAU:          RA:   5.651120 DEC:   1.186890  (J2000)
# GALAXY_SB [ugriz] = [ 22.96 21.33 20.35 19.91 19.54 ] +/- [  0.00  0.00  0.00  0.00  0.00 ] (asinh mag/square arcsec)
# GALAXY_SB_FLUX [ugriz] = [  2.349E+00  1.045E+01  2.616E+01  3.891E+01  5.469E+01 ] +/- [  0.000E+00  0.000E+00  0.000E+00  0.000E+00  0.000E+00 ] (microJy per square arcsec)
#FLAG  MJD       FILT  MAG     MERR  MSKYERR MGALERR  FLUX       FLUXERR    SKYERR     GALERR    NPRE TELE   RUN  STRIP  IDCCD
  288  53616.330699  1  24.512  1.207  1.145  0.000   3.755e-01   9.180e-01   7.831e-01   0.000e+00  18  sdss  5566  82N  6 
  384  53616.327381  2  27.527  0.262  0.029  0.000  -5.298e+00   1.283e+00   1.429e-01   0.000e+00  17  sdss  5566  82N  6 
  288  53616.328211  3  22.791  0.794  0.321  0.000   2.582e+00   1.920e+00   8.582e-01   0.000e+00  19  sdss  5566  82N  6 
  288  53616.329869  4  21.965  1.031  0.246  0.000   4.698e+00   6.773e+00   1.603e+00   0.000e+00  19  sdss  5566  82N  6 
  260  53616.329040  0  25.732  1.401  0.255  0.000  -1.207e+00   2.031e+00   3.697e-01   0.000e+00  10  sdss  5566  82N  6 
 1452  53623.321177  1  21.669  1.218  1.298  0.000   7.649e+00   6.274e+00   9.227e+00   0.000e+00  18  sdss  5590  82N  6 
 1420  53623.317859  2  27.671  0.279  0.209  0.000  -6.058e+00   1.553e+00   1.191e+00   0.000e+00  17  sdss  5590  82N  6 
 1440  53623.318689  3  21.100  0.184  0.126  0.000   1.293e+01   2.198e+00   1.522e+00   0.000e+00  19  sdss  5590  82N  6 
  292  53623.320347  4  21.462  1.062  0.265  0.000   8.612e+00   8.856e+00   2.470e+00   0.000e+00  19  sdss  5590  82N  6 
 1452  53623.319518  0  24.581  1.618  1.574  0.000   8.179e-02   2.217e+00   1.529e+00   0.000e+00  10  sdss  5590  82N  6 
  288  53626.307621  1  24.725  1.168  0.724  0.000   2.368e-01   8.492e-01   4.550e-01   0.000e+00  18  sdss  5603  82N  6 
  288  53626.304303  2  23.507  0.916  0.465  0.000   1.298e+00   1.219e+00   6.723e-01   0.000e+00  17  sdss  5603  82N  6 
  384  53626.305133  3  25.820  0.840  0.361  0.000  -2.294e+00   1.859e+00   8.800e-01   0.000e+00  19  sdss  5603  82N  6 
  288  53626.306791  4  21.597  0.718  0.492  0.000   7.417e+00   5.708e+00   4.129e+00   0.000e+00  19  sdss  5603  82N  6 
 1440  53626.305962  0  22.767  0.786  0.227  0.000   2.930e+00   1.943e+00   6.319e-01   0.000e+00  10  sdss  5603  82N  6 
  289  53628.292650  1  23.589  1.322  0.360  0.000   1.228e+00   1.429e+00   4.610e-01   0.000e+00  18  sdss  5610  82N  6 
  257  53628.289333  2  27.011  0.541  0.196  0.000  -3.260e+00   1.582e+00   6.137e-01   0.000e+00  17  sdss  5610  82N  6 
  288  53628.290162  3  21.621  0.285  0.085  0.000   7.972e+00   2.092e+00   6.378e-01   0.000e+00  19  sdss  5610  82N  6 
  288  53628.291821  4  21.660  0.787  0.118  0.000   6.901e+00   5.977e+00   9.464e-01   0.000e+00  19  sdss  5610  82N  6 
 1441  53628.290991  0  23.589  1.957  0.950  0.000   1.223e+00   3.298e+00   1.386e+00   0.000e+00  10  sdss  5610  82N  6 
  257  53635.301133  1  26.729  0.751  0.193  0.000  -1.336e+00   9.356e-01   2.649e-01   0.000e+00  18  sdss  5622  82N  6 
  289  53635.297816  2  23.742  1.044  0.250  0.000   9.877e-01   1.221e+00   3.039e-01   0.000e+00  17  sdss  5622  82N  6 
  288  53635.298645  3  23.378  1.030  0.304  0.000   1.331e+00   1.724e+00   5.203e-01   0.000e+00  19  sdss  5622  82N  6 
  288  53635.300304  4  21.997  0.776  0.066  0.000   4.491e+00   4.954e+00   4.247e-01   0.000e+00  19  sdss  5622  82N  6 
  289  53635.299475  0  23.255  1.365  0.536  0.000   1.785e+00   2.247e+00   9.986e-01   0.000e+00  10  sdss  5622  82N  6 
  417  53637.294091  1  24.322  1.430  0.556  0.000   5.119e-01   1.193e+00   4.198e-01   0.000e+00  18  sdss  5633  82N  6 
  384  53637.290774  2  26.264  1.031  0.330  0.000  -1.554e+00   1.502e+00   5.443e-01   0.000e+00  17  sdss  5633  82N  6 
  256  53637.291604  3  25.709  1.093  0.620  0.000  -2.037e+00   2.188e+00   1.383e+00   0.000e+00  19  sdss  5633  82N  6 
  256  53637.293262  4  23.125  1.163  0.912  0.000  -1.444e+00   6.914e+00   4.612e+00   0.000e+00  19  sdss  5633  82N  6 
  393  53637.292433  0  24.957  1.782  2.743  0.000  -2.856e-01   2.626e+00   2.748e+00   0.000e+00  10  sdss  5633  82N  6 
  288  53639.339437  1  24.680  1.015  0.244  0.000   2.652e-01   7.158e-01   1.559e-01   0.000e+00  18  sdss  5642  82N  6 
  384  53639.336120  2  24.812  1.135  0.504  0.000  -7.882e-03   1.081e+00   4.026e-01   0.000e+00  17  sdss  5642  82N  6 
  288  53639.336949  3  23.702  1.079  0.275  0.000   8.310e-01   1.628e+00   3.882e-01   0.000e+00  19  sdss  5642  82N  6 
  416  53639.338608  4  22.204  0.743  0.223  0.000   3.240e+00   4.361e+00   1.274e+00   0.000e+00  19  sdss  5642  82N  6 
  424  53639.337779  0  23.997  1.220  0.945  0.000   6.894e-01   1.544e+00   1.084e+00   0.000e+00  10  sdss  5642  82N  6 
  384  53644.286743  1  26.574  0.708  0.503  0.000  -1.138e+00   7.940e-01   6.073e-01   0.000e+00  18  sdss  5670  82N  6 
  256  53644.283426  2  26.143  0.942  0.529  0.000  -1.365e+00   1.286e+00   7.937e-01   0.000e+00  17  sdss  5670  82N  6 
  384  53644.284255  3  25.700  0.935  0.591  0.000  -2.018e+00   1.889e+00   1.308e+00   0.000e+00  19  sdss  5670  82N  6 
  288  53644.285914  4  21.976  0.881  0.627  0.000   4.626e+00   5.700e+00   4.061e+00   0.000e+00  19  sdss  5670  82N  6 
  288  53644.285084  0  22.806  0.897  0.174  0.000   2.820e+00   2.091e+00   4.700e-01   0.000e+00  10  sdss  5670  82N  6 
  288  53654.320917  1  24.586  0.965  0.123  0.000   3.259e-01   6.870e-01   8.151e-02   0.000e+00  18  sdss  5709  82N  6 
  256  53654.317600  2  26.045  0.861  0.243  0.000  -1.225e+00   1.117e+00   3.373e-01   0.000e+00  17  sdss  5709  82N  6 
  384  53654.318429  3  25.082  1.101  0.360  0.000  -9.170e-01   1.695e+00   5.250e-01   0.000e+00  19  sdss  5709  82N  6 
  288  53654.320088  4  21.869  0.766  0.283  0.000   5.344e+00   5.194e+00   1.960e+00   0.000e+00  19  sdss  5709  82N  6 
  288  53654.319258  0  24.015  1.331  0.176  0.000   6.681e-01   1.725e+00   1.997e-01   0.000e+00  10  sdss  5709  82N  6 
  257  53663.281547  1  26.319  1.050  0.251  0.000  -8.608e-01   9.668e-01   2.484e-01   0.000e+00  18  sdss  5744  82N  6 
  289  53663.278232  2  23.686  1.004  0.158  0.000   1.058e+00   1.206e+00   1.999e-01   0.000e+00  17  sdss  5744  82N  6 
  288  53663.279061  3  21.925  0.306  0.039  0.000   5.996e+00   1.697e+00   2.230e-01   0.000e+00  19  sdss  5744  82N  6 
  416  53663.280718  4  21.262  0.458  0.069  0.000   1.063e+01   4.817e+00   7.578e-01   0.000e+00  19  sdss  5744  82N  6 
  289  53663.279890  0  23.185  1.374  0.123  0.000   1.924e+00   2.338e+00   2.426e-01   0.000e+00  10  sdss  5744  82N  6 
  289  53666.351549  1  23.497  0.919  0.252  0.000   1.351e+00   1.116e+00   3.487e-01   0.000e+00  18  sdss  5765  82N  6 
  288  53666.348232  2  23.443  1.003  0.307  0.000   1.393e+00   1.375e+00   4.673e-01   0.000e+00  17  sdss  5765  82N  6 
  288  53666.349061  3  22.452  0.556  0.167  0.000   3.622e+00   1.854e+00   5.953e-01   0.000e+00  19  sdss  5765  82N  6 
  288  53666.350720  4  21.662  0.707  0.392  0.000   6.885e+00   5.402e+00   3.136e+00   0.000e+00  19  sdss  5765  82N  6 
  417  53666.349891  0  22.305  0.842  0.120  0.000   4.566e+00   3.013e+00   5.012e-01   0.000e+00  10  sdss  5765  82N  6 
  258  53668.271237  1  25.464  1.300  0.793  0.000  -2.072e-01   9.776e-01   4.912e-01   0.000e+00  18  sdss  5770  82N  6 
  290  53668.267921  2  24.466  1.469  1.453  0.000   2.729e-01   1.585e+00   1.218e+00   0.000e+00  17  sdss  5770  82N  6 
  416  53668.268750  3  22.602  0.821  0.713  0.000   3.125e+00   2.276e+00   2.233e+00   0.000e+00  19  sdss  5770  82N  6 
  256  53668.270408  4  23.654  1.075  0.694  0.000  -4.397e+00   6.984e+00   4.397e+00   0.000e+00  19  sdss  5770  82N  6 
  418  53668.269579  0  22.547  0.798  0.594  0.000   3.628e+00   2.358e+00   2.007e+00   0.000e+00  10  sdss  5770  82N  6 
  288  53670.275776  1  24.176  0.885  0.134  0.000   6.266e-01   7.184e-01   1.107e-01   0.000e+00  18  sdss  5781  82N  6 
  256  53670.272459  2  26.762  0.510  0.184  0.000  -2.566e+00   1.209e+00   4.626e-01   0.000e+00  17  sdss  5781  82N  6 
  288  53670.273288  3  21.923  0.322  0.091  0.000   6.008e+00   1.789e+00   5.196e-01   0.000e+00  19  sdss  5781  82N  6 
  256  53670.274947  4  23.972  0.687  0.067  0.000  -6.632e+00   5.155e+00   5.270e-01   0.000e+00  19  sdss  5781  82N  6 
  416  53670.274117  0  24.025  1.297  0.515  0.000   6.576e-01   1.664e+00   5.831e-01   0.000e+00  10  sdss  5781  82N  6 
  288  53673.243736  1  24.705  0.982  0.293  0.000   2.494e-01   6.843e-01   1.851e-01   0.000e+00  18  sdss  5792  82N  6 
  288  53673.240419  2  24.766  1.164  0.344  0.000   2.854e-02   1.119e+00   2.747e-01   0.000e+00  17  sdss  5792  82N  6 
  416  53673.241248  3  22.285  0.444  0.221  0.000   4.258e+00   1.748e+00   9.128e-01   0.000e+00  19  sdss  5792  82N  6 
  256  53673.242907  4  23.519  0.828  0.278  0.000  -3.571e+00   4.994e+00   1.636e+00   0.000e+00  19  sdss  5792  82N  6 
  416  53673.242078  0  23.349  1.070  0.237  0.000   1.612e+00   1.692e+00   4.103e-01   0.000e+00  10  sdss  5792  82N  6 
  264  53675.240401  1  26.209  0.840  0.572  0.000  -7.557e-01   7.354e-01   5.228e-01   0.000e+00  18  sdss  5800  82N  6 
  256  53675.237084  2  26.717  0.552  0.285  0.000  -2.456e+00   1.250e+00   6.885e-01   0.000e+00  17  sdss  5800  82N  6 
  416  53675.237913  3  23.634  1.179  0.656  0.000   9.281e-01   1.844e+00   9.600e-01   0.000e+00  19  sdss  5800  82N  6 
  384  53675.239572  4  23.246  0.951  0.467  0.000  -2.067e+00   5.453e+00   2.445e+00   0.000e+00  19  sdss  5800  82N  6 
  416  53675.238743  0  23.441  1.194  0.613  0.000   1.455e+00   1.802e+00   9.922e-01   0.000e+00  10  sdss  5800  82N  6 
  256  53677.261456  1  27.046  0.381  0.057  0.000  -1.833e+00   6.626e-01   1.023e-01   0.000e+00  18  sdss  5813  82N  6 
  288  53677.258139  2  22.797  0.422  0.125  0.000   2.680e+00   1.060e+00   3.264e-01   0.000e+00  17  sdss  5813  82N  6 
  256  53677.258968  3  25.976  0.624  0.220  0.000  -2.696e+00   1.611e+00   6.085e-01   0.000e+00  19  sdss  5813  82N  6 
  256  53677.260627  4  22.936  0.841  0.367  0.000  -5.041e-01   4.538e+00   1.800e+00   0.000e+00  19  sdss  5813  82N  6 
  296  53677.259797  0  24.640  1.220  0.780  0.000   2.469e-02   1.447e+00   7.559e-01   0.000e+00  10  sdss  5813  82N  6 
  288  53680.247776  1  24.563  0.956  0.276  0.000   3.411e-01   6.829e-01   1.845e-01   0.000e+00  18  sdss  5823  82N  6 
  288  53680.244459  2  24.647  1.178  0.625  0.000   1.240e-01   1.141e+00   5.042e-01   0.000e+00  17  sdss  5823  82N  6 
  416  53680.245288  3  22.719  0.647  0.284  0.000   2.779e+00   1.701e+00   8.057e-01   0.000e+00  19  sdss  5823  82N  6 
  288  53680.246947  4  21.543  0.625  0.055  0.000   7.880e+00   5.205e+00   4.798e-01   0.000e+00  19  sdss  5823  82N  6 
  296  53680.246117  0  24.303  1.256  0.938  0.000   3.580e-01   1.534e+00   9.565e-01   0.000e+00  10  sdss  5823  82N  6 
  417  53693.248667  1  22.019  0.292  0.075  0.000   5.532e+00   1.471e+00   3.839e-01   0.000e+00  18  sdss  5878  82N  6 
  417  53693.245350  2  23.092  0.775  0.272  0.000   2.006e+00   1.412e+00   5.508e-01   0.000e+00  17  sdss  5878  82N  6 
  384  53693.246179  3  24.799  1.284  0.613  0.000  -5.315e-01   1.952e+00   7.868e-01   0.000e+00  19  sdss  5878  82N  6 
  416  53693.247838  4  22.258  0.856  0.522  0.000   2.935e+00   5.008e+00   2.910e+00   0.000e+00  19  sdss  5878  82N  6 
  385  53693.247009  0  26.240  1.641  0.203  0.000  -2.119e+00   2.934e+00   4.309e-01   0.000e+00  10  sdss  5878  82N  6 
  288  53698.245654  1  22.819  0.306  0.082  0.000   2.618e+00   7.447e-01   2.035e-01   0.000e+00  18  sdss  5898  82N  6 
  288  53698.242338  2  22.837  0.509  0.177  0.000   2.579e+00   1.214e+00   4.467e-01   0.000e+00  17  sdss  5898  82N  6 
  288  53698.243167  3  23.305  1.057  0.543  0.000   1.458e+00   1.827e+00   9.764e-01   0.000e+00  19  sdss  5898  82N  6 
  256  53698.244825  4  23.286  0.884  0.441  0.000  -2.277e+00   5.043e+00   2.344e+00   0.000e+00  19  sdss  5898  82N  6 
 1416  53698.243996  0  24.690  1.323  1.312  0.000  -2.334e-02   1.624e+00   1.272e+00   0.000e+00  10  sdss  5898  82N  6 
  288  53699.269067  1  23.084  0.401  0.180  0.000   2.032e+00   7.609e-01   3.543e-01   0.000e+00  18  sdss  5902  82N  6 
  288  53699.265750  2  21.840  0.228  0.096  0.000   6.612e+00   1.392e+00   5.949e-01   0.000e+00  17  sdss  5902  82N  6 
  384  53699.266579  3  25.027  1.252  0.447  0.000  -8.371e-01   1.960e+00   6.325e-01   0.000e+00  19  sdss  5902  82N  6 
  288  53699.268238  4  21.375  0.565  0.230  0.000   9.450e+00   5.353e+00   2.293e+00   0.000e+00  19  sdss  5902  82N  6 
  288  53699.267408  0  24.302  1.511  0.272  0.000   3.590e-01   2.007e+00   2.781e-01   0.000e+00  10  sdss  5902  82N  6 
  288  53704.231010  1  22.737  0.314  0.082  0.000   2.829e+00   8.222e-01   2.199e-01   0.000e+00  18  sdss  5918  82N  6 
  256  53704.227693  2  26.548  0.652  0.216  0.000  -2.079e+00   1.257e+00   4.503e-01   0.000e+00  17  sdss  5918  82N  6 
  256  53704.228523  3  25.022  1.224  0.613  0.000  -8.301e-01   1.902e+00   8.668e-01   0.000e+00  19  sdss  5918  82N  6 
  288  53704.230181  4  22.608  1.064  0.658  0.000   1.106e+00   6.115e+00   3.280e+00   0.000e+00  19  sdss  5918  82N  6 
  424  53704.229352  0  22.758  0.759  0.634  0.000   2.956e+00   1.902e+00   1.780e+00   0.000e+00  10  sdss  5918  82N  6 
