# SDSS CID:  16201 IAU:          RA: 313.148193 DEC:   0.000514  (J2000)
# GALAXY_SB [ugriz] = [ 24.52 24.64 24.29 23.91 22.50 ] +/- [  0.27  0.09  0.08  0.07  0.07 ] (asinh mag/square arcsec)
# GALAXY_SB_FLUX [ugriz] = [  1.070E-01  2.906E-01  4.206E-01  5.546E-01  1.612E+00 ] +/- [  2.600E-01  5.959E-02  6.727E-02  8.627E-02  3.455E-01 ] (microJy per square arcsec)
#FLAG  MJD       FILT  MAG     MERR  MSKYERR MGALERR  FLUX       FLUXERR    SKYERR     GALERR    NPRE TELE   RUN  STRIP  IDCCD
    0  53974.176629  1  23.356  0.304  0.089  0.159   1.556e+00   4.594e-01   1.379e-01   2.448e-01  17  sdss  6281  82N  3 
    0  53974.173312  2  23.564  0.540  0.200  0.206   1.219e+00   7.169e-01   2.744e-01   2.836e-01  19  sdss  6281  82N  3 
   32  53974.174141  3  23.713  0.816  0.428  0.259   8.155e-01   1.179e+00   6.007e-01   3.628e-01  21  sdss  6281  82N  3 
    0  53974.175800  4  23.206  0.680  0.365  0.214  -1.856e+00   3.688e+00   1.887e+00   1.106e+00  21  sdss  6281  82N  3 
    8  53974.174970  0  22.358  0.374  0.271  0.356   4.344e+00   1.447e+00   1.087e+00   1.424e+00  10  sdss  6281  82N  3 
    0  53975.174684  1  23.709  0.464  0.310  0.406   1.084e+00   5.175e-01   3.576e-01   4.690e-01  17  sdss  6287  82S  4 
    0  53975.171367  2  23.506  0.630  0.453  0.368   1.300e+00   8.614e-01   6.502e-01   5.287e-01  19  sdss  6287  82S  4 
    0  53975.172196  3  23.192  0.683  0.313  0.238   1.668e+00   1.269e+00   6.068e-01   4.609e-01  21  sdss  6287  82S  4 
    0  53975.173854  4  22.856  0.877  0.474  0.413  -1.117e-01   4.759e+00   2.314e+00   2.016e+00  21  sdss  6287  82S  4 
    0  53975.173025  0  24.689  1.355  0.230  2.061  -2.228e-02   1.681e+00   2.230e-01   1.997e+00  10  sdss  6287  82S  4 
    1  53989.165153  1  23.879  0.793  0.301  0.266   8.985e-01   7.547e-01   3.049e-01   2.694e-01  17  sdss  6313  82N  3 
    0  53989.161836  2  23.575  0.644  0.198  0.175   1.204e+00   8.397e-01   2.696e-01   2.385e-01  19  sdss  6313  82N  3 
    0  53989.162665  3  23.235  0.651  0.199  0.162   1.586e+00   1.181e+00   3.743e-01   3.037e-01  21  sdss  6313  82N  3 
    0  53989.164324  4  23.968  0.430  0.038  0.136  -6.604e+00   3.307e+00   2.952e-01   1.062e+00  21  sdss  6313  82N  3 
   33  53989.163494  0  23.594  1.277  0.194  0.956   1.216e+00   1.824e+00   2.827e-01   1.392e+00  10  sdss  6313  82N  3 
    1  53989.184070  1  23.118  0.487  0.201  0.163   1.966e+00   8.751e-01   3.800e-01   3.083e-01  17  sdss  6314  82N  3 
    0  53989.180753  2  23.172  0.462  0.128  0.107   1.849e+00   8.318e-01   2.398e-01   2.004e-01  19  sdss  6314  82N  3 
    0  53989.181582  3  23.098  0.566  0.128  0.112   1.858e+00   1.131e+00   2.671e-01   2.330e-01  21  sdss  6314  82N  3 
    0  53989.183240  4  22.214  0.566  0.039  0.152   3.182e+00   3.269e+00   2.219e-01   8.663e-01  21  sdss  6314  82N  3 
    1  53989.182411  0  25.492  1.311  0.448  0.851  -8.808e-01   1.755e+00   5.590e-01   1.063e+00  10  sdss  6314  82N  3 
    0  53995.172940  1  23.594  0.381  0.158  0.234   1.223e+00   4.702e-01   1.995e-01   2.959e-01  17  sdss  6360  82N  3 
    0  53995.169623  2  24.061  0.684  0.261  0.253   6.395e-01   6.828e-01   2.590e-01   2.506e-01  19  sdss  6360  82N  3 
   32  53995.170452  3  23.471  0.672  0.332  0.185   1.178e+00   1.066e+00   5.332e-01   2.969e-01  21  sdss  6360  82N  3 
    0  53995.172111  4  23.191  0.635  0.360  0.267  -1.780e+00   3.408e+00   1.855e+00   1.375e+00  21  sdss  6360  82N  3 
    8  53995.171281  0  23.260  0.783  0.494  0.720   1.775e+00   1.347e+00   9.178e-01   1.339e+00  10  sdss  6360  82N  3 
   32  53996.180058  1  24.506  0.736  0.361  0.685   3.800e-01   5.182e-01   2.469e-01   4.683e-01  17  sdss  6367  82S  4 
    0  53996.176742  2  23.274  0.464  0.244  0.230   1.665e+00   7.698e-01   4.200e-01   3.974e-01  19  sdss  6367  82S  4 
   32  53996.177571  3  23.538  0.768  0.385  0.298   1.073e+00   1.183e+00   5.935e-01   4.599e-01  21  sdss  6367  82S  4 
    0  53996.179229  4  23.384  0.715  0.128  0.331  -2.805e+00   4.085e+00   7.095e-01   1.830e+00  21  sdss  6367  82S  4 
   40  53996.178400  0  24.524  1.399  1.561  2.584   1.378e-01   1.767e+00   1.524e+00   2.523e+00  10  sdss  6367  82S  4 
    0  53997.151187  1  23.297  0.343  0.339  0.295   1.650e+00   5.415e-01   5.494e-01   4.788e-01  17  sdss  6370  82N  3 
    0  53997.147870  2  23.517  0.605  0.348  0.313   1.284e+00   8.227e-01   4.952e-01   4.457e-01  19  sdss  6370  82N  3 
    0  53997.148699  3  22.941  0.595  0.562  0.238   2.205e+00   1.325e+00   1.320e+00   5.581e-01  21  sdss  6370  82N  3 
    0  53997.150358  4  23.368  0.715  0.270  0.294  -2.718e+00   4.068e+00   1.483e+00   1.615e+00  21  sdss  6370  82N  3 
  160  53997.149528  0  23.651  1.347  0.930  2.360   1.132e+00   1.909e+00   1.302e+00   3.307e+00  10  sdss  6370  82N  3 
    0  53998.148843  1  23.248  0.298  0.256  0.215   1.732e+00   4.947e-01   4.337e-01   3.636e-01  17  sdss  6377  82S  4 
    0  53998.145526  2  23.365  0.457  0.152  0.157   1.515e+00   7.083e-01   2.444e-01   2.522e-01  19  sdss  6377  82S  4 
    0  53998.146355  3  22.938  0.510  0.117  0.152   2.212e+00   1.153e+00   2.760e-01   3.576e-01  21  sdss  6377  82S  4 
    0  53998.148014  4  23.059  0.779  0.195  0.355  -1.112e+00   4.193e+00   9.739e-01   1.768e+00  21  sdss  6377  82S  4 
  128  53998.147184  0  25.855  1.045  0.153  1.116  -1.396e+00   1.550e+00   2.424e-01   1.764e+00  10  sdss  6377  82S  4 
    0  54005.122387  1  23.259  0.289  0.159  0.160   1.713e+00   4.751e-01   2.662e-01   2.681e-01  17  sdss  6400  82N  3 
    0  54005.119070  2  23.516  0.510  0.181  0.182   1.286e+00   7.021e-01   2.577e-01   2.597e-01  19  sdss  6400  82N  3 
    0  54005.119900  3  22.623  0.360  0.176  0.095   3.059e+00   1.070e+00   5.375e-01   2.892e-01  21  sdss  6400  82N  3 
    0  54005.121558  4  23.460  0.579  0.369  0.228  -3.234e+00   3.360e+00   2.116e+00   1.307e+00  21  sdss  6400  82N  3 
   32  54005.120729  0  24.214  1.169  0.193  1.314   4.499e-01   1.408e+00   2.020e-01   1.378e+00  10  sdss  6400  82N  3 
    0  54005.185535  1  23.569  0.373  0.076  0.191   1.256e+00   4.695e-01   9.863e-02   2.470e-01  17  sdss  6401  82S  4 
    0  54005.182218  2  23.023  0.326  0.118  0.094   2.148e+00   6.772e-01   2.505e-01   2.004e-01  19  sdss  6401  82S  4 
    0  54005.183048  3  23.190  0.556  0.111  0.113   1.672e+00   1.045e+00   2.147e-01   2.186e-01  21  sdss  6401  82S  4 
    0  54005.184706  4  23.491  0.601  0.166  0.192  -3.412e+00   3.534e+00   9.675e-01   1.117e+00  21  sdss  6401  82S  4 
   32  54005.183877  0  23.767  1.112  0.071  0.790   9.732e-01   1.470e+00   9.208e-02   1.029e+00  10  sdss  6401  82S  4 
    0  54007.134756  1  23.734  0.525  0.275  0.245   1.055e+00   5.703e-01   3.107e-01   2.770e-01  17  sdss  6412  82N  3 
    0  54007.131440  2  23.664  0.670  0.359  0.254   1.085e+00   8.227e-01   4.587e-01   3.241e-01  19  sdss  6412  82N  3 
    0  54007.132269  3  23.166  0.638  0.284  0.182   1.719e+00   1.210e+00   5.611e-01   3.599e-01  21  sdss  6412  82N  3 
   32  54007.133927  4  22.459  0.728  0.459  0.271   1.860e+00   3.974e+00   2.376e+00   1.401e+00  21  sdss  6412  82N  3 
    0  54007.133098  0  22.152  0.367  0.025  0.301   5.272e+00   1.706e+00   1.198e-01   1.447e+00  10  sdss  6412  82N  3 
  161  54008.139106  1  24.530  0.914  0.300  0.383   3.635e-01   6.530e-01   2.029e-01   2.591e-01  17  sdss  6417  82S  4 
    0  54008.135790  2  23.289  0.486  0.173  0.139   1.639e+00   7.941e-01   2.954e-01   2.364e-01  19  sdss  6417  82S  4 
   32  54008.136619  3  23.568  0.748  0.216  0.171   1.027e+00   1.137e+00   3.268e-01   2.587e-01  21  sdss  6417  82S  4 
    0  54008.138277  4  21.937  0.555  0.264  0.192   4.883e+00   3.652e+00   1.756e+00   1.278e+00  21  sdss  6417  82S  4 
    0  54008.137448  0  22.424  0.485  0.135  0.307   4.080e+00   1.731e+00   5.087e-01   1.159e+00  10  sdss  6417  82S  4 
    1  54009.132088  1  23.969  0.813  0.325  0.243   8.100e-01   7.329e-01   3.074e-01   2.304e-01  17  sdss  6421  82N  3 
    0  54009.128772  2  23.284  0.540  0.130  0.137   1.648e+00   8.786e-01   2.224e-01   2.343e-01  19  sdss  6421  82N  3 
    0  54009.129601  3  24.969  0.856  0.444  0.219  -7.563e-01   1.228e+00   6.100e-01   3.009e-01  21  sdss  6421  82N  3 
    0  54009.131259  4  21.429  0.397  0.118  0.121   8.918e+00   3.719e+00   1.137e+00   1.163e+00  21  sdss  6421  82N  3 
    9  54009.130430  0  22.595  0.636  0.298  0.366   3.463e+00   1.887e+00   9.670e-01   1.186e+00  10  sdss  6421  82N  3 
 1153  54010.133343  1  23.227  0.512  0.118  0.101   1.767e+00   8.330e-01   2.035e-01   1.740e-01  17  sdss  6425  82S  4 
    1  54010.130026  2  22.773  0.341  0.069  0.058   2.743e+00   8.772e-01   1.823e-01   1.538e-01  19  sdss  6425  82S  4 
    0  54010.130855  3  23.084  0.572  0.124  0.098   1.887e+00   1.153e+00   2.613e-01   2.053e-01  21  sdss  6425  82S  4 
    0  54010.132514  4  23.201  0.615  0.258  0.164  -1.831e+00   3.298e+00   1.332e+00   8.464e-01  21  sdss  6425  82S  4 
    1  54010.131685  0  25.818  1.357  0.115  0.585  -1.338e+00   2.013e+00   1.769e-01   9.001e-01  10  sdss  6425  82S  4 
    1  54011.196047  1  23.549  0.962  0.172  0.138   1.282e+00   1.110e+00   2.253e-01   1.815e-01  17  sdss  6430  82N  3 
    1  54011.192730  2  24.971  1.154  0.326  0.198  -1.352e-01   1.110e+00   2.638e-01   1.599e-01  19  sdss  6430  82N  3 
    1  54011.193559  3  22.712  0.496  0.091  0.066   2.796e+00   1.339e+00   2.590e-01   1.866e-01  21  sdss  6430  82N  3 
   32  54011.195217  4  22.399  0.671  0.221  0.139   2.172e+00   3.689e+00   1.167e+00   7.331e-01  21  sdss  6430  82N  3 
    1  54011.194388  0  24.751  1.754  0.299  0.906  -8.323e-02   2.543e+00   2.906e-01   8.801e-01  10  sdss  6430  82N  3 
    1  54012.125918  1  26.575  1.456  0.766  0.159  -1.139e+00   1.507e+00   9.174e-01   1.910e-01  17  sdss  6433  82S  4 
    1  54012.122602  2  23.421  0.985  0.341  0.117   1.426e+00   1.361e+00   5.234e-01   1.790e-01  19  sdss  6433  82S  4 
    1  54012.123431  3  23.373  0.889  0.471  0.112   1.341e+00   1.483e+00   8.060e-01   1.917e-01  21  sdss  6433  82S  4 
    0  54012.125089  4  21.934  0.602  0.299  0.134   4.903e+00   3.966e+00   1.993e+00   8.934e-01  21  sdss  6433  82S  4 
    1  54012.124260  0  22.830  1.528  0.083  0.329   2.756e+00   3.116e+00   2.185e-01   8.710e-01  10  sdss  6433  82S  4 
    1  54019.145957  1  23.751  0.582  0.268  0.263   1.035e+00   6.198e-01   2.990e-01   2.936e-01  17  sdss  6441  82N  3 
    0  54019.142640  2  22.925  0.415  0.285  0.187   2.366e+00   9.244e-01   6.585e-01   4.325e-01  19  sdss  6441  82N  3 
    8  54019.143469  3  22.503  0.415  0.495  0.157   3.445e+00   1.353e+00   1.676e+00   5.320e-01  21  sdss  6441  82N  3 
    0  54019.145128  4  23.143  0.744  0.474  0.289  -1.536e+00   4.026e+00   2.407e+00   1.467e+00  21  sdss  6441  82N  3 
    0  54019.144299  0  25.773  1.197  0.128  1.200  -1.268e+00   1.720e+00   1.917e-01   1.790e+00  10  sdss  6441  82N  3 
    0  54020.131334  1  23.486  0.372  0.093  0.250   1.367e+00   5.007e-01   1.290e-01   3.459e-01  17  sdss  6447  82S  4 
    0  54020.128017  2  23.203  0.479  0.234  0.220   1.792e+00   8.388e-01   4.283e-01   4.018e-01  19  sdss  6447  82S  4 
    0  54020.128846  3  22.737  0.489  0.158  0.154   2.726e+00   1.296e+00   4.371e-01   4.285e-01  21  sdss  6447  82S  4 
   32  54020.130505  4  22.166  0.756  0.109  0.266   3.463e+00   4.514e+00   6.361e-01   1.556e+00  21  sdss  6447  82S  4 
   40  54020.129676  0  23.433  1.094  0.808  1.141   1.468e+00   1.657e+00   1.318e+00   1.862e+00  10  sdss  6447  82S  4 
    0  54022.180563  1  23.270  0.326  0.095  0.224   1.695e+00   5.286e-01   1.576e-01   3.724e-01  17  sdss  6453  82S  4 
    0  54022.177246  2  23.681  0.881  0.622  0.261   1.064e+00   1.059e+00   7.839e-01   3.292e-01  19  sdss  6453  82S  4 
    8  54022.178076  3  22.674  0.447  0.629  0.112   2.906e+00   1.257e+00   1.841e+00   3.281e-01  21  sdss  6453  82S  4 
   32  54022.179734  4  22.807  0.793  0.152  0.278   1.254e-01   4.221e+00   7.417e-01   1.354e+00  21  sdss  6453  82S  4 
  132  54022.178905  0  22.645  0.869  0.177  0.494   3.299e+00   2.325e+00   5.485e-01   1.534e+00  10  sdss  6453  82S  4 
    0  54025.193880  1  23.993  0.578  0.451  0.417   7.873e-01   5.225e-01   4.198e-01   3.881e-01  17  sdss  6461  82N  3 
    0  54025.190563  2  23.032  0.398  0.137  0.151   2.129e+00   8.119e-01   2.881e-01   3.183e-01  19  sdss  6461  82N  3 
    0  54025.191393  3  22.644  0.424  0.189  0.113   2.996e+00   1.226e+00   5.682e-01   3.385e-01  21  sdss  6461  82N  3 
    0  54025.193051  4  22.900  0.825  0.189  0.314  -3.297e-01   4.431e+00   9.213e-01   1.535e+00  21  sdss  6461  82N  3 
    0  54025.192222  0  25.025  1.329  0.270  1.720  -3.547e-01   1.659e+00   2.753e-01   1.754e+00  10  sdss  6461  82N  3 
 1180  54026.132711  1  28.145  1.187  5.690  0.277  -5.175e+00   4.194e+00   2.719e+01   1.325e+00  17  sdss  6464  82S  4 
 1180  54026.129394  2  31.298  0.289  5.742  0.011  -1.720e+02   4.452e+01   9.065e+02   1.739e+00  19  sdss  6464  82S  4 
 1180  54026.130223  3  19.421  0.273  1.697  0.041   6.086e+01   1.498e+01   9.507e+01   2.306e+00  21  sdss  6464  82S  4 
 1182  54026.131882  4  19.165  0.578  4.850  0.100   7.750e+01   3.819e+01   3.498e+02   7.244e+00  21  sdss  6464  82S  4 
   14  54026.131052  0  25.336  2.204  5.102  5.797  -6.921e-01   3.988e+00   5.864e+00   6.665e+00  10  sdss  6464  82S  4 
    0  54028.120972  1  23.569  0.442  0.262  0.353   1.256e+00   5.514e-01   3.381e-01   4.563e-01  17  sdss  6468  82S  4 
    0  54028.117655  2  22.902  0.376  0.168  0.150   2.420e+00   8.597e-01   3.961e-01   3.545e-01  19  sdss  6468  82S  4 
  128  54028.118484  3  22.590  0.446  0.189  0.159   3.161e+00   1.344e+00   5.943e-01   5.001e-01  21  sdss  6468  82S  4 
   32  54028.120142  4  22.063  0.892  0.410  0.496   4.077e+00   5.592e+00   2.528e+00   3.061e+00  21  sdss  6468  82S  4 
    0  54028.119313  0  22.957  0.963  0.207  0.991   2.427e+00   1.981e+00   4.925e-01   2.355e+00  10  sdss  6468  82S  4 
    0  54029.124004  1  23.210  0.264  0.105  0.111   1.797e+00   4.549e-01   1.827e-01   1.940e-01  17  sdss  6474  82N  3 
    0  54029.120687  2  22.837  0.304  0.127  0.083   2.579e+00   7.429e-01   3.180e-01   2.076e-01  19  sdss  6474  82N  3 
   32  54029.121516  3  23.865  0.835  0.288  0.216   6.096e-01   1.159e+00   3.771e-01   2.837e-01  21  sdss  6474  82N  3 
    0  54029.123175  4  22.085  0.573  0.058  0.142   3.943e+00   3.503e+00   3.516e-01   8.641e-01  21  sdss  6474  82N  3 
   32  54029.122345  0  24.038  1.164  0.210  0.984   6.422e-01   1.443e+00   2.370e-01   1.108e+00  10  sdss  6474  82N  3 
    0  54030.123884  1  23.065  0.239  0.095  0.108   2.069e+00   4.673e-01   1.883e-01   2.146e-01  17  sdss  6479  82S  4 
    0  54030.120568  2  22.883  0.312  0.122  0.092   2.465e+00   7.311e-01   2.930e-01   2.201e-01  19  sdss  6479  82S  4 
    0  54030.121397  3  22.565  0.354  0.091  0.080   3.241e+00   1.106e+00   2.917e-01   2.562e-01  21  sdss  6479  82S  4 
    0  54030.123055  4  23.297  0.629  0.136  0.185  -2.336e+00   3.469e+00   7.263e-01   9.879e-01  21  sdss  6479  82S  4 
   32  54030.122226  0  24.175  1.190  0.085  0.930   4.912e-01   1.449e+00   8.998e-02   9.891e-01  10  sdss  6479  82S  4 
    0  54031.110889  1  23.503  0.347  0.190  0.162   1.343e+00   4.625e-01   2.592e-01   2.211e-01  17  sdss  6484  82N  3 
    0  54031.107572  2  23.350  0.451  0.178  0.124   1.539e+00   7.068e-01   2.881e-01   2.007e-01  19  sdss  6484  82N  3 
    0  54031.108401  3  22.929  0.477  0.133  0.102   2.233e+00   1.092e+00   3.163e-01   2.410e-01  21  sdss  6484  82N  3 
    0  54031.110060  4  23.523  0.573  0.045  0.173  -3.598e+00   3.411e+00   2.674e-01   1.025e+00  21  sdss  6484  82N  3 
    8  54031.109231  0  23.071  0.704  0.311  0.480   2.163e+00   1.403e+00   6.725e-01   1.038e+00  10  sdss  6484  82N  3 
   24  54032.113048  1  23.510  0.506  1.777  0.268   1.334e+00   6.542e-01   2.409e+00   3.637e-01  17  sdss  6488  82S  4 
 1180  54032.109731  2  26.945  0.421  4.726  0.118  -3.061e+00   1.179e+00   1.380e+01   3.444e-01  19  sdss  6488  82S  4 
   28  54032.110560  3  22.711  0.632  1.957  0.164   2.799e+00   1.666e+00   5.546e+00   4.641e-01  21  sdss  6488  82S  4 
 1180  54032.112218  4  20.544  0.328  1.430  0.089   2.147e+01   6.545e+00   2.935e+01   1.819e+00  21  sdss  6488  82S  4 
    4  54032.111389  0  22.615  1.005  0.135  0.623   3.396e+00   2.649e+00   4.290e-01   1.986e+00  10  sdss  6488  82S  4 
 1178  54034.183227  1  25.486  1.010  6.602  1.455  -2.206e-01   7.029e-01   4.109e+00   9.057e-01  17  sdss  6494  82S  4 
 1178  54034.179910  2  27.666  0.251  4.221  0.159  -6.034e+00   1.379e+00   2.360e+01   8.883e-01  19  sdss  6494  82S  4 
  152  54034.180739  3  22.090  0.393  2.483  0.203   5.130e+00   1.840e+00   1.209e+01   9.875e-01  21  sdss  6494  82S  4 
 1176  54034.182397  4  20.833  0.507  3.954  0.253   1.628e+01   7.598e+00   6.279e+01   4.017e+00  21  sdss  6494  82S  4 
    2  54034.181568  0  22.710  1.101  0.340  1.599   3.098e+00   2.630e+00   9.978e-01   4.692e+00  10  sdss  6494  82S  4 
    0  54036.115207  1  23.719  0.674  0.521  0.475   1.072e+00   7.246e-01   5.970e-01   5.443e-01  17  sdss  6504  82N  3 
   32  54036.111890  2  24.156  0.968  0.622  0.485   5.473e-01   9.614e-01   5.870e-01   4.578e-01  19  sdss  6504  82N  3 
   32  54036.112719  3  23.762  0.937  0.482  0.382   7.476e-01   1.357e+00   6.596e-01   5.233e-01  21  sdss  6504  82N  3 
    0  54036.114378  4  21.924  0.697  0.549  0.320   4.970e+00   4.610e+00   3.685e+00   2.145e+00  21  sdss  6504  82N  3 
    8  54036.113548  0  22.213  0.452  0.400  0.551   4.978e+00   1.954e+00   1.821e+00   2.511e+00  10  sdss  6504  82N  3 
    1  54037.104519  1  23.158  0.360  0.082  0.130   1.891e+00   6.391e-01   1.499e-01   2.385e-01  17  sdss  6508  82S  4 
    0  54037.101202  2  23.594  0.677  0.210  0.199   1.177e+00   8.688e-01   2.820e-01   2.670e-01  19  sdss  6508  82S  4 
    0  54037.102032  3  22.461  0.355  0.111  0.091   3.590e+00   1.210e+00   3.903e-01   3.179e-01  21  sdss  6508  82S  4 
    0  54037.103690  4  23.407  0.631  0.329  0.194  -2.931e+00   3.604e+00   1.840e+00   1.081e+00  21  sdss  6508  82S  4 
    1  54037.102861  0  23.458  1.122  0.049  0.672   1.427e+00   1.680e+00   7.889e-02   1.076e+00  10  sdss  6508  82S  4 
    1  54039.112831  1  23.961  1.784  1.054  0.796   8.176e-01   1.761e+00   1.004e+00   7.581e-01  17  sdss  6513  82N  3 
    1  54039.109515  2  26.194  1.425  0.539  0.553  -1.442e+00   1.944e+00   8.335e-01   8.546e-01  19  sdss  6513  82N  3 
    0  54039.110344  3  22.921  0.893  0.637  0.284   2.252e+00   1.926e+00   1.520e+00   6.772e-01  21  sdss  6513  82N  3 
   32  54039.112002  4  22.429  1.075  0.983  0.625   2.015e+00   6.330e+00   5.138e+00   3.266e+00  21  sdss  6513  82N  3 
   11  54039.111173  0  27.605  0.632  0.569  0.492  -7.847e+00   4.045e+00   4.027e+00   3.488e+00  10  sdss  6513  82N  3 
    1  54040.119005  1  26.176  1.433  0.268  0.328  -7.262e-01   1.275e+00   2.376e-01   2.915e-01  17  sdss  6518  82S  4 
    1  54040.115688  2  22.818  0.554  0.156  0.097   2.627e+00   1.314e+00   3.961e-01   2.471e-01  19  sdss  6518  82S  4 
    1  54040.116517  3  23.057  0.869  0.240  0.146   1.945e+00   1.723e+00   5.153e-01   3.133e-01  21  sdss  6518  82S  4 
    0  54040.118175  4  23.345  0.852  0.367  0.223  -2.593e+00   4.903e+00   1.995e+00   1.210e+00  21  sdss  6518  82S  4 
    1  54040.117346  0  22.606  1.299  0.097  0.405   3.426e+00   3.189e+00   3.107e-01   1.300e+00  10  sdss  6518  82S  4 
 1177  54041.113860  1  21.120  0.199  4.056  0.062   1.270e+01   2.295e+00   4.724e+01   7.166e-01  17  sdss  6522  82N  3 
   25  54041.110544  2  22.644  0.787  4.797  0.201   3.106e+00   2.036e+00   1.419e+01   5.962e-01  19  sdss  6522  82N  3 
 1177  54041.111373  3  28.964  0.123  4.149  0.018  -4.455e+01   5.036e+00   1.702e+02   7.436e-01  21  sdss  6522  82N  3 
  157  54041.113031  4  19.861  0.332  7.945  0.086   4.070e+01   1.229e+01   3.027e+02   3.286e+00  21  sdss  6522  82N  3 
 1183  54041.112202  0  20.713  0.398  2.209  0.227   2.004e+01   6.844e+00   3.963e+01   4.069e+00  10  sdss  6522  82N  3 
    9  54047.109033  1  23.629  0.904  1.710  0.280   1.179e+00   9.974e-01   2.104e+00   3.444e-01  17  sdss  6528  82S  4 
   25  54047.105716  2  22.500  0.487  1.323  0.125   3.562e+00   1.547e+00   4.453e+00   4.220e-01  19  sdss  6528  82S  4 
 1048  54047.106545  3  22.304  0.616  5.140  0.232   4.181e+00   2.278e+00   2.068e+01   9.327e-01  21  sdss  6528  82S  4 
    0  54047.108204  4  23.964  0.654  0.485  0.196  -6.572e+00   4.922e+00   3.789e+00   1.535e+00  21  sdss  6528  82S  4 
    5  54047.107374  0  22.242  0.693  0.427  0.493   4.844e+00   2.747e+00   1.897e+00   2.188e+00  10  sdss  6528  82S  4 
    0  54048.106540  1  23.025  0.265  0.202  0.182   2.150e+00   5.358e-01   4.159e-01   3.747e-01  17  sdss  6533  82N  3 
    0  54048.103223  2  22.517  0.258  0.129  0.093   3.505e+00   8.421e-01   4.272e-01   3.072e-01  19  sdss  6533  82N  3 
    0  54048.104052  3  22.428  0.354  0.121  0.081   3.707e+00   1.244e+00   4.386e-01   2.929e-01  21  sdss  6533  82N  3 
    0  54048.105710  4  22.899  0.811  0.412  0.267  -3.248e-01   4.337e+00   2.013e+00   1.307e+00  21  sdss  6533  82N  3 
    0  54048.104881  0  22.876  0.660  0.046  0.575   2.633e+00   1.544e+00   1.175e-01   1.464e+00  10  sdss  6533  82N  3 
    0  54050.102635  1  23.436  0.402  0.309  0.285   1.437e+00   5.610e-01   4.454e-01   4.105e-01  17  sdss  6542  82S  4 
    0  54050.099319  2  23.182  0.570  0.404  0.281   1.831e+00   9.997e-01   7.511e-01   5.220e-01  19  sdss  6542  82S  4 
    0  54050.100148  3  24.391  1.052  0.545  0.450  -3.459e-02   1.451e+00   6.453e-01   5.328e-01  21  sdss  6542  82S  4 
    0  54050.101806  4  23.343  0.919  0.678  0.381  -2.582e+00   5.346e+00   3.685e+00   2.070e+00  21  sdss  6542  82S  4 
    0  54050.100977  0  22.874  0.858  0.120  0.888   2.638e+00   1.922e+00   3.066e-01   2.264e+00  10  sdss  6542  82S  4 
  132  54051.098574  1  22.909  0.366  0.324  0.181   2.403e+00   8.060e-01   7.391e-01   4.121e-01  17  sdss  6548  82N  3 
 1156  54051.095257  2  23.126  2.187  1.417  0.191   1.937e+00   3.695e+00   2.762e+00   3.725e-01  19  sdss  6548  82N  3 
   28  54051.096087  3  21.914  0.466  1.372  0.086   6.059e+00   2.514e+00   7.821e+00   4.909e-01  21  sdss  6548  82N  3 
    4  54051.097745  4  21.623  0.871  0.360  0.240   7.201e+00   6.754e+00   2.976e+00   1.988e+00  21  sdss  6548  82N  3 
 1156  54051.096916  0  25.373  1.681  0.632  1.876  -7.351e-01   2.451e+00   7.405e-01   2.196e+00  10  sdss  6548  82N  3 
    0  54052.110429  1  23.115  0.330  0.275  0.218   1.971e+00   6.118e-01   5.217e-01   4.140e-01  17  sdss  6552  82N  3 
    0  54052.107112  2  23.714  0.820  0.538  0.399   1.023e+00   9.699e-01   6.629e-01   4.917e-01  19  sdss  6552  82N  3 
    0  54052.107941  3  22.277  0.390  0.290  0.137   4.291e+00   1.549e+00   1.195e+00   5.659e-01  21  sdss  6552  82N  3 
    0  54052.109600  4  21.762  0.783  0.460  0.285   6.109e+00   5.636e+00   3.438e+00   2.131e+00  21  sdss  6552  82N  3 
    8  54052.108770  0  22.516  0.524  0.547  0.632   3.736e+00   1.708e+00   1.904e+00   2.198e+00  10  sdss  6552  82N  3 
    0  54053.108411  1  23.900  0.636  0.288  0.612   8.774e-01   6.069e-01   2.865e-01   6.098e-01  17  sdss  6555  82S  4 
    0  54053.105095  2  22.348  0.275  0.126  0.169   4.112e+00   1.040e+00   4.843e-01   6.531e-01  19  sdss  6555  82S  4 
    8  54053.105924  3  22.458  0.449  0.741  0.200   3.600e+00   1.512e+00   2.608e+00   7.026e-01  21  sdss  6555  82S  4 
    0  54053.107582  4  23.371  0.986  0.918  0.513  -2.733e+00   5.842e+00   5.048e+00   2.820e+00  21  sdss  6555  82S  4 
    0  54053.106753  0  24.813  1.487  0.160  2.751  -1.435e-01   1.939e+00   1.564e-01   2.688e+00  10  sdss  6555  82S  4 
    2  54054.128934  1  23.720  0.768  0.908  0.904   1.071e+00   8.139e-01   1.038e+00   1.034e+00  17  sdss  6559  82N  3 
    2  54054.125617  2  22.147  0.394  0.784  0.367   4.966e+00   1.751e+00   3.629e+00   1.699e+00  19  sdss  6559  82N  3 
   34  54054.126446  3  23.630  1.568  2.802  1.423   9.345e-01   2.705e+00   4.100e+00   2.082e+00  21  sdss  6559  82N  3 
 1162  54054.128105  4  20.863  0.715  1.494  0.393   1.582e+01   9.935e+00   2.311e+01   6.079e+00  21  sdss  6559  82N  3 
    0  54055.106140  1  23.518  0.430  0.298  0.309   1.323e+00   5.590e-01   4.013e-01   4.168e-01  17  sdss  6564  82N  3 
    0  54055.102824  2  22.644  0.298  0.147  0.119   3.106e+00   8.630e-01   4.344e-01   3.521e-01  19  sdss  6564  82N  3 
    0  54055.103653  3  22.821  0.509  0.197  0.139   2.501e+00   1.258e+00   5.103e-01   3.590e-01  21  sdss  6564  82N  3 
   32  54055.105311  4  22.383  0.815  0.537  0.315   2.256e+00   4.592e+00   2.850e+00   1.671e+00  21  sdss  6564  82N  3 
    0  54055.104482  0  22.464  0.479  0.092  0.436   3.927e+00   1.652e+00   3.336e-01   1.589e+00  10  sdss  6564  82N  3 
    0  54056.109731  1  23.718  0.588  0.404  0.501   1.073e+00   6.402e-01   4.631e-01   5.735e-01  17  sdss  6568  82S  4 
    0  54056.106414  2  22.907  0.467  0.247  0.240   2.408e+00   1.045e+00   5.808e-01   5.629e-01  19  sdss  6568  82S  4 
  128  54056.107243  3  22.370  0.436  0.399  0.189   3.922e+00   1.585e+00   1.516e+00   7.187e-01  21  sdss  6568  82S  4 
   32  54056.108902  4  22.200  1.005  0.862  0.519   3.262e+00   6.123e+00   4.948e+00   2.980e+00  21  sdss  6568  82S  4 
   32  54056.108072  0  23.232  1.492  0.163  1.771   1.830e+00   2.496e+00   3.093e-01   3.366e+00  10  sdss  6568  82S  4 
    0  54057.078304  1  23.221  0.317  0.230  0.220   1.778e+00   5.370e-01   3.992e-01   3.805e-01  17  sdss  6571  82S  4 
    0  54057.074988  2  23.244  0.591  0.369  0.299   1.717e+00   9.826e-01   6.517e-01   5.281e-01  19  sdss  6571  82S  4 
    0  54057.075817  3  22.957  0.737  0.353  0.276   2.168e+00   1.588e+00   8.185e-01   6.394e-01  21  sdss  6571  82S  4 
    0  54057.077475  4  23.209  0.993  0.537  0.431  -1.872e+00   5.717e+00   2.782e+00   2.230e+00  21  sdss  6571  82S  4 
    0  54057.076646  0  24.745  1.515  0.558  2.842  -7.724e-02   1.993e+00   5.421e-01   2.761e+00  10  sdss  6571  82S  4 
    0  54058.104639  1  23.557  0.423  0.276  0.281   1.271e+00   5.342e-01   3.605e-01   3.664e-01  17  sdss  6577  82N  3 
    0  54058.101322  2  22.802  0.320  0.144  0.107   2.668e+00   8.037e-01   3.697e-01   2.744e-01  19  sdss  6577  82N  3 
   32  54058.102152  3  23.495  0.775  0.294  0.187   1.140e+00   1.219e+00   4.657e-01   2.959e-01  21  sdss  6577  82N  3 
   32  54058.103810  4  22.481  0.812  0.580  0.285   1.748e+00   4.484e+00   2.981e+00   1.465e+00  21  sdss  6577  82N  3 
    0  54058.102981  0  22.856  0.664  0.121  0.568   2.686e+00   1.578e+00   3.122e-01   1.470e+00  10  sdss  6577  82N  3 
   32  54059.103706  1  24.289  0.787  0.683  0.721   5.370e-01   6.038e-01   5.235e-01   5.529e-01  17  sdss  6580  82S  4 
    0  54059.100389  2  22.449  0.290  0.177  0.168   3.738e+00   9.998e-01   6.224e-01   5.911e-01  19  sdss  6580  82S  4 
   32  54059.101218  3  23.677  0.972  0.413  0.461   8.665e-01   1.449e+00   5.896e-01   6.580e-01  21  sdss  6580  82S  4 
    0  54059.102877  4  21.344  0.527  0.306  0.235   9.756e+00   5.176e+00   3.150e+00   2.413e+00  21  sdss  6580  82S  4 
   42  54059.102047  0  24.405  1.615  3.001  3.424   2.544e-01   2.219e+00   2.987e+00   3.407e+00  10  sdss  6580  82S  4 
    0  54061.114494  1  22.873  0.299  0.310  0.316   2.487e+00   6.885e-01   7.302e-01   7.443e-01  17  sdss  6590  82S  4 
    0  54061.111178  2  23.509  0.840  0.498  0.451   1.296e+00   1.118e+00   7.138e-01   6.457e-01  19  sdss  6590  82S  4 
    0  54061.112007  3  22.620  0.575  0.268  0.206   3.068e+00   1.648e+00   8.218e-01   6.303e-01  21  sdss  6590  82S  4 
    0  54061.113665  4  23.543  1.092  1.015  0.456  -3.716e+00   6.889e+00   6.065e+00   2.724e+00  21  sdss  6590  82S  4 
   32  54061.112836  0  23.273  1.393  0.228  1.693   1.750e+00   2.279e+00   4.196e-01   3.117e+00  10  sdss  6590  82S  4 
   32  54062.108287  1  24.472  0.964  1.188  1.144   4.035e-01   7.053e-01   8.265e-01   7.950e-01  17  sdss  6596  82S  4 
   32  54062.104970  2  23.698  1.004  1.088  0.639   1.042e+00   1.192e+00   1.356e+00   7.965e-01  19  sdss  6596  82S  4 
    0  54062.105799  3  24.991  1.144  0.535  0.603  -7.868e-01   1.733e+00   7.418e-01   8.364e-01  21  sdss  6596  82S  4 
   32  54062.107458  4  22.298  1.157  0.973  0.637   2.717e+00   7.112e+00   5.345e+00   3.499e+00  21  sdss  6596  82S  4 
    2  54062.106629  0  27.212  0.507  0.064  0.724  -5.437e+00   2.355e+00   3.161e-01   3.588e+00  10  sdss  6596  82S  4 
    0  54063.094432  1  23.360  0.414  0.379  0.352   1.550e+00   6.148e-01   5.825e-01   5.411e-01  17  sdss  6600  82N  3 
    0  54063.091117  2  23.537  0.765  0.571  0.381   1.256e+00   1.008e+00   8.002e-01   5.340e-01  19  sdss  6600  82N  3 
    0  54063.091946  3  22.946  0.731  0.513  0.268   2.193e+00   1.588e+00   1.200e+00   6.264e-01  21  sdss  6600  82N  3 
   32  54063.093602  4  22.216  0.959  0.469  0.390   3.171e+00   5.773e+00   2.672e+00   2.220e+00  21  sdss  6600  82N  3 
    8  54063.092775  0  22.553  0.610  0.399  0.779   3.606e+00   1.888e+00   1.344e+00   2.622e+00  10  sdss  6600  82N  3 
    1  54068.097791  1  21.966  0.597  0.266  0.241   5.811e+00   2.916e+00   1.423e+00   1.290e+00  17  sdss  6615  82S  4 
  131  54068.094474  2  22.137  0.462  0.229  0.219   5.012e+00   2.040e+00   1.071e+00   1.021e+00  19  sdss  6615  82S  4 
   32  54068.095303  3  23.453  1.320  1.348  0.666   1.207e+00   2.221e+00   2.189e+00   1.082e+00  21  sdss  6615  82S  4 
    0  54068.096962  4  23.604  1.178  1.270  0.728  -4.084e+00   7.675e+00   7.850e+00   4.500e+00  21  sdss  6615  82S  4 
    3  54068.096133  0  21.457  0.666  0.424  0.521   1.008e+01   5.389e+00   3.843e+00   4.717e+00  10  sdss  6615  82S  4 
