# SDSS CID:  17856 IAU:          RA:  58.529053 DEC:   0.838731  (J2000)
# GALAXY_SB [ugriz] = [ 24.05 24.30 23.72 23.48 22.54 ] +/- [  0.15  0.07  0.06  0.06  0.07 ] (asinh mag/square arcsec)
# GALAXY_SB_FLUX [ugriz] = [  5.963E-01  5.230E-01  1.011E+00  1.170E+00  1.439E+00 ] +/- [  1.638E-01  5.384E-02  7.000E-02  9.746E-02  3.700E-01 ] (microJy per square arcsec)
#FLAG  MJD       FILT  MAG     MERR  MSKYERR MGALERR  FLUX       FLUXERR    SKYERR     GALERR    NPRE TELE   RUN  STRIP  IDCCD
    1  54347.466827  1  23.464  1.246  0.538  0.429   1.396e+00   1.450e+00   7.558e-01   6.036e-01  31  sdss  6930  82S  6 
    9  54347.463510  2  22.370  0.405  0.874  0.149   4.028e+00   1.477e+00   3.318e+00   5.657e-01  31  sdss  6930  82S  6 
    8  54347.464339  3  22.520  0.659  1.393  0.306   3.388e+00   2.013e+00   4.646e+00   1.019e+00  32  sdss  6930  82S  6 
    0  54347.465998  4  21.282  0.498  0.566  0.362   1.041e+01   5.129e+00   6.093e+00   3.904e+00  31  sdss  6930  82S  6 
   35  54347.465168  0  23.225  2.031  1.313  1.459   1.843e+00   3.738e+00   2.498e+00   2.776e+00  26  sdss  6930  82S  6 
    0  54357.442576  1  23.022  0.234  0.196  0.130   2.157e+00   4.759e-01   4.028e-01   2.666e-01  31  sdss  6955  82S  6 
    0  54357.439258  2  22.321  0.198  0.146  0.097   4.217e+00   7.786e-01   5.794e-01   3.831e-01  31  sdss  6955  82S  6 
    0  54357.440088  3  22.038  0.223  0.085  0.076   5.390e+00   1.124e+00   4.343e-01   3.867e-01  32  sdss  6955  82S  6 
    8  54357.441746  4  23.416  0.581  0.524  0.321  -2.982e+00   3.313e+00   2.936e+00   1.799e+00  31  sdss  6955  82S  6 
    0  54357.440917  0  22.924  0.642  0.358  0.424   2.511e+00   1.445e+00   8.708e-01   1.030e+00  26  sdss  6955  82S  6 
    0  54358.439851  1  22.794  0.218  0.200  0.145   2.681e+00   5.429e-01   5.043e-01   3.667e-01  31  sdss  6958  82N  5 
    0  54358.436533  2  22.353  0.203  0.152  0.092   4.093e+00   7.747e-01   5.866e-01   3.559e-01  31  sdss  6958  82N  5 
    0  54358.437363  3  22.596  0.414  0.307  0.141   3.143e+00   1.248e+00   9.596e-01   4.396e-01  32  sdss  6958  82N  5 
   32  54358.439021  4  22.674  0.752  0.280  0.419   7.764e-01   3.997e+00   1.378e+00   2.064e+00  31  sdss  6958  82N  5 
    8  54358.438192  0  23.139  0.805  0.587  0.501   2.017e+00   1.493e+00   1.195e+00   1.021e+00  26  sdss  6958  82N  5 
    9  54362.492713  1  22.951  0.258  0.336  0.092   2.309e+00   5.559e-01   7.355e-01   2.024e-01  31  sdss  6976  82S  6 
    0  54362.489395  2  22.279  0.185  0.086  0.066   4.387e+00   7.555e-01   3.546e-01   2.707e-01  31  sdss  6976  82S  6 
    0  54362.490224  3  22.565  0.390  0.121  0.123   3.241e+00   1.210e+00   3.886e-01   3.937e-01  32  sdss  6976  82S  6 
    0  54362.491883  4  21.540  0.426  0.267  0.157   7.908e+00   3.645e+00   2.346e+00   1.379e+00  31  sdss  6976  82S  6 
  168  54362.491054  0  24.637  1.229  1.044  0.732   2.781e-02   1.462e+00   1.012e+00   7.093e-01  26  sdss  6976  82S  6 
    0  54365.473556  1  22.863  0.198  0.158  0.095   2.512e+00   4.653e-01   3.740e-01   2.252e-01  31  sdss  6982  82N  5 
    0  54365.470239  2  22.400  0.194  0.112  0.078   3.915e+00   7.091e-01   4.156e-01   2.871e-01  31  sdss  6982  82N  5 
    0  54365.471068  3  22.450  0.309  0.161  0.093   3.629e+00   1.072e+00   5.714e-01   3.287e-01  32  sdss  6982  82N  5 
    0  54365.472727  4  22.499  0.546  0.297  0.272   1.651e+00   2.882e+00   1.518e+00   1.390e+00  31  sdss  6982  82N  5 
    0  54365.471898  0  23.215  0.737  0.348  0.474   1.864e+00   1.311e+00   6.676e-01   9.090e-01  26  sdss  6982  82N  5 
    1  54376.488833  1  23.280  0.408  0.137  0.113   1.679e+00   6.464e-01   2.252e-01   1.852e-01  31  sdss  7016  82S  6 
    0  54376.485515  2  22.822  0.365  0.159  0.110   2.616e+00   8.988e-01   4.037e-01   2.798e-01  31  sdss  7016  82S  6 
    0  54376.486345  3  22.297  0.331  0.093  0.090   4.209e+00   1.308e+00   3.778e-01   3.629e-01  32  sdss  7016  82S  6 
    0  54376.488003  4  22.566  0.725  0.128  0.257   1.313e+00   3.880e+00   6.433e-01   1.294e+00  31  sdss  7016  82S  6 
  161  54376.487174  0  23.948  1.369  0.376  0.616   7.466e-01   1.813e+00   4.414e-01   7.232e-01  26  sdss  7016  82S  6 
    0  54381.494427  1  23.352  0.406  0.417  0.302   1.563e+00   6.066e-01   6.443e-01   4.663e-01  31  sdss  7034  82N  5 
    0  54381.491110  2  22.982  0.389  0.282  0.203   2.238e+00   8.322e-01   6.253e-01   4.497e-01  31  sdss  7034  82N  5 
    0  54381.491939  3  22.414  0.355  0.205  0.138   3.758e+00   1.260e+00   7.500e-01   5.046e-01  32  sdss  7034  82N  5 
    0  54381.493598  4  21.640  0.480  0.291  0.247   7.056e+00   3.806e+00   2.367e+00   2.007e+00  31  sdss  7034  82N  5 
    8  54381.492768  0  22.807  0.712  0.650  0.579   2.819e+00   1.730e+00   1.746e+00   1.553e+00  26  sdss  7034  82N  5 
    0  54382.474406  1  23.059  0.267  0.149  0.194   2.082e+00   5.225e-01   2.967e-01   3.869e-01  31  sdss  7038  82S  6 
    0  54382.471088  2  22.675  0.295  0.163  0.150   3.015e+00   8.341e-01   4.724e-01   4.350e-01  31  sdss  7038  82S  6 
    0  54382.471918  3  22.591  0.466  0.249  0.210   3.158e+00   1.397e+00   7.814e-01   6.590e-01  32  sdss  7038  82S  6 
    0  54382.473576  4  22.867  0.793  0.586  0.459  -1.659e-01   4.222e+00   2.857e+00   2.239e+00  31  sdss  7038  82S  6 
    8  54382.472747  0  22.783  0.686  0.907  0.615   2.886e+00   1.712e+00   2.484e+00   1.684e+00  26  sdss  7038  82S  6 
    0  54385.492146  1  22.969  0.275  0.114  0.217   2.270e+00   5.817e-01   2.466e-01   4.688e-01  31  sdss  7051  82S  6 
    0  54385.488828  2  22.860  0.343  0.235  0.168   2.521e+00   8.201e-01   5.772e-01   4.132e-01  31  sdss  7051  82S  6 
    0  54385.489658  3  22.166  0.273  0.155  0.105   4.772e+00   1.220e+00   7.032e-01   4.757e-01  32  sdss  7051  82S  6 
    0  54385.491316  4  21.792  0.572  0.512  0.323   5.887e+00   4.079e+00   3.739e+00   2.360e+00  31  sdss  7051  82S  6 
  136  54385.490487  0  22.235  0.433  0.465  0.318   4.876e+00   1.834e+00   2.061e+00   1.412e+00  26  sdss  7051  82S  6 
    0  54386.486807  1  22.799  0.220  0.246  0.155   2.669e+00   5.454e-01   6.166e-01   3.891e-01  31  sdss  7054  82N  5 
    0  54386.483490  2  22.708  0.288  0.250  0.149   2.921e+00   7.932e-01   7.026e-01   4.185e-01  31  sdss  7054  82N  5 
    0  54386.484319  3  22.292  0.296  0.197  0.112   4.230e+00   1.178e+00   8.021e-01   4.558e-01  32  sdss  7054  82N  5 
    0  54386.485978  4  21.615  0.429  0.205  0.230   7.261e+00   3.474e+00   1.702e+00   1.906e+00  31  sdss  7054  82N  5 
   32  54386.485148  0  24.629  1.288  0.362  1.179   3.585e-02   1.562e+00   3.507e-01   1.143e+00  26  sdss  7054  82N  5 
    0  54387.492666  1  22.905  0.246  0.173  0.166   2.413e+00   5.525e-01   3.960e-01   3.786e-01  31  sdss  7057  82S  6 
    0  54387.489349  2  22.642  0.309  0.238  0.177   3.112e+00   8.981e-01   7.077e-01   5.270e-01  31  sdss  7057  82S  6 
    0  54387.490178  3  22.290  0.341  0.257  0.175   4.238e+00   1.353e+00   1.047e+00   7.121e-01  32  sdss  7057  82S  6 
    0  54387.491837  4  22.006  0.635  0.106  0.352   4.433e+00   4.026e+00   6.726e-01   2.238e+00  31  sdss  7057  82S  6 
  136  54387.491007  0  24.711  1.442  2.697  1.520  -4.354e-02   1.846e+00   2.615e+00   1.474e+00  26  sdss  7057  82S  6 
    0  54388.491414  1  23.511  0.370  0.244  0.171   1.331e+00   4.873e-01   3.300e-01   2.306e-01  31  sdss  7060  82N  5 
    0  54388.488096  2  22.928  0.374  0.235  0.158   2.359e+00   8.405e-01   5.458e-01   3.652e-01  31  sdss  7060  82N  5 
    0  54388.488926  3  23.022  0.595  0.341  0.173   2.021e+00   1.250e+00   7.518e-01   3.809e-01  32  sdss  7060  82N  5 
    0  54388.490584  4  22.975  0.698  0.229  0.291  -6.936e-01   3.668e+00   1.127e+00   1.430e+00  31  sdss  7060  82N  5 
    8  54388.489755  0  23.030  0.778  0.529  0.474   2.256e+00   1.569e+00   1.177e+00   1.055e+00  26  sdss  7060  82N  5 
   32  54390.485529  1  24.882  1.347  0.780  1.693   1.401e-01   1.020e+00   4.699e-01   1.020e+00  31  sdss  7071  82S  6 
   32  54390.482211  2  23.323  1.395  1.233  0.865   1.582e+00   1.985e+00   2.050e+00   1.440e+00  31  sdss  7071  82S  6 
    2  54390.483041  3  22.295  0.557  0.616  0.379   4.218e+00   2.107e+00   2.498e+00   1.539e+00  32  sdss  7071  82S  6 
    2  54390.484699  4  24.754  0.588  0.438  0.440  -1.508e+01   8.047e+00   6.465e+00   6.485e+00  31  sdss  7071  82S  6 
    8  54390.483870  0  21.862  0.624  1.054  0.564   6.917e+00   3.519e+00   6.556e+00   3.511e+00  26  sdss  7071  82S  6 
    2  54391.493814  1  23.570  0.705  0.934  0.815   1.252e+00   8.380e-01   1.203e+00   1.049e+00  31  sdss  7074  82S  6 
   34  54391.490497  2  23.884  1.347  1.675  1.358   8.242e-01   1.541e+00   1.848e+00   1.497e+00  31  sdss  7074  82S  6 
    2  54391.491326  3  22.250  0.606  0.677  0.486   4.404e+00   2.354e+00   2.856e+00   2.053e+00  32  sdss  7074  82S  6 
   34  54391.492985  4  22.301  1.126  1.225  0.970   2.700e+00   6.863e+00   6.709e+00   5.312e+00  31  sdss  7074  82S  6 
    0  54391.492156  0  20.910  0.356  0.279  0.305   1.670e+01   5.106e+00   4.140e+00   4.530e+00  26  sdss  7074  82S  6 
    0  54392.489167  1  22.951  0.234  0.172  0.116   2.309e+00   5.065e-01   3.775e-01   2.549e-01  31  sdss  7077  82N  5 
    0  54392.485849  2  22.836  0.337  0.213  0.120   2.581e+00   8.230e-01   5.349e-01   3.019e-01  31  sdss  7077  82N  5 
    0  54392.486679  3  22.416  0.378  0.231  0.113   3.751e+00   1.336e+00   8.418e-01   4.117e-01  32  sdss  7077  82N  5 
    0  54392.488337  4  22.386  0.663  0.193  0.243   2.243e+00   3.649e+00   1.023e+00   1.289e+00  31  sdss  7077  82N  5 
   32  54392.487508  0  23.814  1.220  0.095  0.760   9.119e-01   1.612e+00   1.203e-01   9.596e-01  26  sdss  7077  82N  5 
    0  54393.495032  1  23.325  0.377  0.301  0.231   1.605e+00   5.785e-01   4.766e-01   3.650e-01  31  sdss  7081  82N  5 
    0  54393.491715  2  22.831  0.426  0.390  0.197   2.593e+00   1.031e+00   9.824e-01   4.971e-01  31  sdss  7081  82N  5 
    0  54393.492544  3  22.294  0.353  0.184  0.097   4.222e+00   1.392e+00   7.489e-01   3.937e-01  32  sdss  7081  82N  5 
  128  54393.494203  4  23.779  0.572  0.162  0.195  -5.224e+00   3.859e+00   1.111e+00   1.340e+00  31  sdss  7081  82N  5 
   32  54393.493374  0  24.597  1.284  0.482  1.025   6.603e-02   1.556e+00   4.677e-01   9.950e-01  26  sdss  7081  82N  5 
  162  54394.476024  1  25.095  1.469  4.381  2.946   1.388e-02   1.154e+00   2.580e+00   1.735e+00  31  sdss  7084  82S  6 
    2  54394.472707  2  22.442  0.514  0.489  0.391   3.763e+00   1.716e+00   1.741e+00   1.392e+00  31  sdss  7084  82S  6 
    2  54394.473536  3  22.433  0.686  0.914  0.427   3.689e+00   2.236e+00   3.288e+00   1.534e+00  32  sdss  7084  82S  6 
    2  54394.475195  4  20.952  0.739  0.829  0.555   1.450e+01   9.442e+00   1.181e+01   7.906e+00  31  sdss  7084  82S  6 
    1  54396.358852  1  23.310  1.198  0.697  0.419   1.629e+00   1.554e+00   1.117e+00   6.710e-01  31  sdss  7095  82N  5 
    1  54396.355535  2  22.191  0.316  0.167  0.137   4.765e+00   1.375e+00   7.471e-01   6.121e-01  31  sdss  7095  82N  5 
    0  54396.356364  3  22.899  0.801  0.611  0.345   2.305e+00   1.779e+00   1.485e+00   8.388e-01  32  sdss  7095  82N  5 
   32  54396.358023  4  22.470  0.929  0.829  0.766   1.805e+00   5.257e+00   4.272e+00   3.950e+00  31  sdss  7095  82N  5 
  130  54396.496205  1  22.665  0.296  0.552  0.348   3.029e+00   8.183e-01   1.564e+00   9.860e-01  31  sdss  7096  82S  6 
    2  54396.492888  2  22.151  0.328  0.287  0.229   4.946e+00   1.475e+00   1.330e+00   1.062e+00  31  sdss  7096  82S  6 
   34  54396.493717  3  23.711  1.316  1.561  1.032   8.183e-01   2.084e+00   2.191e+00   1.448e+00  32  sdss  7096  82S  6 
    0  54396.495376  4  21.377  0.680  0.414  0.403   9.430e+00   6.331e+00   4.129e+00   4.019e+00  31  sdss  7096  82S  6 
   42  54396.494546  0  24.295  1.828  5.945  2.881   3.659e-01   2.754e+00   6.075e+00   2.944e+00  26  sdss  7096  82S  6 
    1  54402.486619  1  23.708  1.510  0.299  0.233   1.084e+00   1.534e+00   3.449e-01   2.681e-01  31  sdss  7101  82S  6 
   33  54402.483302  2  23.809  1.448  0.569  0.340   9.089e-01   1.723e+00   6.589e-01   3.935e-01  31  sdss  7101  82S  6 
    1  54402.484131  3  22.301  0.539  0.258  0.135   4.193e+00   2.036e+00   1.040e+00   5.447e-01  32  sdss  7101  82S  6 
  128  54402.485790  4  21.454  0.585  0.391  0.212   8.687e+00   5.227e+00   3.671e+00   1.988e+00  31  sdss  7101  82S  6 
    1  54402.484961  0  21.679  0.760  0.157  0.163   8.202e+00   4.844e+00   1.151e+00   1.198e+00  26  sdss  7101  82S  6 
    1  54403.405681  1  22.954  0.489  0.357  0.111   2.302e+00   1.010e+00   7.799e-01   2.431e-01  31  sdss  7106  82N  5 
  129  54403.402364  2  22.739  0.451  0.468  0.107   2.835e+00   1.175e+00   1.279e+00   2.935e-01  31  sdss  7106  82N  5 
    1  54403.403193  3  22.352  0.425  0.262  0.098   3.992e+00   1.574e+00   1.010e+00   3.764e-01  32  sdss  7106  82N  5 
    8  54403.404852  4  22.010  0.614  1.000  0.245   4.407e+00   3.884e+00   6.351e+00   1.553e+00  31  sdss  7106  82N  5 
    1  54403.404022  0  25.292  1.913  0.825  0.827  -6.413e-01   3.028e+00   9.279e-01   9.295e-01  26  sdss  7106  82N  5 
    1  54406.399500  1  22.997  0.275  0.079  0.097   2.209e+00   5.687e-01   1.654e-01   2.034e-01  31  sdss  7121  82N  5 
    0  54406.396183  2  22.396  0.212  0.099  0.064   3.930e+00   7.776e-01   3.658e-01   2.377e-01  31  sdss  7121  82N  5 
    0  54406.397012  3  22.504  0.339  0.116  0.078   3.442e+00   1.117e+00   3.936e-01   2.629e-01  32  sdss  7121  82N  5 
    0  54406.398671  4  22.555  0.586  0.119  0.228   1.367e+00   3.075e+00   6.004e-01   1.150e+00  31  sdss  7121  82N  5 
    1  54406.397842  0  22.930  0.677  0.227  0.353   2.496e+00   1.505e+00   5.493e-01   8.545e-01  26  sdss  7121  82N  5 
    0  54408.400819  1  23.566  0.396  0.121  0.160   1.258e+00   4.976e-01   1.560e-01   2.064e-01  31  sdss  7127  82S  6 
    0  54408.397501  2  22.092  0.160  0.074  0.054   5.226e+00   7.739e-01   3.622e-01   2.657e-01  31  sdss  7127  82S  6 
    0  54408.398331  3  21.980  0.239  0.106  0.067   5.693e+00   1.264e+00   5.714e-01   3.610e-01  32  sdss  7127  82S  6 
    0  54408.399989  4  22.023  0.564  0.116  0.202   4.325e+00   3.545e+00   7.317e-01   1.274e+00  31  sdss  7127  82S  6 
    0  54408.399160  0  23.412  0.954  0.268  0.412   1.504e+00   1.465e+00   4.422e-01   6.797e-01  26  sdss  7127  82S  6 
    0  54409.404394  1  23.038  0.255  0.165  0.143   2.124e+00   5.097e-01   3.355e-01   2.900e-01  31  sdss  7130  82N  5 
    0  54409.401076  2  23.082  0.402  0.189  0.136   2.026e+00   7.905e-01   3.842e-01   2.764e-01  31  sdss  7130  82N  5 
    0  54409.401906  3  22.078  0.252  0.134  0.064   5.189e+00   1.218e+00   6.589e-01   3.125e-01  32  sdss  7130  82N  5 
    0  54409.403564  4  22.275  0.658  0.333  0.273   2.843e+00   3.744e+00   1.842e+00   1.513e+00  31  sdss  7130  82N  5 
    0  54409.402735  0  24.914  1.166  0.379  0.973  -2.424e-01   1.373e+00   3.757e-01   9.654e-01  26  sdss  7130  82N  5 
    0  54411.358907  1  22.951  0.282  0.107  0.158   2.309e+00   6.062e-01   2.349e-01   3.458e-01  31  sdss  7136  82S  6 
    0  54411.355589  2  22.378  0.233  0.180  0.124   3.997e+00   8.677e-01   6.784e-01   4.658e-01  31  sdss  7136  82S  6 
    0  54411.356419  3  22.146  0.275  0.138  0.099   4.864e+00   1.248e+00   6.371e-01   4.595e-01  32  sdss  7136  82S  6 
    0  54411.358077  4  23.127  0.739  0.205  0.365  -1.454e+00   3.981e+00   1.035e+00   1.844e+00  31  sdss  7136  82S  6 
  136  54411.357248  0  22.823  0.679  0.521  0.361   2.774e+00   1.642e+00   1.380e+00   9.546e-01  26  sdss  7136  82S  6 
  128  54412.425591  1  22.937  0.286  0.244  0.144   2.340e+00   6.226e-01   5.423e-01   3.196e-01  31  sdss  7142  82N  5 
    4  54412.422274  2  23.148  0.771  0.579  0.206   1.895e+00   1.338e+00   1.112e+00   3.957e-01  31  sdss  7142  82N  5 
    4  54412.423104  3  22.897  0.862  0.786  0.180   2.310e+00   1.898e+00   1.914e+00   4.385e-01  32  sdss  7142  82N  5 
    4  54412.424762  4  21.520  0.664  0.330  0.198   8.085e+00   5.599e+00   2.939e+00   1.767e+00  31  sdss  7142  82N  5 
    4  54412.423933  0  25.022  1.767  0.405  1.039  -3.518e-01   2.594e+00   4.121e-01   1.058e+00  26  sdss  7142  82N  5 
    0  54413.399882  1  22.630  0.234  0.389  0.259   3.130e+00   6.727e-01   1.136e+00   7.568e-01  31  sdss  7145  82S  6 
    0  54413.396565  2  22.744  0.429  0.476  0.347   2.821e+00   1.117e+00   1.294e+00   9.445e-01  31  sdss  7145  82S  6 
    0  54413.397394  3  22.368  0.509  0.478  0.372   3.930e+00   1.827e+00   1.819e+00   1.414e+00  32  sdss  7145  82S  6 
    0  54413.399053  4  21.702  0.730  0.819  0.494   6.564e+00   5.440e+00   6.369e+00   3.842e+00  31  sdss  7145  82S  6 
    2  54413.398224  0  26.516  0.927  0.477  0.879  -2.795e+00   2.124e+00   1.271e+00   2.343e+00  26  sdss  7145  82S  6 
    0  54415.411378  1  23.107  0.253  0.157  0.118   1.988e+00   4.761e-01   2.990e-01   2.247e-01  31  sdss  7152  82S  6 
    0  54415.408061  2  22.381  0.209  0.107  0.081   3.986e+00   7.779e-01   4.005e-01   3.043e-01  31  sdss  7152  82S  6 
    0  54415.408890  3  22.031  0.243  0.100  0.079   5.426e+00   1.226e+00   5.132e-01   4.073e-01  32  sdss  7152  82S  6 
    0  54415.410549  4  22.171  0.598  0.185  0.232   3.432e+00   3.519e+00   1.077e+00   1.351e+00  31  sdss  7152  82S  6 
    8  54415.409719  0  24.733  1.239  1.477  0.867  -6.567e-02   1.479e+00   1.433e+00   8.414e-01  26  sdss  7152  82S  6 
    0  54416.398442  1  23.382  0.309  0.130  0.115   1.516e+00   4.564e-01   1.959e-01   1.737e-01  31  sdss  7155  82N  5 
  128  54416.395124  2  22.728  0.275  0.122  0.081   2.865e+00   7.440e-01   3.380e-01   2.246e-01  31  sdss  7155  82N  5 
    0  54416.395954  3  22.172  0.266  0.109  0.065   4.745e+00   1.181e+00   4.911e-01   2.928e-01  32  sdss  7155  82N  5 
    0  54416.397612  4  22.276  0.576  0.227  0.169   2.837e+00   3.250e+00   1.257e+00   9.347e-01  31  sdss  7155  82N  5 
   32  54416.396783  0  24.104  1.136  0.383  0.685   5.682e-01   1.381e+00   4.185e-01   7.479e-01  26  sdss  7155  82N  5 
 1156  54417.401610  1  21.643  0.401  0.350  0.048   7.836e+00   2.759e+00   2.516e+00   3.474e-01  31  sdss  7158  82S  6 
   28  54417.398293  2  22.392  0.367  1.048  0.114   3.945e+00   1.321e+00   3.903e+00   4.243e-01  31  sdss  7158  82S  6 
    4  54417.399122  3  25.480  1.618  1.532  0.321  -1.570e+00   3.056e+00   2.861e+00   5.997e-01  32  sdss  7158  82S  6 
 1156  54417.400781  4  26.759  1.233  0.319  0.022  -9.840e+01   8.049e+01   2.898e+01   2.039e+00  31  sdss  7158  82S  6 
 1156  54417.399952  0  23.214  2.244  0.406  0.631   1.865e+00   4.442e+00   7.792e-01   1.210e+00  26  sdss  7158  82S  6 
   32  54418.400017  1  24.208  0.658  0.417  0.449   6.008e-01   5.233e-01   3.356e-01   3.618e-01  31  sdss  7161  82S  6 
    0  54418.396700  2  22.262  0.215  0.191  0.116   4.458e+00   8.899e-01   8.006e-01   4.878e-01  31  sdss  7161  82S  6 
    0  54418.397529  3  22.102  0.297  0.193  0.133   5.072e+00   1.401e+00   9.307e-01   6.420e-01  32  sdss  7161  82S  6 
    0  54418.399188  4  23.164  0.819  0.491  0.465  -1.642e+00   4.507e+00   2.509e+00   2.374e+00  31  sdss  7161  82S  6 
   32  54418.398358  0  23.450  1.234  0.258  0.908   1.439e+00   1.854e+00   4.144e-01   1.456e+00  26  sdss  7161  82S  6 
    0  54421.404245  1  23.432  0.385  0.338  0.236   1.443e+00   5.398e-01   4.883e-01   3.408e-01  31  sdss  7170  82N  5 
    0  54421.400928  2  22.655  0.306  0.275  0.147   3.073e+00   8.814e-01   8.089e-01   4.316e-01  31  sdss  7170  82N  5 
    0  54421.401757  3  22.840  0.643  0.410  0.232   2.452e+00   1.532e+00   1.045e+00   5.907e-01  32  sdss  7170  82N  5 
    0  54421.403416  4  21.129  0.393  0.142  0.154   1.217e+01   4.655e+00   1.742e+00   1.881e+00  31  sdss  7170  82N  5 
  128  54421.402586  0  23.244  1.067  0.326  0.773   1.807e+00   1.785e+00   6.112e-01   1.448e+00  26  sdss  7170  82N  5 
    2  54422.404472  1  22.713  0.251  0.308  0.269   2.895e+00   6.690e-01   8.336e-01   7.286e-01  31  sdss  7173  82S  6 
    0  54422.401155  2  22.970  0.521  0.467  0.353   2.264e+00   1.100e+00   1.043e+00   7.895e-01  31  sdss  7173  82S  6 
    0  54422.401984  3  22.780  0.688  0.401  0.368   2.609e+00   1.701e+00   1.073e+00   9.861e-01  32  sdss  7173  82S  6 
    0  54422.403643  4  21.613  0.743  0.182  0.442   7.277e+00   5.836e+00   1.511e+00   3.671e+00  31  sdss  7173  82S  6 
    2  54422.402814  0  22.852  0.988  0.628  0.885   2.695e+00   2.171e+00   1.621e+00   2.285e+00  26  sdss  7173  82S  6 
    0  54423.380802  1  23.015  0.243  0.183  0.136   2.172e+00   4.954e-01   3.782e-01   2.810e-01  31  sdss  7177  82N  5 
    0  54423.377485  2  22.754  0.292  0.197  0.123   2.794e+00   7.709e-01   5.317e-01   3.306e-01  31  sdss  7177  82N  5 
    0  54423.378314  3  22.504  0.373  0.297  0.129   3.442e+00   1.224e+00   1.005e+00   4.363e-01  32  sdss  7177  82N  5 
    0  54423.379973  4  22.859  0.641  0.259  0.290  -1.270e-01   3.311e+00   1.265e+00   1.417e+00  31  sdss  7177  82N  5 
   32  54423.379143  0  24.205  1.163  0.927  1.147   4.594e-01   1.399e+00   9.742e-01   1.205e+00  26  sdss  7177  82N  5 
    1  54424.340470  1  22.955  0.438  0.188  0.130   2.300e+00   9.126e-01   4.099e-01   2.841e-01  31  sdss  7183  82S  6 
    0  54424.337153  2  23.512  0.770  0.444  0.271   1.291e+00   1.034e+00   6.365e-01   3.885e-01  31  sdss  7183  82S  6 
    0  54424.337982  3  22.250  0.347  0.159  0.132   4.404e+00   1.423e+00   6.703e-01   5.561e-01  32  sdss  7183  82S  6 
    0  54424.339641  4  21.034  0.309  0.169  0.138   1.338e+01   4.020e+00   2.244e+00   1.828e+00  31  sdss  7183  82S  6 
  161  54424.338812  0  24.001  1.484  0.465  0.791   6.853e-01   2.015e+00   5.320e-01   9.054e-01  26  sdss  7183  82S  6 
 1437  54432.396189  1  33.374  0.105  1.837  0.001  -6.412e+02   6.154e+01   1.076e+03   6.456e-01  31  sdss  7199  82N  5 
  129  54433.403564  1  23.629  1.533  0.688  0.452   1.179e+00   1.613e+00   8.456e-01   5.557e-01  31  sdss  7202  82N  5 
   33  54433.400247  2  24.163  1.278  1.315  0.434   5.409e-01   1.350e+00   1.238e+00   4.088e-01  31  sdss  7202  82N  5 
    1  54433.401077  3  22.707  0.633  0.255  0.146   2.811e+00   1.675e+00   7.253e-01   4.165e-01  32  sdss  7202  82N  5 
  128  54433.402735  4  22.894  1.037  0.625  0.531  -2.975e-01   5.868e+00   3.052e+00   2.593e+00  31  sdss  7202  82N  5 
    1  54433.401906  0  22.548  1.379  0.378  0.460   3.624e+00   3.446e+00   1.270e+00   1.546e+00  26  sdss  7202  82N  5 
