# SDSS CID:  15020 IAU: 2005jk   RA:  26.415556 DEC:   1.203784  (J2000)
# GALAXY_SB [ugriz] = [ 23.57 23.44 22.98 22.38 21.81 ] +/- [  0.21  0.05  0.05  0.05  0.10 ] (asinh mag/square arcsec)
# GALAXY_SB_FLUX [ugriz] = [  1.204E+00  1.432E+00  2.241E+00  3.880E+00  5.689E+00 ] +/- [  3.136E-01  7.175E-02  1.134E-01  1.863E-01  6.850E-01 ] (microJy per square arcsec)
#FLAG  MJD       FILT  MAG     MERR  MSKYERR MGALERR  FLUX       FLUXERR    SKYERR     GALERR    NPRE TELE   RUN  STRIP  IDCCD
   33  53989.386807  1  22.824  0.702  0.162  0.172   2.605e+00   1.554e+00   4.013e-01   4.259e-01  23  sdss  6314  82N  6 
  161  53989.383489  2  23.752  1.357  0.439  0.535   9.764e-01   1.622e+00   5.309e-01   6.478e-01  22  sdss  6314  82N  6 
   33  53989.384319  3  22.305  0.528  0.266  0.273   4.178e+00   2.014e+00   1.080e+00   1.111e+00  23  sdss  6314  82N  6 
  128  53989.385978  4  23.521  1.000  0.211  0.761  -3.585e+00   6.176e+00   1.244e+00   4.483e+00  14  sdss  6314  82N  6 
    1  53989.385148  0  23.696  2.180  1.448  1.570   1.069e+00   3.971e+00   1.965e+00   2.132e+00  12  sdss  6314  82N  6 
   32  53995.425859  1  23.137  0.321  0.165  0.171   1.931e+00   5.885e-01   3.101e-01   3.210e-01  23  sdss  6363  82N  6 
   32  53995.422542  2  23.381  0.498  0.108  0.337   1.488e+00   7.650e-01   1.729e-01   5.389e-01  22  sdss  6363  82N  6 
   32  53995.423371  3  23.221  0.657  0.232  0.420   1.614e+00   1.209e+00   4.439e-01   8.025e-01  23  sdss  6363  82N  6 
    0  53995.425030  4  23.126  0.690  0.485  0.581  -1.450e+00   3.687e+00   2.450e+00   2.939e+00  14  sdss  6363  82N  6 
    0  53995.424200  0  23.719  1.066  0.126  0.908   1.037e+00   1.423e+00   1.683e-01   1.214e+00  12  sdss  6363  82N  6 
   32  54000.362729  1  22.702  0.212  0.087  0.255   2.923e+00   5.789e-01   2.398e-01   7.046e-01  23  sdss  6383  82N  6 
   32  54000.359412  2  22.918  0.428  0.184  0.548   2.384e+00   9.686e-01   4.341e-01   1.292e+00  22  sdss  6383  82N  6 
   32  54000.360241  3  23.423  0.887  0.379  0.993   1.256e+00   1.449e+00   6.310e-01   1.652e+00  23  sdss  6383  82N  6 
    0  54000.361900  4  22.910  0.891  0.739  1.304  -3.756e-01   4.858e+00   3.610e+00   6.376e+00  14  sdss  6383  82N  6 
    0  54000.361071  0  24.290  1.391  0.498  3.252   3.710e-01   1.775e+00   5.098e-01   3.328e+00  12  sdss  6383  82N  6 
 1196  54006.309561  1  23.137  0.774  1.295  0.399   1.931e+00   1.287e+00   2.435e+00   7.499e-01  23  sdss  6409  82N  6 
 1084  54006.306243  2  22.391  0.279  1.283  0.163   3.948e+00   1.027e+00   4.825e+00   6.138e-01  22  sdss  6409  82N  6 
   28  54006.307073  3  26.216  0.571  6.219  0.368  -3.431e+00   1.816e+00   2.117e+01   1.253e+00  23  sdss  6409  82N  6 
 1180  54006.308731  4  17.768  0.533  3.402  0.031   2.811e+02   1.281e+02   8.823e+02   8.083e+00  14  sdss  6409  82N  6 
   32  54007.413297  1  23.046  0.333  0.418  0.436   2.108e+00   6.605e-01   8.510e-01   8.881e-01  23  sdss  6414  82N  6 
  160  54007.409980  2  22.380  0.273  0.238  0.319   3.989e+00   1.019e+00   9.032e-01   1.211e+00  22  sdss  6414  82N  6 
   32  54007.410810  3  21.967  0.321  0.247  0.387   5.763e+00   1.720e+00   1.356e+00   2.128e+00  23  sdss  6414  82N  6 
   32  54007.412468  4  22.736  0.884  0.741  0.980   4.725e-01   4.815e+00   3.628e+00   4.797e+00  14  sdss  6414  82N  6 
    8  54007.411639  0  23.125  1.138  0.909  1.744   2.048e+00   2.029e+00   1.875e+00   3.595e+00  12  sdss  6414  82N  6 
    0  54009.336959  1  22.713  0.186  0.056  0.144   2.894e+00   5.062e-01   1.532e-01   3.942e-01  23  sdss  6421  82N  6 
   32  54009.333642  2  22.707  0.279  0.139  0.224   2.924e+00   7.761e-01   3.940e-01   6.343e-01  22  sdss  6421  82N  6 
  160  54009.334471  3  22.031  0.251  0.144  0.226   5.425e+00   1.283e+00   7.482e-01   1.173e+00  23  sdss  6421  82N  6 
  128  54009.336130  4  24.202  0.475  0.285  0.390  -8.596e+00   4.275e+00   2.655e+00   3.632e+00  14  sdss  6421  82N  6 
    0  54009.335301  0  22.176  0.338  0.115  0.343   5.156e+00   1.536e+00   5.391e-01   1.608e+00  12  sdss  6421  82N  6 
    0  54011.401552  1  22.582  0.155  0.055  0.075   3.273e+00   4.756e-01   1.690e-01   2.312e-01  23  sdss  6430  82N  6 
   32  54011.398235  2  23.161  0.403  0.041  0.223   1.872e+00   7.479e-01   7.832e-02   4.266e-01  22  sdss  6430  82N  6 
  160  54011.399064  3  22.685  0.426  0.095  0.241   2.877e+00   1.202e+00   2.783e-01   7.066e-01  23  sdss  6430  82N  6 
   32  54011.400723  4  21.469  0.405  0.194  0.248   8.539e+00   3.661e+00   1.795e+00   2.295e+00  14  sdss  6430  82N  6 
  136  54011.399893  0  22.824  0.539  0.200  0.374   2.772e+00   1.345e+00   5.290e-01   9.909e-01  12  sdss  6430  82N  6 
  185  54021.405495  1  23.096  0.411  1.024  0.218   2.008e+00   7.697e-01   1.996e+00   4.251e-01  23  sdss  6450  82N  6 
   40  54021.402178  2  23.032  0.498  0.613  0.353   2.130e+00   1.011e+00   1.311e+00   7.554e-01  22  sdss  6450  82N  6 
 1176  54021.403007  3  25.711  0.666  7.658  0.587  -2.040e+00   1.405e+00   1.715e+01   1.314e+00  23  sdss  6450  82N  6 
   24  54021.404666  4  21.101  0.342  1.546  0.283   1.252e+01   4.179e+00   1.939e+01   3.543e+00  14  sdss  6450  82N  6 
    1  54021.403836  0  24.608  1.656  0.392  2.252   5.592e-02   2.304e+00   3.802e-01   2.185e+00  12  sdss  6450  82N  6 
   32  54025.400722  1  22.633  0.206  0.170  0.188   3.120e+00   5.990e-01   5.008e-01   5.531e-01  23  sdss  6461  82N  6 
   32  54025.397405  2  22.882  0.454  0.135  0.467   2.469e+00   1.054e+00   3.286e-01   1.137e+00  22  sdss  6461  82N  6 
   32  54025.398234  3  22.702  0.590  0.382  0.577   2.827e+00   1.594e+00   1.102e+00   1.665e+00  23  sdss  6461  82N  6 
   32  54025.399893  4  22.510  0.969  0.280  1.015   1.595e+00   5.501e+00   1.428e+00   5.170e+00  14  sdss  6461  82N  6 
  136  54025.399063  0  23.073  1.177  1.505  1.549   2.158e+00   2.153e+00   3.234e+00   3.330e+00  12  sdss  6461  82N  6 
  160  54029.331184  1  23.247  0.370  0.079  0.404   1.734e+00   6.129e-01   1.352e-01   6.901e-01  23  sdss  6474  82N  6 
   32  54029.327867  2  22.699  0.338  0.052  0.270   2.947e+00   9.394e-01   1.490e-01   7.717e-01  22  sdss  6474  82N  6 
   32  54029.328696  3  22.905  0.647  0.129  0.456   2.292e+00   1.480e+00   3.148e-01   1.113e+00  23  sdss  6474  82N  6 
  160  54029.330355  4  22.404  0.825  0.479  0.671   2.148e+00   4.632e+00   2.522e+00   3.532e+00  14  sdss  6474  82N  6 
    0  54029.329526  0  23.185  1.050  0.106  0.874   1.922e+00   1.823e+00   2.082e-01   1.716e+00  12  sdss  6474  82N  6 
    0  54031.317815  1  22.584  0.161  0.020  0.086   3.267e+00   4.930e-01   6.308e-02   2.650e-01  23  sdss  6484  82N  6 
   32  54031.314498  2  22.694  0.311  0.140  0.193   2.960e+00   8.713e-01   4.030e-01   5.530e-01  22  sdss  6484  82N  6 
   32  54031.315328  3  23.063  0.667  0.074  0.379   1.933e+00   1.360e+00   1.583e-01   8.169e-01  23  sdss  6484  82N  6 
   32  54031.316986  4  21.973  0.715  0.291  0.473   4.645e+00   4.607e+00   1.891e+00   3.073e+00  14  sdss  6484  82N  6 
  136  54031.316157  0  22.968  0.908  0.418  0.589   2.403e+00   1.868e+00   9.802e-01   1.381e+00  12  sdss  6484  82N  6 
    0  54036.322525  1  22.374  0.168  0.167  0.200   3.976e+00   6.220e-01   6.230e-01   7.461e-01  23  sdss  6504  82N  6 
   32  54036.319208  2  23.683  0.882  0.162  0.892   1.061e+00   1.064e+00   2.055e-01   1.133e+00  22  sdss  6504  82N  6 
   32  54036.320037  3  23.086  0.810  0.497  0.812   1.884e+00   1.598e+00   1.051e+00   1.719e+00  23  sdss  6504  82N  6 
    0  54036.321696  4  22.920  0.948  0.834  1.233  -4.244e-01   5.240e+00   4.082e+00   6.031e+00  14  sdss  6504  82N  6 
 1154  54036.320866  0  23.335  1.393  0.245  2.773   1.637e+00   2.213e+00   4.283e-01   4.848e+00  12  sdss  6504  82N  6 
   32  54039.320792  1  22.814  0.275  0.228  0.207   2.630e+00   6.761e-01   5.718e-01   5.187e-01  23  sdss  6513  82N  6 
   32  54039.317476  2  23.300  0.652  0.375  0.460   1.621e+00   1.039e+00   6.405e-01   7.860e-01  22  sdss  6513  82N  6 
   32  54039.318305  3  22.345  0.415  0.120  0.308   4.019e+00   1.563e+00   4.725e-01   1.208e+00  23  sdss  6513  82N  6 
  160  54039.319963  4  22.434  0.832  0.308  0.756   1.992e+00   4.651e+00   1.608e+00   3.942e+00  14  sdss  6513  82N  6 
  128  54039.319134  0  24.889  1.404  0.302  2.245  -2.176e-01   1.781e+00   2.981e-01   2.218e+00  12  sdss  6513  82N  6 
   33  54041.291462  1  23.681  1.149  0.282  0.267   1.116e+00   1.196e+00   3.351e-01   3.171e-01  23  sdss  6524  82N  6 
    1  54041.288145  2  21.999  0.261  0.088  0.085   5.698e+00   1.375e+00   4.746e-01   4.554e-01  22  sdss  6524  82N  6 
   33  54041.288974  3  22.934  0.790  0.476  0.324   2.222e+00   1.730e+00   1.134e+00   7.730e-01  23  sdss  6524  82N  6 
    0  54041.290632  4  23.137  0.815  0.352  0.542  -1.505e+00   4.463e+00   1.783e+00   2.750e+00  14  sdss  6524  82N  6 
  129  54041.289803  0  24.587  1.790  1.033  1.191   7.604e-02   2.633e+00   1.003e+00   1.156e+00  12  sdss  6524  82N  6 
   33  54048.315082  1  23.770  0.853  0.149  0.254   1.015e+00   8.695e-01   1.647e-01   2.814e-01  23  sdss  6533  82N  6 
   33  54048.311765  2  23.099  0.513  0.191  0.225   1.992e+00   9.832e-01   3.867e-01   4.540e-01  22  sdss  6533  82N  6 
   32  54048.312594  3  24.049  0.960  0.339  0.568   3.753e-01   1.318e+00   4.186e-01   7.015e-01  23  sdss  6533  82N  6 
   32  54048.314253  4  21.866  0.509  0.136  0.340   5.362e+00   3.483e+00   9.449e-01   2.363e+00  14  sdss  6533  82N  6 
  129  54048.313424  0  26.459  1.035  0.193  0.450  -2.642e+00   2.219e+00   4.914e-01   1.142e+00  12  sdss  6533  82N  6 
   34  54052.318763  1  23.560  0.811  0.282  0.985   1.267e+00   9.605e-01   3.697e-01   1.291e+00  23  sdss  6552  82N  6 
   34  54052.315446  2  22.624  0.405  0.203  0.464   3.165e+00   1.188e+00   6.191e-01   1.417e+00  22  sdss  6552  82N  6 
   42  54052.316275  3  24.166  1.290  2.745  2.125   2.330e-01   1.922e+00   3.305e+00   2.558e+00  23  sdss  6552  82N  6 
    2  54052.317934  4  24.093  0.840  0.628  1.089  -7.625e+00   6.706e+00   5.378e+00   9.321e+00  14  sdss  6552  82N  6 
   10  54052.317104  0  24.703  1.694  2.308  4.689  -3.647e-02   2.394e+00   2.237e+00   4.546e+00  12  sdss  6552  82N  6 
   32  54055.315041  1  23.273  0.346  0.059  0.286   1.690e+00   5.622e-01   9.852e-02   4.784e-01  23  sdss  6564  82N  6 
  160  54055.311724  2  22.553  0.290  0.265  0.279   3.387e+00   9.221e-01   8.602e-01   9.087e-01  22  sdss  6564  82N  6 
   32  54055.312554  3  23.082  0.677  0.402  0.666   1.893e+00   1.360e+00   8.535e-01   1.414e+00  23  sdss  6564  82N  6 
   32  54055.314212  4  22.546  0.758  0.188  0.836   1.414e+00   4.096e+00   9.496e-01   4.218e+00  14  sdss  6564  82N  6 
    0  54055.313383  0  22.481  0.591  0.057  0.735   3.864e+00   1.946e+00   2.037e-01   2.621e+00  12  sdss  6564  82N  6 
   32  54058.313240  1  23.045  0.273  0.075  0.214   2.110e+00   5.457e-01   1.529e-01   4.355e-01  23  sdss  6577  82N  6 
   32  54058.309923  2  23.253  0.566  0.338  0.467   1.702e+00   9.494e-01   5.993e-01   8.278e-01  22  sdss  6577  82N  6 
   32  54058.310752  3  22.566  0.509  0.265  0.416   3.239e+00   1.562e+00   8.568e-01   1.348e+00  23  sdss  6577  82N  6 
    0  54058.312411  4  23.755  0.790  0.494  0.673  -5.055e+00   5.249e+00   3.335e+00   4.542e+00  14  sdss  6577  82N  6 
    0  54058.311581  0  23.083  1.025  0.096  1.060   2.136e+00   1.904e+00   2.046e-01   2.260e+00  12  sdss  6577  82N  6 
 1184  54060.334799  1  22.993  0.345  0.104  0.425   2.218e+00   7.161e-01   2.229e-01   9.059e-01  23  sdss  6584  82N  6 
   32  54060.331482  2  23.367  0.660  0.172  0.620   1.511e+00   1.001e+00   2.791e-01   1.003e+00  22  sdss  6584  82N  6 
   32  54060.332311  3  23.187  0.773  0.216  0.644   1.679e+00   1.438e+00   4.246e-01   1.263e+00  23  sdss  6584  82N  6 
   32  54060.333969  4  21.727  0.730  0.481  0.771   6.373e+00   5.362e+00   3.674e+00   5.891e+00  14  sdss  6584  82N  6 
    0  54060.333140  0  22.359  0.541  0.061  0.597   4.336e+00   2.003e+00   2.445e-01   2.373e+00  12  sdss  6584  82N  6 
   32  54063.303636  1  23.170  0.278  0.099  0.176   1.869e+00   4.986e-01   1.808e-01   3.207e-01  23  sdss  6600  82N  6 
   32  54063.300319  2  22.676  0.316  0.174  0.234   3.012e+00   8.996e-01   5.067e-01   6.835e-01  22  sdss  6600  82N  6 
   32  54063.301148  3  22.301  0.360  0.122  0.238   4.194e+00   1.424e+00   4.964e-01   9.710e-01  23  sdss  6600  82N  6 
    0  54063.302807  4  23.462  0.725  0.299  0.458  -3.242e+00   4.251e+00   1.708e+00   2.618e+00  14  sdss  6600  82N  6 
  128  54063.301978  0  25.216  1.543  0.204  1.473  -5.561e-01   2.106e+00   2.219e-01   1.602e+00  12  sdss  6600  82N  6 
