# SDSS CID:   3693 IAU:          RA: 355.142120 DEC:  -0.742541  (J2000)
# GALAXY_SB [ugriz] = [ 22.09 21.37 21.15 20.95 20.61 ] +/- [  0.14  0.01  0.01  0.01  0.03 ] (asinh mag/square arcsec)
# GALAXY_SB_FLUX [ugriz] = [  5.452E+00  1.005E+01  1.256E+01  1.488E+01  1.998E+01 ] +/- [  7.053E-01  1.341E-01  1.396E-01  1.475E-01  5.700E-01 ] (microJy per square arcsec)
#FLAG  MJD       FILT  MAG     MERR  MSKYERR MGALERR  FLUX       FLUXERR    SKYERR     GALERR    NPRE TELE   RUN  STRIP  IDCCD
   32  53622.315339  1  21.963  0.132  0.041  0.163   5.828e+00   7.157e-01   2.235e-01   8.897e-01  13  sdss  5582  82S  2 
   32  53622.312022  2  22.208  0.239  0.122  0.222   4.690e+00   1.042e+00   5.385e-01   9.814e-01  14  sdss  5582  82S  2 
   32  53622.312852  3  21.723  0.213  0.101  0.128   7.252e+00   1.431e+00   6.871e-01   8.715e-01  14  sdss  5582  82S  2 
   32  53622.314510  4  21.896  0.755  0.545  0.500   5.157e+00   5.027e+00   3.689e+00   3.386e+00  13  sdss  5582  82S  2 
  172  53622.313681  0  22.114  0.434  0.432  1.359   5.468e+00   2.116e+00   2.211e+00   6.957e+00  6  sdss  5582  82S  2 
   33  53627.272330  1  21.851  0.167  0.031  0.095   6.465e+00   1.001e+00   1.856e-01   5.747e-01  13  sdss  5607  82S  2 
   33  53627.269013  2  21.647  0.144  0.033  0.065   7.904e+00   1.055e+00   2.416e-01   4.813e-01  14  sdss  5607  82S  2 
   32  53627.269842  3  21.981  0.241  0.098  0.086   5.691e+00   1.279e+00   5.268e-01   4.648e-01  14  sdss  5607  82S  2 
   32  53627.271500  4  21.190  0.356  0.132  0.189   1.144e+01   3.991e+00   1.522e+00   2.173e+00  13  sdss  5607  82S  2 
   33  53627.270671  0  22.114  0.502  0.027  0.696   5.468e+00   2.410e+00   1.391e-01   3.564e+00  6  sdss  5607  82S  2 
   35  53634.264857  1  21.545  0.279  0.153  0.305   8.578e+00   2.189e+00   1.230e+00   2.442e+00  13  sdss  5619  82S  2 
   33  53634.261539  2  21.543  0.248  0.125  0.246   8.702e+00   1.984e+00   1.013e+00   1.998e+00  14  sdss  5619  82S  2 
   32  53634.262369  3  22.552  0.652  0.459  0.509   3.285e+00   1.952e+00   1.497e+00   1.659e+00  14  sdss  5619  82S  2 
   32  53634.264027  4  21.952  0.843  0.738  0.806   4.781e+00   5.475e+00   4.816e+00   5.268e+00  13  sdss  5619  82S  2 
   35  53634.263198  0  21.329  0.568  0.102  1.317   1.134e+01   5.457e+00   1.065e+00   1.378e+01  6  sdss  5619  82S  2 
 1209  53636.270310  1  21.660  0.224  2.568  0.157   7.714e+00   1.592e+00   1.851e+01   1.132e+00  13  sdss  5628  82S  2 
   32  53636.266993  2  22.163  0.284  0.210  0.209   4.891e+00   1.282e+00   9.683e-01   9.622e-01  14  sdss  5628  82S  2 
 1080  53636.267822  3  21.580  0.213  1.425  0.114   8.287e+00   1.627e+00   1.105e+01   8.810e-01  14  sdss  5628  82S  2 
   56  53636.269481  4  21.679  0.640  1.656  0.438   6.750e+00   4.835e+00   1.298e+01   3.429e+00  13  sdss  5628  82S  2 
   45  53636.268652  0  21.722  0.485  0.305  0.769   7.876e+00   3.329e+00   2.227e+00   5.614e+00  6  sdss  5628  82S  2 
 1156  53640.270146  1  27.268  1.977  0.370  0.663  -2.272e+00   2.907e+00   8.133e-01   1.457e+00  13  sdss  5646  82S  2 
   32  53640.266829  2  21.996  0.193  0.099  0.189   5.716e+00   1.027e+00   5.338e-01   1.012e+00  14  sdss  5646  82S  2 
   32  53640.267658  3  21.919  0.255  0.136  0.190   6.034e+00   1.432e+00   7.732e-01   1.085e+00  14  sdss  5646  82S  2 
 1156  53640.269317  4  22.887  1.247  1.452  0.873  -2.624e-01   7.516e+00   7.088e+00   4.261e+00  13  sdss  5646  82S  2 
  174  53640.268488  0  22.031  0.492  0.434  1.785   5.904e+00   2.549e+00   2.390e+00   9.838e+00  6  sdss  5646  82S  2 
   35  53655.241680  1  21.751  0.296  0.179  0.500   7.092e+00   1.919e+00   1.186e+00   3.312e+00  13  sdss  5713  82S  2 
   35  53655.238363  2  21.917  0.314  0.087  0.365   6.152e+00   1.766e+00   5.042e-01   2.105e+00  14  sdss  5713  82S  2 
   34  53655.239192  3  22.426  0.638  0.624  0.691   3.718e+00   2.126e+00   2.265e+00   2.512e+00  14  sdss  5713  82S  2 
  130  53655.240851  4  23.043  1.230  0.491  2.101  -1.029e+00   7.410e+00   2.440e+00   1.043e+01  13  sdss  5713  82S  2 
   35  53655.240021  0  21.607  0.708  0.154  2.496   8.763e+00   5.065e+00   1.251e+00   2.024e+01  6  sdss  5713  82S  2 
   41  53664.266439  1  22.053  0.268  0.470  0.212   5.362e+00   1.320e+00   2.364e+00   1.064e+00  13  sdss  5754  82S  2 
   57  53664.263122  2  21.747  0.227  0.567  0.117   7.204e+00   1.511e+00   3.817e+00   7.905e-01  14  sdss  5754  82S  2 
   57  53664.263951  3  21.445  0.204  1.279  0.084   9.397e+00   1.769e+00   1.121e+01   7.363e-01  14  sdss  5754  82S  2 
   32  53664.265609  4  21.341  0.545  0.484  0.292   9.788e+00   5.266e+00   4.916e+00   2.958e+00  13  sdss  5754  82S  2 
   41  53664.264780  0  21.968  0.767  0.395  1.109   6.263e+00   3.887e+00   2.307e+00   6.474e+00  6  sdss  5754  82S  2 
   33  53666.229820  1  21.711  0.112  0.011  0.082   7.359e+00   7.644e-01   7.568e-02   5.663e-01  13  sdss  5763  82S  2 
   32  53666.226503  2  21.714  0.134  0.043  0.060   7.428e+00   9.249e-01   2.957e-01   4.175e-01  14  sdss  5763  82S  2 
   32  53666.227332  3  21.603  0.162  0.026  0.050   8.111e+00   1.219e+00   1.995e-01   3.820e-01  14  sdss  5763  82S  2 
   32  53666.228991  4  21.518  0.469  0.152  0.210   8.099e+00   4.018e+00   1.347e+00   1.853e+00  13  sdss  5763  82S  2 
   33  53666.228161  0  22.084  0.374  0.066  0.650   5.619e+00   1.895e+00   3.460e-01   3.417e+00  6  sdss  5763  82S  2 
   32  53669.225232  1  21.787  0.096  0.030  0.091   6.859e+00   6.120e-01   1.951e-01   5.826e-01  13  sdss  5776  82S  2 
   32  53669.221915  2  21.576  0.115  0.034  0.070   8.441e+00   9.000e-01   2.653e-01   5.479e-01  14  sdss  5776  82S  2 
   32  53669.222744  3  21.517  0.149  0.046  0.058   8.788e+00   1.217e+00   3.775e-01   4.773e-01  14  sdss  5776  82S  2 
   32  53669.224403  4  21.470  0.456  0.236  0.239   8.537e+00   4.056e+00   2.164e+00   2.192e+00  13  sdss  5776  82S  2 
   32  53669.223574  0  22.002  0.321  0.039  0.717   6.067e+00   1.766e+00   2.188e-01   4.057e+00  6  sdss  5776  82S  2 
   32  53671.309795  1  21.637  0.106  0.037  0.138   7.880e+00   7.748e-01   2.751e-01   1.014e+00  13  sdss  5786  82S  2 
   32  53671.306478  2  21.853  0.194  0.098  0.183   6.529e+00   1.175e+00   6.000e-01   1.121e+00  14  sdss  5786  82S  2 
   32  53671.307307  3  21.752  0.222  0.105  0.141   7.058e+00   1.455e+00   6.960e-01   9.333e-01  14  sdss  5786  82S  2 
   32  53671.308965  4  21.094  0.399  0.226  0.260   1.260e+01   4.803e+00   2.820e+00   3.232e+00  13  sdss  5786  82S  2 
   40  53671.308136  0  21.615  0.333  0.280  0.853   8.698e+00   2.602e+00   2.255e+00   6.865e+00  6  sdss  5786  82S  2 
   32  53674.209364  1  21.436  0.086  0.066  0.153   9.487e+00   7.589e-01   5.825e-01   1.352e+00  13  sdss  5797  82S  2 
   32  53674.206047  2  21.883  0.159  0.032  0.116   6.350e+00   9.372e-01   1.899e-01   6.931e-01  14  sdss  5797  82S  2 
   32  53674.206876  3  21.637  0.175  0.091  0.105   7.858e+00   1.275e+00   6.657e-01   7.741e-01  14  sdss  5797  82S  2 
   32  53674.208535  4  21.102  0.389  0.352  0.362   1.250e+01   4.661e+00   4.354e+00   4.476e+00  13  sdss  5797  82S  2 
   40  53674.207705  0  21.551  0.248  0.177  0.867   9.230e+00   2.086e+00   1.507e+00   7.401e+00  6  sdss  5797  82S  2 
   32  53676.298642  1  21.450  0.089  0.060  0.124   9.365e+00   7.747e-01   5.249e-01   1.080e+00  13  sdss  5807  82S  2 
   32  53676.295326  2  21.798  0.168  0.033  0.141   6.871e+00   1.075e+00   2.129e-01   9.086e-01  14  sdss  5807  82S  2 
   32  53676.296155  3  21.550  0.166  0.098  0.094   8.523e+00   1.316e+00   7.782e-01   7.500e-01  14  sdss  5807  82S  2 
   32  53676.297813  4  22.313  0.728  0.549  0.496   2.635e+00   4.112e+00   2.981e+00   2.693e+00  13  sdss  5807  82S  2 
   32  53676.296984  0  22.057  0.452  0.026  1.046   5.763e+00   2.309e+00   1.392e-01   5.633e+00  6  sdss  5807  82S  2 
   32  53679.270251  1  21.690  0.107  0.081  0.167   7.503e+00   7.449e-01   5.711e-01   1.169e+00  13  sdss  5820  82S  2 
   32  53679.266934  2  21.801  0.197  0.146  0.217   6.852e+00   1.251e+00   9.339e-01   1.392e+00  14  sdss  5820  82S  2 
   32  53679.267763  3  21.705  0.257  0.194  0.170   7.375e+00   1.744e+00   1.342e+00   1.173e+00  14  sdss  5820  82S  2 
    0  53679.269422  4  23.097  0.867  0.592  0.707  -1.303e+00   4.773e+00   2.974e+00   3.551e+00  13  sdss  5820  82S  2 
   10  53679.268592  0  21.236  0.214  0.175  0.810   1.236e+01   2.406e+00   1.993e+00   9.233e+00  6  sdss  5820  82S  2 
   32  53681.261569  1  21.652  0.092  0.016  0.069   7.771e+00   6.634e-01   1.138e-01   5.009e-01  13  sdss  5836  82S  2 
    0  53681.258253  2  21.474  0.106  0.024  0.045   9.277e+00   9.171e-01   2.098e-01   3.924e-01  14  sdss  5836  82S  2 
   32  53681.259082  3  21.669  0.168  0.069  0.055   7.627e+00   1.188e+00   4.921e-01   3.957e-01  14  sdss  5836  82S  2 
   32  53681.260740  4  21.246  0.349  0.152  0.155   1.080e+01   3.734e+00   1.668e+00   1.700e+00  13  sdss  5836  82S  2 
   32  53681.259911  0  21.979  0.351  0.020  0.599   6.199e+00   1.964e+00   1.130e-01   3.461e+00  6  sdss  5836  82S  2 
   57  53685.220238  1  20.855  0.273  1.085  0.131   1.621e+01   4.033e+00   1.640e+01   1.973e+00  13  sdss  5853  82S  2 
   33  53685.216921  2  21.679  0.438  0.374  0.170   7.673e+00   2.985e+00   2.685e+00   1.223e+00  14  sdss  5853  82S  2 
   57  53685.217750  3  22.438  1.168  2.840  0.376   3.674e+00   3.361e+00   1.021e+01   1.351e+00  14  sdss  5853  82S  2 
 1049  53685.219409  4  24.209  1.351 15.121  0.700  -8.659e+00   1.110e+01   1.400e+02   6.481e+00  13  sdss  5853  82S  2 
   13  53685.218579  0  26.949  2.505  1.237  2.486  -4.246e+00   6.681e+00   4.974e+00   9.994e+00  6  sdss  5853  82S  2 
   36  53697.217256  1  22.030  0.198  0.099  0.162   5.477e+00   1.007e+00   5.089e-01   8.302e-01  13  sdss  5895  82S  2 
   36  53697.213939  2  21.870  0.293  0.126  0.111   6.427e+00   1.722e+00   7.576e-01   6.678e-01  14  sdss  5895  82S  2 
   36  53697.214768  3  21.435  0.212  0.026  0.076   9.484e+00   1.852e+00   2.269e-01   6.745e-01  14  sdss  5895  82S  2 
    4  53697.216427  4  22.868  1.053  0.723  0.593  -1.734e-01   5.978e+00   3.527e+00   2.891e+00  13  sdss  5895  82S  2 
  164  53697.215597  0  21.762  0.477  0.101  0.721   7.588e+00   3.165e+00   7.104e-01   5.079e+00  6  sdss  5895  82S  2 
   32  53700.215874  1  21.731  0.110  0.079  0.167   7.224e+00   7.410e-01   5.338e-01   1.126e+00  13  sdss  5905  82S  2 
   32  53700.212557  2  22.009  0.191  0.103  0.148   5.647e+00   1.005e+00   5.476e-01   7.846e-01  14  sdss  5905  82S  2 
   32  53700.213386  3  22.017  0.265  0.156  0.145   5.501e+00   1.359e+00   8.125e-01   7.550e-01  14  sdss  5905  82S  2 
   32  53700.215044  4  22.562  0.888  0.679  0.697   1.332e+00   4.909e+00   3.410e+00   3.501e+00  13  sdss  5905  82S  2 
  168  53700.214215  0  22.105  0.445  0.420  1.380   5.514e+00   2.181e+00   2.165e+00   7.119e+00  6  sdss  5905  82S  2 
   32  53705.202273  1  21.926  0.127  0.066  0.172   6.031e+00   7.150e-01   3.743e-01   9.729e-01  13  sdss  5924  82S  2 
   32  53705.198957  2  21.956  0.166  0.061  0.118   5.933e+00   9.182e-01   3.392e-01   6.549e-01  14  sdss  5924  82S  2 
   32  53705.199786  3  21.803  0.197  0.093  0.115   6.729e+00   1.233e+00   5.886e-01   7.304e-01  14  sdss  5924  82S  2 
   32  53705.201444  4  21.343  0.380  0.078  0.277   9.767e+00   3.749e+00   7.857e-01   2.806e+00  13  sdss  5924  82S  2 
   40  53705.200615  0  21.990  0.346  0.246  0.939   6.135e+00   1.919e+00   1.410e+00   5.373e+00  6  sdss  5924  82S  2 
