# SDSS CID:   4540 IAU:          RA:  53.984272 DEC:  -0.496157  (J2000)
# GALAXY_SB [ugriz] = [ 25.18 24.06 22.70 22.07 21.56 ] +/- [  0.37  0.08  0.03  0.02  0.05 ] (asinh mag/square arcsec)
# GALAXY_SB_FLUX [ugriz] = [ -5.503E-01  7.230E-01  2.942E+00  5.245E+00  7.657E+00 ] +/- [  4.052E-01  6.929E-02  8.057E-02  9.986E-02  4.239E-01 ] (microJy per square arcsec)
#FLAG  MJD       FILT  MAG     MERR  MSKYERR MGALERR  FLUX       FLUXERR    SKYERR     GALERR    NPRE TELE   RUN  STRIP  IDCCD
   32  53616.461198  1  24.817  0.797  0.661  0.703   1.794e-01   5.248e-01   4.042e-01   4.300e-01  21  sdss  5566  82N  2 
   32  53616.457880  2  24.327  0.833  0.441  0.398   3.914e-01   7.746e-01   3.860e-01   3.488e-01  22  sdss  5566  82N  2 
   40  53616.458709  3  23.283  0.646  0.426  0.205   1.499e+00   1.138e+00   7.743e-01   3.726e-01  22  sdss  5566  82N  2 
   32  53616.460368  4  22.417  0.714  0.458  0.351   2.076e+00   3.916e+00   2.391e+00   1.836e+00  23  sdss  5566  82N  2 
    4  53616.459539  0  24.950  1.287  0.146  2.631  -2.785e-01   1.576e+00   1.465e-01   2.633e+00  14  sdss  5566  82N  2 
 1188  53626.438639  1  24.706  1.181  1.456  0.792   2.487e-01   8.637e-01   9.192e-01   5.002e-01  21  sdss  5603  82N  2 
 1176  53626.435322  2  22.174  0.256  0.493  0.113   4.843e+00   1.135e+00   2.221e+00   5.084e-01  22  sdss  5603  82N  2 
 1156  53626.436151  3  27.446  0.669  0.770  0.097  -1.097e+01   6.057e+00   7.814e+00   9.861e-01  22  sdss  5603  82N  2 
  164  53626.437810  4  21.754  0.957  0.588  0.216   6.172e+00   6.802e+00   4.347e+00   1.600e+00  23  sdss  5603  82N  2 
    2  53628.423379  1  22.973  0.340  0.504  0.496   2.261e+00   7.116e-01   1.086e+00   1.068e+00  21  sdss  5610  82N  2 
    0  53628.420061  2  22.240  0.213  0.131  0.126   4.553e+00   8.945e-01   5.552e-01   5.338e-01  22  sdss  5610  82N  2 
   32  53628.420891  3  22.513  0.417  0.118  0.210   3.412e+00   1.346e+00   3.939e-01   7.019e-01  22  sdss  5610  82N  2 
   32  53628.422549  4  22.333  0.901  0.500  0.702   2.526e+00   5.195e+00   2.694e+00   3.779e+00  23  sdss  5610  82N  2 
   32  53628.421720  0  24.435  1.449  0.292  5.051   2.248e-01   1.869e+00   2.894e-01   4.999e+00  14  sdss  5610  82N  2 
    1  53635.432290  1  22.811  0.472  0.093  0.096   2.638e+00   1.111e+00   2.311e-01   2.382e-01  21  sdss  5622  82N  2 
    1  53635.428972  2  22.305  0.280  0.066  0.052   4.283e+00   1.099e+00   2.623e-01   2.073e-01  22  sdss  5622  82N  2 
    1  53635.429801  3  22.056  0.260  0.049  0.050   5.299e+00   1.281e+00   2.465e-01   2.528e-01  22  sdss  5622  82N  2 
   32  53635.431460  4  22.171  0.576  0.061  0.195   3.431e+00   3.365e+00   3.506e-01   1.127e+00  23  sdss  5622  82N  2 
   33  53635.430631  0  23.994  1.813  0.601  1.496   6.930e-01   2.766e+00   6.920e-01   1.723e+00  14  sdss  5622  82N  2 
    0  53639.471267  1  22.937  0.303  0.126  0.191   2.339e+00   6.576e-01   2.804e-01   4.245e-01  21  sdss  5642  82N  2 
    0  53639.467949  2  22.376  0.229  0.094  0.103   4.007e+00   8.471e-01   3.544e-01   3.874e-01  22  sdss  5642  82N  2 
    0  53639.468779  3  21.856  0.199  0.049  0.078   6.399e+00   1.179e+00   2.944e-01   4.665e-01  22  sdss  5642  82N  2 
   32  53639.470438  4  22.063  0.610  0.121  0.358   4.074e+00   3.736e+00   7.388e-01   2.186e+00  23  sdss  5642  82N  2 
   40  53639.469608  0  23.345  1.189  0.844  1.760   1.619e+00   1.881e+00   1.476e+00   3.075e+00  14  sdss  5642  82N  2 
    0  53641.470576  1  23.241  0.412  0.283  0.381   1.744e+00   6.754e-01   4.812e-01   6.488e-01  21  sdss  5658  82N  2 
    0  53641.467259  2  22.228  0.209  0.133  0.122   4.604e+00   8.870e-01   5.711e-01   5.228e-01  22  sdss  5658  82N  2 
   32  53641.468088  3  22.270  0.292  0.099  0.122   4.320e+00   1.185e+00   4.121e-01   5.044e-01  22  sdss  5658  82N  2 
   32  53641.469747  4  21.946  0.683  0.568  0.484   4.823e+00   4.422e+00   3.707e+00   3.159e+00  23  sdss  5658  82N  2 
   44  53641.468918  0  23.768  1.381  1.562  2.543   9.715e-01   1.909e+00   2.037e+00   3.315e+00  14  sdss  5658  82N  2 
    0  53644.418499  1  23.240  0.272  0.083  0.148   1.745e+00   4.564e-01   1.411e-01   2.519e-01  21  sdss  5670  82N  2 
    0  53644.415181  2  22.058  0.150  0.056  0.061   5.398e+00   7.475e-01   2.802e-01   3.036e-01  22  sdss  5670  82N  2 
    0  53644.416011  3  22.335  0.273  0.038  0.082   4.058e+00   1.050e+00   1.485e-01   3.203e-01  22  sdss  5670  82N  2 
   32  53644.417669  4  22.406  0.541  0.085  0.233   2.135e+00   2.915e+00   4.444e-01   1.223e+00  23  sdss  5670  82N  2 
   32  53644.416840  0  23.313  0.906  0.129  1.224   1.677e+00   1.488e+00   2.306e-01   2.192e+00  14  sdss  5670  82N  2 
   32  53657.430335  1  23.615  0.523  0.380  0.629   1.196e+00   6.210e-01   4.731e-01   7.821e-01  21  sdss  5731  82N  2 
   32  53657.427018  2  22.555  0.311  0.194  0.215   3.382e+00   9.704e-01   6.199e-01   6.878e-01  22  sdss  5731  82N  2 
   32  53657.427847  3  22.358  0.357  0.194  0.179   3.968e+00   1.328e+00   7.432e-01   6.865e-01  22  sdss  5731  82N  2 
   32  53657.429506  4  21.741  0.633  0.423  0.390   6.270e+00   4.584e+00   3.159e+00   2.913e+00  23  sdss  5731  82N  2 
    2  53657.428677  0  26.101  1.218  0.255  2.918  -1.832e+00   2.041e+00   4.873e-01   5.572e+00  14  sdss  5731  82N  2 
    1  53663.415100  1  23.139  0.866  0.173  0.192   1.926e+00   1.390e+00   3.219e-01   3.579e-01  21  sdss  5744  82N  2 
    1  53663.411782  2  22.663  0.472  0.101  0.112   3.051e+00   1.301e+00   2.924e-01   3.246e-01  22  sdss  5744  82N  2 
   33  53663.412612  3  24.359  1.074  0.454  0.394   3.349e-03   1.489e+00   5.378e-01   4.661e-01  22  sdss  5744  82N  2 
    0  53663.414270  4  23.835  0.616  0.405  0.310  -5.613e+00   4.239e+00   2.844e+00   2.180e+00  23  sdss  5744  82N  2 
    1  53663.413441  0  27.264  0.935  0.124  0.602  -5.709e+00   4.011e+00   6.458e-01   3.143e+00  14  sdss  5744  82N  2 
    1  53666.485332  1  26.410  0.934  0.244  0.291  -9.537e-01   9.065e-01   2.570e-01   3.062e-01  21  sdss  5765  82N  2 
    1  53666.482015  2  24.900  1.079  0.381  0.359  -7.802e-02   1.013e+00   3.059e-01   2.877e-01  22  sdss  5765  82N  2 
   32  53666.482844  3  22.708  0.464  0.063  0.114   2.808e+00   1.264e+00   1.801e-01   3.235e-01  22  sdss  5765  82N  2 
    0  53666.484503  4  22.960  0.744  0.228  0.273  -6.199e-01   3.937e+00   1.117e+00   1.342e+00  23  sdss  5765  82N  2 
    1  53666.483674  0  26.014  1.774  0.134  1.379  -1.670e+00   3.000e+00   2.392e-01   2.462e+00  14  sdss  5765  82N  2 
   33  53668.405157  1  24.275  1.050  0.832  0.966   5.478e-01   8.269e-01   6.439e-01   7.478e-01  21  sdss  5770  82N  2 
   32  53668.401840  2  23.105  0.615  0.344  0.415   1.979e+00   1.134e+00   6.820e-01   8.213e-01  22  sdss  5770  82N  2 
   32  53668.402669  3  24.326  1.041  0.899  0.750   4.254e-02   1.430e+00   1.065e+00   8.885e-01  22  sdss  5770  82N  2 
    0  53668.404328  4  23.869  0.724  0.093  0.568  -5.860e+00   5.058e+00   6.716e-01   4.083e+00  23  sdss  5770  82N  2 
   33  53668.403498  0  23.530  1.603  0.180  2.981   1.313e+00   2.468e+00   2.744e-01   4.548e+00  14  sdss  5770  82N  2 
    1  53669.492428  1  25.189  1.159  0.855  0.803  -4.182e-02   8.202e-01   5.043e-01   4.740e-01  21  sdss  5777  82N  2 
    0  53669.489111  2  25.424  1.100  0.590  0.531  -5.248e-01   1.112e+00   5.501e-01   4.953e-01  22  sdss  5777  82N  2 
   32  53669.489940  3  22.976  0.631  0.187  0.204   2.126e+00   1.363e+00   4.264e-01   4.669e-01  22  sdss  5777  82N  2 
   32  53669.491598  4  22.084  0.763  0.357  0.343   3.950e+00   4.663e+00   2.156e+00   2.068e+00  23  sdss  5777  82N  2 
   33  53669.490769  0  23.554  1.777  0.275  2.264   1.276e+00   2.845e+00   4.125e-01   3.396e+00  14  sdss  5777  82N  2 
   32  53670.409854  1  24.066  0.936  1.026  0.786   7.215e-01   7.980e-01   9.085e-01   6.959e-01  21  sdss  5781  82N  2 
    8  53670.406537  2  25.803  0.996  1.854  0.599  -9.175e-01   1.127e+00   2.149e+00   6.939e-01  22  sdss  5781  82N  2 
   32  53670.407366  3  22.086  0.319  0.307  0.196   5.150e+00   1.515e+00   1.496e+00   9.580e-01  22  sdss  5781  82N  2 
   32  53670.409025  4  22.354  0.762  0.101  0.463   2.411e+00   4.275e+00   5.406e-01   2.470e+00  23  sdss  5781  82N  2 
  136  53670.408195  0  22.244  0.538  0.394  0.958   4.835e+00   2.229e+00   1.753e+00   4.264e+00  14  sdss  5781  82N  2 
   32  53673.378035  1  24.579  0.690  0.336  0.420   3.305e-01   4.722e-01   2.227e-01   2.780e-01  21  sdss  5792  82N  2 
   32  53673.374718  2  23.939  0.738  0.181  0.274   7.647e-01   7.786e-01   1.923e-01   2.906e-01  22  sdss  5792  82N  2 
   32  53673.375547  3  23.042  0.516  0.103  0.138   1.979e+00   1.080e+00   2.241e-01   2.989e-01  22  sdss  5792  82N  2 
    0  53673.377205  4  23.457  0.581  0.065  0.258  -3.216e+00   3.347e+00   3.714e-01   1.461e+00  23  sdss  5792  82N  2 
  136  53673.376376  0  25.929  1.122  0.647  1.850  -1.520e+00   1.728e+00   1.082e+00   3.097e+00  14  sdss  5792  82N  2 
   32  53675.374852  1  24.887  0.790  0.518  0.706   1.374e-01   5.141e-01   3.116e-01   4.254e-01  21  sdss  5800  82N  2 
   32  53675.371535  2  23.009  0.407  0.159  0.165   2.179e+00   8.445e-01   3.409e-01   3.544e-01  22  sdss  5800  82N  2 
   32  53675.372365  3  23.014  0.575  0.292  0.204   2.040e+00   1.218e+00   6.464e-01   4.514e-01  22  sdss  5800  82N  2 
    0  53675.374023  4  23.101  0.766  0.288  0.435  -1.320e+00   4.131e+00   1.444e+00   2.185e+00  23  sdss  5800  82N  2 
    8  53675.373194  0  24.757  1.323  1.281  3.296  -8.885e-02   1.624e+00   1.245e+00   3.204e+00  14  sdss  5800  82N  2 
 1028  53676.494341  1  27.073  2.816  1.585  0.222  -1.882e+00   4.637e+00   2.888e+00   4.052e-01  21  sdss  5808  82N  2 
 1197  53676.491024  2  23.075  2.338  2.824  0.237   2.040e+00   4.181e+00   5.736e+00   4.804e-01  22  sdss  5808  82N  2 
 1028  53676.491853  3  21.454  0.797  0.076  0.049   9.316e+00   5.901e+00   6.521e-01   4.255e-01  22  sdss  5808  82N  2 
 1156  53676.493512  4  25.634  1.678  0.698  0.071  -3.475e+01   3.323e+01   2.213e+01   2.241e+00  23  sdss  5808  82N  2 
 1156  53676.492683  0  21.478  3.126  0.132  0.350   9.883e+00   1.337e+01   1.179e+00   3.125e+00  14  sdss  5808  82N  2 
   32  53680.382602  1  24.634  0.714  0.392  0.480   2.943e-01   4.817e-01   2.538e-01   3.109e-01  21  sdss  5823  82N  2 
   32  53680.379284  2  23.544  0.560  0.186  0.180   1.246e+00   7.518e-01   2.589e-01   2.503e-01  22  sdss  5823  82N  2 
   32  53680.380114  3  23.573  0.697  0.111  0.166   1.018e+00   1.053e+00   1.670e-01   2.504e-01  22  sdss  5823  82N  2 
   32  53680.381772  4  22.515  0.620  0.264  0.284   1.571e+00   3.286e+00   1.342e+00   1.445e+00  23  sdss  5823  82N  2 
   32  53680.380943  0  24.144  1.219  0.100  1.841   5.252e-01   1.503e+00   1.076e-01   1.984e+00  14  sdss  5823  82N  2 
    4  53683.441310  1  23.985  1.084  0.173  0.300   7.947e-01   9.614e-01   1.616e-01   2.809e-01  21  sdss  5842  82N  2 
   44  53683.437993  2  24.366  1.486  2.380  0.349   3.582e-01   1.625e+00   2.055e+00   3.018e-01  22  sdss  5842  82N  2 
   36  53683.438822  3  23.642  1.303  0.540  0.230   9.159e-01   2.085e+00   7.835e-01   3.339e-01  22  sdss  5842  82N  2 
    4  53683.440481  4  24.151  0.992  0.307  0.137  -8.127e+00   7.986e+00   2.703e+00   1.201e+00  23  sdss  5842  82N  2 
    4  53683.439652  0  25.547  1.909  0.337  1.480  -9.511e-01   3.087e+00   4.350e-01   1.911e+00  14  sdss  5842  82N  2 
   33  53686.382122  1  23.973  1.283  0.593  0.507   8.061e-01   1.154e+00   5.601e-01   4.788e-01  21  sdss  5866  82N  2 
   33  53686.378805  2  23.331  0.765  0.298  0.247   1.568e+00   1.156e+00   4.901e-01   4.059e-01  22  sdss  5866  82N  2 
   32  53686.379634  3  23.629  0.908  0.365  0.331   9.349e-01   1.364e+00   5.336e-01   4.835e-01  22  sdss  5866  82N  2 
    0  53686.381293  4  22.839  0.753  0.490  0.459  -3.031e-02   3.976e+00   2.390e+00   2.238e+00  23  sdss  5866  82N  2 
    1  53686.380463  0  26.546  1.247  0.188  1.189  -2.879e+00   2.737e+00   5.192e-01   3.281e+00  14  sdss  5866  82N  2 
    1  53687.439648  1  22.241  3.111  3.385  0.571   4.500e+00   7.144e+00   1.410e+01   2.379e+00  21  sdss  5872  82N  2 
   59  53687.437160  3  21.270  0.552  2.790  0.216   1.105e+01   5.210e+00   2.852e+01   2.202e+00  22  sdss  5872  82N  2 
 1211  53687.438818  4  20.695  1.123 19.470  0.633   1.859e+01   1.554e+01   3.399e+02   1.105e+01  23  sdss  5872  82N  2 
   33  53693.384425  1  24.363  1.934  2.224  0.974   4.811e-01   1.899e+00   1.636e+00   7.161e-01  21  sdss  5878  82N  2 
    1  53693.381107  2  26.620  0.984  0.472  0.338  -2.233e+00   1.833e+00   1.037e+00   7.417e-01  22  sdss  5878  82N  2 
   33  53693.381937  3  23.739  1.182  0.898  0.565   7.794e-01   1.803e+00   1.242e+00   7.814e-01  22  sdss  5878  82N  2 
    0  53693.383595  4  23.808  0.784  0.585  0.505  -5.421e+00   5.302e+00   4.036e+00   3.486e+00  23  sdss  5878  82N  2 
   35  53693.382766  0  22.730  2.455  0.198  2.076   3.039e+00   5.773e+00   5.733e-01   6.011e+00  14  sdss  5878  82N  2 
   32  53699.405225  1  24.288  0.956  0.178  0.620   5.378e-01   7.423e-01   1.367e-01   4.757e-01  21  sdss  5902  82N  2 
   32  53699.401908  2  23.971  0.857  0.305  0.379   7.308e-01   8.966e-01   3.178e-01   3.950e-01  22  sdss  5902  82N  2 
   32  53699.402737  3  24.181  0.893  0.375  0.370   2.157e-01   1.190e+00   4.496e-01   4.446e-01  22  sdss  5902  82N  2 
    0  53699.404396  4  22.919  0.743  0.575  0.436  -4.196e-01   3.921e+00   2.815e+00   2.134e+00  23  sdss  5902  82N  2 
   32  53699.403566  0  23.131  1.290  0.244  1.569   2.035e+00   2.272e+00   5.053e-01   3.245e+00  14  sdss  5902  82N  2 
   32  53704.367482  1  23.774  0.560  0.489  0.550   1.009e+00   5.874e-01   5.366e-01   6.035e-01  21  sdss  5918  82N  2 
   32  53704.364165  2  24.688  0.983  0.703  0.696   9.102e-02   8.991e-01   5.646e-01   5.587e-01  22  sdss  5918  82N  2 
   32  53704.364994  3  23.613  0.853  0.338  0.419   9.584e-01   1.281e+00   4.993e-01   6.186e-01  22  sdss  5918  82N  2 
   32  53704.366653  4  21.780  0.624  0.459  0.352   5.977e+00   4.423e+00   3.332e+00   2.554e+00  23  sdss  5918  82N  2 
    8  53704.365824  0  22.567  0.627  0.286  1.210   3.559e+00   1.917e+00   9.554e-01   4.043e+00  14  sdss  5918  82N  2 
