# SDSS CID:   4023 IAU:          RA:   6.056714 DEC:   1.256183  (J2000)
# GALAXY_SB [ugriz] = [ 22.95 22.88 22.70 22.58 21.93 ] +/- [  0.16  0.05  0.06  0.08  0.14 ] (asinh mag/square arcsec)
# GALAXY_SB_FLUX [ugriz] = [  2.369E+00  2.453E+00  2.944E+00  3.194E+00  4.863E+00 ] +/- [  3.797E-01  1.268E-01  1.832E-01  2.479E-01  8.997E-01 ] (microJy per square arcsec)
#FLAG  MJD       FILT  MAG     MERR  MSKYERR MGALERR  FLUX       FLUXERR    SKYERR     GALERR    NPRE TELE   RUN  STRIP  IDCCD
    8  53616.331925  1  21.989  0.137  0.158  0.291   5.686e+00   7.167e-01   8.275e-01   1.526e+00  13  sdss  5566  82N  6 
   32  53616.328608  2  22.642  0.321  0.178  0.439   3.113e+00   9.355e-01   5.335e-01   1.313e+00  20  sdss  5566  82N  6 
   32  53616.329437  3  22.802  0.584  0.314  0.620   2.551e+00   1.459e+00   8.321e-01   1.645e+00  20  sdss  5566  82N  6 
    0  53616.331095  4  20.827  0.396  0.426  0.614   1.638e+01   6.074e+00   6.769e+00   9.755e+00  21  sdss  5566  82N  6 
   44  53616.330266  0  22.892  1.130  1.004  1.973   2.591e+00   2.309e+00   2.465e+00   4.843e+00  12  sdss  5566  82N  6 
 1156  53623.322407  1  30.188  4.634  1.338  0.031  -3.409e+01   4.087e+01   4.180e+01   9.667e-01  13  sdss  5590  82N  6 
   32  53623.319090  2  22.658  0.327  0.073  0.347   3.065e+00   9.386e-01   2.164e-01   1.024e+00  20  sdss  5590  82N  6 
   36  53623.319919  3  22.234  0.490  0.421  0.294   4.474e+00   2.002e+00   1.822e+00   1.270e+00  20  sdss  5590  82N  6 
 1156  53623.320749  0  21.745  0.688  0.320  0.378   7.714e+00   4.146e+00   2.171e+00   2.561e+00  12  sdss  5590  82N  6 
   32  53626.308853  1  23.120  0.376  0.198  0.510   1.964e+00   6.882e-01   3.758e-01   9.665e-01  13  sdss  5603  82N  6 
    0  53626.305536  2  22.122  0.200  0.125  0.237   5.083e+00   9.470e-01   5.964e-01   1.131e+00  20  sdss  5603  82N  6 
  160  53626.306365  3  22.010  0.278  0.120  0.293   5.536e+00   1.441e+00   6.346e-01   1.548e+00  20  sdss  5603  82N  6 
    0  53626.308024  4  20.847  0.305  0.259  0.422   1.606e+01   4.662e+00   4.050e+00   6.593e+00  21  sdss  5603  82N  6 
  160  53626.307195  0  23.663  1.265  0.132  2.184   1.116e+00   1.752e+00   1.807e-01   2.996e+00  12  sdss  5603  82N  6 
    1  53628.293473  1  22.301  0.353  0.133  0.232   4.255e+00   1.347e+00   5.246e-01   9.153e-01  13  sdss  5610  82N  6 
   33  53628.290156  2  22.489  0.410  0.147  0.341   3.600e+00   1.349e+00   5.028e-01   1.168e+00  20  sdss  5610  82N  6 
   32  53628.290985  3  22.885  0.741  0.195  0.586   2.340e+00   1.692e+00   4.843e-01   1.452e+00  20  sdss  5610  82N  6 
   32  53628.292643  4  21.876  0.758  0.481  0.915   5.293e+00   5.130e+00   3.321e+00   6.319e+00  21  sdss  5610  82N  6 
  161  53628.291814  0  22.576  1.360  0.652  0.921   3.528e+00   3.296e+00   2.097e+00   2.965e+00  12  sdss  5610  82N  6 
   33  53635.301959  1  22.842  0.397  0.107  0.216   2.563e+00   9.242e-01   2.586e-01   5.227e-01  13  sdss  5622  82N  6 
    1  53635.298642  2  22.149  0.234  0.063  0.153   4.956e+00   1.075e+00   2.945e-01   7.133e-01  20  sdss  5622  82N  6 
   32  53635.299471  3  22.579  0.454  0.083  0.282   3.195e+00   1.391e+00   2.664e-01   9.016e-01  20  sdss  5622  82N  6 
   32  53635.301130  4  22.241  0.699  0.381  0.676   3.034e+00   4.037e+00   2.144e+00   3.803e+00  21  sdss  5622  82N  6 
    1  53635.300301  0  22.365  0.643  0.060  0.405   4.313e+00   2.263e+00   2.337e-01   1.571e+00  12  sdss  5622  82N  6 
   33  53637.295332  1  23.134  0.542  0.054  0.603   1.937e+00   9.488e-01   1.002e-01   1.128e+00  13  sdss  5633  82N  6 
   32  53637.292015  2  22.169  0.263  0.116  0.339   4.865e+00   1.182e+00   5.302e-01   1.553e+00  20  sdss  5633  82N  6 
   32  53637.292844  3  22.243  0.433  0.137  0.498   4.435e+00   1.775e+00   5.896e-01   2.137e+00  20  sdss  5633  82N  6 
    0  53637.294503  4  22.910  1.128  0.211  1.987  -3.750e-01   6.549e+00   1.031e+00   9.715e+00  21  sdss  5633  82N  6 
  129  53637.293673  0  26.312  1.406  0.862  1.756  -2.280e+00   2.567e+00   1.904e+00   3.878e+00  12  sdss  5633  82N  6 
    0  53639.340679  1  22.431  0.173  0.033  0.166   3.770e+00   6.018e-01   1.160e-01   5.811e-01  13  sdss  5642  82N  6 
   32  53639.337362  2  22.500  0.244  0.063  0.239   3.563e+00   8.149e-01   2.145e-01   8.100e-01  20  sdss  5642  82N  6 
   32  53639.338191  3  22.722  0.441  0.172  0.360   2.768e+00   1.203e+00   4.878e-01   1.019e+00  20  sdss  5642  82N  6 
   32  53639.339850  4  22.029  0.577  0.339  0.665   4.289e+00   3.618e+00   2.132e+00   4.179e+00  21  sdss  5642  82N  6 
    8  53639.339021  0  22.323  0.410  0.258  0.448   4.489e+00   1.582e+00   1.037e+00   1.803e+00  12  sdss  5642  82N  6 
   32  53644.287573  1  22.852  0.246  0.050  0.389   2.538e+00   5.805e-01   1.188e-01   9.342e-01  13  sdss  5670  82N  6 
   32  53644.284256  2  22.437  0.279  0.193  0.551   3.782e+00   9.837e-01   6.947e-01   1.980e+00  20  sdss  5670  82N  6 
   32  53644.285086  3  23.384  0.865  0.465  1.443   1.321e+00   1.439e+00   7.932e-01   2.462e+00  20  sdss  5670  82N  6 
   32  53644.286744  4  22.435  0.746  0.114  1.279   1.984e+00   4.107e+00   5.964e-01   6.665e+00  21  sdss  5670  82N  6 
   32  53644.285915  0  23.169  1.141  0.769  2.382   1.955e+00   1.957e+00   1.504e+00   4.664e+00  12  sdss  5670  82N  6 
   32  53654.322169  1  23.339  0.357  0.126  0.377   1.584e+00   5.434e-01   1.981e-01   5.905e-01  13  sdss  5709  82N  6 
   32  53654.318853  2  22.669  0.306  0.142  0.316   3.033e+00   8.721e-01   4.142e-01   9.231e-01  20  sdss  5709  82N  6 
   32  53654.319682  3  22.620  0.455  0.172  0.364   3.068e+00   1.347e+00   5.307e-01   1.123e+00  20  sdss  5709  82N  6 
   32  53654.321340  4  22.055  0.711  0.574  0.673   4.126e+00   4.416e+00   3.554e+00   4.169e+00  21  sdss  5709  82N  6 
  128  53654.320511  0  22.338  0.441  0.035  0.488   4.425e+00   1.669e+00   1.396e-01   1.937e+00  12  sdss  5709  82N  6 
   33  53663.282806  1  23.433  0.726  0.145  0.301   1.442e+00   9.567e-01   2.102e-01   4.359e-01  13  sdss  5744  82N  6 
   33  53663.279491  2  23.211  0.600  0.089  0.343   1.777e+00   1.030e+00   1.629e-01   6.280e-01  20  sdss  5744  82N  6 
   32  53663.280320  3  23.469  0.858  0.203  0.539   1.181e+00   1.371e+00   3.286e-01   8.699e-01  20  sdss  5744  82N  6 
    0  53663.281977  4  21.653  0.504  0.219  0.432   6.958e+00   3.953e+00   1.766e+00   3.482e+00  21  sdss  5744  82N  6 
  129  53663.281147  0  22.750  1.019  0.064  0.440   2.981e+00   2.361e+00   1.784e-01   1.219e+00  12  sdss  5744  82N  6 
   33  53666.352810  1  23.271  0.645  0.092  0.519   1.694e+00   9.847e-01   1.525e-01   8.626e-01  13  sdss  5765  82N  6 
   32  53666.349493  2  22.981  0.521  0.110  0.481   2.241e+00   1.094e+00   2.437e-01   1.068e+00  20  sdss  5765  82N  6 
   32  53666.350322  3  23.745  1.038  0.598  1.122   7.701e-01   1.538e+00   8.271e-01   1.553e+00  20  sdss  5765  82N  6 
   32  53666.351981  4  22.781  0.851  0.706  1.083   2.525e-01   4.592e+00   3.449e+00   5.286e+00  21  sdss  5765  82N  6 
    1  53666.351152  0  22.139  0.691  0.260  0.612   5.337e+00   2.925e+00   1.231e+00   2.901e+00  12  sdss  5765  82N  6 
   32  53668.272079  1  23.673  0.669  0.539  1.414   1.126e+00   7.439e-01   6.393e-01   1.679e+00  13  sdss  5770  82N  6 
   32  53668.268762  2  23.023  0.569  0.208  1.047   2.149e+00   1.143e+00   4.467e-01   2.246e+00  20  sdss  5770  82N  6 
   32  53668.269591  3  23.353  1.076  0.361  1.811   1.375e+00   1.826e+00   6.289e-01   3.156e+00  20  sdss  5770  82N  6 
    0  53668.271250  4  23.010  1.062  1.282  2.192  -8.697e-01   6.081e+00   6.340e+00   1.084e+01  21  sdss  5770  82N  6 
   34  53668.270420  0  23.283  1.416  0.295  3.420   1.733e+00   2.283e+00   5.278e-01   6.129e+00  12  sdss  5770  82N  6 
   40  53670.277039  1  24.132  0.627  0.424  0.866   6.640e-01   5.205e-01   3.587e-01   7.331e-01  13  sdss  5781  82N  6 
   32  53670.273722  2  22.952  0.386  0.178  0.474   2.305e+00   8.519e-01   4.062e-01   1.080e+00  20  sdss  5781  82N  6 
   32  53670.274551  3  22.543  0.432  0.158  0.452   3.314e+00   1.370e+00   5.221e-01   1.492e+00  20  sdss  5781  82N  6 
   32  53670.276210  4  22.532  0.763  0.456  0.970   1.487e+00   4.139e+00   2.310e+00   4.914e+00  21  sdss  5781  82N  6 
   32  53670.275381  0  22.868  0.716  0.197  1.008   2.655e+00   1.629e+00   4.937e-01   2.524e+00  12  sdss  5781  82N  6 
   32  53673.245001  1  23.080  0.270  0.057  0.344   2.041e+00   5.207e-01   1.110e-01   6.745e-01  13  sdss  5792  82N  6 
   32  53673.241684  2  22.997  0.413  0.165  0.505   2.206e+00   8.734e-01   3.618e-01   1.107e+00  20  sdss  5792  82N  6 
   32  53673.242514  3  23.201  0.739  0.297  0.804   1.652e+00   1.365e+00   5.768e-01   1.559e+00  20  sdss  5792  82N  6 
  128  53673.244172  4  21.431  0.444  0.282  0.538   8.903e+00   4.120e+00   2.699e+00   5.143e+00  21  sdss  5792  82N  6 
  128  53673.243343  0  24.937  1.254  0.161  2.286  -2.654e-01   1.518e+00   1.603e-01   2.277e+00  12  sdss  5792  82N  6 
  160  53675.241667  1  22.972  0.276  0.177  0.513   2.264e+00   5.852e-01   3.822e-01   1.107e+00  13  sdss  5800  82N  6 
   32  53675.238350  2  23.197  0.537  0.268  0.648   1.804e+00   9.431e-01   4.955e-01   1.201e+00  20  sdss  5800  82N  6 
   32  53675.239180  3  23.996  1.103  0.726  1.562   4.411e-01   1.581e+00   9.103e-01   1.958e+00  20  sdss  5800  82N  6 
  128  53675.240838  4  21.148  0.446  0.266  0.602   1.193e+01   5.165e+00   3.206e+00   7.256e+00  21  sdss  5800  82N  6 
  160  53675.240009  0  22.610  0.608  0.191  1.106   3.414e+00   1.751e+00   5.970e-01   3.455e+00  12  sdss  5800  82N  6 
   40  53677.262723  1  24.045  0.591  0.372  0.813   7.401e-01   5.170e-01   3.344e-01   7.307e-01  13  sdss  5813  82N  6 
   32  53677.259407  2  23.170  0.441  0.141  0.477   1.855e+00   8.044e-01   2.670e-01   9.040e-01  20  sdss  5813  82N  6 
   32  53677.260236  3  22.757  0.458  0.244  0.416   2.672e+00   1.211e+00   6.710e-01   1.145e+00  20  sdss  5813  82N  6 
    0  53677.261894  4  21.745  0.508  0.423  0.653   6.236e+00   3.748e+00   3.190e+00   4.930e+00  21  sdss  5813  82N  6 
  168  53677.261065  0  22.904  0.654  0.333  0.831   2.560e+00   1.467e+00   8.096e-01   2.020e+00  12  sdss  5813  82N  6 
   32  53680.249045  1  23.601  0.433  0.143  0.522   1.214e+00   5.276e-01   1.795e-01   6.566e-01  13  sdss  5823  82N  6 
   32  53680.245728  2  23.223  0.472  0.161  0.496   1.755e+00   8.198e-01   2.919e-01   8.979e-01  20  sdss  5823  82N  6 
   32  53680.246557  3  22.868  0.531  0.131  0.512   2.383e+00   1.271e+00   3.278e-01   1.286e+00  20  sdss  5823  82N  6 
    0  53680.248216  4  23.410  0.670  0.170  0.898  -2.951e+00   3.838e+00   9.496e-01   5.018e+00  21  sdss  5823  82N  6 
   32  53680.247387  0  23.085  0.835  0.110  0.990   2.133e+00   1.578e+00   2.312e-01   2.074e+00  12  sdss  5823  82N  6 
   33  53693.249943  1  23.648  1.115  0.322  0.632   1.156e+00   1.181e+00   3.896e-01   7.656e-01  13  sdss  5878  82N  6 
   33  53693.246626  2  22.740  0.447  0.197  0.349   2.833e+00   1.170e+00   5.396e-01   9.565e-01  20  sdss  5878  82N  6 
   32  53693.247455  3  23.473  0.996  0.305  0.930   1.174e+00   1.601e+00   4.907e-01   1.499e+00  20  sdss  5878  82N  6 
    0  53693.249114  4  21.521  0.527  0.230  0.602   8.075e+00   4.522e+00   2.049e+00   5.366e+00  21  sdss  5878  82N  6 
 1185  53693.248284  0  23.823  2.056  1.786  2.549   9.002e-01   3.510e+00   2.226e+00   3.176e+00  12  sdss  5878  82N  6 
   32  53698.246932  1  22.979  0.284  0.083  0.464   2.249e+00   5.969e-01   1.778e-01   9.947e-01  13  sdss  5898  82N  6 
   32  53698.243616  2  22.873  0.369  0.182  0.436   2.491e+00   8.731e-01   4.442e-01   1.065e+00  20  sdss  5898  82N  6 
   32  53698.244445  3  22.281  0.333  0.128  0.319   4.276e+00   1.345e+00   5.311e-01   1.321e+00  20  sdss  5898  82N  6 
   32  53698.246103  4  21.828  0.620  0.366  0.713   5.628e+00   4.322e+00   2.613e+00   5.086e+00  21  sdss  5898  82N  6 
  160  53698.245274  0  23.335  1.099  0.383  1.678   1.636e+00   1.728e+00   6.597e-01   2.890e+00  12  sdss  5898  82N  6 
   32  53699.270345  1  23.613  0.488  0.087  0.530   1.199e+00   5.843e-01   1.079e-01   6.603e-01  13  sdss  5902  82N  6 
   32  53699.267028  2  23.406  0.674  0.484  0.706   1.449e+00   9.873e-01   7.565e-01   1.102e+00  20  sdss  5902  82N  6 
   32  53699.267858  3  22.678  0.535  0.147  0.439   2.894e+00   1.488e+00   4.325e-01   1.291e+00  20  sdss  5902  82N  6 
    0  53699.269516  4  23.178  0.841  0.519  0.742  -1.712e+00   4.663e+00   2.662e+00   3.806e+00  21  sdss  5902  82N  6 
   40  53699.268687  0  23.402  1.206  0.852  1.253   1.521e+00   1.834e+00   1.398e+00   2.054e+00  12  sdss  5902  82N  6 
   40  53704.232290  1  23.510  0.447  0.376  0.758   1.334e+00   5.846e-01   5.097e-01   1.029e+00  13  sdss  5918  82N  6 
   32  53704.228973  2  23.909  0.854  0.342  1.265   7.967e-01   9.204e-01   3.723e-01   1.376e+00  20  sdss  5918  82N  6 
   32  53704.229802  3  23.561  0.984  0.682  1.283   1.037e+00   1.530e+00   1.042e+00   1.959e+00  20  sdss  5918  82N  6 
    0  53704.231461  4  23.054  0.883  0.868  1.247  -1.088e+00   4.853e+00   4.319e+00   6.211e+00  21  sdss  5918  82N  6 
    0  53704.230632  0  25.476  1.428  0.477  3.252  -8.605e-01   1.951e+00   5.834e-01   3.982e+00  12  sdss  5918  82N  6 
