# SDSS CID:  18261 IAU: 2006na   RA:  32.897194 DEC:  -0.986435  (J2000)
# GALAXY_SB [ugriz] = [ 21.96 22.20 21.80 21.73 21.50 ] +/- [  0.08  0.02  0.02  0.02  0.07 ] (asinh mag/square arcsec)
# GALAXY_SB_FLUX [ugriz] = [  6.129E+00  4.652E+00  6.863E+00  7.202E+00  8.234E+00 ] +/- [  4.829E-01  9.197E-02  1.017E-01  1.319E-01  6.016E-01 ] (microJy per square arcsec)
#FLAG  MJD       FILT  MAG     MERR  MSKYERR MGALERR  FLUX       FLUXERR    SKYERR     GALERR    NPRE TELE   RUN  STRIP  IDCCD
   33  54346.410377  1  22.127  0.291  0.141  0.162   5.002e+00   1.310e+00   6.482e-01   7.469e-01  20  sdss  6921  82N  1 
   33  54346.407060  2  22.108  0.296  0.116  0.158   5.150e+00   1.388e+00   5.591e-01   7.573e-01  23  sdss  6921  82N  1 
   32  54346.407889  3  21.873  0.286  0.228  0.159   6.301e+00   1.657e+00   1.348e+00   9.395e-01  22  sdss  6921  82N  1 
    0  54346.409548  4  22.964  0.815  0.118  0.992  -6.435e-01   4.378e+00   5.814e-01   4.872e+00  24  sdss  6921  82N  1 
  161  54346.408718  0  22.596  1.248  0.629  1.466   3.460e+00   3.098e+00   2.019e+00   4.703e+00  11  sdss  6921  82N  1 
  161  54348.414546  1  22.225  0.190  0.090  0.146   4.567e+00   7.936e-01   3.807e-01   6.136e-01  20  sdss  6934  82N  1 
   32  54348.411228  2  22.207  0.249  0.107  0.131   4.695e+00   1.077e+00   4.702e-01   5.748e-01  23  sdss  6934  82N  1 
   32  54348.412057  3  22.560  0.454  0.202  0.237   3.259e+00   1.402e+00   6.510e-01   7.660e-01  22  sdss  6934  82N  1 
    0  54348.413716  4  20.800  0.303  0.134  0.275   1.682e+01   4.759e+00   2.158e+00   4.411e+00  24  sdss  6934  82N  1 
   32  54348.412887  0  22.089  0.455  0.052  0.736   5.595e+00   2.176e+00   2.644e-01   3.708e+00  11  sdss  6934  82N  1 
   32  54355.424930  1  22.280  0.147  0.046  0.151   4.339e+00   5.850e-01   1.847e-01   6.044e-01  20  sdss  6947  82N  1 
   34  54355.421612  2  22.256  0.314  0.369  0.457   4.484e+00   1.286e+00   1.551e+00   1.920e+00  23  sdss  6947  82N  1 
   32  54355.422441  3  23.107  0.898  0.828  0.920   1.838e+00   1.724e+00   1.712e+00   1.901e+00  22  sdss  6947  82N  1 
   32  54355.424100  4  22.534  0.750  0.878  0.880   1.473e+00   4.047e+00   4.440e+00   4.452e+00  24  sdss  6947  82N  1 
  170  54355.423271  0  21.705  0.296  0.299  0.972   8.000e+00   2.060e+00   2.135e+00   6.938e+00  11  sdss  6947  82N  1 
   32  54358.370989  1  22.355  0.174  0.041  0.209   4.046e+00   6.463e-01   1.532e-01   7.821e-01  20  sdss  6958  82N  1 
  160  54358.367672  2  21.930  0.184  0.145  0.171   6.080e+00   1.028e+00   8.194e-01   9.659e-01  23  sdss  6958  82N  1 
  160  54358.368501  3  22.553  0.454  0.293  0.302   3.282e+00   1.412e+00   9.500e-01   9.808e-01  22  sdss  6958  82N  1 
 1184  54358.370160  4  22.735  0.932  0.986  1.127   4.789e-01   5.138e+00   4.830e+00   5.517e+00  24  sdss  6958  82N  1 
  168  54358.369330  0  21.599  0.266  0.199  0.626   8.829e+00   2.052e+00   1.564e+00   4.925e+00  11  sdss  6958  82N  1 
   32  54365.404502  1  22.464  0.153  0.047  0.105   3.658e+00   5.156e-01   1.601e-01   3.558e-01  20  sdss  6982  82N  1 
   32  54365.401185  2  22.594  0.250  0.107  0.134   3.259e+00   7.634e-01   3.306e-01   4.154e-01  23  sdss  6982  82N  1 
   32  54365.402014  3  22.397  0.323  0.094  0.135   3.824e+00   1.170e+00   3.476e-01   5.014e-01  22  sdss  6982  82N  1 
  160  54365.403673  4  21.640  0.475  0.052  0.351   7.063e+00   3.740e+00   4.215e-01   2.829e+00  24  sdss  6982  82N  1 
   32  54365.402844  0  22.409  0.424  0.049  0.651   4.139e+00   1.535e+00   1.837e-01   2.465e+00  11  sdss  6982  82N  1 
   32  54381.424432  1  22.614  0.198  0.060  0.208   3.178e+00   5.817e-01   1.783e-01   6.160e-01  20  sdss  7034  82N  1 
   32  54381.421115  2  22.212  0.184  0.050  0.092   4.674e+00   7.970e-01   2.188e-01   4.037e-01  23  sdss  7034  82N  1 
   32  54381.421944  3  22.196  0.266  0.096  0.105   4.640e+00   1.158e+00   4.239e-01   4.659e-01  22  sdss  7034  82N  1 
   32  54381.423602  4  22.070  0.593  0.243  0.477   4.033e+00   3.630e+00   1.484e+00   2.913e+00  24  sdss  7034  82N  1 
 1184  54381.422773  0  22.430  0.464  0.068  0.813   4.057e+00   1.638e+00   2.512e-01   3.019e+00  11  sdss  7034  82N  1 
   32  54384.431333  1  22.306  0.151  0.050  0.119   4.235e+00   5.854e-01   1.974e-01   4.643e-01  20  sdss  7047  82N  1 
   32  54384.428015  2  22.615  0.284  0.035  0.142   3.194e+00   8.468e-01   1.067e-01   4.332e-01  23  sdss  7047  82N  1 
   32  54384.428845  3  22.447  0.361  0.110  0.137   3.642e+00   1.247e+00   3.896e-01   4.879e-01  22  sdss  7047  82N  1 
    0  54384.430503  4  23.106  0.725  0.313  0.514  -1.347e+00   3.883e+00   1.576e+00   2.587e+00  24  sdss  7047  82N  1 
  168  54384.429674  0  22.551  0.595  0.401  1.005   3.613e+00   1.832e+00   1.338e+00   3.353e+00  11  sdss  7047  82N  1 
   32  54386.417030  1  22.363  0.174  0.157  0.211   4.019e+00   6.433e-01   5.832e-01   7.859e-01  20  sdss  7054  82N  1 
  160  54386.413713  2  22.222  0.209  0.090  0.125   4.629e+00   8.959e-01   3.889e-01   5.423e-01  23  sdss  7054  82N  1 
   32  54386.414542  3  22.733  0.526  0.361  0.269   2.740e+00   1.392e+00   1.005e+00   7.487e-01  22  sdss  7054  82N  1 
   32  54386.416200  4  22.635  0.791  0.162  0.791   9.721e-01   4.250e+00   8.014e-01   3.923e+00  24  sdss  7054  82N  1 
   32  54386.415371  0  21.775  0.309  0.088  0.758   7.503e+00   2.020e+00   5.921e-01   5.079e+00  11  sdss  7054  82N  1 
   32  54388.421150  1  22.294  0.147  0.055  0.115   4.283e+00   5.767e-01   2.180e-01   4.531e-01  20  sdss  7060  82N  1 
   32  54388.417833  2  22.217  0.197  0.042  0.096   4.651e+00   8.493e-01   1.816e-01   4.172e-01  23  sdss  7060  82N  1 
   32  54388.418662  3  22.687  0.427  0.150  0.157   2.871e+00   1.194e+00   4.350e-01   4.543e-01  22  sdss  7060  82N  1 
   32  54388.420321  4  22.434  0.676  0.427  0.499   1.987e+00   3.676e+00   2.223e+00   2.594e+00  24  sdss  7060  82N  1 
 1184  54388.419492  0  21.670  0.262  0.059  0.430   8.265e+00   1.898e+00   4.324e-01   3.166e+00  11  sdss  7060  82N  1 
   32  54392.418743  1  22.037  0.148  0.160  0.217   5.438e+00   7.350e-01   8.020e-01   1.087e+00  20  sdss  7077  82N  1 
   32  54392.415425  2  22.516  0.286  0.156  0.180   3.509e+00   9.304e-01   5.183e-01   5.979e-01  23  sdss  7077  82N  1 
  160  54392.416255  3  22.260  0.356  0.162  0.216   4.365e+00   1.447e+00   6.803e-01   9.044e-01  22  sdss  7077  82N  1 
   32  54392.417913  4  21.781  0.680  0.517  0.682   5.968e+00   4.821e+00   3.775e+00   4.983e+00  24  sdss  7077  82N  1 
 1186  54392.417084  0  21.991  0.448  0.094  1.197   6.134e+00   2.343e+00   5.177e-01   6.590e+00  11  sdss  7077  82N  1 
   32  54393.424977  1  22.200  0.138  0.061  0.088   4.674e+00   5.901e-01   2.626e-01   3.785e-01  20  sdss  7081  82N  1 
   56  54393.421660  2  22.346  0.261  0.454  0.084   4.120e+00   9.931e-01   1.755e+00   3.243e-01  23  sdss  7081  82N  1 
    4  54393.422489  3  22.107  0.289  0.085  0.065   5.051e+00   1.360e+00   4.075e-01   3.127e-01  22  sdss  7081  82N  1 
   32  54393.424148  4  22.009  0.713  0.267  0.315   4.417e+00   4.499e+00   1.684e+00   1.994e+00  24  sdss  7081  82N  1 
 1188  54393.423319  0  21.768  0.387  0.095  0.372   7.552e+00   2.510e+00   6.398e-01   2.508e+00  11  sdss  7081  82N  1 
   35  54396.288268  1  23.029  1.722  0.521  0.953   2.143e+00   2.461e+00   1.064e+00   1.947e+00  20  sdss  7095  82N  1 
 1185  54396.284951  2  21.863  0.679  0.362  0.409   6.471e+00   3.631e+00   2.172e+00   2.456e+00  23  sdss  7095  82N  1 
    3  54396.285781  3  25.920  1.312  1.175  1.032  -2.546e+00   2.895e+00   3.090e+00   2.713e+00  22  sdss  7095  82N  1 
   34  54396.287439  4  21.113  0.650  0.167  0.800   1.237e+01   7.361e+00   2.049e+00   9.816e+00  24  sdss  7095  82N  1 
   45  54403.335212  1  22.378  1.246  1.330  0.192   3.964e+00   3.336e+00   4.880e+00   7.032e-01  20  sdss  7106  82N  1 
 1085  54403.331894  2  21.823  0.410  4.178  0.088   6.716e+00   2.438e+00   2.601e+01   5.501e-01  23  sdss  7106  82N  1 
   61  54403.332724  3  23.329  1.718  5.737  0.323   1.416e+00   3.266e+00   1.010e+01   5.687e-01  22  sdss  7106  82N  1 
   37  54403.334382  4  22.469  1.498  1.696  0.633   1.809e+00   9.983e+00   8.730e+00   3.258e+00  24  sdss  7106  82N  1 
 1157  54403.333553  0  25.388  2.396  1.978  2.562  -7.522e-01   4.775e+00   2.324e+00   3.010e+00  11  sdss  7106  82N  1 
 1213  54404.392551  1  22.267  0.617  9.372  0.128   4.392e+00   2.271e+00   3.800e+01   5.206e-01  20  sdss  7112  82N  1 
   57  54404.389234  2  22.540  0.477  1.113  0.168   3.430e+00   1.468e+00   3.622e+00   5.478e-01  23  sdss  7112  82N  1 
 1213  54404.390063  3  22.520  0.981 21.221  0.192   3.391e+00   2.773e+00   7.089e+01   6.423e-01  22  sdss  7112  82N  1 
  157  54404.391722  4  20.631  1.339  4.720  0.147   1.976e+01   1.845e+01   8.798e+01   2.741e+00  24  sdss  7112  82N  1 
   33  54405.390543  1  22.363  0.241  0.036  0.152   4.019e+00   8.832e-01   1.325e-01   5.633e-01  20  sdss  7117  82N  1 
   32  54405.387226  2  22.623  0.353  0.098  0.154   3.169e+00   1.035e+00   2.958e-01   4.665e-01  23  sdss  7117  82N  1 
   32  54405.388056  3  22.225  0.347  0.139  0.132   4.513e+00   1.455e+00   6.021e-01   5.712e-01  22  sdss  7117  82N  1 
    8  54405.389714  4  24.094  0.659  0.997  0.444  -7.634e+00   5.331e+00   8.465e+00   3.773e+00  24  sdss  7117  82N  1 
 1185  54405.388885  0  21.999  0.571  0.223  0.769   6.088e+00   2.875e+00   1.218e+00   4.203e+00  11  sdss  7117  82N  1 
   32  54406.328901  1  22.204  0.155  0.030  0.112   4.657e+00   6.612e-01   1.290e-01   4.794e-01  20  sdss  7121  82N  1 
   32  54406.325584  2  22.356  0.227  0.048  0.118   4.082e+00   8.589e-01   1.836e-01   4.538e-01  23  sdss  7121  82N  1 
   32  54406.326413  3  22.191  0.274  0.038  0.116   4.662e+00   1.198e+00   1.702e-01   5.157e-01  22  sdss  7121  82N  1 
   32  54406.328072  4  21.877  0.563  0.200  0.511   5.288e+00   3.797e+00   1.370e+00   3.503e+00  24  sdss  7121  82N  1 
 1184  54406.327242  0  22.442  0.523  0.259  0.826   4.011e+00   1.802e+00   9.512e-01   3.036e+00  11  sdss  7121  82N  1 
   32  54412.354317  1  22.630  0.211  0.100  0.175   3.131e+00   6.075e-01   2.914e-01   5.108e-01  20  sdss  7142  82N  1 
   32  54412.351000  2  22.203  0.221  0.094  0.103   4.713e+00   9.618e-01   4.142e-01   4.553e-01  23  sdss  7142  82N  1 
   32  54412.351830  3  22.313  0.352  0.189  0.141   4.148e+00   1.366e+00   7.543e-01   5.624e-01  22  sdss  7142  82N  1 
    0  54412.353488  4  23.617  0.700  0.091  0.450  -4.165e+00   4.342e+00   5.624e-01   2.781e+00  24  sdss  7142  82N  1 
  160  54412.352659  0  22.585  0.667  0.362  1.031   3.496e+00   1.960e+00   1.172e+00   3.339e+00  11  sdss  7142  82N  1 
   32  54416.327409  1  22.467  0.164  0.044  0.126   3.647e+00   5.491e-01   1.479e-01   4.253e-01  20  sdss  7155  82N  1 
    0  54416.324092  2  22.133  0.162  0.016  0.060   5.031e+00   7.569e-01   7.456e-02   2.811e-01  23  sdss  7155  82N  1 
    0  54416.324921  3  22.259  0.276  0.090  0.081   4.369e+00   1.138e+00   3.771e-01   3.419e-01  22  sdss  7155  82N  1 
   32  54416.326580  4  22.232  0.604  0.282  0.380   3.079e+00   3.460e+00   1.587e+00   2.137e+00  24  sdss  7155  82N  1 
   40  54416.325750  0  22.213  0.381  0.267  0.609   4.979e+00   1.656e+00   1.204e+00   2.744e+00  11  sdss  7155  82N  1 
   32  54421.332997  1  22.516  0.197  0.070  0.194   3.484e+00   6.294e-01   2.272e-01   6.273e-01  20  sdss  7170  82N  1 
   32  54421.329680  2  22.649  0.325  0.053  0.213   3.091e+00   9.343e-01   1.578e-01   6.295e-01  23  sdss  7170  82N  1 
   32  54421.330509  3  22.956  0.678  0.221  0.339   2.172e+00   1.477e+00   5.132e-01   7.879e-01  22  sdss  7170  82N  1 
    0  54421.332168  4  22.864  0.904  0.257  0.788  -1.534e-01   4.936e+00   1.256e+00   3.846e+00  24  sdss  7170  82N  1 
   40  54421.331339  0  21.833  0.326  0.303  0.656   7.108e+00   2.017e+00   1.924e+00   4.171e+00  11  sdss  7170  82N  1 
   33  54423.309468  1  22.646  0.329  0.208  0.237   3.083e+00   9.198e-01   5.988e-01   6.825e-01  20  sdss  7177  82N  1 
   32  54423.306151  2  22.426  0.297  0.148  0.159   3.821e+00   1.045e+00   5.338e-01   5.713e-01  23  sdss  7177  82N  1 
   32  54423.306981  3  22.267  0.347  0.174  0.169   4.336e+00   1.405e+00   7.235e-01   7.048e-01  22  sdss  7177  82N  1 
    0  54423.308639  4  21.213  0.375  0.266  0.304   1.117e+01   4.114e+00   3.002e+00   3.434e+00  24  sdss  7177  82N  1 
  168  54423.307810  0  23.088  1.265  1.027  2.035   2.126e+00   2.265e+00   2.170e+00   4.303e+00  11  sdss  7177  82N  1 
 1165  54432.324477  1  19.169  0.538  1.592  0.015   7.659e+01   3.483e+01   1.113e+02   1.036e+00  20  sdss  7199  82N  1 
 1037  54432.321160  2  19.822  0.851  1.251  0.019   4.259e+01   2.784e+01   4.897e+01   7.300e-01  23  sdss  7199  82N  1 
 1181  54432.321989  3  29.398  0.700  3.363  0.014  -6.644e+01   3.778e+01   2.058e+02   8.791e-01  22  sdss  7199  82N  1 
 1037  54432.323648  4  19.089  3.593  3.360  0.061   8.316e+01   1.093e+02   2.550e+02   4.593e+00  24  sdss  7199  82N  1 
   41  54433.331811  1  22.391  0.584  0.917  0.326   3.917e+00   1.943e+00   3.324e+00   1.181e+00  20  sdss  7202  82N  1 
   35  54433.328495  2  23.453  1.707  2.398  1.061   1.377e+00   2.363e+00   3.589e+00   1.588e+00  23  sdss  7202  82N  1 
   32  54433.329324  3  21.706  0.305  0.363  0.138   7.370e+00   2.053e+00   2.499e+00   9.534e-01  22  sdss  7202  82N  1 
   32  54433.330982  4  21.728  0.920  0.582  0.655   6.367e+00   6.655e+00   4.408e+00   4.958e+00  24  sdss  7202  82N  1 
   33  54433.330153  0  22.434  1.826  0.188  1.463   4.041e+00   4.533e+00   6.973e-01   5.416e+00  11  sdss  7202  82N  1 
