# SDSS CID:  20998 IAU:          RA:  18.023125 DEC:   0.159781  (J2000)
# GALAXY_SB [ugriz] = [ 24.09 23.67 22.16 21.65 21.30 ] +/- [  0.30  0.07  0.02  0.02  0.09 ] (asinh mag/square arcsec)
# GALAXY_SB_FLUX [ugriz] = [  5.492E-01  1.127E+00  4.919E+00  7.751E+00  1.013E+01 ] +/- [  3.320E-01  8.628E-02  1.126E-01  1.582E-01  9.195E-01 ] (microJy per square arcsec)
#FLAG  MJD       FILT  MAG     MERR  MSKYERR MGALERR  FLUX       FLUXERR    SKYERR     GALERR    NPRE TELE   RUN  STRIP  IDCCD
   32  54357.333100  1  25.050  0.717  0.356  0.567   3.988e-02   4.542e-01   2.102e-01   3.348e-01  10  sdss  6955  82S  4 
   32  54357.329782  2  24.128  0.731  0.272  0.393   5.743e-01   7.132e-01   2.602e-01   3.756e-01  10  sdss  6955  82S  4 
  160  54357.330612  3  23.907  0.795  0.237  0.378   5.546e-01   1.084e+00   3.051e-01   4.864e-01  10  sdss  6955  82S  4 
    8  54357.332270  4  23.286  0.586  0.377  0.565  -2.274e+00   3.200e+00   2.000e+00   2.997e+00  5  sdss  6955  82S  4 
 1188  54357.331441  0  24.314  1.175  0.087  1.478   3.466e-01   1.400e+00   8.889e-02   1.504e+00  5  sdss  6955  82S  4 
    0  54359.364876  1  26.393  0.647  0.184  0.834  -9.350e-01   6.406e-01   1.915e-01   8.678e-01  10  sdss  6964  82S  4 
   32  54359.361559  2  24.418  1.097  1.057  1.404   3.137e-01   1.061e+00   8.971e-01   1.192e+00  10  sdss  6964  82S  4 
   32  54359.362388  3  22.780  0.616  0.399  0.493   2.610e+00   1.536e+00   1.062e+00   1.313e+00  10  sdss  6964  82S  4 
    4  54359.364047  4  24.345  0.543  0.063  0.643  -1.000e+01   5.347e+00   6.512e-01   6.656e+00  5  sdss  6964  82S  4 
  142  54359.363217  0  24.695  1.671  1.310  5.101  -2.809e-02   2.339e+00   1.270e+00   4.944e+00  5  sdss  6964  82S  4 
   40  54362.383003  1  24.757  0.698  0.428  0.564   2.164e-01   4.565e-01   2.658e-01   3.505e-01  10  sdss  6976  82S  4 
   32  54362.379686  2  24.559  0.857  0.198  0.529   1.958e-01   7.684e-01   1.625e-01   4.333e-01  10  sdss  6976  82S  4 
    0  54362.380515  3  24.746  0.892  0.245  0.491  -4.641e-01   1.220e+00   3.085e-01   6.182e-01  10  sdss  6976  82S  4 
   40  54362.382173  4  22.104  0.624  0.350  0.485   3.828e+00   3.766e+00   2.098e+00   2.910e+00  5  sdss  6976  82S  4 
   36  54362.381344  0  24.619  1.194  0.108  1.440   4.531e-02   1.405e+00   1.049e-01   1.396e+00  5  sdss  6976  82S  4 
    1  54376.378384  1  25.530  1.009  0.535  0.800  -2.487e-01   7.067e-01   3.379e-01   5.053e-01  10  sdss  7016  82S  4 
    0  54376.375067  2  26.159  0.618  0.127  0.300  -1.389e+00   8.819e-01   1.915e-01   4.504e-01  10  sdss  7016  82S  4 
    0  54376.375896  3  24.712  0.923  0.158  0.414  -4.213e-01   1.264e+00   1.972e-01   5.157e-01  10  sdss  7016  82S  4 
   32  54376.377555  4  22.631  0.830  0.328  0.672   9.898e-01   4.499e+00   1.628e+00   3.334e+00  5  sdss  7016  82S  4 
  137  54376.376725  0  25.464  1.404  0.962  1.361  -8.448e-01   1.909e+00   1.185e+00   1.676e+00  5  sdss  7016  82S  4 
   34  54382.363607  1  23.899  0.707  0.650  1.388   8.785e-01   6.705e-01   6.485e-01   1.385e+00  10  sdss  7038  82S  4 
   34  54382.360290  2  23.402  0.912  1.217  1.375   1.455e+00   1.287e+00   1.892e+00   2.139e+00  10  sdss  7038  82S  4 
    0  54382.361119  3  25.067  1.156  1.642  1.462  -8.943e-01   1.786e+00   2.363e+00   2.104e+00  10  sdss  7038  82S  4 
    0  54382.362777  4  23.680  1.140  0.356  2.046  -4.567e+00   7.524e+00   2.280e+00   1.312e+01  5  sdss  7038  82S  4 
    2  54382.361948  0  23.020  1.316  0.297  3.004   2.278e+00   2.464e+00   6.725e-01   6.814e+00  5  sdss  7038  82S  4 
   32  54385.381570  1  24.110  0.578  0.312  0.445   6.824e-01   4.862e-01   2.683e-01   3.823e-01  10  sdss  7051  82S  4 
    0  54385.378253  2  25.384  0.762  0.195  0.371  -4.877e-01   7.225e-01   1.784e-01   3.398e-01  10  sdss  7051  82S  4 
   32  54385.379083  3  23.064  0.544  0.113  0.212   1.931e+00   1.113e+00   2.411e-01   4.499e-01  10  sdss  7051  82S  4 
   32  54385.380741  4  22.035  0.595  0.076  0.506   4.253e+00   3.704e+00   4.712e-01   3.156e+00  5  sdss  7051  82S  4 
    0  54385.379912  0  26.176  0.784  0.082  0.666  -1.984e+00   1.456e+00   1.664e-01   1.353e+00  5  sdss  7051  82S  4 
  130  54387.381965  1  25.782  1.092  0.636  3.135  -4.159e-01   8.207e-01   4.461e-01   2.199e+00  10  sdss  7057  82S  4 
    0  54387.378648  2  26.219  0.688  0.214  0.646  -1.482e+00   1.015e+00   3.369e-01   1.019e+00  10  sdss  7057  82S  4 
    0  54387.379477  3  25.792  0.753  0.499  0.760  -2.227e+00   1.640e+00   1.175e+00   1.790e+00  10  sdss  7057  82S  4 
   42  54387.381136  4  21.395  0.832  1.038  1.618   9.248e+00   7.408e+00   1.011e+01   1.577e+01  5  sdss  7057  82S  4 
    6  54387.380307  0  21.869  0.610  0.212  1.659   6.872e+00   3.474e+00   1.325e+00   1.038e+01  5  sdss  7057  82S  4 
 1156  54390.374232  1  22.939  0.949  0.731  0.381   2.335e+00   1.753e+00   1.623e+00   8.469e-01  10  sdss  7071  82S  4 
 1180  54390.370915  2  20.902  0.768  2.842  0.074   1.574e+01   9.573e+00   4.113e+01   1.066e+00  10  sdss  7071  82S  4 
  136  54390.371744  3  25.712  0.818  0.834  0.549  -2.043e+00   1.673e+00   1.844e+00   1.214e+00  10  sdss  7071  82S  4 
   32  54390.373402  4  21.539  0.717  0.117  0.822   7.908e+00   5.889e+00   1.022e+00   7.156e+00  5  sdss  7071  82S  4 
    4  54390.372573  0  26.609  0.959  0.072  1.216  -3.062e+00   2.367e+00   2.090e-01   3.552e+00  5  sdss  7071  82S  4 
    2  54391.382864  1  26.639  0.715  0.300  1.491  -1.218e+00   8.336e-01   3.786e-01   1.883e+00  10  sdss  7074  82S  4 
    2  54391.379547  2  26.790  0.621  0.343  0.782  -2.638e+00   1.456e+00   8.747e-01   1.992e+00  10  sdss  7074  82S  4 
    2  54391.380377  3  25.722  1.127  1.144  1.372  -2.066e+00   2.249e+00   2.550e+00   3.059e+00  10  sdss  7074  82S  4 
  162  54391.382035  4  21.372  0.924  0.263  1.512   9.477e+00   8.242e+00   2.610e+00   1.501e+01  5  sdss  7074  82S  4 
  132  54391.381206  0  21.898  1.511  0.140  1.686   6.689e+00   6.105e+00   8.547e-01   1.028e+01  5  sdss  7074  82S  4 
   32  54394.364469  1  24.025  0.685  0.329  0.809   7.579e-01   6.025e-01   3.000e-01   7.368e-01  10  sdss  7084  82S  4 
   32  54394.361152  2  24.482  1.141  1.013  1.186   2.597e-01   1.108e+00   8.447e-01   9.887e-01  10  sdss  7084  82S  4 
   32  54394.361981  3  23.651  1.060  0.663  0.982   9.040e-01   1.613e+00   9.578e-01   1.418e+00  10  sdss  7084  82S  4 
   40  54394.363640  4  21.652  0.670  0.504  0.813   6.965e+00   5.142e+00   4.036e+00   6.513e+00  5  sdss  7084  82S  4 
 1156  54394.362811  0  25.343  1.591  0.185  2.977  -6.995e-01   2.242e+00   2.139e-01   3.440e+00  5  sdss  7084  82S  4 
    1  54402.374538  1  23.058  0.990  0.201  0.349   2.083e+00   1.639e+00   4.017e-01   6.981e-01  10  sdss  7101  82S  4 
   33  54402.371221  2  24.667  1.516  0.698  1.020   1.086e-01   1.648e+00   5.624e-01   8.215e-01  10  sdss  7101  82S  4 
   33  54402.372050  3  23.797  1.207  0.470  0.770   6.991e-01   1.829e+00   6.328e-01   1.036e+00  10  sdss  7101  82S  4 
   32  54402.373708  4  21.749  0.800  0.098  0.779   6.207e+00   5.746e+00   7.320e-01   5.820e+00  5  sdss  7101  82S  4 
    1  54402.372879  0  21.384  0.625  0.200  0.328   1.078e+01   5.508e+00   1.949e+00   3.198e+00  5  sdss  7101  82S  4 
    0  54408.288763  1  22.624  0.162  0.023  0.107   3.147e+00   4.752e-01   6.862e-02   3.139e-01  10  sdss  7127  82S  4 
    0  54408.285446  2  22.191  0.167  0.034  0.059   4.767e+00   7.386e-01   1.519e-01   2.627e-01  10  sdss  7127  82S  4 
   32  54408.286275  3  22.382  0.322  0.038  0.111   3.879e+00   1.176e+00   1.429e-01   4.165e-01  10  sdss  7127  82S  4 
   32  54408.287934  4  21.819  0.538  0.120  0.324   5.692e+00   3.762e+00   8.537e-01   2.311e+00  5  sdss  7127  82S  4 
   36  54408.287105  0  24.188  1.131  0.074  1.109   4.783e-01   1.355e+00   7.818e-02   1.176e+00  5  sdss  7127  82S  4 
    0  54411.246655  1  22.246  0.116  0.013  0.069   4.480e+00   4.794e-01   5.260e-02   2.859e-01  10  sdss  7136  82S  4 
    0  54411.243338  2  21.971  0.143  0.034  0.072   5.854e+00   7.735e-01   1.868e-01   3.931e-01  10  sdss  7136  82S  4 
    0  54411.244167  3  21.922  0.206  0.065  0.087   6.013e+00   1.148e+00   3.686e-01   4.879e-01  10  sdss  7136  82S  4 
   40  54411.245826  4  22.610  0.621  0.305  0.505   1.095e+00   3.245e+00   1.519e+00   2.514e+00  5  sdss  7136  82S  4 
   36  54411.244996  0  24.624  1.249  0.186  1.690   4.035e-02   1.496e+00   1.804e-01   1.639e+00  5  sdss  7136  82S  4 
    0  54413.287079  1  21.998  0.112  0.022  0.144   5.640e+00   5.835e-01   1.145e-01   7.510e-01  10  sdss  7145  82S  4 
   32  54413.283763  2  22.132  0.202  0.097  0.174   5.038e+00   9.389e-01   4.561e-01   8.165e-01  10  sdss  7145  82S  4 
   32  54413.284592  3  21.707  0.210  0.085  0.161   7.356e+00   1.418e+00   5.814e-01   1.101e+00  10  sdss  7145  82S  4 
    0  54413.286250  4  23.118  0.933  0.154  1.368  -1.409e+00   5.220e+00   7.743e-01   6.899e+00  5  sdss  7145  82S  4 
   12  54413.285421  0  25.885  1.216  0.960  1.993  -1.446e+00   1.837e+00   1.558e+00   3.233e+00  5  sdss  7145  82S  4 
    0  54417.288964  1  22.157  0.114  0.032  0.085   4.867e+00   5.108e-01   1.436e-01   3.807e-01  10  sdss  7158  82S  4 
    0  54417.285647  2  21.731  0.115  0.037  0.053   7.316e+00   7.738e-01   2.484e-01   3.582e-01  10  sdss  7158  82S  4 
    0  54417.286477  3  21.576  0.154  0.024  0.059   8.313e+00   1.174e+00   1.840e-01   4.553e-01  10  sdss  7158  82S  4 
    0  54417.288135  4  20.769  0.252  0.016  0.179   1.732e+01   4.110e+00   2.719e-01   2.956e+00  5  sdss  7158  82S  4 
   32  54417.287306  0  24.654  1.228  0.159  1.406   1.159e-02   1.460e+00   1.543e-01   1.363e+00  5  sdss  7158  82S  4 
    0  54418.286887  1  22.182  0.117  0.019  0.100   4.755e+00   5.109e-01   8.527e-02   4.401e-01  10  sdss  7161  82S  4 
    0  54418.283570  2  21.879  0.142  0.047  0.097   6.377e+00   8.356e-01   2.784e-01   5.711e-01  10  sdss  7161  82S  4 
    0  54418.284399  3  21.569  0.164  0.070  0.095   8.368e+00   1.260e+00   5.428e-01   7.362e-01  10  sdss  7161  82S  4 
   32  54418.286057  4  21.976  0.656  0.120  0.614   4.625e+00   4.201e+00   7.750e-01   3.959e+00  5  sdss  7161  82S  4 
    0  54418.285228  0  22.732  0.626  0.058  0.739   3.033e+00   1.669e+00   1.681e-01   2.142e+00  5  sdss  7161  82S  4 
    2  54422.291504  1  22.415  0.222  0.222  0.384   3.828e+00   7.795e-01   7.899e-01   1.366e+00  10  sdss  7173  82S  4 
   32  54422.288187  2  22.028  0.218  0.124  0.216   5.551e+00   1.109e+00   6.379e-01   1.114e+00  10  sdss  7173  82S  4 
   32  54422.289017  3  21.819  0.254  0.117  0.219   6.624e+00   1.541e+00   7.193e-01   1.352e+00  10  sdss  7173  82S  4 
   32  54422.290675  4  21.423  0.671  0.093  1.040   8.976e+00   6.002e+00   8.891e-01   9.913e+00  5  sdss  7173  82S  4 
 1154  54422.289846  0  22.643  0.871  0.195  1.679   3.307e+00   2.346e+00   6.112e-01   5.256e+00  5  sdss  7173  82S  4 
    1  54424.227379  1  22.567  0.340  0.099  0.118   3.319e+00   1.023e+00   3.061e-01   3.655e-01  10  sdss  7183  82S  4 
    1  54424.224063  2  21.931  0.189  0.050  0.062   6.076e+00   1.055e+00   2.790e-01   3.472e-01  10  sdss  7183  82S  4 
    1  54424.224892  3  21.828  0.226  0.064  0.078   6.568e+00   1.364e+00   3.928e-01   4.760e-01  10  sdss  7183  82S  4 
    8  54424.226550  4  21.068  0.281  0.113  0.203   1.292e+01   3.523e+00   1.443e+00   2.585e+00  5  sdss  7183  82S  4 
    9  54424.225721  0  25.597  1.660  0.650  1.034  -1.018e+00   2.482e+00   8.660e-01   1.378e+00  5  sdss  7183  82S  4 
