# SDSS CID:   6216 IAU:          RA: 344.995728 DEC:  -0.444407  (J2000)
# GALAXY_SB [ugriz] = [ 23.06 22.82 22.30 22.06 21.79 ] +/- [  0.27  0.04  0.03  0.03  0.07 ] (asinh mag/square arcsec)
# GALAXY_SB_FLUX [ugriz] = [  2.130E+00  2.602E+00  4.313E+00  5.286E+00  5.874E+00 ] +/- [  5.926E-01  1.081E-01  1.102E-01  1.257E-01  5.191E-01 ] (microJy per square arcsec)
#FLAG  MJD       FILT  MAG     MERR  MSKYERR MGALERR  FLUX       FLUXERR    SKYERR     GALERR    NPRE TELE   RUN  STRIP  IDCCD
    0  53616.273948  1  25.200  1.020  0.522  1.815  -4.852e-02   6.941e-01   3.081e-01   1.072e+00  14  sdss  5566  82N  2 
   32  53616.270630  2  24.014  0.971  0.639  0.979   6.869e-01   1.009e+00   6.499e-01   9.947e-01  15  sdss  5566  82N  2 
    0  53616.271460  3  26.103  0.445  0.317  0.250  -3.065e+00   1.300e+00   9.639e-01   7.603e-01  17  sdss  5566  82N  2 
   32  53616.273118  4  21.746  0.739  0.615  0.573   6.233e+00   5.299e+00   4.569e+00   4.250e+00  17  sdss  5566  82N  2 
   12  53616.272289  0  25.192  1.526  1.514  5.352  -5.301e-01   2.071e+00   1.643e+00   5.804e+00  8  sdss  5566  82N  2 
    4  53623.264195  1  27.827  0.496  0.491  0.244  -3.848e+00   1.677e+00   1.772e+00   8.787e-01  14  sdss  5590  82N  2 
    0  53623.260878  2  25.085  1.036  0.604  0.648  -2.285e-01   9.739e-01   4.991e-01   5.347e-01  15  sdss  5590  82N  2 
 1160  53623.261708  3  24.692  1.045  2.087  0.501  -3.963e-01   1.467e+00   2.585e+00   6.200e-01  17  sdss  5590  82N  2 
 1156  53623.263366  4  25.424  2.995  2.181  0.148  -2.856e+01   4.993e+01   5.696e+01   3.851e+00  17  sdss  5590  82N  2 
  132  53623.262537  0  26.832  1.187  0.178  1.639  -3.796e+00   3.329e+00   6.451e-01   5.936e+00  8  sdss  5590  82N  2 
   33  53626.250542  1  23.469  0.672  0.296  0.341   1.390e+00   8.755e-01   4.180e-01   4.818e-01  14  sdss  5603  82N  2 
    1  53626.247225  2  24.879  1.084  0.931  0.533  -6.114e-02   1.018e+00   7.460e-01   4.265e-01  15  sdss  5603  82N  2 
   56  53626.248055  3  23.068  0.648  1.257  0.237   1.921e+00   1.303e+00   2.662e+00   5.019e-01  17  sdss  5603  82N  2 
    0  53626.249713  4  23.615  0.602  0.481  0.302  -4.153e+00   3.700e+00   2.955e+00   1.852e+00  17  sdss  5603  82N  2 
    5  53626.248884  0  23.968  1.604  0.326  2.921   7.236e-01   2.280e+00   3.836e-01   3.432e+00  8  sdss  5603  82N  2 
    1  53628.235507  1  26.248  1.444  0.478  0.572  -7.918e-01   1.320e+00   4.489e-01   5.377e-01  14  sdss  5610  82N  2 
   33  53628.232190  2  24.114  1.238  0.362  0.515   5.873e-01   1.307e+00   3.480e-01   4.963e-01  15  sdss  5610  82N  2 
    1  53628.233019  3  25.083  0.969  0.218  0.375  -9.179e-01   1.458e+00   3.163e-01   5.448e-01  17  sdss  5610  82N  2 
   32  53628.234678  4  22.796  0.789  0.299  0.467   1.798e-01   4.196e+00   1.458e+00   2.278e+00  17  sdss  5610  82N  2 
    1  53628.233849  0  24.379  2.025  1.004  3.442   2.805e-01   3.324e+00   1.007e+00   3.450e+00  8  sdss  5610  82N  2 
   33  53635.243755  1  23.550  0.755  0.063  0.410   1.279e+00   9.100e-01   8.371e-02   5.416e-01  14  sdss  5622  82N  2 
   32  53635.240438  2  23.393  0.840  0.329  0.506   1.470e+00   1.203e+00   5.147e-01   7.911e-01  15  sdss  5622  82N  2 
    0  53635.241267  3  24.855  1.021  0.584  0.725  -6.037e-01   1.464e+00   7.625e-01   9.470e-01  17  sdss  5622  82N  2 
    0  53635.242926  4  23.786  0.558  0.341  0.357  -5.273e+00   3.743e+00   2.317e+00   2.425e+00  17  sdss  5622  82N  2 
    9  53635.242096  0  26.989  0.878  0.431  1.481  -4.408e+00   3.091e+00   1.796e+00   6.169e+00  8  sdss  5622  82N  2 
   33  53637.236643  1  24.609  1.316  1.048  2.087   3.106e-01   1.013e+00   6.865e-01   1.367e+00  14  sdss  5633  82N  2 
   32  53637.233326  2  23.802  1.105  0.649  1.029   9.171e-01   1.257e+00   7.525e-01   1.192e+00  15  sdss  5633  82N  2 
    0  53637.234155  3  25.232  1.055  0.769  0.843  -1.144e+00   1.687e+00   1.214e+00   1.332e+00  17  sdss  5633  82N  2 
    0  53637.235814  4  23.883  0.839  0.601  0.636  -5.956e+00   5.878e+00   4.351e+00   4.604e+00  17  sdss  5633  82N  2 
    2  53637.234984  0  22.957  1.530  0.371  4.032   2.428e+00   2.954e+00   9.039e-01   9.813e+00  8  sdss  5633  82N  2 
   32  53644.229067  1  24.909  0.739  0.147  0.580   1.237e-01   4.754e-01   8.826e-02   3.479e-01  14  sdss  5670  82N  2 
    0  53644.225750  2  25.224  0.764  0.278  0.344  -3.454e-01   6.936e-01   2.387e-01   2.957e-01  15  sdss  5670  82N  2 
    0  53644.226579  3  24.436  0.802  0.245  0.276  -8.739e-02   1.041e+00   2.906e-01   3.273e-01  17  sdss  5670  82N  2 
    0  53644.228238  4  22.933  0.612  0.177  0.304  -4.914e-01   3.154e+00   8.662e-01   1.488e+00  17  sdss  5670  82N  2 
    0  53644.227408  0  25.367  1.182  0.115  2.188  -7.278e-01   1.501e+00   1.358e-01   2.576e+00  8  sdss  5670  82N  2 
    0  53654.262917  1  25.311  0.863  0.200  0.734  -1.142e-01   5.686e-01   1.198e-01   4.391e-01  14  sdss  5709  82N  2 
   24  53654.259600  2  26.091  0.639  1.298  0.279  -1.290e+00   8.662e-01   1.850e+00   3.970e-01  15  sdss  5709  82N  2 
   24  53654.260429  3  25.996  0.514  1.095  0.137  -2.752e+00   1.359e+00   3.043e+00   3.810e-01  17  sdss  5709  82N  2 
    8  53654.262088  4  23.154  0.737  0.790  0.345  -1.588e+00   3.981e+00   4.014e+00   1.754e+00  17  sdss  5709  82N  2 
    0  53654.261258  0  26.253  0.950  0.077  1.605  -2.147e+00   1.833e+00   1.691e-01   3.528e+00  8  sdss  5709  82N  2 
    3  53656.210536  1  26.592  1.927  0.471  1.397  -1.161e+00   2.137e+00   5.764e-01   1.709e+00  14  sdss  5719  82N  2 
   35  53656.207219  2  22.823  1.155  0.530  0.663   2.613e+00   2.324e+00   1.336e+00   1.671e+00  15  sdss  5719  82N  2 
   33  53656.208048  3  24.038  1.340  1.060  1.052   3.897e-01   2.047e+00   1.310e+00   1.301e+00  17  sdss  5719  82N  2 
   32  53656.209706  4  22.580  1.109  0.703  1.101   1.247e+00   6.470e+00   3.516e+00   5.510e+00  17  sdss  5719  82N  2 
    3  53656.208877  0  27.053  1.553  0.055  1.938  -4.683e+00   4.656e+00   2.431e-01   8.550e+00  8  sdss  5719  82N  2 
    1  53663.223282  1  22.589  0.332  0.074  0.145   3.251e+00   9.887e-01   2.256e-01   4.437e-01  14  sdss  5744  82N  2 
    1  53663.219965  2  22.157  0.210  0.052  0.071   4.920e+00   9.492e-01   2.370e-01   3.241e-01  15  sdss  5744  82N  2 
    0  53663.220794  3  22.314  0.301  0.086  0.083   4.141e+00   1.169e+00   3.405e-01   3.279e-01  17  sdss  5744  82N  2 
   32  53663.222453  4  22.254  0.619  0.269  0.305   2.956e+00   3.512e+00   1.491e+00   1.695e+00  17  sdss  5744  82N  2 
    1  53663.221623  0  23.066  1.453  0.095  1.211   2.174e+00   2.658e+00   2.119e-01   2.689e+00  8  sdss  5744  82N  2 
    0  53668.212836  1  22.329  0.161  0.102  0.234   4.145e+00   6.204e-01   3.967e-01   9.076e-01  14  sdss  5770  82N  2 
   32  53668.209520  2  22.255  0.228  0.146  0.167   4.488e+00   9.413e-01   6.115e-01   7.001e-01  15  sdss  5770  82N  2 
   32  53668.210349  3  22.028  0.263  0.145  0.133   5.441e+00   1.323e+00   7.414e-01   6.780e-01  17  sdss  5770  82N  2 
  160  53668.212007  4  21.297  0.527  0.349  0.377   1.025e+01   5.231e+00   3.635e+00   3.922e+00  17  sdss  5770  82N  2 
    8  53668.211178  0  22.780  0.817  0.393  2.407   2.894e+00   2.034e+00   1.113e+00   6.816e+00  8  sdss  5770  82N  2 
    0  53670.217321  1  22.189  0.137  0.070  0.172   4.726e+00   5.993e-01   3.083e-01   7.573e-01  14  sdss  5781  82N  2 
    0  53670.214004  2  21.991  0.153  0.059  0.084   5.744e+00   8.090e-01   3.138e-01   4.464e-01  15  sdss  5781  82N  2 
    0  53670.214833  3  21.778  0.189  0.078  0.080   6.885e+00   1.200e+00   5.014e-01   5.142e-01  17  sdss  5781  82N  2 
    0  53670.216492  4  21.213  0.381  0.248  0.212   1.117e+01   4.129e+00   2.764e+00   2.360e+00  17  sdss  5781  82N  2 
    0  53670.215662  0  22.805  0.708  0.196  1.699   2.824e+00   1.775e+00   5.429e-01   4.708e+00  8  sdss  5781  82N  2 
    0  53673.185207  1  22.233  0.136  0.044  0.161   4.537e+00   5.728e-01   1.854e-01   6.798e-01  14  sdss  5792  82N  2 
    0  53673.181890  2  21.907  0.154  0.070  0.112   6.211e+00   8.807e-01   4.023e-01   6.441e-01  15  sdss  5792  82N  2 
    0  53673.182719  3  21.758  0.190  0.125  0.108   7.016e+00   1.229e+00   8.125e-01   7.017e-01  17  sdss  5792  82N  2 
   32  53673.184378  4  22.226  0.632  0.138  0.393   3.117e+00   3.627e+00   7.735e-01   2.210e+00  17  sdss  5792  82N  2 
    0  53673.183549  0  22.784  0.687  0.171  1.593   2.882e+00   1.760e+00   4.824e-01   4.494e+00  8  sdss  5792  82N  2 
    0  53675.181822  1  22.044  0.120  0.049  0.158   5.408e+00   5.994e-01   2.463e-01   7.964e-01  14  sdss  5800  82N  2 
   32  53675.178505  2  22.084  0.193  0.084  0.136   5.267e+00   9.337e-01   4.099e-01   6.622e-01  15  sdss  5800  82N  2 
   32  53675.179334  3  22.107  0.273  0.177  0.139   5.048e+00   1.278e+00   8.457e-01   6.635e-01  17  sdss  5800  82N  2 
   32  53675.180993  4  21.840  0.622  0.361  0.356   5.546e+00   4.249e+00   2.513e+00   2.480e+00  17  sdss  5800  82N  2 
    0  53675.180164  0  22.653  0.587  0.099  1.419   3.275e+00   1.721e+00   3.146e-01   4.489e+00  8  sdss  5800  82N  2 
    0  53677.202830  1  22.101  0.113  0.022  0.103   5.129e+00   5.365e-01   1.050e-01   4.941e-01  14  sdss  5813  82N  2 
    0  53677.199514  2  21.814  0.119  0.016  0.049   6.772e+00   7.414e-01   9.990e-02   3.047e-01  15  sdss  5813  82N  2 
    0  53677.200343  3  21.871  0.181  0.051  0.054   6.310e+00   1.056e+00   2.975e-01   3.189e-01  17  sdss  5813  82N  2 
   32  53677.202001  4  21.479  0.362  0.132  0.175   8.448e+00   3.202e+00   1.189e+00   1.578e+00  17  sdss  5813  82N  2 
    8  53677.201172  0  22.944  0.634  0.393  1.147   2.461e+00   1.446e+00   9.681e-01   2.823e+00  8  sdss  5813  82N  2 
    0  53680.189081  1  22.394  0.167  0.083  0.223   3.901e+00   6.044e-01   3.028e-01   8.149e-01  14  sdss  5823  82N  2 
    0  53680.185765  2  21.923  0.146  0.059  0.086   6.120e+00   8.226e-01   3.325e-01   4.873e-01  15  sdss  5823  82N  2 
    0  53680.186594  3  21.704  0.172  0.064  0.083   7.379e+00   1.169e+00   4.386e-01   5.685e-01  17  sdss  5823  82N  2 
   32  53680.188252  4  21.644  0.508  0.287  0.388   7.030e+00   3.945e+00   2.286e+00   3.097e+00  17  sdss  5823  82N  2 
    8  53680.187423  0  25.160  1.269  0.985  3.797  -4.955e-01   1.583e+00   1.055e+00   4.065e+00  8  sdss  5823  82N  2 
   33  53693.189728  1  23.632  1.021  0.119  0.427   1.175e+00   1.110e+00   1.474e-01   5.269e-01  14  sdss  5878  82N  2 
   33  53693.186412  2  23.210  0.653  0.154  0.259   1.780e+00   1.100e+00   2.786e-01   4.704e-01  15  sdss  5878  82N  2 
    0  53693.187241  3  21.997  0.244  0.082  0.089   5.604e+00   1.265e+00   4.289e-01   4.669e-01  17  sdss  5878  82N  2 
   32  53693.188899  4  21.658  0.502  0.147  0.287   6.916e+00   3.865e+00   1.159e+00   2.262e+00  17  sdss  5878  82N  2 
    1  53693.188070  0  22.989  1.628  0.164  1.421   2.351e+00   3.086e+00   3.877e-01   3.365e+00  8  sdss  5878  82N  2 
  160  53698.186645  1  24.113  0.886  0.715  1.201   6.805e-01   7.409e-01   6.159e-01   1.034e+00  14  sdss  5898  82N  2 
   32  53698.183328  2  22.574  0.350  0.193  0.246   3.320e+00   1.066e+00   6.047e-01   7.740e-01  15  sdss  5898  82N  2 
   32  53698.184157  3  22.233  0.351  0.320  0.194   4.476e+00   1.452e+00   1.362e+00   8.244e-01  17  sdss  5898  82N  2 
    0  53698.185816  4  20.975  0.433  0.374  0.299   1.418e+01   5.667e+00   5.102e+00   4.070e+00  17  sdss  5898  82N  2 
    4  53698.184987  0  25.259  1.570  0.385  5.879  -6.039e-01   2.177e+00   4.294e-01   6.565e+00  8  sdss  5898  82N  2 
 1028  53699.210044  1  28.950  2.085  0.840  0.071  -1.089e+01   1.069e+01   8.471e+00   7.153e-01  14  sdss  5902  82N  2 
    4  53699.206728  2  22.297  0.522  0.346  0.111   4.315e+00   1.965e+00   1.395e+00   4.489e-01  15  sdss  5902  82N  2 
   36  53699.207557  3  22.423  0.750  0.541  0.132   3.725e+00   2.412e+00   1.949e+00   4.744e-01  17  sdss  5902  82N  2 
 1156  53699.209215  4  20.920  1.384  1.080  0.181   1.497e+01   1.523e+01   1.545e+01   2.585e+00  17  sdss  5902  82N  2 
  140  53699.208386  0  21.423  0.472  0.321  0.467   1.040e+01   4.271e+00   3.087e+00   4.484e+00  8  sdss  5902  82N  2 
    0  53702.182121  3  26.185  1.951  1.269  1.334  -3.325e+00   4.897e+00   4.139e+00   4.352e+00  17  sdss  5909  82N  2 
   32  53702.183779  4  21.159  2.104  1.763  1.644   1.180e+01   2.111e+01   2.055e+01   1.917e+01  17  sdss  5909  82N  2 
   32  53704.172362  1  24.016  0.621  0.329  0.611   7.666e-01   5.545e-01   3.029e-01   5.629e-01  14  sdss  5918  82N  2 
   32  53704.169045  2  23.373  0.509  0.210  0.240   1.502e+00   7.765e-01   3.338e-01   3.814e-01  15  sdss  5918  82N  2 
   32  53704.169874  3  22.722  0.432  0.173  0.167   2.770e+00   1.164e+00   4.836e-01   4.665e-01  17  sdss  5918  82N  2 
   32  53704.171532  4  22.351  0.688  0.223  0.397   2.425e+00   3.821e+00   1.194e+00   2.120e+00  17  sdss  5918  82N  2 
    0  53704.170703  0  26.560  0.650  0.057  1.380  -2.918e+00   1.699e+00   1.619e-01   3.937e+00  8  sdss  5918  82N  2 
