# SDSS CID:   6820 IAU:          RA: 312.981049 DEC:   0.098570  (J2000)
# GALAXY_SB [ugriz] = [ 21.35 19.42 18.43 18.01 17.65 ] +/- [  0.00  0.00  0.00  0.00  0.00 ] (asinh mag/square arcsec)
# GALAXY_SB_FLUX [ugriz] = [  1.084E+01  6.085E+01  1.528E+02  2.237E+02  3.107E+02 ] +/- [  0.000E+00  0.000E+00  0.000E+00  0.000E+00  0.000E+00 ] (microJy per square arcsec)
#FLAG  MJD       FILT  MAG     MERR  MSKYERR MGALERR  FLUX       FLUXERR    SKYERR     GALERR    NPRE TELE   RUN  STRIP  IDCCD
  416  53622.197390  1  24.825  1.423  1.099  0.000   1.749e-01   1.109e+00   6.705e-01   0.000e+00  9  sdss  5582  82S  4 
  256  53622.194073  2  27.380  0.441  0.149  0.000  -4.619e+00   1.803e+00   6.401e-01   0.000e+00  9  sdss  5582  82S  4 
  288  53622.194903  3  21.303  0.267  0.119  0.000   1.073e+01   2.578e+00   1.171e+00   0.000e+00  9  sdss  5582  82S  4 
  288  53622.196561  4  20.680  0.417  0.088  0.000   1.886e+01   7.131e+00   1.578e+00   0.000e+00  9  sdss  5582  82S  4 
  300  53622.195732  0  22.337  0.633  0.475  0.000   4.429e+00   2.332e+00   1.922e+00   0.000e+00  6  sdss  5582  82S  4 
  257  53625.193392  1  27.401  0.453  0.086  0.000  -2.579e+00   1.043e+00   2.094e-01   0.000e+00  9  sdss  5597  82S  4 
  288  53625.190076  2  21.305  0.189  0.021  0.000   1.085e+01   1.864e+00   2.130e-01   0.000e+00  9  sdss  5597  82S  4 
  288  53625.190905  3  19.870  0.076  0.008  0.000   4.024e+01   2.777e+00   2.982e-01   0.000e+00  9  sdss  5597  82S  4 
  256  53625.192563  4  25.334  0.332  0.048  0.000  -2.624e+01   7.871e+00   1.164e+00   0.000e+00  9  sdss  5597  82S  4 
  297  53625.191734  0  24.063  1.342  0.619  0.000   6.148e-01   1.730e+00   6.886e-01   0.000e+00  6  sdss  5597  82S  4 
  289  53627.154492  1  22.372  0.361  0.068  0.000   3.985e+00   1.283e+00   2.501e-01   0.000e+00  9  sdss  5607  82S  4 
  257  53627.151176  2  26.210  1.461  0.195  0.000  -1.468e+00   2.007e+00   3.041e-01   0.000e+00  9  sdss  5607  82S  4 
  288  53627.152005  3  20.085  0.088  0.014  0.000   3.301e+01   2.641e+00   4.125e-01   0.000e+00  9  sdss  5607  82S  4 
  288  53627.153663  4  20.350  0.284  0.022  0.000   2.580e+01   6.661e+00   5.324e-01   0.000e+00  9  sdss  5607  82S  4 
  289  53627.152834  0  21.881  0.500  0.101  0.000   6.792e+00   2.862e+00   6.139e-01   0.000e+00  6  sdss  5607  82S  4 
  419  53634.146180  1  22.453  0.534  0.320  0.000   3.694e+00   1.697e+00   1.095e+00   0.000e+00  9  sdss  5619  82S  4 
  290  53634.142864  2  24.423  1.850  1.955  0.000   3.093e-01   2.323e+00   1.657e+00   0.000e+00  9  sdss  5619  82S  4 
  288  53634.143693  3  21.093  0.244  0.156  0.000   1.302e+01   2.862e+00   1.865e+00   0.000e+00  9  sdss  5619  82S  4 
  288  53634.145351  4  20.620  0.476  0.125  0.000   1.998e+01   8.484e+00   2.356e+00   0.000e+00  9  sdss  5619  82S  4 
  291  53634.144522  0  21.265  0.322  0.249  0.000   1.204e+01   3.355e+00   2.671e+00   0.000e+00  6  sdss  5619  82S  4 
  288  53636.151942  1  24.148  1.097  0.218  0.000   6.501e-01   9.070e-01   1.825e-01   0.000e+00  9  sdss  5628  82S  4 
  288  53636.148626  2  22.559  0.643  0.058  0.000   3.368e+00   1.861e+00   1.861e-01   0.000e+00  9  sdss  5628  82S  4 
  288  53636.149455  3  21.277  0.279  0.046  0.000   1.099e+01   2.758e+00   4.689e-01   0.000e+00  9  sdss  5628  82S  4 
  288  53636.151113  4  20.210  0.246  0.058  0.000   2.942e+01   6.576e+00   1.571e+00   0.000e+00  9  sdss  5628  82S  4 
  288  53636.150284  0  22.861  0.787  0.175  0.000   2.673e+00   1.799e+00   4.493e-01   0.000e+00  6  sdss  5628  82S  4 
  256  53645.210862  1  27.506  0.379  0.096  0.000  -2.848e+00   9.716e-01   2.555e-01   0.000e+00  9  sdss  5675  82S  4 
  288  53645.207545  2  24.600  1.559  0.568  0.000   1.626e-01   1.725e+00   4.615e-01   0.000e+00  9  sdss  5675  82S  4 
 1464  53645.208374  3  20.316  0.130  0.100  0.000   2.667e+01   3.161e+00   2.445e+00   0.000e+00  9  sdss  5675  82S  4 
  288  53645.210033  4  20.822  0.458  0.052  0.000   1.645e+01   6.866e+00   8.201e-01   0.000e+00  9  sdss  5675  82S  4 
  288  53645.209203  0  24.192  1.515  0.299  0.000   4.731e-01   2.034e+00   3.154e-01   0.000e+00  6  sdss  5675  82S  4 
  417  53655.122346  1  22.732  0.509  0.100  0.000   2.842e+00   1.269e+00   2.667e-01   0.000e+00  9  sdss  5713  82S  4 
  257  53655.119029  2  28.506  0.165  0.016  0.000  -1.314e+01   1.970e+00   1.972e-01   0.000e+00  9  sdss  5713  82S  4 
  256  53655.119858  3  27.002  0.558  0.060  0.000  -7.255e+00   3.467e+00   4.064e-01   0.000e+00  9  sdss  5713  82S  4 
  288  53655.121517  4  21.451  0.862  0.209  0.000   8.709e+00   7.352e+00   1.946e+00   0.000e+00  9  sdss  5713  82S  4 
  289  53655.120687  0  23.563  1.450  0.306  0.000   1.262e+00   2.140e+00   4.527e-01   0.000e+00  6  sdss  5713  82S  4 
  259  53657.209317  1  28.842  0.409  0.400  0.000  -9.854e+00   3.515e+00   3.598e+00   0.000e+00  9  sdss  5729  82S  4 
  259  53657.206000  2  28.150  0.477  0.340  0.000  -9.452e+00   3.899e+00   2.957e+00   0.000e+00  9  sdss  5729  82S  4 
 1443  53657.206829  3  20.725  0.261  0.271  0.000   1.829e+01   4.282e+00   4.525e+00   0.000e+00  9  sdss  5729  82S  4 
  290  53657.208488  4  19.924  0.376  0.319  0.000   3.839e+01   1.275e+01   1.126e+01   0.000e+00  9  sdss  5729  82S  4 
 1411  53657.207659  0  26.694  3.096  1.849  0.000  -3.325e+00   9.617e+00   5.740e+00   0.000e+00  6  sdss  5729  82S  4 
  289  53664.146321  1  22.959  0.586  0.167  0.000   2.291e+00   1.173e+00   3.630e-01   0.000e+00  9  sdss  5754  82S  4 
  256  53664.143004  2  25.846  1.499  0.392  0.000  -9.690e-01   1.826e+00   4.684e-01   0.000e+00  9  sdss  5754  82S  4 
  288  53664.143834  3  20.462  0.120  0.029  0.000   2.331e+01   2.552e+00   6.093e-01   0.000e+00  9  sdss  5754  82S  4 
  288  53664.145492  4  20.642  0.382  0.084  0.000   1.956e+01   6.807e+00   1.552e+00   0.000e+00  9  sdss  5754  82S  4 
  257  53664.144663  0  25.020  1.631  1.273  0.000  -3.491e-01   2.265e+00   1.295e+00   0.000e+00  6  sdss  5754  82S  4 
  288  53666.110061  1  22.582  0.318  0.060  0.000   3.274e+00   9.424e-01   1.822e-01   0.000e+00  9  sdss  5763  82S  4 
  288  53666.106744  2  21.383  0.225  0.018  0.000   1.010e+01   2.057e+00   1.673e-01   0.000e+00  9  sdss  5763  82S  4 
  288  53666.107573  3  21.012  0.202  0.022  0.000   1.403e+01   2.561e+00   2.873e-01   0.000e+00  9  sdss  5763  82S  4 
  256  53666.109232  4  25.691  0.302  0.041  0.000  -3.664e+01   9.942e+00   1.380e+00   0.000e+00  9  sdss  5763  82S  4 
  288  53666.108402  0  22.849  0.724  0.044  0.000   2.704e+00   1.694e+00   1.137e-01   0.000e+00  6  sdss  5763  82S  4 
  288  53669.105375  1  22.143  0.214  0.033  0.000   4.931e+00   9.569e-01   1.505e-01   0.000e+00  9  sdss  5776  82S  4 
  256  53669.102059  2  27.610  0.380  0.043  0.000  -5.727e+00   1.939e+00   2.268e-01   0.000e+00  9  sdss  5776  82S  4 
  288  53669.102888  3  20.808  0.200  0.019  0.000   1.694e+01   3.065e+00   2.998e-01   0.000e+00  9  sdss  5776  82S  4 
  288  53669.104546  4  22.114  1.284  0.109  0.000   3.767e+00   8.408e+00   6.512e-01   0.000e+00  9  sdss  5776  82S  4 
  296  53669.103717  0  22.911  0.706  0.290  0.000   2.542e+00   1.579e+00   7.123e-01   0.000e+00  6  sdss  5776  82S  4 
  256  53674.088940  1  25.851  1.208  0.339  0.000  -4.649e-01   9.435e-01   2.459e-01   0.000e+00  9  sdss  5797  82S  4 
  288  53674.085624  2  22.858  0.940  0.142  0.000   2.526e+00   1.949e+00   3.478e-01   0.000e+00  9  sdss  5797  82S  4 
  288  53674.086453  3  23.115  1.504  0.215  0.000   1.823e+00   2.887e+00   4.393e-01   0.000e+00  9  sdss  5797  82S  4 
  288  53674.088111  4  21.597  1.087  0.302  0.000   7.417e+00   8.365e+00   2.512e+00   0.000e+00  9  sdss  5797  82S  4 
  296  53674.087282  0  23.604  1.189  0.674  0.000   1.199e+00   1.673e+00   9.708e-01   0.000e+00  6  sdss  5797  82S  4 
  256  53676.178166  1  27.953  0.260  0.026  0.000  -4.326e+00   1.017e+00   1.050e-01   0.000e+00  9  sdss  5807  82S  4 
  288  53676.174849  2  20.171  0.078  0.038  0.000   3.087e+01   2.208e+00   1.069e+00   0.000e+00  9  sdss  5807  82S  4 
  288  53676.177337  4  21.300  0.664  0.149  0.000   1.022e+01   6.493e+00   1.565e+00   0.000e+00  9  sdss  5807  82S  4 
 1408  53676.176508  0  25.767  1.332  0.172  0.000  -1.260e+00   1.931e+00   2.540e-01   0.000e+00  6  sdss  5807  82S  4 
 1293  53681.141417  1  27.284  1.911  1.418  0.000  -2.307e+00   2.807e+00   3.095e+00   0.000e+00  9  sdss  5836  82S  4 
 1421  53681.138101  2  26.994  2.381  1.813  0.000  -3.208e+00   4.939e+00   5.515e+00   0.000e+00  9  sdss  5836  82S  4 
 1325  53681.138930  3  21.352  1.031  0.656  0.000   1.025e+01   7.640e+00   6.178e+00   0.000e+00  9  sdss  5836  82S  4 
 1316  53681.140588  4  20.412  1.723  0.356  0.000   2.434e+01   2.535e+01   8.065e+00   0.000e+00  9  sdss  5836  82S  4 
 1452  53681.139759  0  21.720  2.295  0.803  0.000   7.891e+00   8.536e+00   5.673e+00   0.000e+00  6  sdss  5836  82S  4 
  289  53685.100024  1  23.227  1.397  0.403  0.000   1.767e+00   1.842e+00   6.901e-01   0.000e+00  9  sdss  5853  82S  4 
  257  53685.096707  2  27.463  0.517  0.141  0.000  -4.993e+00   2.239e+00   6.527e-01   0.000e+00  9  sdss  5853  82S  4 
  257  53685.097536  3  26.190  1.024  0.503  0.000  -3.343e+00   2.811e+00   1.644e+00   0.000e+00  9  sdss  5853  82S  4 
  288  53685.099194  4  21.460  0.943  0.102  0.000   8.624e+00   7.914e+00   9.446e-01   0.000e+00  9  sdss  5853  82S  4 
  293  53685.098365  0  21.741  0.894  0.287  0.000   7.738e+00   5.137e+00   1.989e+00   0.000e+00  6  sdss  5853  82S  4 
  417  53687.137991  1  22.312  0.453  0.085  0.000   4.214e+00   1.669e+00   3.319e-01   0.000e+00  9  sdss  5870  82S  4 
  257  53687.134675  2  25.148  1.638  0.617  0.000  -2.812e-01   1.882e+00   5.183e-01   0.000e+00  9  sdss  5870  82S  4 
  289  53687.135504  3  20.802  0.193  0.029  0.000   1.704e+01   2.975e+00   4.475e-01   0.000e+00  9  sdss  5870  82S  4 
  288  53687.137162  4  22.143  1.061  0.279  0.000   3.593e+00   6.605e+00   1.639e+00   0.000e+00  9  sdss  5870  82S  4 
  257  53687.136333  0  27.509  0.727  0.082  0.000  -7.181e+00   4.112e+00   5.305e-01   0.000e+00  6  sdss  5870  82S  4 
 1444  53697.096532  1  21.580  0.425  0.172  0.000   8.305e+00   3.069e+00   1.305e+00   0.000e+00  9  sdss  5895  82S  4 
 1316  53697.093215  2  22.229  1.543  0.337  0.000   4.598e+00   4.403e+00   1.442e+00   0.000e+00  9  sdss  5895  82S  4 
 1316  53697.094045  3  20.593  0.300  0.102  0.000   2.065e+01   5.521e+00   1.918e+00   0.000e+00  9  sdss  5895  82S  4 
 1316  53697.095703  4  19.507  0.396  0.054  0.000   5.650e+01   1.960e+01   2.804e+00   0.000e+00  9  sdss  5895  82S  4 
 1284  53697.094874  0  27.171  1.846  0.275  0.000  -5.234e+00   5.475e+00   1.304e+00   0.000e+00  6  sdss  5895  82S  4 
  256  53700.095583  1  26.967  0.698  0.132  0.000  -1.697e+00   1.048e+00   2.175e-01   0.000e+00  9  sdss  5905  82S  4 
  288  53700.092266  2  21.536  0.207  0.049  0.000   8.762e+00   1.644e+00   3.929e-01   0.000e+00  9  sdss  5905  82S  4 
  288  53700.093096  3  20.738  0.168  0.023  0.000   1.807e+01   2.762e+00   3.828e-01   0.000e+00  9  sdss  5905  82S  4 
  288  53700.094754  4  20.540  0.343  0.042  0.000   2.156e+01   6.726e+00   8.447e-01   0.000e+00  9  sdss  5905  82S  4 
  288  53700.093925  0  22.883  0.880  0.174  0.000   2.615e+00   1.936e+00   4.373e-01   0.000e+00  6  sdss  5905  82S  4 
  288  53705.081589  1  24.844  1.330  0.551  0.000   1.633e-01   1.004e+00   3.348e-01   0.000e+00  9  sdss  5924  82S  4 
  256  53705.078272  2  25.794  1.455  0.464  0.000  -9.076e-01   1.731e+00   5.349e-01   0.000e+00  9  sdss  5924  82S  4 
  288  53705.079102  3  21.769  0.416  0.105  0.000   6.946e+00   2.563e+00   6.764e-01   0.000e+00  9  sdss  5924  82S  4 
  288  53705.080760  4  21.029  0.577  0.250  0.000   1.344e+01   7.101e+00   3.296e+00   0.000e+00  9  sdss  5924  82S  4 
  296  53705.079931  0  24.381  1.566  1.824  0.000   2.793e-01   2.115e+00   1.824e+00   0.000e+00  6  sdss  5924  82S  4 
