# SDSS CID:  14090 IAU:          RA:  11.661061 DEC:  -0.734485  (J2000)
# GALAXY_SB [ugriz] = [ 24.17 23.55 22.42 21.92 21.52 ] +/- [  0.41  0.07  0.03  0.02  0.08 ] (asinh mag/square arcsec)
# GALAXY_SB_FLUX [ugriz] = [  4.648E-01  1.277E+00  3.825E+00  6.035E+00  8.022E+00 ] +/- [  4.333E-01  9.104E-02  1.097E-01  1.374E-01  6.735E-01 ] (microJy per square arcsec)
#FLAG  MJD       FILT  MAG     MERR  MSKYERR MGALERR  FLUX       FLUXERR    SKYERR     GALERR    NPRE TELE   RUN  STRIP  IDCCD
   32  53975.335887  1  25.060  0.792  0.549  0.869   3.403e-02   5.093e-01   3.237e-01   5.122e-01  11  sdss  6287  82S  2 
   32  53975.332569  2  23.827  0.680  0.348  0.409   8.880e-01   7.633e-01   3.994e-01   4.695e-01  11  sdss  6287  82S  2 
   32  53975.333399  3  23.972  0.856  0.510  0.486   4.724e-01   1.165e+00   6.443e-01   6.131e-01  11  sdss  6287  82S  2 
    0  53975.335057  4  23.179  0.736  0.381  0.559  -1.719e+00   3.997e+00   1.952e+00   2.861e+00  11  sdss  6287  82S  2 
    0  53975.334228  0  24.191  1.345  0.482  2.971   4.750e-01   1.711e+00   5.128e-01   3.158e+00  7  sdss  6287  82S  2 
   33  53990.349551  1  24.047  1.279  0.580  0.590   7.384e-01   1.125e+00   5.249e-01   5.339e-01  11  sdss  6330  82S  2 
   33  53990.346234  2  22.843  0.663  0.158  0.238   2.564e+00   1.517e+00   3.969e-01   5.974e-01  11  sdss  6330  82S  2 
   32  53990.347063  3  22.734  0.539  0.333  0.248   2.737e+00   1.427e+00   9.289e-01   6.927e-01  11  sdss  6330  82S  2 
    0  53990.348722  4  21.327  0.476  0.249  0.365   9.937e+00   4.699e+00   2.554e+00   3.746e+00  11  sdss  6330  82S  2 
    1  53990.347892  0  23.952  1.960  0.499  2.995   7.427e-01   3.192e+00   5.913e-01   3.552e+00  7  sdss  6330  82S  2 
    0  53994.359666  1  23.463  0.388  0.116  0.287   1.398e+00   5.373e-01   1.650e-01   4.093e-01  11  sdss  6355  82S  2 
    0  53994.356348  2  22.511  0.257  0.118  0.166   3.524e+00   8.508e-01   3.961e-01   5.578e-01  11  sdss  6355  82S  2 
   32  53994.357178  3  22.279  0.320  0.209  0.186   4.285e+00   1.289e+00   8.632e-01   7.675e-01  11  sdss  6355  82S  2 
    0  53994.358836  4  22.189  0.705  0.360  0.531   3.327e+00   4.137e+00   2.064e+00   3.047e+00  11  sdss  6355  82S  2 
    0  53994.358007  0  23.477  1.218  0.285  2.202   1.395e+00   1.830e+00   4.587e-01   3.543e+00  7  sdss  6355  82S  2 
   32  53996.343519  1  23.866  0.539  0.298  0.604   9.114e-01   5.373e-01   3.082e-01   6.239e-01  11  sdss  6367  82S  2 
   32  53996.340202  2  22.764  0.359  0.101  0.279   2.767e+00   9.371e-01   2.728e-01   7.508e-01  11  sdss  6367  82S  2 
   32  53996.341031  3  22.560  0.398  0.149  0.259   3.258e+00   1.243e+00   4.818e-01   8.370e-01  11  sdss  6367  82S  2 
    0  53996.342690  4  23.073  0.778  0.537  0.774  -1.181e+00   4.190e+00   2.681e+00   3.864e+00  11  sdss  6367  82S  2 
    8  53996.341860  0  25.345  1.372  2.061  4.161  -7.024e-01   1.815e+00   2.401e+00   4.847e+00  7  sdss  6367  82S  2 
   32  53998.312460  1  23.592  0.562  0.702  0.860   1.225e+00   6.836e-01   9.003e-01   1.103e+00  11  sdss  6377  82S  2 
 1164  53998.309143  2  21.949  0.265  0.527  0.164   5.970e+00   1.458e+00   2.950e+00   9.170e-01  11  sdss  6377  82S  2 
   32  53998.309972  3  22.447  0.412  0.247  0.268   3.641e+00   1.416e+00   8.825e-01   9.575e-01  11  sdss  6377  82S  2 
    0  53998.311631  4  21.813  0.801  0.625  0.852   5.737e+00   5.556e+00   4.465e+00   6.080e+00  11  sdss  6377  82S  2 
    0  53998.310802  0  25.262  1.498  0.565  4.185  -6.076e-01   2.029e+00   6.319e-01   4.682e+00  7  sdss  6377  82S  2 
    0  54005.342536  1  24.027  0.532  0.188  0.339   7.564e-01   4.759e-01   1.722e-01   3.113e-01  11  sdss  6402  82S  2 
    0  54005.339219  2  22.528  0.224  0.069  0.097   3.468e+00   7.319e-01   2.306e-01   3.226e-01  11  sdss  6402  82S  2 
    0  54005.340048  3  22.136  0.231  0.051  0.072   4.912e+00   1.070e+00   2.391e-01   3.373e-01  11  sdss  6402  82S  2 
    0  54005.341706  4  21.895  0.586  0.248  0.311   5.167e+00   3.910e+00   1.682e+00   2.108e+00  11  sdss  6402  82S  2 
    8  54005.340877  0  25.668  1.038  0.719  1.402  -1.116e+00   1.430e+00   1.015e+00   1.979e+00  7  sdss  6402  82S  2 
    0  54008.303542  1  23.713  0.475  0.414  0.444   1.078e+00   5.337e-01   4.823e-01   5.171e-01  11  sdss  6417  82S  2 
    0  54008.300224  2  22.766  0.287  0.108  0.140   2.762e+00   7.550e-01   2.890e-01   3.759e-01  11  sdss  6417  82S  2 
    0  54008.301054  3  22.413  0.320  0.170  0.143   3.763e+00   1.149e+00   6.235e-01   5.271e-01  11  sdss  6417  82S  2 
    0  54008.302712  4  22.088  0.669  0.165  0.429   3.923e+00   4.069e+00   9.989e-01   2.593e+00  11  sdss  6417  82S  2 
    8  54008.301883  0  25.135  1.311  1.149  2.642  -4.693e-01   1.649e+00   1.219e+00   2.802e+00  7  sdss  6417  82S  2 
    1  54010.297940  1  26.107  0.769  0.401  0.402  -6.663e-01   6.402e-01   3.432e-01   3.438e-01  11  sdss  6425  82S  2 
    0  54010.294623  2  23.217  0.465  0.172  0.175   1.767e+00   8.150e-01   3.135e-01   3.185e-01  11  sdss  6425  82S  2 
    0  54010.295453  3  22.179  0.252  0.075  0.080   4.715e+00   1.120e+00   3.395e-01   3.633e-01  11  sdss  6425  82S  2 
    0  54010.297111  4  22.143  0.567  0.185  0.366   3.597e+00   3.356e+00   1.084e+00   2.150e+00  11  sdss  6425  82S  2 
    0  54010.296282  0  25.445  1.299  0.239  1.589  -8.221e-01   1.722e+00   2.936e-01   1.954e+00  7  sdss  6425  82S  2 
    1  54012.290672  1  25.611  1.453  0.491  0.434  -3.001e-01   1.165e+00   3.198e-01   2.830e-01  11  sdss  6433  82S  2 
   33  54012.287355  2  24.752  1.252  0.266  0.389   3.969e-02   1.238e+00   2.130e-01   3.108e-01  11  sdss  6433  82S  2 
    1  54012.288184  3  22.388  0.369  0.282  0.093   3.856e+00   1.344e+00   1.060e+00   3.505e-01  11  sdss  6433  82S  2 
    0  54012.289842  4  21.932  0.591  0.188  0.268   4.915e+00   3.869e+00   1.245e+00   1.775e+00  11  sdss  6433  82S  2 
  129  54012.289013  0  23.151  1.814  0.562  0.957   1.991e+00   3.272e+00   1.165e+00   1.984e+00  7  sdss  6433  82S  2 
   25  54020.296665  1  23.407  0.654  1.567  0.395   1.480e+00   9.031e-01   2.348e+00   5.921e-01  11  sdss  6447  82S  2 
   41  54020.293348  2  23.877  1.084  2.024  0.476   8.319e-01   1.201e+00   2.249e+00   5.293e-01  11  sdss  6447  82S  2 
   56  54020.294177  3  22.405  0.435  0.893  0.179   3.793e+00   1.541e+00   3.302e+00   6.615e-01  11  sdss  6447  82S  2 
    0  54020.295836  4  22.873  1.115  1.055  0.883  -1.982e-01   6.445e+00   5.152e+00   4.311e+00  11  sdss  6447  82S  2 
    1  54020.295007  0  26.669  1.022  0.243  1.242  -3.245e+00   2.647e+00   7.634e-01   3.899e+00  7  sdss  6447  82S  2 
   32  54024.378247  1  23.698  0.681  0.465  0.814   1.096e+00   7.497e-01   5.480e-01   9.586e-01  11  sdss  6458  82S  2 
   32  54024.374931  2  23.234  0.643  0.309  0.539   1.736e+00   1.077e+00   5.562e-01   9.691e-01  11  sdss  6458  82S  2 
   32  54024.375760  3  22.901  0.660  0.534  0.524   2.303e+00   1.504e+00   1.299e+00   1.275e+00  11  sdss  6458  82S  2 
   32  54024.377418  4  22.148  0.880  0.197  1.017   3.568e+00   5.326e+00   1.153e+00   5.958e+00  11  sdss  6458  82S  2 
   10  54024.376589  0  25.626  1.719  1.713  4.882  -1.058e+00   2.641e+00   2.351e+00   6.704e+00  7  sdss  6458  82S  2 
   32  54028.366280  1  24.216  0.750  0.884  0.802   5.946e-01   5.978e-01   7.142e-01   6.481e-01  11  sdss  6471  82S  2 
   32  54028.362963  2  24.334  1.062  0.542  0.832   3.861e-01   1.033e+00   4.746e-01   7.289e-01  11  sdss  6471  82S  2 
   32  54028.363792  3  22.211  0.370  0.267  0.245   4.572e+00   1.572e+00   1.174e+00   1.075e+00  11  sdss  6471  82S  2 
    0  54028.365451  4  23.050  1.079  0.371  1.169  -1.065e+00   6.223e+00   1.847e+00   5.811e+00  11  sdss  6471  82S  2 
 1160  54028.364622  0  22.628  0.912  0.896  1.651   3.354e+00   2.504e+00   2.902e+00   5.341e+00  7  sdss  6471  82S  2 
    0  54030.289858  1  25.188  0.753  0.213  0.539  -4.115e-02   4.807e-01   1.256e-01   3.181e-01  11  sdss  6479  82S  2 
   32  54030.286541  2  23.578  0.567  0.152  0.221   1.199e+00   7.482e-01   2.086e-01   3.022e-01  11  sdss  6479  82S  2 
   32  54030.287370  3  23.240  0.594  0.164  0.176   1.577e+00   1.082e+00   3.072e-01   3.305e-01  11  sdss  6479  82S  2 
    0  54030.289029  4  21.637  0.488  0.210  0.260   7.083e+00   3.842e+00   1.695e+00   2.096e+00  11  sdss  6479  82S  2 
  128  54030.288200  0  25.519  1.163  0.195  1.506  -9.150e-01   1.536e+00   2.501e-01   1.934e+00  7  sdss  6479  82S  2 
   32  54035.365400  1  24.036  0.787  0.713  1.009   7.482e-01   6.890e-01   6.503e-01   9.203e-01  11  sdss  6501  82S  2 
   32  54035.362083  2  24.505  1.325  1.069  1.644   2.401e-01   1.357e+00   8.870e-01   1.364e+00  11  sdss  6501  82S  2 
   32  54035.362913  3  23.478  1.076  1.046  0.943   1.167e+00   1.738e+00   1.676e+00   1.510e+00  11  sdss  6501  82S  2 
    0  54035.364571  4  23.165  1.096  0.844  1.233  -1.647e+00   6.424e+00   4.304e+00   6.292e+00  11  sdss  6501  82S  2 
    2  54035.363742  0  25.347  1.843  1.376  6.031  -7.047e-01   2.854e+00   1.604e+00   7.032e+00  7  sdss  6501  82S  2 
   32  54037.270870  1  24.310  0.710  0.404  0.617   5.208e-01   5.412e-01   3.079e-01   4.704e-01  11  sdss  6508  82S  2 
    0  54037.267553  2  24.907  0.922  0.616  0.576  -8.413e-02   8.300e-01   4.948e-01   4.626e-01  11  sdss  6508  82S  2 
   32  54037.268383  3  24.014  0.867  0.471  0.398   4.187e-01   1.172e+00   5.864e-01   4.952e-01  11  sdss  6508  82S  2 
    0  54037.270041  4  22.039  0.618  0.283  0.438   4.227e+00   3.839e+00   1.756e+00   2.721e+00  11  sdss  6508  82S  2 
    4  54037.269212  0  25.837  1.106  0.290  1.725  -1.369e+00   1.647e+00   4.610e-01   2.741e+00  7  sdss  6508  82S  2 
   33  54040.285074  1  24.515  1.696  1.176  0.952   3.739e-01   1.498e+00   8.048e-01   6.513e-01  11  sdss  6518  82S  2 
    1  54040.281758  2  26.780  0.607  0.213  0.222  -2.612e+00   1.429e+00   5.443e-01   5.664e-01  11  sdss  6518  82S  2 
    1  54040.282587  3  24.371  1.169  1.006  0.614  -1.083e-02   1.667e+00   1.191e+00   7.274e-01  11  sdss  6518  82S  2 
    0  54040.284245  4  22.164  0.900  0.561  0.722   3.473e+00   5.436e+00   3.259e+00   4.192e+00  11  sdss  6518  82S  2 
    1  54040.283416  0  26.159  1.913  0.293  1.644  -1.949e+00   3.495e+00   5.977e-01   3.352e+00  7  sdss  6518  82S  2 
    3  54047.315381  1  21.945  0.614  0.703  0.423   5.922e+00   3.090e+00   3.900e+00   2.343e+00  11  sdss  6530  82S  2 
 1163  54047.312064  2  27.149  1.131  3.354  0.798  -3.716e+00   3.108e+00   1.188e+01   2.827e+00  11  sdss  6530  82S  2 
    1  54047.312893  3  24.745  2.229  6.926  3.284  -4.628e-01   4.945e+00   8.718e+00   4.135e+00  11  sdss  6530  82S  2 
   34  54047.314552  4  21.892  1.168  1.138  1.731   5.187e+00   7.969e+00   7.725e+00   1.174e+01  11  sdss  6530  82S  2 
    1  54047.313722  0  20.936  1.031  0.406  0.837   1.630e+01   1.211e+01   6.112e+00   1.259e+01  7  sdss  6530  82S  2 
   33  54049.311264  1  24.450  1.639  1.125  1.510   4.185e-01   1.428e+00   7.945e-01   1.066e+00  11  sdss  6537  82S  2 
    1  54049.307948  2  26.206  0.971  0.481  0.598  -1.461e+00   1.372e+00   7.572e-01   9.411e-01  11  sdss  6537  82S  2 
   32  54049.308777  3  22.348  0.433  0.359  0.276   4.009e+00   1.612e+00   1.396e+00   1.073e+00  11  sdss  6537  82S  2 
    0  54049.310435  4  21.580  0.783  0.654  0.722   7.561e+00   6.205e+00   5.510e+00   6.082e+00  11  sdss  6537  82S  2 
    3  54049.309606  0  22.047  1.017  0.171  1.099   5.818e+00   4.414e+00   9.325e-01   5.979e+00  7  sdss  6537  82S  2 
   32  54053.275387  1  24.381  0.736  0.716  0.779   4.684e-01   5.447e-01   5.242e-01   5.709e-01  11  sdss  6555  82S  2 
   32  54053.272070  2  23.693  0.649  0.246  0.348   1.049e+00   7.886e-01   3.093e-01   4.379e-01  11  sdss  6555  82S  2 
   32  54053.272899  3  23.231  0.642  0.377  0.306   1.594e+00   1.171e+00   7.128e-01   5.794e-01  11  sdss  6555  82S  2 
    0  54053.274558  4  23.720  0.673  0.362  0.486  -4.823e+00   4.370e+00   2.376e+00   3.188e+00  11  sdss  6555  82S  2 
    0  54053.273728  0  24.094  1.360  0.357  3.012   5.801e-01   1.760e+00   3.948e-01   3.332e+00  7  sdss  6555  82S  2 
  128  54056.276784  1  25.451  0.926  1.429  1.328  -1.992e-01   6.295e-01   8.822e-01   8.200e-01  11  sdss  6568  82S  2 
    0  54056.273467  2  25.424  1.029  0.749  0.919  -5.242e-01   1.028e+00   7.008e-01   8.596e-01  11  sdss  6568  82S  2 
   32  54056.274296  3  23.246  0.766  0.485  0.445   1.566e+00   1.372e+00   9.071e-01   8.321e-01  11  sdss  6568  82S  2 
    0  54056.275955  4  21.469  0.570  0.336  0.415   8.540e+00   4.993e+00   3.077e+00   3.805e+00  11  sdss  6568  82S  2 
    0  54056.275126  0  23.394  1.516  0.496  2.992   1.533e+00   2.411e+00   8.491e-01   5.121e+00  7  sdss  6568  82S  2 
    2  54059.270822  1  25.954  1.066  1.357  2.441  -5.423e-01   8.421e-01   1.052e+00   1.893e+00  11  sdss  6580  82S  2 
    2  54059.267505  2  25.303  1.202  0.980  1.786  -4.149e-01   1.216e+00   8.692e-01   1.584e+00  11  sdss  6580  82S  2 
    0  54059.268335  3  25.556  0.884  1.030  0.958  -1.717e+00   1.644e+00   2.038e+00   1.898e+00  11  sdss  6580  82S  2 
  160  54059.269993  4  21.732  0.823  0.897  1.131   6.340e+00   5.955e+00   6.769e+00   8.536e+00  11  sdss  6580  82S  2 
    2  54059.269164  0  23.603  1.680  1.131  5.476   1.202e+00   2.603e+00   1.664e+00   8.050e+00  7  sdss  6580  82S  2 
    0  54062.275454  1  25.193  0.909  0.860  1.177  -4.407e-02   6.008e-01   5.072e-01   6.947e-01  11  sdss  6596  82S  2 
    0  54062.272137  2  25.865  0.848  0.328  0.587  -9.911e-01   9.932e-01   3.994e-01   7.152e-01  11  sdss  6596  82S  2 
    0  54062.272967  3  24.646  0.967  0.868  0.559  -3.404e-01   1.326e+00   1.064e+00   6.854e-01  11  sdss  6596  82S  2 
    0  54062.274625  4  23.546  0.862  0.507  0.710  -3.736e+00   5.261e+00   3.013e+00   4.216e+00  11  sdss  6596  82S  2 
    0  54062.273796  0  26.311  1.157  0.290  1.889  -2.279e+00   2.242e+00   6.699e-01   4.367e+00  7  sdss  6596  82S  2 
    3  54068.255605  1  27.302  0.990  0.881  0.557  -2.347e+00   1.838e+00   1.995e+00   1.261e+00  11  sdss  6618  82S  2 
    1  54068.252288  2  26.296  1.188  0.845  0.633  -1.606e+00   1.730e+00   1.431e+00   1.071e+00  11  sdss  6618  82S  2 
    0  54068.253117  3  26.080  0.707  1.015  0.472  -2.995e+00   1.940e+00   3.058e+00   1.422e+00  11  sdss  6618  82S  2 
   32  54068.254776  4  22.161  1.068  0.892  1.079   3.491e+00   6.622e+00   5.192e+00   6.277e+00  11  sdss  6618  82S  2 
    3  54068.253946  0  21.952  0.992  0.701  1.227   6.358e+00   4.724e+00   4.159e+00   7.279e+00  7  sdss  6618  82S  2 
