# SDSS CID:  19119 IAU: 2005hk   RA:   6.954778 DEC:  -1.117863  (J2000)
# GALAXY_SB [ugriz] = [ 24.41 24.76 24.38 23.85 22.53 ] +/- [  0.34  0.15  0.16  0.11  0.12 ] (asinh mag/square arcsec)
# GALAXY_SB_FLUX [ugriz] = [  2.157E-01  2.129E-01  3.491E-01  6.324E-01  1.442E+00 ] +/- [  3.398E-01  9.361E-02  1.381E-01  1.405E-01  6.134E-01 ] (microJy per square arcsec)
#FLAG  MJD       FILT  MAG     MERR  MSKYERR MGALERR  FLUX       FLUXERR    SKYERR     GALERR    NPRE TELE   RUN  STRIP  IDCCD
    0  54357.302809  1  22.875  0.215  0.034  0.185   2.481e+00   4.976e-01   7.927e-02   4.318e-01  8  sdss  6955  82S  1 
   32  54357.299492  2  22.807  0.300  0.043  0.249   2.656e+00   7.545e-01   1.108e-01   6.394e-01  8  sdss  6955  82S  1 
   32  54357.300321  3  23.298  0.651  0.187  0.332   1.472e+00   1.136e+00   3.365e-01   5.962e-01  11  sdss  6955  82S  1 
   32  54357.301980  4  21.762  0.498  0.178  0.415   6.109e+00   3.628e+00   1.323e+00   3.084e+00  10  sdss  6955  82S  1 
    0  54357.301151  0  22.062  0.291  0.090  0.346   5.741e+00   1.459e+00   4.595e-01   1.774e+00  10  sdss  6955  82S  1 
   32  54362.352624  1  23.210  0.322  0.057  0.348   1.799e+00   5.486e-01   9.955e-02   6.069e-01  8  sdss  6976  82S  1 
    0  54362.349307  2  22.581  0.273  0.050  0.239   3.299e+00   8.414e-01   1.583e-01   7.488e-01  8  sdss  6976  82S  1 
    0  54362.350136  3  22.263  0.317  0.174  0.162   4.350e+00   1.289e+00   7.235e-01   6.765e-01  11  sdss  6976  82S  1 
   32  54362.351794  4  21.882  0.691  0.172  0.568   5.249e+00   4.655e+00   1.182e+00   3.896e+00  10  sdss  6976  82S  1 
   32  54362.350965  0  22.510  0.512  0.186  0.778   3.759e+00   1.657e+00   6.409e-01   2.676e+00  10  sdss  6976  82S  1 
 1198  54379.342759  1  23.733  1.307  2.377  1.332   1.056e+00   1.305e+00   2.684e+00   1.504e+00  8  sdss  7024  82S  1 
   32  54379.339442  2  23.690  0.917  0.267  1.245   1.052e+00   1.095e+00   3.352e-01   1.562e+00  8  sdss  7024  82S  1 
 1160  54379.340271  3  22.945  0.606  0.711  0.275   2.195e+00   1.342e+00   1.664e+00   6.425e-01  11  sdss  7024  82S  1 
 1164  54379.341930  4  24.407  0.960  1.288  0.627  -1.066e+01   9.222e+00   1.410e+01   6.855e+00  10  sdss  7024  82S  1 
 1164  54379.341101  0  21.468  0.416  0.415  0.470   9.972e+00   3.497e+00   3.654e+00   4.140e+00  10  sdss  7024  82S  1 
   34  54382.332863  1  22.927  0.370  0.153  0.896   2.361e+00   7.986e-01   3.420e-01   2.001e+00  8  sdss  7038  82S  1 
   32  54382.329546  2  23.575  0.849  0.309  1.335   1.203e+00   1.086e+00   4.214e-01   1.823e+00  8  sdss  7038  82S  1 
   32  54382.330375  3  22.900  0.690  0.471  0.581   2.304e+00   1.558e+00   1.143e+00   1.410e+00  11  sdss  7038  82S  1 
  162  54382.332034  4  21.858  0.971  0.792  1.363   5.416e+00   6.629e+00   5.521e+00   9.495e+00  10  sdss  7038  82S  1 
    2  54382.331205  0  21.868  0.414  0.248  1.090   6.876e+00   2.420e+00   1.516e+00   6.664e+00  10  sdss  7038  82S  1 
    0  54385.350773  1  22.794  0.211  0.034  0.197   2.680e+00   5.244e-01   8.513e-02   4.945e-01  8  sdss  7051  82S  1 
    8  54385.347456  2  22.484  0.213  0.091  0.148   3.618e+00   7.219e-01   3.127e-01   5.080e-01  8  sdss  7051  82S  1 
   32  54385.348285  3  22.939  0.501  0.151  0.217   2.209e+00   1.133e+00   3.560e-01   5.099e-01  11  sdss  7051  82S  1 
   32  54385.349944  4  21.995  0.560  0.374  0.430   4.506e+00   3.561e+00   2.394e+00   2.750e+00  10  sdss  7051  82S  1 
   32  54385.349114  0  22.511  0.494  0.254  0.718   3.755e+00   1.602e+00   8.720e-01   2.465e+00  10  sdss  7051  82S  1 
   34  54387.351130  1  22.778  0.275  0.117  0.484   2.721e+00   6.880e-01   2.992e-01   1.233e+00  8  sdss  7057  82S  1 
    0  54387.347813  2  22.744  0.360  0.097  0.407   2.823e+00   9.481e-01   2.643e-01   1.105e+00  8  sdss  7057  82S  1 
   32  54387.348642  3  24.046  1.011  0.507  0.917   3.801e-01   1.406e+00   6.260e-01   1.132e+00  11  sdss  7057  82S  1 
    0  54387.350301  4  22.869  0.944  0.912  1.320  -1.765e-01   5.209e+00   4.451e+00   6.442e+00  10  sdss  7057  82S  1 
   34  54387.349472  0  23.358  1.417  0.552  3.014   1.597e+00   2.227e+00   9.407e-01   5.136e+00  10  sdss  7057  82S  1 
  162  54392.345623  1  24.366  0.971  0.196  2.083   4.789e-01   7.333e-01   1.433e-01   1.527e+00  8  sdss  7076  82S  1 
    0  54392.342306  2  22.759  0.430  0.315  0.524   2.783e+00   1.104e+00   8.439e-01   1.405e+00  8  sdss  7076  82S  1 
   32  54392.343135  3  22.545  0.557  0.264  0.499   3.306e+00   1.702e+00   8.618e-01   1.627e+00  11  sdss  7076  82S  1 
    0  54392.344793  4  23.378  0.942  0.671  1.126  -2.775e+00   5.539e+00   3.692e+00   6.193e+00  10  sdss  7076  82S  1 
   34  54392.343964  0  22.986  1.357  0.954  3.204   2.358e+00   2.544e+00   2.179e+00   7.320e+00  10  sdss  7076  82S  1 
    9  54394.333507  1  22.948  0.391  0.364  0.372   2.315e+00   8.263e-01   7.980e-01   8.163e-01  8  sdss  7084  82S  1 
   32  54394.330190  2  22.866  0.563  0.285  0.535   2.508e+00   1.283e+00   6.954e-01   1.306e+00  8  sdss  7084  82S  1 
    0  54394.331019  3  22.148  0.371  0.216  0.237   4.856e+00   1.657e+00   9.985e-01   1.093e+00  11  sdss  7084  82S  1 
    0  54394.332678  4  21.386  0.513  0.222  0.447   9.339e+00   4.854e+00   2.193e+00   4.412e+00  10  sdss  7084  82S  1 
   32  54394.331849  0  23.133  1.275  0.181  1.689   2.030e+00   2.219e+00   3.663e-01   3.426e+00  10  sdss  7084  82S  1 
  161  54402.343856  1  23.513  1.581  0.349  0.602   1.329e+00   1.754e+00   4.699e-01   8.113e-01  8  sdss  7101  82S  1 
   33  54402.340539  2  23.095  0.854  0.190  0.421   2.000e+00   1.513e+00   3.806e-01   8.447e-01  8  sdss  7101  82S  1 
    1  54402.341368  3  22.394  0.541  0.172  0.250   3.833e+00   1.883e+00   6.403e-01   9.296e-01  11  sdss  7101  82S  1 
    0  54402.343027  4  23.431  0.861  0.403  0.665  -3.064e+00   5.068e+00   2.269e+00   3.747e+00  10  sdss  7101  82S  1 
    1  54402.342197  0  26.186  2.352  0.383  1.556  -2.004e+00   4.899e+00   7.683e-01   3.124e+00  10  sdss  7101  82S  1 
    0  54408.257564  1  23.371  0.352  0.068  0.352   1.534e+00   5.212e-01   1.038e-01   5.348e-01  8  sdss  7127  82S  1 
   32  54408.254248  2  23.128  0.461  0.216  0.361   1.935e+00   8.621e-01   4.222e-01   7.039e-01  8  sdss  7127  82S  1 
    0  54408.255077  3  22.553  0.404  0.099  0.179   3.280e+00   1.263e+00   3.197e-01   5.789e-01  11  sdss  7127  82S  1 
   32  54408.256735  4  21.611  0.544  0.351  0.399   7.297e+00   4.356e+00   2.909e+00   3.304e+00  10  sdss  7127  82S  1 
   40  54408.255906  0  22.442  0.451  0.238  0.671   4.008e+00   1.567e+00   8.686e-01   2.447e+00  10  sdss  7127  82S  1 
    0  54411.215408  1  23.465  0.342  0.044  0.233   1.396e+00   4.687e-01   6.112e-02   3.262e-01  8  sdss  7136  82S  1 
   40  54411.212091  2  22.847  0.323  0.193  0.215   2.554e+00   7.829e-01   4.782e-01   5.336e-01  8  sdss  7136  82S  1 
    0  54411.212921  3  22.572  0.380  0.196  0.150   3.218e+00   1.173e+00   6.235e-01   4.782e-01  11  sdss  7136  82S  1 
   32  54411.214579  4  22.634  0.654  0.190  0.426   9.736e-01   3.427e+00   9.417e-01   2.110e+00  10  sdss  7136  82S  1 
    8  54411.213750  0  22.155  0.298  0.182  0.311   5.260e+00   1.375e+00   8.581e-01   1.468e+00  10  sdss  7136  82S  1 
   32  54413.255800  1  22.826  0.224  0.031  0.250   2.599e+00   5.402e-01   7.647e-02   6.103e-01  8  sdss  7145  82S  1 
    0  54413.252483  2  22.625  0.300  0.060  0.310   3.164e+00   8.863e-01   1.803e-01   9.368e-01  8  sdss  7145  82S  1 
   32  54413.253313  3  23.842  0.923  0.167  0.623   6.393e-01   1.307e+00   2.209e-01   8.237e-01  11  sdss  7145  82S  1 
   32  54413.254971  4  22.103  0.669  0.484  0.534   3.834e+00   4.055e+00   2.913e+00   3.209e+00  10  sdss  7145  82S  1 
   32  54413.254142  0  22.389  0.453  0.027  0.729   4.216e+00   1.649e+00   1.034e-01   2.787e+00  10  sdss  7145  82S  1 
    0  54417.257627  1  22.950  0.247  0.042  0.275   2.311e+00   5.328e-01   9.149e-02   6.019e-01  8  sdss  7158  82S  1 
    0  54417.254310  2  22.502  0.250  0.044  0.214   3.557e+00   8.294e-01   1.474e-01   7.218e-01  8  sdss  7158  82S  1 
   32  54417.255139  3  23.076  0.633  0.275  0.310   1.904e+00   1.273e+00   5.800e-01   6.549e-01  11  sdss  7158  82S  1 
   32  54417.256798  4  21.926  0.646  0.310  0.455   4.957e+00   4.252e+00   2.066e+00   3.032e+00  10  sdss  7158  82S  1 
   32  54417.255969  0  22.782  0.665  0.127  1.037   2.889e+00   1.651e+00   3.459e-01   2.815e+00  10  sdss  7158  82S  1 
    0  54418.255533  1  22.825  0.239  0.109  0.312   2.602e+00   5.758e-01   2.661e-01   7.623e-01  8  sdss  7161  82S  1 
   40  54418.252217  2  23.115  0.433  0.241  0.399   1.961e+00   8.227e-01   4.749e-01   7.866e-01  8  sdss  7161  82S  1 
   32  54418.253046  3  22.699  0.487  0.243  0.297   2.834e+00   1.332e+00   6.960e-01   8.501e-01  11  sdss  7161  82S  1 
    0  54418.254704  4  23.519  0.685  0.071  0.563  -3.573e+00   4.086e+00   4.172e-01   3.308e+00  10  sdss  7161  82S  1 
   32  54418.253875  0  22.793  0.643  0.089  0.959   2.857e+00   1.592e+00   2.403e-01   2.579e+00  10  sdss  7161  82S  1 
    1  54422.260097  1  22.422  0.305  0.148  0.290   3.802e+00   1.046e+00   5.200e-01   1.019e+00  8  sdss  7173  82S  1 
    0  54422.256780  2  23.139  0.604  0.128  0.490   1.914e+00   1.091e+00   2.468e-01   9.463e-01  8  sdss  7173  82S  1 
   32  54422.257609  3  23.277  0.840  0.236  0.494   1.510e+00   1.469e+00   4.307e-01   9.018e-01  11  sdss  7173  82S  1 
   32  54422.259268  4  21.484  0.568  0.213  0.559   8.405e+00   4.958e+00   1.942e+00   5.100e+00  10  sdss  7173  82S  1 
   41  54422.258439  0  22.473  0.749  0.591  1.108   3.895e+00   2.353e+00   2.100e+00   3.935e+00  10  sdss  7173  82S  1 
