# SDSS CID:   9394 IAU:          RA: 351.204590 DEC:  -0.006468  (J2000)
# GALAXY_SB [ugriz] = [ 23.78 23.96 23.42 23.26 22.41 ] +/- [  0.16  0.06  0.04  0.04  0.06 ] (asinh mag/square arcsec)
# GALAXY_SB_FLUX [ugriz] = [  9.194E-01  8.131E-01  1.427E+00  1.545E+00  2.058E+00 ] +/- [  2.026E-01  6.014E-02  6.786E-02  8.195E-02  3.260E-01 ] (microJy per square arcsec)
#FLAG  MJD       FILT  MAG     MERR  MSKYERR MGALERR  FLUX       FLUXERR    SKYERR     GALERR    NPRE TELE   RUN  STRIP  IDCCD
  132  53616.291299  1  22.568  0.384  0.269  0.145   3.318e+00   1.143e+00   8.332e-01   4.482e-01  32  sdss  5566  82N  3 
   32  53616.287982  2  22.999  0.524  0.427  0.319   2.201e+00   1.076e+00   9.282e-01   6.926e-01  31  sdss  5566  82N  3 
 1188  53616.288811  3  22.334  0.607  0.639  0.161   4.064e+00   2.199e+00   2.511e+00   6.320e-01  32  sdss  5566  82N  3 
    4  53616.290470  4  23.212  0.951  0.269  0.359  -1.885e+00   5.419e+00   1.393e+00   1.861e+00  32  sdss  5566  82N  3 
   44  53616.289641  0  23.566  1.288  0.493  0.823   1.257e+00   1.861e+00   7.311e-01   1.221e+00  19  sdss  5566  82N  3 
   32  53623.281618  1  23.304  0.361  0.080  0.178   1.639e+00   5.665e-01   1.294e-01   2.863e-01  32  sdss  5590  82N  3 
  160  53623.278301  2  22.435  0.281  0.102  0.148   3.790e+00   9.822e-01   3.654e-01   5.278e-01  31  sdss  5590  82N  3 
   32  53623.279130  3  23.686  0.879  0.343  0.270   8.539e-01   1.292e+00   4.882e-01   3.842e-01  32  sdss  5590  82N  3 
    0  53623.280789  4  22.299  0.720  0.120  0.230   2.707e+00   4.091e+00   6.605e-01   1.263e+00  32  sdss  5590  82N  3 
    0  53623.279960  0  23.036  0.875  0.052  0.600   2.241e+00   1.731e+00   1.151e-01   1.335e+00  19  sdss  5590  82N  3 
    1  53626.267581  1  22.768  0.315  0.134  0.105   2.749e+00   7.945e-01   3.456e-01   2.714e-01  32  sdss  5603  82N  3 
   32  53626.264263  2  23.482  0.712  0.169  0.194   1.334e+00   9.790e-01   2.477e-01   2.842e-01  31  sdss  5603  82N  3 
   32  53626.265093  3  23.628  0.865  0.412  0.198   9.376e-01   1.295e+00   6.043e-01   2.907e-01  32  sdss  5603  82N  3 
    0  53626.266751  4  22.232  0.677  0.408  0.196   3.083e+00   3.919e+00   2.308e+00   1.110e+00  32  sdss  5603  82N  3 
    1  53626.265922  0  25.483  1.337  0.457  0.822  -8.695e-01   1.796e+00   5.669e-01   1.021e+00  19  sdss  5603  82N  3 
    1  53627.261548  1  22.522  0.280  0.060  0.076   3.465e+00   8.848e-01   1.946e-01   2.451e-01  32  sdss  5607  82S  4 
   33  53627.258231  2  23.344  0.622  0.072  0.141   1.548e+00   9.551e-01   1.167e-01   2.303e-01  31  sdss  5607  82S  4 
    0  53627.259060  3  22.856  0.518  0.129  0.098   2.414e+00   1.246e+00   3.249e-01   2.464e-01  32  sdss  5607  82S  4 
    0  53627.260719  4  23.038  0.690  0.236  0.187  -1.007e+00   3.642e+00   1.173e+00   9.273e-01  32  sdss  5607  82S  4 
    1  53627.259890  0  22.839  0.985  0.103  0.337   2.732e+00   2.198e+00   2.705e-01   8.855e-01  19  sdss  5607  82S  4 
    1  53628.252564  1  22.481  0.466  0.124  0.129   3.600e+00   1.475e+00   4.145e-01   4.333e-01  32  sdss  5610  82N  3 
    1  53628.249247  2  22.330  0.357  0.120  0.093   4.185e+00   1.356e+00   4.702e-01   3.630e-01  31  sdss  5610  82N  3 
   33  53628.250077  3  23.188  0.904  0.242  0.223   1.678e+00   1.657e+00   4.707e-01   4.345e-01  32  sdss  5610  82N  3 
    0  53628.251735  4  24.055  0.585  0.081  0.178  -7.302e+00   4.699e+00   6.798e-01   1.487e+00  32  sdss  5610  82N  3 
    9  53628.250906  0  22.687  1.423  0.657  0.429   3.169e+00   3.216e+00   1.967e+00   1.285e+00  19  sdss  5610  82N  3 
 1153  53634.254037  1  22.072  0.800  0.277  0.311   5.264e+00   3.324e+00   1.344e+00   1.511e+00  32  sdss  5619  82S  4 
    1  53634.252379  0  28.405  0.583  0.093  0.331  -1.646e+01   7.855e+00   1.372e+00   4.884e+00  19  sdss  5619  82S  4 
   33  53635.260881  1  23.253  1.009  0.481  0.476   1.724e+00   1.426e+00   8.098e-01   8.021e-01  32  sdss  5622  82N  3 
   33  53635.257564  2  24.508  1.465  1.331  1.081   2.378e-01   1.573e+00   1.103e+00   8.953e-01  31  sdss  5622  82N  3 
  160  53635.258393  3  24.032  1.270  0.996  0.757   3.964e-01   1.900e+00   1.234e+00   9.381e-01  32  sdss  5622  82N  3 
  160  53635.260052  4  22.292  1.025  1.006  0.673   2.746e+00   6.125e+00   5.535e+00   3.706e+00  32  sdss  5622  82N  3 
 1163  53635.259223  0  26.709  1.727  0.941  1.176  -3.374e+00   3.899e+00   2.978e+00   3.726e+00  19  sdss  5622  82N  3 
    9  53636.259479  1  22.823  0.447  0.852  0.195   2.609e+00   1.046e+00   2.097e+00   4.790e-01  32  sdss  5628  82S  4 
 1081  53636.256162  2  23.485  0.905  3.152  0.219   1.330e+00   1.215e+00   4.601e+00   3.200e-01  31  sdss  5628  82S  4 
   56  53636.256991  3  23.237  0.839  1.574  0.208   1.584e+00   1.502e+00   2.957e+00   3.907e-01  32  sdss  5628  82S  4 
    0  53636.258650  4  21.481  0.609  0.375  0.266   8.431e+00   5.342e+00   3.463e+00   2.458e+00  32  sdss  5628  82S  4 
   33  53636.257820  0  23.290  1.650  0.579  0.944   1.719e+00   2.746e+00   1.052e+00   1.715e+00  19  sdss  5628  82S  4 
   33  53637.254207  1  22.804  0.413  0.282  0.272   2.656e+00   9.913e-01   7.071e-01   6.818e-01  32  sdss  5633  82N  3 
   32  53637.250890  2  23.562  0.872  0.259  0.394   1.220e+00   1.120e+00   3.558e-01   5.421e-01  31  sdss  5633  82N  3 
   32  53637.251719  3  23.007  0.785  0.489  0.278   2.056e+00   1.626e+00   1.092e+00   6.207e-01  32  sdss  5633  82N  3 
    0  53637.253378  4  22.094  0.940  0.406  0.384   3.890e+00   5.860e+00   2.465e+00   2.331e+00  32  sdss  5633  82N  3 
  129  53637.252549  0  22.570  1.071  0.103  0.899   3.549e+00   2.873e+00   3.424e-01   2.982e+00  19  sdss  5633  82N  3 
   33  53638.295356  1  23.521  0.438  0.141  0.173   1.318e+00   5.675e-01   1.897e-01   2.318e-01  32  sdss  5637  82S  4 
    0  53638.292039  2  23.144  0.419  0.087  0.113   1.903e+00   7.774e-01   1.670e-01   2.172e-01  31  sdss  5637  82S  4 
   32  53638.292869  3  23.321  0.672  0.174  0.154   1.431e+00   1.158e+00   3.076e-01   2.723e-01  32  sdss  5637  82S  4 
    0  53638.294527  4  22.974  0.663  0.295  0.181  -6.886e-01   3.461e+00   1.450e+00   8.902e-01  32  sdss  5637  82S  4 
    0  53638.293698  0  22.684  0.588  0.054  0.255   3.178e+00   1.637e+00   1.636e-01   7.662e-01  19  sdss  5637  82S  4 
    0  53639.299491  1  23.001  0.281  0.131  0.144   2.202e+00   5.783e-01   2.757e-01   3.022e-01  32  sdss  5642  82N  3 
    0  53639.296174  2  22.563  0.264  0.065  0.113   3.357e+00   8.263e-01   2.065e-01   3.594e-01  31  sdss  5642  82N  3 
    0  53639.297003  3  22.757  0.431  0.123  0.095   2.674e+00   1.138e+00   3.361e-01   2.603e-01  32  sdss  5642  82N  3 
    0  53639.298662  4  23.179  0.630  0.107  0.187  -1.716e+00   3.369e+00   5.503e-01   9.607e-01  32  sdss  5642  82N  3 
 1152  53639.297833  0  24.054  1.144  0.057  0.832   6.238e-01   1.407e+00   6.319e-02   9.299e-01  19  sdss  5642  82N  3 
 1156  53640.259293  1  22.286  0.288  0.423  0.190   4.319e+00   1.126e+00   1.690e+00   7.580e-01  32  sdss  5646  82S  4 
   44  53640.255976  2  22.663  0.516  1.236  0.259   3.051e+00   1.413e+00   3.599e+00   7.556e-01  31  sdss  5646  82S  4 
 1164  53640.256806  3  27.912  1.632  1.770  0.051  -1.688e+01   1.554e+01   2.760e+01   7.976e-01  32  sdss  5646  82S  4 
   12  53640.258464  4  20.652  0.692  1.682  0.155   1.937e+01   1.158e+01   3.139e+01   2.892e+00  32  sdss  5646  82S  4 
    0  53644.246279  1  22.984  0.233  0.038  0.121   2.238e+00   4.893e-01   8.158e-02   2.582e-01  32  sdss  5670  82N  3 
    0  53644.242962  2  22.829  0.291  0.024  0.089   2.600e+00   7.172e-01   6.065e-02   2.252e-01  31  sdss  5670  82N  3 
    0  53644.243791  3  22.291  0.273  0.082  0.063   4.236e+00   1.093e+00   3.328e-01   2.554e-01  32  sdss  5670  82N  3 
   32  53644.245450  4  22.726  0.640  0.084  0.223   5.225e-01   3.316e+00   4.122e-01   1.093e+00  32  sdss  5670  82N  3 
    8  53644.244620  0  25.802  0.916  0.257  0.538  -1.314e+00   1.327e+00   3.915e-01   8.191e-01  19  sdss  5670  82N  3 
    0  53654.280641  1  22.775  0.243  0.096  0.090   2.731e+00   6.146e-01   2.469e-01   2.313e-01  32  sdss  5709  82N  3 
    8  53654.277325  2  23.081  0.392  0.199  0.109   2.029e+00   7.695e-01   4.041e-01   2.201e-01  31  sdss  5709  82N  3 
   32  53654.278154  3  23.118  0.610  0.129  0.120   1.818e+00   1.200e+00   2.644e-01   2.470e-01  32  sdss  5709  82N  3 
   32  53654.279812  4  22.648  0.763  0.423  0.203   9.078e-01   4.076e+00   2.096e+00   1.006e+00  32  sdss  5709  82N  3 
    8  53654.278983  0  23.722  1.163  0.524  0.749   1.034e+00   1.570e+00   7.018e-01   1.003e+00  19  sdss  5709  82N  3 
    1  53655.230749  1  21.887  0.458  0.226  0.250   6.249e+00   2.490e+00   1.299e+00   1.438e+00  32  sdss  5713  82S  4 
  163  53655.227432  2  23.188  1.368  0.837  0.791   1.820e+00   2.087e+00   1.550e+00   1.465e+00  31  sdss  5713  82S  4 
  162  53655.228261  3  23.533  1.390  0.732  0.890   1.080e+00   2.325e+00   1.133e+00   1.378e+00  32  sdss  5713  82S  4 
   34  53655.229919  4  22.049  1.283  2.072  0.971   4.164e+00   8.557e+00   1.290e+01   6.047e+00  32  sdss  5713  82S  4 
    3  53655.229090  0  25.676  2.409  1.285  4.201  -1.126e+00   4.899e+00   1.796e+00   5.869e+00  19  sdss  5713  82S  4 
    3  53656.228275  1  22.558  0.695  0.146  0.277   3.349e+00   1.931e+00   4.564e-01   8.665e-01  32  sdss  5719  82N  3 
   33  53656.224958  2  22.327  0.495  0.248  0.189   4.196e+00   1.832e+00   9.744e-01   7.416e-01  31  sdss  5719  82N  3 
   33  53656.225788  3  22.571  0.774  0.396  0.288   3.223e+00   2.213e+00   1.267e+00   9.216e-01  32  sdss  5719  82N  3 
    0  53656.227446  4  21.730  0.950  1.110  0.486   6.349e+00   6.919e+00   8.490e+00   3.718e+00  32  sdss  5719  82N  3 
   43  53656.226617  0  23.179  2.418  2.046  2.062   1.933e+00   5.157e+00   4.054e+00   4.085e+00  19  sdss  5719  82N  3 
    1  53663.241080  1  22.822  0.383  0.060  0.084   2.612e+00   9.104e-01   1.468e-01   2.073e-01  32  sdss  5744  82N  3 
    1  53663.237765  2  22.531  0.283  0.056  0.050   3.460e+00   9.075e-01   1.834e-01   1.624e-01  31  sdss  5744  82N  3 
    0  53663.238594  3  22.536  0.376  0.068  0.055   3.337e+00   1.201e+00   2.225e-01   1.821e-01  32  sdss  5744  82N  3 
    0  53663.240250  4  23.273  0.614  0.244  0.146  -2.207e+00   3.358e+00   1.293e+00   7.703e-01  32  sdss  5744  82N  3 
    1  53663.239421  0  25.838  1.499  0.119  0.466  -1.369e+00   2.282e+00   1.854e-01   7.270e-01  19  sdss  5744  82N  3 
    1  53664.255466  1  22.531  0.353  0.214  0.138   3.436e+00   1.095e+00   6.844e-01   4.401e-01  32  sdss  5754  82S  4 
    1  53664.252149  2  22.538  0.377  0.163  0.123   3.437e+00   1.184e+00   5.291e-01   3.991e-01  31  sdss  5754  82S  4 
    0  53664.252978  3  22.145  0.345  0.127  0.099   4.871e+00   1.554e+00   5.918e-01   4.592e-01  32  sdss  5754  82S  4 
  128  53664.254637  4  23.840  0.738  0.477  0.273  -5.646e+00   5.143e+00   3.413e+00   1.954e+00  32  sdss  5754  82S  4 
  161  53664.253807  0  23.871  1.933  0.576  1.482   8.408e-01   3.128e+00   7.070e-01   1.817e+00  19  sdss  5754  82S  4 
    1  53666.218838  1  22.463  0.172  0.050  0.051   3.661e+00   5.816e-01   1.700e-01   1.720e-01  32  sdss  5763  82S  4 
    0  53666.215521  2  23.026  0.384  0.115  0.089   2.143e+00   7.903e-01   2.448e-01   1.894e-01  31  sdss  5763  82S  4 
    0  53666.216350  3  22.577  0.375  0.097  0.058   3.204e+00   1.156e+00   3.093e-01   1.833e-01  32  sdss  5763  82S  4 
    0  53666.218009  4  22.198  0.619  0.131  0.129   3.275e+00   3.612e+00   7.517e-01   7.395e-01  32  sdss  5763  82S  4 
    8  53666.217180  0  23.036  0.767  0.219  0.355   2.241e+00   1.550e+00   4.873e-01   7.893e-01  19  sdss  5763  82S  4 
    0  53668.230248  1  22.436  0.182  0.164  0.185   3.755e+00   6.292e-01   5.707e-01   6.466e-01  32  sdss  5770  82N  3 
   32  53668.226931  2  22.810  0.376  0.173  0.184   2.649e+00   9.307e-01   4.438e-01   4.716e-01  31  sdss  5770  82N  3 
   32  53668.227760  3  22.768  0.583  0.313  0.212   2.644e+00   1.487e+00   8.482e-01   5.734e-01  32  sdss  5770  82N  3 
    0  53668.229419  4  22.022  0.788  0.469  0.284   4.332e+00   4.991e+00   2.965e+00   1.794e+00  32  sdss  5770  82N  3 
    0  53668.228589  0  22.292  0.493  0.147  0.578   4.622e+00   1.970e+00   6.236e-01   2.450e+00  19  sdss  5770  82N  3 
    0  53669.214237  1  22.609  0.163  0.038  0.085   3.193e+00   4.826e-01   1.119e-01   2.522e-01  32  sdss  5776  82S  4 
    0  53669.210920  2  22.927  0.347  0.073  0.119   2.363e+00   7.817e-01   1.698e-01   2.751e-01  31  sdss  5776  82S  4 
   32  53669.211749  3  23.127  0.641  0.220  0.181   1.799e+00   1.247e+00   4.475e-01   3.698e-01  32  sdss  5776  82S  4 
    0  53669.213408  4  22.383  0.721  0.381  0.214   2.258e+00   4.008e+00   2.022e+00   1.135e+00  32  sdss  5776  82S  4 
    0  53669.212578  0  22.417  0.411  0.047  0.274   4.104e+00   1.496e+00   1.781e-01   1.039e+00  19  sdss  5776  82S  4 
    0  53670.235171  1  22.852  0.211  0.106  0.113   2.539e+00   4.993e-01   2.543e-01   2.714e-01  32  sdss  5781  82N  3 
    0  53670.231855  2  22.795  0.301  0.136  0.104   2.687e+00   7.639e-01   3.526e-01   2.691e-01  31  sdss  5781  82N  3 
    0  53670.232684  3  22.601  0.400  0.090  0.098   3.128e+00   1.206e+00   2.810e-01   3.056e-01  32  sdss  5781  82N  3 
    0  53670.234342  4  21.473  0.429  0.256  0.123   8.505e+00   3.878e+00   2.375e+00   1.146e+00  32  sdss  5781  82N  3 
 1160  53670.233513  0  22.828  0.602  0.184  0.417   2.762e+00   1.482e+00   4.876e-01   1.105e+00  19  sdss  5781  82N  3 
   32  53671.298791  1  23.145  0.332  0.134  0.217   1.916e+00   5.991e-01   2.485e-01   4.012e-01  32  sdss  5786  82S  4 
    0  53671.295474  2  22.668  0.319  0.104  0.122   3.037e+00   9.036e-01   3.020e-01   3.541e-01  31  sdss  5786  82S  4 
    0  53671.296304  3  22.527  0.381  0.068  0.096   3.366e+00   1.224e+00   2.248e-01   3.195e-01  32  sdss  5786  82S  4 
    0  53671.297962  4  22.045  0.741  0.287  0.263   4.188e+00   4.634e+00   1.791e+00   1.639e+00  32  sdss  5786  82S  4 
    0  53671.297133  0  25.655  1.498  0.298  1.143  -1.097e+00   2.170e+00   4.103e-01   1.576e+00  19  sdss  5786  82S  4 
    0  53673.202652  1  22.877  0.240  0.205  0.185   2.478e+00   5.546e-01   4.802e-01   4.333e-01  32  sdss  5792  82N  3 
    0  53673.199335  2  22.591  0.261  0.093  0.103   3.269e+00   7.970e-01   2.880e-01   3.207e-01  31  sdss  5792  82N  3 
   32  53673.200164  3  23.008  0.580  0.180  0.186   2.053e+00   1.235e+00   4.014e-01   4.142e-01  32  sdss  5792  82N  3 
    0  53673.201823  4  22.206  0.684  0.509  0.275   3.230e+00   3.998e+00   2.915e+00   1.578e+00  32  sdss  5792  82N  3 
  160  53673.200994  0  23.916  1.263  0.103  1.375   7.858e-01   1.642e+00   1.232e-01   1.645e+00  19  sdss  5792  82N  3 
    0  53674.197924  1  22.877  0.232  0.182  0.166   2.478e+00   5.360e-01   4.276e-01   3.901e-01  32  sdss  5797  82S  4 
   32  53674.194608  2  23.322  0.519  0.246  0.206   1.584e+00   8.233e-01   4.077e-01   3.410e-01  31  sdss  5797  82S  4 
   32  53674.195437  3  22.978  0.540  0.253  0.155   2.121e+00   1.182e+00   5.786e-01   3.534e-01  32  sdss  5797  82S  4 
    0  53674.197095  4  22.217  0.648  0.271  0.247   3.167e+00   3.761e+00   1.546e+00   1.409e+00  32  sdss  5797  82S  4 
    0  53674.196266  0  23.860  1.259  0.236  1.199   8.547e-01   1.659e+00   2.916e-01   1.479e+00  19  sdss  5797  82S  4 
   32  53675.199704  1  22.829  0.269  0.050  0.233   2.594e+00   6.458e-01   1.224e-01   5.699e-01  32  sdss  5800  82N  3 
   32  53675.196388  2  23.134  0.636  0.102  0.399   1.923e+00   1.143e+00   1.979e-01   7.730e-01  31  sdss  5800  82N  3 
   32  53675.197217  3  22.513  0.518  0.475  0.239   3.413e+00   1.645e+00   1.597e+00   8.026e-01  32  sdss  5800  82N  3 
    0  53675.198875  4  21.350  0.526  0.397  0.225   9.694e+00   5.148e+00   4.068e+00   2.304e+00  32  sdss  5800  82N  3 
 1160  53675.198046  0  23.264  1.078  1.095  1.342   1.767e+00   1.786e+00   2.029e+00   2.488e+00  19  sdss  5800  82N  3 
   32  53676.287620  1  22.763  0.266  0.103  0.257   2.762e+00   6.794e-01   2.679e-01   6.683e-01  32  sdss  5807  82S  4 
   32  53676.284303  2  23.230  0.532  0.103  0.217   1.744e+00   9.056e-01   1.847e-01   3.888e-01  31  sdss  5807  82S  4 
    0  53676.285132  3  22.665  0.433  0.105  0.118   2.934e+00   1.231e+00   3.098e-01   3.496e-01  32  sdss  5807  82S  4 
    0  53676.286791  4  22.370  0.687  0.380  0.228   2.327e+00   3.812e+00   2.025e+00   1.219e+00  32  sdss  5807  82S  4 
    0  53676.285961  0  25.039  1.587  0.212  1.977  -3.685e-01   2.170e+00   2.168e-01   2.023e+00  19  sdss  5807  82S  4 
    0  53677.220301  1  22.602  0.163  0.068  0.080   3.215e+00   4.864e-01   2.038e-01   2.404e-01  32  sdss  5813  82N  3 
    0  53677.216984  2  22.596  0.251  0.093  0.085   3.253e+00   7.645e-01   2.873e-01   2.627e-01  31  sdss  5813  82N  3 
    0  53677.217813  3  22.720  0.427  0.154  0.113   2.776e+00   1.161e+00   4.350e-01   3.198e-01  32  sdss  5813  82N  3 
   32  53677.219471  4  22.602  0.651  0.112  0.219   1.135e+00   3.425e+00   5.574e-01   1.092e+00  32  sdss  5813  82N  3 
  128  53677.218642  0  22.323  0.371  0.049  0.277   4.488e+00   1.480e+00   2.002e-01   1.142e+00  19  sdss  5813  82N  3 
    0  53679.259218  1  22.486  0.181  0.160  0.145   3.584e+00   5.982e-01   5.324e-01   4.819e-01  32  sdss  5820  82S  4 
   32  53679.255901  2  23.743  0.855  0.674  0.421   9.864e-01   9.939e-01   8.136e-01   5.086e-01  31  sdss  5820  82S  4 
    0  53679.256730  3  21.992  0.278  0.132  0.110   5.632e+00   1.452e+00   7.050e-01   5.870e-01  32  sdss  5820  82S  4 
    0  53679.258388  4  22.070  0.769  0.116  0.315   4.035e+00   4.771e+00   7.145e-01   1.937e+00  32  sdss  5820  82S  4 
    0  53679.257559  0  21.894  0.338  0.065  0.296   6.716e+00   1.996e+00   3.930e-01   1.801e+00  19  sdss  5820  82S  4 
    0  53680.206994  1  22.901  0.234  0.025  0.156   2.423e+00   5.290e-01   5.775e-02   3.576e-01  32  sdss  5823  82N  3 
    0  53680.203677  2  22.567  0.264  0.046  0.114   3.344e+00   8.220e-01   1.466e-01   3.623e-01  31  sdss  5823  82N  3 
    0  53680.204506  3  22.531  0.381  0.080  0.126   3.353e+00   1.222e+00   2.663e-01   4.163e-01  32  sdss  5823  82N  3 
    0  53680.206164  4  21.452  0.418  0.304  0.171   8.700e+00   3.836e+00   2.874e+00   1.617e+00  32  sdss  5823  82N  3 
    0  53680.205335  0  22.138  0.339  0.084  0.308   5.344e+00   1.604e+00   4.076e-01   1.502e+00  19  sdss  5823  82N  3 
    0  53681.250529  1  22.533  0.170  0.065  0.078   3.429e+00   5.375e-01   2.091e-01   2.481e-01  32  sdss  5836  82S  4 
    0  53681.247212  2  22.546  0.249  0.105  0.073   3.411e+00   7.914e-01   3.382e-01   2.352e-01  31  sdss  5836  82S  4 
    0  53681.248042  3  22.721  0.416  0.109  0.092   2.774e+00   1.132e+00   3.077e-01   2.600e-01  32  sdss  5836  82S  4 
    0  53681.249700  4  21.882  0.513  0.200  0.134   5.254e+00   3.490e+00   1.379e+00   9.278e-01  32  sdss  5836  82S  4 
    0  53681.248871  0  22.274  0.381  0.091  0.212   4.701e+00   1.583e+00   3.911e-01   9.153e-01  19  sdss  5836  82S  4 
  169  53685.209185  1  23.027  2.113  3.552  0.345   2.147e+00   3.002e+00   7.288e+00   7.088e-01  32  sdss  5853  82S  4 
   25  53685.205868  2  26.471  2.064  6.567  0.333  -1.924e+00   3.380e+00   1.273e+01   6.463e-01  31  sdss  5853  82S  4 
   57  53685.206698  3  23.621  2.128 12.412  0.634   9.479e-01   4.564e+00   1.826e+01   9.333e-01  32  sdss  5853  82S  4 
    1  53685.208356  4  23.211  1.436  2.054  0.456  -1.880e+00   9.380e+00   1.064e+01   2.364e+00  32  sdss  5853  82S  4 
    1  53685.207527  0  22.310  2.373  0.576  0.621   4.543e+00   6.310e+00   2.404e+00   2.591e+00  19  sdss  5853  82S  4 
   33  53687.247174  1  25.028  1.812  1.130  0.432   5.301e-02   1.636e+00   6.673e-01   2.555e-01  32  sdss  5870  82S  4 
 1049  53687.243857  2  22.113  0.377  3.781  0.044   5.128e+00   1.734e+00   1.805e+01   2.123e-01  31  sdss  5870  82S  4 
 1049  53687.244687  3  21.985  0.356  3.458  0.044   5.669e+00   1.847e+00   1.852e+01   2.355e-01  32  sdss  5870  82S  4 
    0  53687.246345  4  22.297  0.751  0.280  0.177   2.718e+00   4.290e+00   1.539e+00   9.742e-01  32  sdss  5870  82S  4 
    1  53687.245516  0  25.367  2.331  0.781  0.756  -7.281e-01   4.493e+00   9.114e-01   8.823e-01  19  sdss  5870  82S  4 
    1  53693.207700  1  22.665  0.416  0.046  0.112   3.029e+00   1.128e+00   1.298e-01   3.173e-01  32  sdss  5878  82N  3 
    1  53693.204384  2  22.472  0.336  0.059  0.093   3.660e+00   1.127e+00   2.049e-01   3.213e-01  31  sdss  5878  82N  3 
   32  53693.205213  3  22.577  0.467  0.141  0.122   3.204e+00   1.420e+00   4.493e-01   3.882e-01  32  sdss  5878  82N  3 
    0  53693.206871  4  22.062  0.625  0.204  0.205   4.084e+00   3.864e+00   1.262e+00   1.267e+00  32  sdss  5878  82N  3 
  137  53693.206042  0  21.867  0.589  0.355  0.247   6.887e+00   3.363e+00   2.214e+00   1.541e+00  19  sdss  5878  82N  3 
    4  53697.206173  1  22.513  0.413  0.310  0.158   3.494e+00   1.287e+00   1.010e+00   5.134e-01  32  sdss  5895  82S  4 
  172  53697.202857  2  24.245  1.844  3.143  0.432   4.645e-01   2.331e+00   2.847e+00   3.916e-01  31  sdss  5895  82S  4 
    4  53697.203686  3  21.514  0.362  0.311  0.047   8.812e+00   2.870e+00   2.550e+00   3.894e-01  32  sdss  5895  82S  4 
 1188  53697.205344  4  22.411  1.603  1.905  0.375   2.107e+00   1.115e+01   1.001e+01   1.969e+00  32  sdss  5895  82S  4 
 1036  53697.204515  0  22.536  1.922  0.990  0.511   3.666e+00   4.501e+00   3.382e+00   1.747e+00  19  sdss  5895  82S  4 
 1156  53698.204631  1  21.115  1.348  0.547  0.035   1.275e+01   1.078e+01   6.393e+00   4.118e-01  32  sdss  5898  82N  3 
 1164  53698.201315  2  27.538  2.013  2.314  0.081  -5.353e+00   5.753e+00   1.152e+01   4.027e-01  31  sdss  5898  82N  3 
 1164  53698.202144  3  20.348  4.081  2.119  0.018   2.592e+01   3.783e+01   5.068e+01   4.201e-01  32  sdss  5898  82N  3 
 1164  53699.228033  1  22.365  0.390  0.563  0.091   4.012e+00   1.394e+00   2.095e+00   3.372e-01  32  sdss  5902  82N  3 
 1180  53699.224717  2  22.505  1.203  2.360  0.088   3.547e+00   3.071e+00   7.912e+00   2.958e-01  31  sdss  5902  82N  3 
    4  53699.225546  3  21.506  0.341  0.143  0.036   8.878e+00   2.732e+00   1.184e+00   2.983e-01  32  sdss  5902  82N  3 
 1156  53699.227204  4  20.124  0.408  0.106  0.041   3.188e+01   1.174e+01   3.190e+00   1.238e+00  32  sdss  5902  82N  3 
    4  53699.226375  0  23.464  2.012  0.284  0.750   1.417e+00   3.524e+00   4.527e-01   1.196e+00  19  sdss  5902  82N  3 
    0  53700.204786  1  22.604  0.187  0.075  0.121   3.208e+00   5.547e-01   2.236e-01   3.629e-01  32  sdss  5905  82S  4 
    0  53700.201469  2  22.456  0.271  0.134  0.121   3.715e+00   9.305e-01   4.691e-01   4.230e-01  31  sdss  5905  82S  4 
   32  53700.202298  3  22.652  0.457  0.198  0.112   2.973e+00   1.309e+00   5.907e-01   3.357e-01  32  sdss  5905  82S  4 
   32  53700.203956  4  22.494  0.807  0.492  0.257   1.680e+00   4.438e+00   2.518e+00   1.317e+00  32  sdss  5905  82S  4 
    0  53700.203127  0  22.325  0.438  0.061  0.277   4.479e+00   1.719e+00   2.526e-01   1.143e+00  19  sdss  5905  82S  4 
   34  53702.202603  1  23.610  1.100  0.424  1.833   1.202e+00   1.193e+00   5.303e-01   2.289e+00  32  sdss  5909  82N  3 
    2  53702.199287  2  21.605  0.256  0.204  0.279   8.223e+00   1.907e+00   1.551e+00   2.116e+00  31  sdss  5909  82N  3 
   32  53702.200116  3  22.377  1.819  1.922  0.694   3.898e+00   4.919e+00   7.275e+00   2.626e+00  32  sdss  5909  82N  3 
   34  53702.201774  4  22.665  1.714  3.684  1.973   8.197e-01   1.231e+01   1.819e+01   9.738e+00  32  sdss  5909  82N  3 
    0  53704.189932  1  22.765  0.211  0.070  0.129   2.757e+00   5.402e-01   1.814e-01   3.348e-01  32  sdss  5918  82N  3 
    0  53704.186616  2  22.720  0.296  0.072  0.115   2.888e+00   8.015e-01   2.005e-01   3.193e-01  31  sdss  5918  82N  3 
   32  53704.187445  3  23.160  0.637  0.192  0.158   1.733e+00   1.214e+00   3.807e-01   3.151e-01  32  sdss  5918  82N  3 
    0  53704.189103  4  21.385  0.420  0.243  0.128   9.343e+00   4.060e+00   2.424e+00   1.274e+00  32  sdss  5918  82N  3 
    0  53704.188274  0  22.781  0.641  0.078  0.459   2.890e+00   1.626e+00   2.141e-01   1.266e+00  19  sdss  5918  82N  3 
    0  53705.190751  1  22.918  0.249  0.175  0.170   2.384e+00   5.545e-01   3.960e-01   3.833e-01  32  sdss  5924  82S  4 
    0  53705.187435  2  22.673  0.295  0.078  0.124   3.022e+00   8.333e-01   2.248e-01   3.567e-01  31  sdss  5924  82S  4 
    0  53705.188264  3  22.462  0.348  0.039  0.105   3.588e+00   1.188e+00   1.353e-01   3.674e-01  32  sdss  5924  82S  4 
    0  53705.189922  4  22.002  0.569  0.131  0.221   4.457e+00   3.618e+00   8.412e-01   1.415e+00  32  sdss  5924  82S  4 
    0  53705.189093  0  22.291  0.411  0.063  0.299   4.626e+00   1.672e+00   2.669e-01   1.269e+00  19  sdss  5924  82S  4 
