# SDSS CID:  18164 IAU:          RA:  42.828251 DEC:  -0.710345  (J2000)
# GALAXY_SB [ugriz] = [ 23.36 22.64 22.12 21.97 21.60 ] +/- [  0.25  0.03  0.02  0.02  0.06 ] (asinh mag/square arcsec)
# GALAXY_SB_FLUX [ugriz] = [  1.531E+00  3.088E+00  5.078E+00  5.738E+00  7.335E+00 ] +/- [  4.206E-01  8.591E-02  1.057E-01  1.261E-01  4.714E-01 ] (microJy per square arcsec)
#FLAG  MJD       FILT  MAG     MERR  MSKYERR MGALERR  FLUX       FLUXERR    SKYERR     GALERR    NPRE TELE   RUN  STRIP  IDCCD
   33  54347.424765  1  23.057  0.471  0.861  0.287   2.086e+00   9.062e-01   1.744e+00   5.813e-01  14  sdss  6930  82S  2 
    0  54347.421448  2  22.551  0.328  0.414  0.181   3.394e+00   1.036e+00   1.341e+00   5.850e-01  14  sdss  6930  82S  2 
   32  54347.422277  3  22.990  0.577  1.036  0.487   2.094e+00   1.248e+00   2.354e+00   1.107e+00  12  sdss  6930  82S  2 
   32  54347.423936  4  22.821  0.649  0.436  0.432   5.899e-02   3.359e+00   2.125e+00   2.106e+00  13  sdss  6930  82S  2 
   37  54347.423106  0  23.080  1.391  0.605  1.367   2.143e+00   2.538e+00   1.331e+00   3.011e+00  12  sdss  6930  82S  2 
   16  54357.400396  1  22.674  0.189  0.418  0.173   3.003e+00   5.333e-01   1.191e+00   4.934e-01  14  sdss  6955  82S  2 
   16  54357.397078  2  22.575  0.237  0.265  0.123   3.318e+00   7.405e-01   8.407e-01   3.918e-01  14  sdss  6955  82S  2 
   32  54357.397908  3  22.412  0.307  0.299  0.227   3.765e+00   1.107e+00   1.102e+00   8.363e-01  12  sdss  6955  82S  2 
    0  54357.399566  4  21.610  0.396  0.309  0.214   7.305e+00   3.198e+00   2.544e+00   1.758e+00  13  sdss  6955  82S  2 
  164  54357.398737  0  23.178  0.823  0.508  0.982   1.937e+00   1.519e+00   1.032e+00   1.996e+00  12  sdss  6955  82S  2 
   16  54362.450456  1  23.031  0.258  0.543  0.198   2.140e+00   5.255e-01   1.126e+00   4.096e-01  14  sdss  6976  82S  2 
   16  54362.447139  2  22.549  0.279  0.286  0.111   3.401e+00   8.887e-01   9.292e-01   3.600e-01  14  sdss  6976  82S  2 
   32  54362.447968  3  22.758  0.416  0.407  0.310   2.670e+00   1.103e+00   1.117e+00   8.488e-01  12  sdss  6976  82S  2 
    0  54362.449627  4  21.665  0.469  0.221  0.216   6.855e+00   3.622e+00   1.747e+00   1.707e+00  13  sdss  6976  82S  2 
   36  54362.448798  0  23.379  0.980  0.610  1.153   1.559e+00   1.559e+00   1.058e+00   2.000e+00  12  sdss  6976  82S  2 
    1  54376.446320  1  23.170  0.393  0.559  0.215   1.869e+00   6.955e-01   1.025e+00   3.937e-01  14  sdss  7016  82S  2 
    0  54376.443003  2  22.756  0.327  0.355  0.144   2.790e+00   8.622e-01   9.585e-01   3.897e-01  14  sdss  7016  82S  2 
   32  54376.443832  3  23.021  0.548  0.544  0.301   2.024e+00   1.164e+00   1.206e+00   6.678e-01  12  sdss  7016  82S  2 
    0  54376.445491  4  21.706  0.488  0.208  0.184   6.539e+00   3.665e+00   1.599e+00   1.415e+00  13  sdss  7016  82S  2 
   33  54376.444661  0  24.082  1.454  0.995  1.667   5.929e-01   1.939e+00   1.107e+00   1.855e+00  12  sdss  7016  82S  2 
   48  54382.431766  1  22.846  0.263  0.913  0.329   2.552e+00   6.303e-01   2.231e+00   8.042e-01  14  sdss  7038  82S  2 
   48  54382.428448  2  22.849  0.407  0.878  0.365   2.549e+00   9.762e-01   2.186e+00   9.097e-01  14  sdss  7038  82S  2 
   32  54382.429278  3  22.327  0.374  0.632  0.352   4.089e+00   1.434e+00   2.507e+00   1.396e+00  12  sdss  7038  82S  2 
   32  54382.430936  4  21.774  0.654  0.595  0.466   6.021e+00   4.660e+00   4.361e+00   3.417e+00  13  sdss  7038  82S  2 
   36  54382.430107  0  22.722  0.802  0.410  1.814   3.062e+00   2.107e+00   1.225e+00   5.421e+00  12  sdss  7038  82S  2 
   48  54385.449435  1  22.958  0.272  0.719  0.288   2.294e+00   5.897e-01   1.590e+00   6.366e-01  14  sdss  7051  82S  2 
   16  54385.446117  2  22.473  0.242  0.400  0.150   3.655e+00   8.293e-01   1.390e+00   5.215e-01  14  sdss  7051  82S  2 
   32  54385.446947  3  23.859  0.824  1.260  0.685   6.178e-01   1.144e+00   1.658e+00   9.007e-01  12  sdss  7051  82S  2 
   32  54385.448605  4  21.831  0.532  0.236  0.302   5.605e+00   3.689e+00   1.664e+00   2.128e+00  13  sdss  7051  82S  2 
    0  54385.447776  0  25.071  1.465  1.645  3.401  -4.020e-01   1.923e+00   1.706e+00   3.529e+00  12  sdss  7051  82S  2 
   50  54387.449908  1  23.128  0.464  2.671  0.854   1.946e+00   8.391e-01   5.082e+00   1.624e+00  14  sdss  7057  82S  2 
   32  54387.446590  2  22.817  0.438  1.022  0.435   2.630e+00   1.074e+00   2.619e+00   1.115e+00  14  sdss  7057  82S  2 
   32  54387.447420  3  22.548  0.428  0.732  0.302   3.296e+00   1.347e+00   2.396e+00   9.885e-01  12  sdss  7057  82S  2 
   32  54387.449078  4  21.345  0.528  0.803  0.482   9.749e+00   5.096e+00   8.115e+00   4.874e+00  13  sdss  7057  82S  2 
    6  54387.448249  0  25.271  1.693  2.387  5.537  -6.170e-01   2.457e+00   2.684e+00   6.224e+00  12  sdss  7057  82S  2 
 1030  54390.442701  1  20.459  1.344  2.007  0.074   2.335e+01   1.992e+01   4.351e+01   1.603e+00  14  sdss  7071  82S  2 
 1182  54390.439384  2  20.649  0.335  4.315  0.088   1.987e+01   5.985e+00   7.937e+01   1.614e+00  14  sdss  7071  82S  2 
 1186  54390.440214  3  22.137  0.551  1.125  0.456   4.906e+00   2.404e+00   5.278e+00   2.140e+00  12  sdss  7071  82S  2 
 1166  54390.441872  4  23.447  3.364 33.297  1.260  -3.157e+00   5.865e+01   1.884e+02   7.129e+00  13  sdss  7071  82S  2 
   48  54391.450961  1  22.664  0.674  2.573  0.960   3.031e+00   1.738e+00   7.405e+00   2.763e+00  14  sdss  7074  82S  2 
  162  54391.447643  2  22.789  0.675  2.310  0.909   2.703e+00   1.605e+00   6.065e+00   2.387e+00  14  sdss  7074  82S  2 
   34  54391.448473  3  22.605  0.854  3.131  1.296   3.115e+00   2.339e+00   9.760e+00   4.038e+00  12  sdss  7074  82S  2 
   34  54391.450131  4  21.472  1.053  2.259  1.277   8.520e+00   8.675e+00   2.065e+01   1.168e+01  13  sdss  7074  82S  2 
   50  54394.433097  1  23.629  0.663  2.815  0.900   1.179e+00   7.686e-01   3.501e+00   1.120e+00  14  sdss  7084  82S  2 
   34  54394.429780  2  22.897  0.679  1.912  0.743   2.433e+00   1.474e+00   4.565e+00   1.776e+00  14  sdss  7084  82S  2 
  162  54394.430609  3  23.099  0.949  1.983  0.963   1.857e+00   1.828e+00   4.139e+00   2.010e+00  12  sdss  7084  82S  2 
    0  54394.432268  4  22.872  1.083  1.569  1.108  -1.934e-01   6.202e+00   7.657e+00   5.409e+00  13  sdss  7084  82S  2 
    2  54394.431439  0  25.297  1.873  3.662  6.710  -6.464e-01   2.923e+00   4.166e+00   7.635e+00  12  sdss  7084  82S  2 
   50  54396.453226  1  22.851  0.358  1.724  0.561   2.540e+00   8.423e-01   4.194e+00   1.364e+00  14  sdss  7096  82S  2 
   32  54396.449909  2  22.744  0.556  1.605  0.526   2.822e+00   1.414e+00   4.384e+00   1.437e+00  14  sdss  7096  82S  2 
   32  54396.450738  3  23.169  0.973  2.433  0.858   1.714e+00   1.798e+00   4.818e+00   1.699e+00  12  sdss  7096  82S  2 
   40  54396.452397  4  22.796  1.076  3.150  1.014   1.777e-01   6.150e+00   1.537e+01   4.946e+00  13  sdss  7096  82S  2 
   34  54396.451567  0  22.757  1.488  0.744  2.767   2.959e+00   3.247e+00   2.157e+00   8.019e+00  12  sdss  7096  82S  2 
   33  54402.443486  1  23.198  1.368  1.438  0.371   1.819e+00   1.874e+00   2.571e+00   6.631e-01  14  sdss  7101  82S  2 
    1  54402.440168  2  24.819  1.538  2.862  0.892  -1.349e-02   1.683e+00   2.287e+00   7.129e-01  14  sdss  7101  82S  2 
   33  54402.440998  3  23.466  1.052  1.594  0.749   1.186e+00   1.702e+00   2.574e+00   1.209e+00  12  sdss  7101  82S  2 
    0  54402.442656  4  23.217  0.928  0.573  0.569  -1.914e+00   5.264e+00   2.965e+00   2.946e+00  13  sdss  7101  82S  2 
   37  54402.441827  0  23.977  2.655  2.633  3.352   7.125e-01   6.065e+00   3.084e+00   3.925e+00  12  sdss  7101  82S  2 
   48  54408.357527  1  23.584  0.399  0.607  0.251   1.235e+00   5.001e-01   7.828e-01   3.243e-01  14  sdss  7127  82S  2 
    0  54408.354209  2  22.605  0.248  0.240  0.101   3.224e+00   7.528e-01   7.402e-01   3.130e-01  14  sdss  7127  82S  2 
    0  54408.355039  3  22.548  0.347  0.273  0.194   3.296e+00   1.107e+00   8.921e-01   6.343e-01  12  sdss  7127  82S  2 
    0  54408.356697  4  22.036  0.558  0.284  0.226   4.244e+00   3.461e+00   1.766e+00   1.406e+00  13  sdss  7127  82S  2 
   36  54408.355868  0  23.350  0.903  0.391  0.900   1.610e+00   1.472e+00   6.946e-01   1.596e+00  12  sdss  7127  82S  2 
   16  54411.315534  1  23.670  0.439  0.708  0.302   1.129e+00   5.110e-01   8.517e-01   3.637e-01  14  sdss  7136  82S  2 
   16  54411.312217  2  22.879  0.326  0.408  0.171   2.477e+00   7.710e-01   9.892e-01   4.161e-01  14  sdss  7136  82S  2 
    0  54411.313047  3  22.464  0.319  0.294  0.196   3.579e+00   1.096e+00   1.033e+00   6.910e-01  12  sdss  7136  82S  2 
    0  54411.314705  4  22.974  0.611  0.438  0.300  -6.901e-01   3.159e+00   2.152e+00   1.474e+00  13  sdss  7136  82S  2 
   36  54411.313876  0  24.577  1.288  0.375  1.963   8.581e-02   1.564e+00   3.645e-01   1.909e+00  12  sdss  7136  82S  2 
 1200  54413.356456  1  22.661  0.470  2.274  0.758   3.040e+00   1.282e+00   6.563e+00   2.187e+00  14  sdss  7145  82S  2 
   50  54413.353139  2  23.067  0.752  3.106  1.093   2.058e+00   1.400e+00   6.412e+00   2.255e+00  14  sdss  7145  82S  2 
  160  54413.353968  3  22.447  1.078  2.566  1.021   3.640e+00   3.152e+00   9.168e+00   3.645e+00  12  sdss  7145  82S  2 
    2  54413.355627  4  23.190  1.401  3.935  2.899  -1.772e+00   9.019e+00   2.021e+01   1.489e+01  13  sdss  7145  82S  2 
 1152  54413.354798  0  26.262  2.234  3.546  5.900  -2.167e+00   4.564e+00   7.878e+00   1.311e+01  12  sdss  7145  82S  2 
   48  54415.368310  1  23.911  0.536  1.032  0.404   8.663e-01   5.168e-01   1.030e+00   4.025e-01  14  sdss  7152  82S  2 
   48  54415.364993  2  23.177  0.413  0.487  0.172   1.842e+00   7.516e-01   9.159e-01   3.231e-01  14  sdss  7152  82S  2 
   32  54415.365823  3  23.090  0.530  0.486  0.361   1.876e+00   1.075e+00   1.022e+00   7.594e-01  12  sdss  7152  82S  2 
   32  54415.367481  4  22.196  0.583  0.223  0.262   3.289e+00   3.381e+00   1.273e+00   1.496e+00  13  sdss  7152  82S  2 
   32  54415.366652  0  23.351  0.997  0.508  1.053   1.608e+00   1.610e+00   9.001e-01   1.866e+00  12  sdss  7152  82S  2 
   48  54417.358074  1  23.910  0.650  2.324  0.791   8.673e-01   6.201e-01   2.320e+00   7.890e-01  14  sdss  7158  82S  2 
   48  54417.354757  2  22.878  0.341  0.573  0.198   2.479e+00   8.066e-01   1.393e+00   4.804e-01  14  sdss  7158  82S  2 
    0  54417.355586  3  22.427  0.323  0.308  0.214   3.712e+00   1.146e+00   1.118e+00   7.762e-01  12  sdss  7158  82S  2 
   32  54417.357245  4  22.376  0.688  0.478  0.347   2.296e+00   3.800e+00   2.535e+00   1.838e+00  13  sdss  7158  82S  2 
   32  54417.356415  0  22.872  0.750  0.654  1.034   2.643e+00   1.769e+00   1.717e+00   2.714e+00  12  sdss  7158  82S  2 
   48  54418.356454  1  24.340  0.830  3.306  1.103   4.981e-01   6.275e-01   2.476e+00   8.256e-01  14  sdss  7161  82S  2 
   48  54418.353138  2  22.749  0.364  0.766  0.331   2.809e+00   9.602e-01   2.083e+00   8.990e-01  14  sdss  7161  82S  2 
   32  54418.353967  3  23.010  0.631  1.085  0.491   2.049e+00   1.337e+00   2.427e+00   1.098e+00  12  sdss  7161  82S  2 
   32  54418.355625  4  22.085  0.748  0.624  0.536   3.946e+00   4.577e+00   3.775e+00   3.242e+00  13  sdss  7161  82S  2 
   32  54418.354796  0  22.561  0.662  0.766  1.295   3.578e+00   2.066e+00   2.636e+00   4.458e+00  12  sdss  7161  82S  2 
   50  54422.360800  1  24.863  1.100  7.163  2.316   1.517e-01   7.731e-01   4.337e+00   1.402e+00  14  sdss  7173  82S  2 
   32  54422.357483  2  23.962  1.051  2.980  1.266   7.399e-01   1.124e+00   3.136e+00   1.332e+00  14  sdss  7173  82S  2 
   32  54422.358312  3  23.295  0.840  1.288  0.777   1.477e+00   1.460e+00   2.329e+00   1.406e+00  12  sdss  7173  82S  2 
    0  54422.359970  4  23.076  1.037  1.308  1.149  -1.197e+00   5.922e+00   6.533e+00   5.742e+00  13  sdss  7173  82S  2 
    2  54422.359141  0  25.026  1.674  3.985  6.043  -3.558e-01   2.369e+00   4.076e+00   6.182e+00  12  sdss  7173  82S  2 
    1  54424.296745  1  23.153  0.535  0.731  0.231   1.900e+00   9.340e-01   1.359e+00   4.300e-01  14  sdss  7183  82S  2 
   33  54424.293428  2  23.366  0.670  0.795  0.296   1.512e+00   1.010e+00   1.281e+00   4.775e-01  14  sdss  7183  82S  2 
   32  54424.294258  3  23.012  0.589  0.570  0.377   2.044e+00   1.253e+00   1.271e+00   8.412e-01  12  sdss  7183  82S  2 
   32  54424.295916  4  22.697  0.655  0.115  0.359   6.643e-01   3.409e+00   5.671e-01   1.765e+00  13  sdss  7183  82S  2 
   37  54424.295087  0  23.083  1.301  0.523  0.825   2.137e+00   2.386e+00   1.148e+00   1.812e+00  12  sdss  7183  82S  2 
