# SDSS CID:   3938 IAU:          RA:  33.066032 DEC:   0.577497  (J2000)
# GALAXY_SB [ugriz] = [ 21.11 20.98 20.60 20.40 19.86 ] +/- [  0.03  0.01  0.01  0.01  0.02 ] (asinh mag/square arcsec)
# GALAXY_SB_FLUX [ugriz] = [  1.344E+01  1.433E+01  2.082E+01  2.473E+01  4.043E+01 ] +/- [  3.547E-01  1.190E-01  1.350E-01  1.754E-01  5.992E-01 ] (microJy per square arcsec)
#FLAG  MJD       FILT  MAG     MERR  MSKYERR MGALERR  FLUX       FLUXERR    SKYERR     GALERR    NPRE TELE   RUN  STRIP  IDCCD
   32  53622.418597  1  22.725  0.247  0.047  0.225   2.863e+00   6.601e-01   1.283e-01   6.104e-01  17  sdss  5582  82S  5 
   32  53622.415280  2  22.112  0.194  0.072  0.130   5.128e+00   9.249e-01   3.447e-01   6.261e-01  17  sdss  5582  82S  5 
   40  53622.416109  3  22.868  0.571  0.469  0.261   2.384e+00   1.357e+00   1.176e+00   6.556e-01  16  sdss  5582  82S  5 
   32  53622.417768  4  22.529  0.709  0.222  0.417   1.499e+00   3.810e+00   1.126e+00   2.114e+00  15  sdss  5582  82S  5 
   40  53622.416939  0  24.414  1.338  0.642  1.861   2.462e-01   1.663e+00   6.387e-01   1.851e+00  11  sdss  5582  82S  5 
   32  53627.376264  1  22.677  0.249  0.157  0.274   2.995e+00   6.943e-01   4.457e-01   7.772e-01  17  sdss  5607  82S  5 
   32  53627.372947  2  22.337  0.269  0.198  0.299   4.154e+00   1.038e+00   7.767e-01   1.176e+00  17  sdss  5607  82S  5 
   32  53627.373776  3  22.580  0.518  0.327  0.480   3.193e+00   1.563e+00   1.042e+00   1.532e+00  16  sdss  5607  82S  5 
   32  53627.375435  4  22.798  0.780  0.596  0.733   1.689e-01   4.139e+00   2.908e+00   3.579e+00  15  sdss  5607  82S  5 
   32  53627.374606  0  22.054  0.391  0.051  0.672   5.782e+00   2.010e+00   2.703e-01   3.591e+00  11  sdss  5607  82S  5 
  161  53634.368779  1  21.608  0.225  0.064  0.091   8.094e+00   1.664e+00   4.841e-01   6.843e-01  17  sdss  5619  82S  5 
   33  53634.365462  2  21.769  0.264  0.099  0.135   7.057e+00   1.705e+00   6.527e-01   8.915e-01  17  sdss  5619  82S  5 
   33  53634.366291  3  23.007  1.060  0.372  0.556   2.054e+00   2.135e+00   8.343e-01   1.246e+00  16  sdss  5619  82S  5 
   32  53634.367950  4  22.568  0.919  0.325  0.796   1.304e+00   5.119e+00   1.633e+00   3.999e+00  15  sdss  5619  82S  5 
    1  53634.367120  0  25.408  2.374  0.951  3.297  -7.770e-01   4.682e+00   1.140e+00   3.953e+00  11  sdss  5619  82S  5 
   33  53638.410355  1  22.063  0.146  0.041  0.082   5.313e+00   7.204e-01   2.034e-01   4.060e-01  17  sdss  5637  82S  5 
   32  53638.407038  2  21.745  0.143  0.049  0.074   7.216e+00   9.560e-01   3.270e-01   4.978e-01  17  sdss  5637  82S  5 
   32  53638.407867  3  22.374  0.375  0.089  0.154   3.907e+00   1.383e+00   3.408e-01   5.886e-01  16  sdss  5637  82S  5 
   32  53638.409526  4  21.429  0.414  0.146  0.191   8.923e+00   3.873e+00   1.406e+00   1.839e+00  15  sdss  5637  82S  5 
   33  53638.408696  0  22.312  0.467  0.067  0.320   4.536e+00   1.875e+00   2.853e-01   1.355e+00  11  sdss  5637  82S  5 
   32  53640.374420  1  22.265  0.186  0.076  0.179   4.404e+00   7.604e-01   3.112e-01   7.367e-01  17  sdss  5646  82S  5 
   32  53640.371103  2  22.153  0.213  0.101  0.150   4.936e+00   9.755e-01   4.713e-01   6.954e-01  17  sdss  5646  82S  5 
   32  53640.371932  3  21.978  0.273  0.079  0.164   5.703e+00   1.452e+00   4.296e-01   8.903e-01  16  sdss  5646  82S  5 
   32  53640.373591  4  21.763  0.602  0.062  0.432   6.106e+00   4.381e+00   4.612e-01   3.231e+00  15  sdss  5646  82S  5 
 1184  53640.372761  0  22.046  0.372  0.076  0.361   5.826e+00   1.931e+00   4.080e-01   1.941e+00  11  sdss  5646  82S  5 
   32  53646.436343  1  21.726  0.131  0.101  0.106   7.258e+00   8.812e-01   6.819e-01   7.155e-01  17  sdss  5681  82S  5 
   40  53646.433026  2  21.508  0.125  0.118  0.065   8.987e+00   1.045e+00   9.831e-01   5.445e-01  17  sdss  5681  82S  5 
   36  53646.433855  3  21.722  0.242  0.107  0.098   7.253e+00   1.627e+00   7.314e-01   6.719e-01  16  sdss  5681  82S  5 
  132  53646.435514  4  23.837  0.797  0.389  0.344  -5.628e+00   5.536e+00   2.779e+00   2.459e+00  15  sdss  5681  82S  5 
   36  53646.434685  0  22.447  0.739  0.198  0.561   3.990e+00   2.455e+00   7.431e-01   2.105e+00  11  sdss  5681  82S  5 
   32  53655.347266  1  22.303  0.164  0.043  0.134   4.251e+00   6.489e-01   1.722e-01   5.310e-01  17  sdss  5713  82S  5 
   32  53655.343949  2  22.565  0.309  0.125  0.219   3.348e+00   9.662e-01   4.012e-01   7.010e-01  17  sdss  5713  82S  5 
   32  53655.344778  3  22.123  0.321  0.123  0.189   4.971e+00   1.490e+00   5.843e-01   8.987e-01  16  sdss  5713  82S  5 
   32  53655.346437  4  21.871  0.615  0.216  0.364   5.326e+00   4.194e+00   1.503e+00   2.530e+00  15  sdss  5713  82S  5 
   32  53655.345607  0  23.652  1.300  0.255  1.478   1.131e+00   1.836e+00   3.604e-01   2.087e+00  11  sdss  5713  82S  5 
   45  53664.372145  1  23.435  1.928  2.521  0.436   1.438e+00   2.285e+00   3.669e+00   6.348e-01  17  sdss  5754  82S  5 
   41  53664.368828  2  24.795  1.795  4.011  0.817   5.597e-03   2.184e+00   3.205e+00   6.529e-01  17  sdss  5754  82S  5 
   61  53664.369657  3  21.659  0.409  1.401  0.097   7.700e+00   2.831e+00   1.014e+01   7.045e-01  16  sdss  5754  82S  5 
   61  53664.371316  4  21.836  1.213  2.834  0.333   5.570e+00   8.529e+00   2.015e+01   2.367e+00  15  sdss  5754  82S  5 
   37  53664.370487  0  23.053  2.186  0.442  0.861   2.204e+00   4.401e+00   9.832e-01   1.915e+00  11  sdss  5754  82S  5 
   33  53665.436904  1  23.371  0.786  0.186  0.316   1.533e+00   1.079e+00   2.860e-01   4.853e-01  17  sdss  5760  82S  5 
   33  53665.433587  2  22.235  0.276  0.087  0.110   4.571e+00   1.165e+00   3.748e-01   4.738e-01  17  sdss  5760  82S  5 
   33  53665.434416  3  22.005  0.307  0.111  0.104   5.560e+00   1.586e+00   5.896e-01   5.482e-01  16  sdss  5760  82S  5 
   33  53665.436075  4  21.787  0.629  0.156  0.236   5.929e+00   4.502e+00   1.150e+00   1.735e+00  15  sdss  5760  82S  5 
  129  53665.435245  0  26.806  1.023  0.060  0.436  -3.702e+00   2.924e+00   2.091e-01   1.525e+00  11  sdss  5760  82S  5 
   32  53669.331643  1  23.455  0.617  0.380  0.771   1.410e+00   8.231e-01   5.434e-01   1.103e+00  17  sdss  5776  82S  5 
   32  53669.328326  2  23.322  0.682  0.240  0.615   1.585e+00   1.061e+00   4.008e-01   1.028e+00  17  sdss  5776  82S  5 
   32  53669.329155  3  22.314  0.405  0.115  0.284   4.141e+00   1.566e+00   4.625e-01   1.141e+00  16  sdss  5776  82S  5 
   32  53669.330814  4  21.806  0.640  0.276  0.493   5.791e+00   4.525e+00   2.004e+00   3.580e+00  15  sdss  5776  82S  5 
   32  53669.329985  0  23.171  1.162  0.389  1.417   1.949e+00   2.034e+00   7.856e-01   2.863e+00  11  sdss  5776  82S  5 
   32  53670.431568  1  22.626  0.369  0.138  0.460   3.143e+00   1.057e+00   4.088e-01   1.364e+00  17  sdss  5782  82S  5 
   32  53670.428251  2  22.608  0.430  0.184  0.360   3.214e+00   1.267e+00   5.689e-01   1.109e+00  17  sdss  5782  82S  5 
   32  53670.429080  3  23.840  1.191  0.700  1.073   6.429e-01   1.788e+00   9.282e-01   1.422e+00  16  sdss  5782  82S  5 
   32  53670.430739  4  21.263  0.599  0.385  0.544   1.062e+01   6.189e+00   4.240e+00   5.986e+00  15  sdss  5782  82S  5 
  162  53670.429910  0  22.131  0.749  0.410  1.083   5.379e+00   3.269e+00   2.043e+00   5.397e+00  11  sdss  5782  82S  5 
  160  53671.416326  1  22.857  0.327  0.175  0.246   2.525e+00   7.674e-01   4.216e-01   5.917e-01  17  sdss  5786  82S  5 
   32  53671.413009  2  22.292  0.257  0.105  0.142   4.333e+00   1.035e+00   4.287e-01   5.829e-01  17  sdss  5786  82S  5 
   32  53671.413838  3  22.516  0.502  0.216  0.275   3.402e+00   1.603e+00   7.278e-01   9.273e-01  16  sdss  5786  82S  5 
   32  53671.415497  4  22.826  0.835  0.346  0.512   3.347e-02   4.485e+00   1.689e+00   2.495e+00  15  sdss  5786  82S  5 
   32  53671.414668  0  22.271  0.561  0.186  0.440   4.716e+00   2.282e+00   8.190e-01   1.933e+00  11  sdss  5786  82S  5 
   32  53674.315636  1  22.234  0.182  0.136  0.258   4.532e+00   7.627e-01   5.757e-01   1.091e+00  17  sdss  5797  82S  5 
   32  53674.312319  2  22.342  0.267  0.146  0.247   4.134e+00   1.025e+00   5.721e-01   9.660e-01  17  sdss  5797  82S  5 
   32  53674.313148  3  21.994  0.297  0.165  0.228   5.618e+00   1.552e+00   8.793e-01   1.216e+00  16  sdss  5797  82S  5 
   32  53674.314807  4  21.319  0.539  0.315  0.573   1.002e+01   5.391e+00   3.308e+00   6.017e+00  15  sdss  5797  82S  5 
   40  53674.313978  0  23.650  1.439  1.010  2.672   1.133e+00   2.080e+00   1.429e+00   3.778e+00  11  sdss  5797  82S  5 
   32  53676.405031  1  22.312  0.186  0.094  0.121   4.215e+00   7.276e-01   3.701e-01   4.788e-01  17  sdss  5807  82S  5 
   32  53676.401714  2  22.050  0.196  0.072  0.093   5.435e+00   9.885e-01   3.672e-01   4.736e-01  17  sdss  5807  82S  5 
   32  53676.402543  3  21.619  0.188  0.057  0.068   7.993e+00   1.400e+00   4.243e-01   5.105e-01  16  sdss  5807  82S  5 
   32  53676.404201  4  22.044  0.630  0.052  0.276   4.198e+00   3.933e+00   3.272e-01   1.721e+00  15  sdss  5807  82S  5 
   32  53676.403372  0  22.279  0.484  0.037  0.307   4.679e+00   1.990e+00   1.608e-01   1.341e+00  11  sdss  5807  82S  5 
   32  53679.376800  1  21.887  0.131  0.050  0.160   6.254e+00   7.578e-01   2.929e-01   9.324e-01  17  sdss  5820  82S  5 
   32  53679.373483  2  21.797  0.194  0.140  0.193   6.876e+00   1.235e+00   9.003e-01   1.238e+00  17  sdss  5820  82S  5 
   32  53679.374312  3  22.240  0.435  0.209  0.313   4.446e+00   1.783e+00   8.968e-01   1.344e+00  16  sdss  5820  82S  5 
   32  53679.375971  4  20.949  0.361  0.105  0.240   1.454e+01   5.032e+00   1.509e+00   3.444e+00  15  sdss  5820  82S  5 
   40  53679.375142  0  22.971  1.096  0.882  1.545   2.395e+00   2.200e+00   2.102e+00   3.681e+00  11  sdss  5820  82S  5 
   32  53681.368224  1  22.060  0.137  0.024  0.101   5.328e+00   6.783e-01   1.179e-01   4.990e-01  17  sdss  5836  82S  5 
   32  53681.364907  2  21.672  0.132  0.037  0.076   7.721e+00   9.423e-01   2.656e-01   5.483e-01  17  sdss  5836  82S  5 
   32  53681.365736  3  21.552  0.170  0.039  0.072   8.508e+00   1.348e+00   3.145e-01   5.745e-01  16  sdss  5836  82S  5 
   32  53681.367395  4  22.047  0.611  0.180  0.339   4.173e+00   3.806e+00   1.124e+00   2.111e+00  15  sdss  5836  82S  5 
  160  53681.366565  0  22.261  0.457  0.050  0.411   4.760e+00   1.922e+00   2.231e-01   1.821e+00  11  sdss  5836  82S  5 
   33  53687.270966  1  22.102  0.357  0.351  0.105   5.124e+00   1.649e+00   1.674e+00   5.018e-01  17  sdss  5871  82S  5 
 1081  53687.267649  2  21.887  0.283  1.626  0.102   6.324e+00   1.637e+00   9.614e+00   6.015e-01  17  sdss  5871  82S  5 
   33  53687.268478  3  21.631  0.295  0.270  0.106   7.904e+00   2.137e+00   2.009e+00   7.839e-01  16  sdss  5871  82S  5 
   41  53687.270137  4  22.063  0.783  0.986  0.349   4.075e+00   4.870e+00   6.090e+00   2.157e+00  15  sdss  5871  82S  5 
  161  53687.269308  0  21.585  0.532  0.118  0.253   8.950e+00   4.048e+00   9.678e-01   2.074e+00  11  sdss  5871  82S  5 
   33  53697.324660  1  21.456  0.102  0.043  0.061   9.315e+00   8.778e-01   3.743e-01   5.228e-01  17  sdss  5895  82S  5 
   40  53697.321343  2  21.187  0.103  0.100  0.051   1.211e+01   1.153e+00   1.120e+00   5.747e-01  17  sdss  5895  82S  5 
   32  53697.322173  3  21.365  0.168  0.092  0.071   1.012e+01   1.575e+00   8.678e-01   6.750e-01  16  sdss  5895  82S  5 
   32  53697.323831  4  21.554  0.513  0.135  0.253   7.779e+00   4.320e+00   1.176e+00   2.202e+00  15  sdss  5895  82S  5 
  161  53697.323002  0  21.243  0.225  0.093  0.169   1.228e+01   2.487e+00   1.047e+00   1.893e+00  11  sdss  5895  82S  5 
  160  53700.323400  1  21.296  0.088  0.074  0.115   1.080e+01   8.764e-01   7.444e-01   1.154e+00  17  sdss  5905  82S  5 
   32  53700.320083  2  21.074  0.096  0.061  0.096   1.343e+01   1.188e+00   7.554e-01   1.196e+00  17  sdss  5905  82S  5 
   32  53700.320912  3  21.472  0.208  0.103  0.149   9.166e+00   1.764e+00   8.875e-01   1.275e+00  16  sdss  5905  82S  5 
    0  53700.322571  4  22.995  0.953  0.480  0.780  -7.917e-01   5.300e+00   2.368e+00   3.846e+00  15  sdss  5905  82S  5 
   40  53700.321741  0  21.263  0.217  0.249  0.376   1.206e+01   2.357e+00   2.744e+00   4.137e+00  11  sdss  5905  82S  5 
   32  53705.309982  1  21.098  0.074  0.066  0.112   1.296e+01   8.817e-01   7.980e-01   1.344e+00  17  sdss  5924  82S  5 
   32  53705.306665  2  21.237  0.106  0.034  0.103   1.156e+01   1.131e+00   3.610e-01   1.107e+00  17  sdss  5924  82S  5 
  160  53705.307495  3  21.575  0.247  0.185  0.245   8.328e+00   1.897e+00   1.445e+00   1.912e+00  16  sdss  5924  82S  5 
   40  53705.309153  4  21.478  0.617  0.839  0.528   8.465e+00   5.413e+00   7.757e+00   4.882e+00  15  sdss  5924  82S  5 
   32  53705.308324  0  20.964  0.170  0.040  0.251   1.590e+01   2.441e+00   5.834e-01   3.642e+00  11  sdss  5924  82S  5 
