# SDSS CID:   3465 IAU:          RA: 321.891083 DEC:   0.310315  (J2000)
# GALAXY_SB [ugriz] = [ 24.48 24.57 23.89 23.64 22.56 ] +/- [  0.28  0.12  0.09  0.09  0.11 ] (asinh mag/square arcsec)
# GALAXY_SB_FLUX [ugriz] = [  1.543E-01  3.364E-01  8.176E-01  9.160E-01  1.293E+00 ] +/- [  2.693E-01  8.170E-02  1.006E-01  1.315E-01  5.773E-01 ] (microJy per square arcsec)
#FLAG  MJD       FILT  MAG     MERR  MSKYERR MGALERR  FLUX       FLUXERR    SKYERR     GALERR    NPRE TELE   RUN  STRIP  IDCCD
    0  53623.199714  1  22.426  0.154  0.076  0.085   3.788e+00   5.384e-01   2.670e-01   3.003e-01  12  sdss  5590  82N  4 
    0  53623.196397  2  22.672  0.273  0.083  0.122   3.025e+00   7.773e-01   2.407e-01   3.527e-01  14  sdss  5590  82N  4 
    0  53623.197226  3  22.616  0.380  0.142  0.129   3.082e+00   1.132e+00   4.371e-01   3.974e-01  15  sdss  5590  82N  4 
    0  53623.198885  4  21.780  0.519  0.089  0.268   5.976e+00   3.718e+00   6.533e-01   1.959e+00  13  sdss  5590  82N  4 
   12  53623.198056  0  22.214  0.342  0.139  0.248   4.976e+00   1.514e+00   6.319e-01   1.132e+00  9  sdss  5590  82N  4 
    1  53626.185962  1  22.265  0.231  0.062  0.087   4.402e+00   9.306e-01   2.516e-01   3.557e-01  12  sdss  5603  82N  4 
    1  53626.182645  2  22.408  0.293  0.092  0.100   3.887e+00   1.053e+00   3.376e-01   3.664e-01  14  sdss  5603  82N  4 
    0  53626.183474  3  21.806  0.224  0.060  0.068   6.710e+00   1.390e+00   3.746e-01   4.281e-01  15  sdss  5603  82N  4 
    0  53626.185133  4  21.633  0.535  0.228  0.254   7.119e+00   4.212e+00   1.851e+00   2.066e+00  13  sdss  5603  82N  4 
    1  53626.184303  0  22.844  1.491  0.431  0.547   2.717e+00   3.029e+00   1.129e+00   1.433e+00  9  sdss  5603  82N  4 
    1  53628.170438  1  22.357  0.553  0.214  0.230   4.040e+00   1.920e+00   8.048e-01   8.644e-01  12  sdss  5610  82N  4 
    1  53628.167121  2  22.543  0.644  0.322  0.265   3.421e+00   1.901e+00   1.046e+00   8.634e-01  14  sdss  5610  82N  4 
    1  53628.167951  3  22.294  0.584  0.350  0.277   4.224e+00   2.193e+00   1.421e+00   1.123e+00  15  sdss  5610  82N  4 
   32  53628.169609  4  22.819  1.100  1.103  0.909   6.854e-02   6.329e+00   5.381e+00   4.435e+00  13  sdss  5610  82N  4 
    1  53628.168780  0  25.815  2.407  1.590  2.090  -1.333e+00   4.933e+00   2.444e+00   3.214e+00  9  sdss  5610  82N  4 
    1  53635.178456  1  22.386  0.189  0.063  0.088   3.932e+00   6.825e-01   2.290e-01   3.198e-01  12  sdss  5622  82N  4 
    0  53635.175139  2  22.642  0.317  0.095  0.167   3.113e+00   9.202e-01   2.830e-01   4.972e-01  14  sdss  5622  82N  4 
    0  53635.175969  3  22.592  0.409  0.139  0.194   3.156e+00   1.238e+00   4.346e-01   6.078e-01  15  sdss  5622  82N  4 
    0  53635.177627  4  21.492  0.420  0.206  0.278   8.330e+00   3.700e+00   1.856e+00   2.508e+00  13  sdss  5622  82N  4 
    1  53635.176798  0  21.821  0.328  0.120  0.282   7.183e+00   2.071e+00   7.818e-01   1.831e+00  9  sdss  5622  82N  4 
    0  53637.171702  1  22.836  0.264  0.106  0.311   2.576e+00   6.309e-01   2.578e-01   7.578e-01  12  sdss  5633  82N  4 
    0  53637.168385  2  22.283  0.232  0.175  0.176   4.372e+00   9.398e-01   7.203e-01   7.243e-01  14  sdss  5633  82N  4 
    0  53637.169214  3  22.164  0.312  0.180  0.177   4.784e+00   1.389e+00   8.214e-01   8.043e-01  15  sdss  5633  82N  4 
    0  53637.170872  4  22.126  0.882  0.263  0.627   3.695e+00   5.385e+00   1.561e+00   3.719e+00  13  sdss  5633  82N  4 
    0  53637.170043  0  22.271  0.522  0.265  0.599   4.716e+00   2.115e+00   1.147e+00   2.593e+00  9  sdss  5633  82N  4 
    0  53644.163494  1  22.509  0.148  0.052  0.101   3.505e+00   4.807e-01   1.692e-01   3.315e-01  12  sdss  5670  82N  4 
    0  53644.160178  2  22.627  0.243  0.053  0.111   3.158e+00   7.219e-01   1.601e-01   3.356e-01  14  sdss  5670  82N  4 
    0  53644.161007  3  21.956  0.210  0.068  0.074   5.826e+00   1.139e+00   3.728e-01   4.035e-01  15  sdss  5670  82N  4 
    0  53644.162665  4  22.336  0.693  0.127  0.349   2.510e+00   3.874e+00   6.830e-01   1.879e+00  13  sdss  5670  82N  4 
    0  53644.161836  0  22.320  0.389  0.118  0.324   4.502e+00   1.553e+00   4.884e-01   1.344e+00  9  sdss  5670  82N  4 
    1  53654.197502  1  22.636  0.294  0.133  0.145   3.111e+00   8.382e-01   3.878e-01   4.230e-01  12  sdss  5709  82N  4 
    0  53654.194185  2  22.977  0.435  0.201  0.152   2.249e+00   9.286e-01   4.456e-01   3.371e-01  14  sdss  5709  82N  4 
    0  53654.195014  3  22.008  0.265  0.101  0.082   5.548e+00   1.361e+00   5.275e-01   4.304e-01  15  sdss  5709  82N  4 
    0  53654.196673  4  21.525  0.524  0.064  0.185   8.033e+00   4.452e+00   5.657e-01   1.632e+00  13  sdss  5709  82N  4 
    9  53654.195843  0  23.411  1.307  0.714  0.787   1.505e+00   2.009e+00   1.184e+00   1.305e+00  9  sdss  5709  82N  4 
    1  53656.145075  1  22.500  0.596  0.173  0.271   3.535e+00   1.797e+00   5.707e-01   8.922e-01  12  sdss  5719  82N  4 
    1  53656.141758  2  23.024  1.174  0.479  0.513   2.147e+00   2.047e+00   1.023e+00   1.095e+00  14  sdss  5719  82N  4 
   33  53656.142587  3  23.620  1.441  0.846  0.977   9.491e-01   2.399e+00   1.244e+00   1.437e+00  15  sdss  5719  82N  4 
    0  53656.144246  4  24.729  0.549  0.109  0.392  -1.473e+01   7.355e+00   1.561e+00   5.600e+00  13  sdss  5719  82N  4 
    1  53656.143416  0  27.061  1.565  0.676  0.833  -4.718e+00   4.606e+00   2.929e+00   3.609e+00  9  sdss  5719  82N  4 
    0  53668.146706  1  22.504  0.184  0.094  0.247   3.521e+00   5.974e-01   3.091e-01   8.108e-01  12  sdss  5770  82N  4 
    0  53668.143389  2  22.175  0.205  0.111  0.129   4.839e+00   9.167e-01   5.024e-01   5.829e-01  14  sdss  5770  82N  4 
    0  53668.144218  3  22.259  0.360  0.218  0.172   4.368e+00   1.462e+00   9.107e-01   7.180e-01  15  sdss  5770  82N  4 
    0  53668.145877  4  22.288  0.987  0.989  0.627   2.769e+00   5.848e+00   5.431e+00   3.443e+00  13  sdss  5770  82N  4 
    0  53668.145047  0  21.864  0.295  0.078  0.335   6.901e+00   1.800e+00   4.861e-01   2.094e+00  9  sdss  5770  82N  4 
    0  53670.151584  1  22.503  0.157  0.105  0.139   3.525e+00   5.138e-01   3.446e-01   4.582e-01  12  sdss  5781  82N  4 
    0  53670.148267  2  22.908  0.411  0.191  0.302   2.407e+00   9.328e-01   4.500e-01   7.111e-01  14  sdss  5781  82N  4 
    0  53670.149096  3  22.117  0.287  0.094  0.132   5.003e+00   1.336e+00   4.475e-01   6.265e-01  15  sdss  5781  82N  4 
    0  53670.150754  4  23.274  0.860  0.570  0.532  -2.211e+00   4.866e+00   3.006e+00   2.805e+00  13  sdss  5781  82N  4 
    0  53670.149925  0  23.039  0.828  0.172  0.822   2.234e+00   1.652e+00   3.828e-01   1.828e+00  9  sdss  5781  82N  4 
    0  53673.119426  1  22.714  0.189  0.059  0.165   2.891e+00   5.097e-01   1.594e-01   4.468e-01  12  sdss  5792  82N  4 
    0  53673.116109  2  22.356  0.215  0.055  0.116   4.082e+00   8.177e-01   2.103e-01   4.468e-01  14  sdss  5792  82N  4 
    0  53673.116938  3  22.393  0.345  0.212  0.139   3.838e+00   1.250e+00   7.896e-01   5.180e-01  15  sdss  5792  82N  4 
    0  53673.118597  4  22.758  0.839  0.625  0.530   3.642e-01   4.516e+00   3.053e+00   2.589e+00  13  sdss  5792  82N  4 
    0  53673.117767  0  22.256  0.378  0.119  0.366   4.783e+00   1.601e+00   5.230e-01   1.605e+00  9  sdss  5792  82N  4 
    0  53675.116013  1  22.512  0.155  0.109  0.133   3.495e+00   5.016e-01   3.537e-01   4.341e-01  12  sdss  5800  82N  4 
    0  53675.112696  2  22.342  0.223  0.080  0.125   4.136e+00   8.581e-01   3.131e-01   4.880e-01  14  sdss  5800  82N  4 
    0  53675.113525  3  22.559  0.398  0.170  0.148   3.262e+00   1.241e+00   5.468e-01   4.767e-01  15  sdss  5800  82N  4 
    8  53675.115183  4  22.600  0.763  0.733  0.462   1.146e+00   4.092e+00   3.657e+00   2.306e+00  13  sdss  5800  82N  4 
    0  53675.114354  0  23.091  0.771  0.121  0.663   2.118e+00   1.497e+00   2.583e-01   1.413e+00  9  sdss  5800  82N  4 
    0  53677.136996  1  22.657  0.186  0.136  0.186   3.050e+00   5.275e-01   3.896e-01   5.328e-01  12  sdss  5813  82N  4 
    0  53677.133680  2  22.342  0.217  0.113  0.124   4.136e+00   8.333e-01   4.409e-01   4.817e-01  14  sdss  5813  82N  4 
    0  53677.134509  3  22.199  0.275  0.109  0.112   4.627e+00   1.192e+00   4.800e-01   4.923e-01  15  sdss  5813  82N  4 
    0  53677.136167  4  23.975  0.542  0.212  0.365  -6.655e+00   4.107e+00   1.648e+00   2.842e+00  13  sdss  5813  82N  4 
    0  53677.135338  0  22.392  0.420  0.077  0.430   4.205e+00   1.565e+00   3.007e-01   1.672e+00  9  sdss  5813  82N  4 
    0  53680.123214  1  22.420  0.156  0.069  0.144   3.809e+00   5.487e-01   2.451e-01   5.089e-01  12  sdss  5823  82N  4 
    0  53680.119897  2  22.965  0.416  0.111  0.288   2.276e+00   8.999e-01   2.493e-01   6.463e-01  14  sdss  5823  82N  4 
    0  53680.120726  3  22.053  0.259  0.118  0.138   5.316e+00   1.279e+00   5.946e-01   6.943e-01  15  sdss  5823  82N  4 
    0  53680.122385  4  23.185  0.776  0.092  0.566  -1.748e+00   4.251e+00   4.741e-01   2.902e+00  13  sdss  5823  82N  4 
    0  53680.121556  0  22.673  0.625  0.246  0.661   3.213e+00   1.743e+00   7.469e-01   2.007e+00  9  sdss  5823  82N  4 
    3  53686.189131  1  22.301  0.797  0.313  0.342   4.256e+00   2.701e+00   1.237e+00   1.351e+00  12  sdss  5865  82N  4 
    3  53686.185814  2  22.276  0.678  0.306  0.340   4.401e+00   2.509e+00   1.265e+00   1.404e+00  14  sdss  5865  82N  4 
    3  53686.186643  3  21.267  0.268  0.127  0.168   1.109e+01   2.692e+00   1.301e+00   1.722e+00  15  sdss  5865  82N  4 
    2  53686.188301  4  21.435  1.105  0.637  0.861   8.861e+00   9.279e+00   6.014e+00   8.127e+00  13  sdss  5865  82N  4 
    3  53686.187472  0  22.386  2.772  0.324  1.207   4.228e+00   7.847e+00   1.266e+00   4.718e+00  9  sdss  5865  82N  4 
    1  53693.123782  1  23.011  0.533  0.207  0.225   2.179e+00   1.040e+00   4.315e-01   4.698e-01  12  sdss  5878  82N  4 
    1  53693.120465  2  23.356  0.726  0.302  0.289   1.529e+00   1.089e+00   4.897e-01   4.687e-01  14  sdss  5878  82N  4 
    0  53693.121295  3  22.026  0.265  0.067  0.096   5.454e+00   1.340e+00   3.453e-01   4.948e-01  15  sdss  5878  82N  4 
  128  53693.122953  4  24.038  0.492  0.273  0.271  -7.162e+00   3.906e+00   2.227e+00   2.207e+00  13  sdss  5878  82N  4 
    9  53693.122124  0  21.691  0.351  0.190  0.220   8.107e+00   2.484e+00   1.395e+00   1.614e+00  9  sdss  5878  82N  4 
    4  53698.120697  1  21.979  0.336  0.440  0.131   5.741e+00   1.727e+00   2.331e+00   6.925e-01  12  sdss  5898  82N  4 
    4  53698.117380  2  22.421  0.883  0.540  0.207   3.839e+00   2.697e+00   1.961e+00   7.509e-01  14  sdss  5898  82N  4 
 1164  53698.118209  3  26.078  2.262  4.034  0.305  -2.989e+00   5.849e+00   1.206e+01   9.133e-01  15  sdss  5898  82N  4 
 1156  53698.119868  4  24.100  1.911  0.302  0.485  -7.685e+00   1.657e+01   2.584e+00   4.138e+00  13  sdss  5898  82N  4 
 1028  53698.119038  0  21.604  0.835  0.347  0.353   8.789e+00   5.594e+00   2.748e+00   2.796e+00  9  sdss  5898  82N  4 
 1156  53699.144098  1  21.928  0.331  0.310  0.088   6.018e+00   1.785e+00   1.719e+00   4.880e-01  12  sdss  5902  82N  4 
 1028  53699.140781  2  21.758  1.234  0.830  0.091   7.134e+00   5.930e+00   5.497e+00   6.030e-01  14  sdss  5902  82N  4 
 1028  53699.141610  3  27.008  1.302  0.442  0.112  -7.295e+00   6.367e+00   3.007e+00   7.595e-01  15  sdss  5902  82N  4 
 1028  53699.143269  4  19.870  0.454  0.072  0.077   4.039e+01   1.598e+01   2.667e+00   2.854e+00  13  sdss  5902  82N  4 
 1028  53699.142439  0  27.833  1.822  0.229  0.271  -9.693e+00   9.198e+00   1.999e+00   2.370e+00  9  sdss  5902  82N  4 
    2  53702.118671  1  22.754  0.319  0.452  0.570   2.784e+00   8.154e-01   1.183e+00   1.494e+00  12  sdss  5909  82N  4 
    2  53702.115354  2  22.926  0.639  0.598  0.712   2.365e+00   1.364e+00   1.389e+00   1.653e+00  14  sdss  5909  82N  4 
   32  53702.116183  3  24.329  1.282  0.970  1.476   3.896e-02   1.897e+00   1.149e+00   1.749e+00  15  sdss  5909  82N  4 
    2  53702.117842  4  24.233  0.880  0.563  0.866  -8.882e+00   7.587e+00   5.327e+00   8.187e+00  13  sdss  5909  82N  4 
 1152  53702.117012  0  22.678  1.668  0.129  1.718   3.197e+00   3.669e+00   3.915e-01   5.192e+00  9  sdss  5909  82N  4 
    0  53703.127532  1  22.512  0.218  0.221  0.295   3.495e+00   7.004e-01   7.199e-01   9.620e-01  12  sdss  5915  82N  4 
    0  53703.124215  2  22.438  0.341  0.224  0.352   3.778e+00   1.181e+00   8.020e-01   1.259e+00  14  sdss  5915  82N  4 
    0  53703.125044  3  22.225  0.425  0.384  0.406   4.512e+00   1.755e+00   1.657e+00   1.751e+00  15  sdss  5915  82N  4 
   32  53703.126703  4  22.495  1.037  0.276  1.162   1.675e+00   5.991e+00   1.410e+00   5.940e+00  13  sdss  5915  82N  4 
    2  53703.125873  0  23.074  1.400  0.264  1.827   2.156e+00   2.521e+00   5.703e-01   3.947e+00  9  sdss  5915  82N  4 
    0  53704.106005  1  22.528  0.194  0.184  0.219   3.443e+00   6.153e-01   5.896e-01   7.024e-01  12  sdss  5918  82N  4 
    0  53704.102689  2  22.572  0.296  0.196  0.209   3.328e+00   9.189e-01   6.206e-01   6.638e-01  14  sdss  5918  82N  4 
   32  53704.103518  3  23.052  0.653  0.361  0.355   1.956e+00   1.332e+00   7.778e-01   7.650e-01  15  sdss  5918  82N  4 
    0  53704.105176  4  21.457  0.534  0.200  0.364   8.654e+00   4.754e+00   1.855e+00   3.382e+00  13  sdss  5918  82N  4 
    8  53704.104347  0  22.437  0.552  0.615  0.684   4.029e+00   1.917e+00   2.297e+00   2.554e+00  9  sdss  5918  82N  4 
