# SDSS CID:   3712 IAU:          RA:   1.858797 DEC:  -0.672537  (J2000)
# GALAXY_SB [ugriz] = [ 23.25 22.63 22.27 22.02 21.72 ] +/- [  0.24  0.03  0.03  0.03  0.07 ] (asinh mag/square arcsec)
# GALAXY_SB_FLUX [ugriz] = [  1.735E+00  3.123E+00  4.440E+00  5.487E+00  6.413E+00 ] +/- [  4.465E-01  1.021E-01  1.164E-01  1.387E-01  5.045E-01 ] (microJy per square arcsec)
#FLAG  MJD       FILT  MAG     MERR  MSKYERR MGALERR  FLUX       FLUXERR    SKYERR     GALERR    NPRE TELE   RUN  STRIP  IDCCD
   32  53622.333876  1  23.449  0.576  0.463  0.971   1.419e+00   7.771e-01   6.645e-01   1.395e+00  12  sdss  5582  82S  2 
   32  53622.330559  2  22.771  0.382  0.135  0.335   2.749e+00   9.775e-01   3.563e-01   8.868e-01  12  sdss  5582  82S  2 
   32  53622.331389  3  22.197  0.355  0.258  0.263   4.633e+00   1.525e+00   1.143e+00   1.162e+00  12  sdss  5582  82S  2 
    0  53622.333047  4  23.088  1.019  0.927  0.910  -1.253e+00   5.801e+00   4.641e+00   4.559e+00  11  sdss  5582  82S  2 
  164  53622.332218  0  22.406  0.580  0.112  1.292   4.148e+00   2.102e+00   4.399e-01   5.071e+00  7  sdss  5582  82S  2 
   33  53627.290919  1  22.927  0.501  0.187  0.281   2.363e+00   1.065e+00   4.230e-01   6.340e-01  12  sdss  5607  82S  2 
   33  53627.287602  2  22.558  0.359  0.123  0.195   3.372e+00   1.112e+00   3.918e-01   6.232e-01  12  sdss  5607  82S  2 
   32  53627.288432  3  22.688  0.479  0.199  0.219   2.865e+00   1.325e+00   5.743e-01   6.344e-01  12  sdss  5607  82S  2 
   40  53627.290090  4  22.543  0.707  0.788  0.440   1.432e+00   3.787e+00   3.979e+00   2.221e+00  11  sdss  5607  82S  2 
    9  53627.289261  0  22.007  0.475  0.241  0.522   6.039e+00   2.520e+00   1.355e+00   2.935e+00  7  sdss  5607  82S  2 
   33  53634.283520  1  22.430  0.534  0.213  0.323   3.774e+00   1.753e+00   7.508e-01   1.141e+00  12  sdss  5619  82S  2 
   33  53634.280203  2  22.326  0.516  0.338  0.407   4.198e+00   1.899e+00   1.328e+00   1.603e+00  12  sdss  5619  82S  2 
    0  53634.281032  3  25.210  1.106  0.683  0.789  -1.109e+00   1.768e+00   1.068e+00   1.234e+00  12  sdss  5619  82S  2 
    0  53634.282691  4  22.958  0.926  0.770  0.811  -6.105e-01   5.102e+00   3.778e+00   3.983e+00  11  sdss  5619  82S  2 
    1  53634.281862  0  21.664  0.684  0.075  0.770   8.312e+00   4.672e+00   5.759e-01   5.916e+00  7  sdss  5619  82S  2 
   35  53636.288995  1  23.911  1.794  2.984  1.635   8.669e-01   1.798e+00   2.964e+00   1.624e+00  12  sdss  5628  82S  2 
    1  53636.285678  2  21.743  0.207  0.165  0.121   7.232e+00   1.369e+00   1.102e+00   8.063e-01  12  sdss  5628  82S  2 
   56  53636.286507  3  21.687  0.292  1.169  0.267   7.497e+00   1.997e+00   8.178e+00   1.865e+00  12  sdss  5628  82S  2 
  160  53636.288166  4  21.869  0.978  1.063  0.857   5.346e+00   6.626e+00   7.313e+00   5.896e+00  11  sdss  5628  82S  2 
   13  53636.287336  0  21.168  0.715  0.412  0.966   1.316e+01   7.598e+00   4.985e+00   1.170e+01  7  sdss  5628  82S  2 
   34  53640.288873  1  22.453  0.276  0.315  0.516   3.694e+00   9.367e-01   1.091e+00   1.787e+00  12  sdss  5646  82S  2 
 1180  53640.285556  2  21.233  0.426  3.127  0.097   1.159e+01   4.329e+00   3.336e+01   1.038e+00  12  sdss  5646  82S  2 
  160  53640.286385  3  22.415  0.407  0.312  0.360   3.754e+00   1.432e+00   1.140e+00   1.315e+00  12  sdss  5646  82S  2 
 1156  53640.288044  4  20.240  0.305  0.332  0.215   2.859e+01   7.851e+00   8.773e+00   5.684e+00  11  sdss  5646  82S  2 
 1198  53640.287215  0  22.885  1.433  1.022  3.147   2.610e+00   2.901e+00   2.639e+00   8.128e+00  7  sdss  5646  82S  2 
   33  53655.260562  1  22.262  0.261  0.099  0.205   4.414e+00   1.054e+00   4.070e-01   8.420e-01  12  sdss  5713  82S  2 
   32  53655.257245  2  22.857  0.798  0.255  0.690   2.529e+00   1.724e+00   6.249e-01   1.694e+00  12  sdss  5713  82S  2 
   32  53655.258074  3  21.602  0.234  0.165  0.208   8.115e+00   1.742e+00   1.249e+00   1.574e+00  12  sdss  5713  82S  2 
  160  53655.259733  4  21.600  0.594  0.272  0.410   7.391e+00   4.737e+00   2.258e+00   3.401e+00  11  sdss  5713  82S  2 
    3  53655.258903  0  26.240  1.853  0.192  3.351  -2.119e+00   3.430e+00   4.178e-01   7.276e+00  7  sdss  5713  82S  2 
   57  53664.285407  1  22.917  0.611  3.637  0.305   2.385e+00   1.277e+00   8.289e+00   6.954e-01  12  sdss  5754  82S  2 
   33  53664.282089  2  22.538  0.392  0.155  0.204   3.436e+00   1.227e+00   5.031e-01   6.640e-01  12  sdss  5754  82S  2 
   32  53664.282919  3  21.986  0.280  0.117  0.133   5.661e+00   1.464e+00   6.228e-01   7.092e-01  12  sdss  5754  82S  2 
   32  53664.284577  4  21.627  0.609  0.312  0.350   7.166e+00   4.763e+00   2.536e+00   2.848e+00  11  sdss  5754  82S  2 
    1  53664.283748  0  26.018  1.881  0.514  2.092  -1.676e+00   3.280e+00   9.332e-01   3.800e+00  7  sdss  5754  82S  2 
   33  53666.248806  1  22.546  0.226  0.082  0.135   3.386e+00   7.097e-01   2.596e-01   4.279e-01  12  sdss  5763  82S  2 
    0  53666.245489  2  22.541  0.283  0.051  0.120   3.426e+00   8.989e-01   1.667e-01   3.891e-01  12  sdss  5763  82S  2 
    0  53666.246318  3  22.228  0.282  0.072  0.088   4.498e+00   1.190e+00   3.082e-01   3.805e-01  12  sdss  5763  82S  2 
    0  53666.247977  4  21.584  0.499  0.189  0.210   7.527e+00   4.062e+00   1.586e+00   1.766e+00  11  sdss  5763  82S  2 
    1  53666.247147  0  22.282  0.454  0.026  0.474   4.665e+00   1.890e+00   1.122e-01   2.080e+00  7  sdss  5763  82S  2 
   32  53669.244245  1  22.538  0.181  0.079  0.190   3.412e+00   5.743e-01   2.532e-01   6.096e-01  12  sdss  5776  82S  2 
    0  53669.240928  2  22.377  0.212  0.034  0.096   4.001e+00   7.860e-01   1.285e-01   3.597e-01  12  sdss  5776  82S  2 
   32  53669.241757  3  22.322  0.297  0.091  0.110   4.109e+00   1.152e+00   3.603e-01   4.362e-01  12  sdss  5776  82S  2 
   32  53669.243415  4  22.183  0.667  0.243  0.339   3.360e+00   3.909e+00   1.399e+00   1.951e+00  11  sdss  5776  82S  2 
    8  53669.242586  0  22.302  0.378  0.178  0.596   4.577e+00   1.571e+00   7.690e-01   2.570e+00  7  sdss  5776  82S  2 
   32  53671.328825  1  22.805  0.293  0.147  0.374   2.653e+00   7.213e-01   3.701e-01   9.431e-01  12  sdss  5786  82S  2 
   32  53671.325508  2  23.292  0.691  0.382  0.539   1.634e+00   1.089e+00   6.499e-01   9.162e-01  12  sdss  5786  82S  2 
   32  53671.326338  3  22.485  0.430  0.306  0.277   3.506e+00   1.418e+00   1.052e+00   9.511e-01  12  sdss  5786  82S  2 
    0  53671.327996  4  23.710  0.740  0.453  0.488  -4.756e+00   4.781e+00   2.951e+00   3.180e+00  11  sdss  5786  82S  2 
   32  53671.327167  0  24.213  1.776  0.314  4.877   4.512e-01   2.630e+00   3.305e-01   5.138e+00  7  sdss  5786  82S  2 
   32  53674.228417  1  22.377  0.168  0.130  0.204   3.965e+00   6.168e-01   4.816e-01   7.581e-01  12  sdss  5797  82S  2 
   32  53674.225101  2  22.661  0.334  0.159  0.284   3.056e+00   9.482e-01   4.630e-01   8.292e-01  12  sdss  5797  82S  2 
   32  53674.225930  3  22.263  0.306  0.198  0.193   4.349e+00   1.249e+00   8.275e-01   8.046e-01  12  sdss  5797  82S  2 
   32  53674.227588  4  21.833  0.544  0.385  0.363   5.593e+00   3.765e+00   2.708e+00   2.554e+00  11  sdss  5797  82S  2 
   40  53674.226759  0  23.814  1.304  0.810  2.689   9.125e-01   1.761e+00   1.037e+00   3.442e+00  7  sdss  5797  82S  2 
   32  53676.317713  1  22.834  0.238  0.042  0.170   2.581e+00   5.751e-01   1.018e-01   4.176e-01  12  sdss  5807  82S  2 
    0  53676.314396  2  22.203  0.197  0.059  0.096   4.712e+00   8.552e-01   2.580e-01   4.234e-01  12  sdss  5807  82S  2 
    0  53676.315226  3  22.058  0.227  0.037  0.079   5.289e+00   1.122e+00   1.867e-01   3.958e-01  12  sdss  5807  82S  2 
   32  53676.316884  4  21.920  0.532  0.175  0.242   4.995e+00   3.504e+00   1.168e+00   1.614e+00  11  sdss  5807  82S  2 
  128  53676.316055  0  22.032  0.382  0.042  0.515   5.900e+00   2.021e+00   2.332e-01   2.831e+00  7  sdss  5807  82S  2 
   32  53679.289344  1  22.479  0.207  0.182  0.274   3.605e+00   6.907e-01   6.166e-01   9.274e-01  12  sdss  5820  82S  2 
   32  53679.286028  2  22.254  0.276  0.149  0.227   4.492e+00   1.137e+00   6.242e-01   9.535e-01  12  sdss  5820  82S  2 
   32  53679.286857  3  22.160  0.350  0.161  0.251   4.799e+00   1.553e+00   7.343e-01   1.150e+00  12  sdss  5820  82S  2 
   32  53679.288515  4  21.520  0.628  0.347  0.408   8.076e+00   5.265e+00   3.058e+00   3.592e+00  11  sdss  5820  82S  2 
  160  53679.287686  0  22.643  0.788  0.192  1.621   3.308e+00   2.206e+00   6.109e-01   5.163e+00  7  sdss  5820  82S  2 
   32  53681.280678  1  22.484  0.190  0.031  0.153   3.588e+00   6.331e-01   1.043e-01   5.146e-01  12  sdss  5836  82S  2 
   32  53681.277361  2  22.675  0.306  0.069  0.147   3.015e+00   8.618e-01   1.994e-01   4.232e-01  12  sdss  5836  82S  2 
   32  53681.278190  3  22.294  0.291  0.124  0.104   4.222e+00   1.157e+00   5.018e-01   4.222e-01  12  sdss  5836  82S  2 
    0  53681.279849  4  21.074  0.310  0.133  0.138   1.285e+01   3.837e+00   1.684e+00   1.742e+00  11  sdss  5836  82S  2 
   36  53681.279019  0  23.692  1.331  0.105  1.798   1.076e+00   1.870e+00   1.454e-01   2.486e+00  7  sdss  5836  82S  2 
   33  53685.239374  1  23.229  1.581  1.381  0.365   1.765e+00   2.049e+00   2.391e+00   6.325e-01  12  sdss  5853  82S  2 
   41  53685.236057  2  22.184  0.548  0.568  0.168   4.797e+00   2.272e+00   2.539e+00   7.521e-01  12  sdss  5853  82S  2 
   33  53685.236887  3  22.082  0.476  0.316  0.164   5.169e+00   2.210e+00   1.550e+00   8.046e-01  12  sdss  5853  82S  2 
    0  53685.238545  4  20.891  0.396  0.152  0.183   1.540e+01   5.653e+00   2.247e+00   2.703e+00  11  sdss  5853  82S  2 
    5  53685.237716  0  26.370  2.436  0.192  1.811  -2.418e+00   5.438e+00   4.640e-01   4.385e+00  7  sdss  5853  82S  2 
   32  53697.236461  1  22.659  0.217  0.074  0.190   3.045e+00   6.151e-01   2.123e-01   5.469e-01  12  sdss  5895  82S  2 
   40  53697.233144  2  22.611  0.314  0.255  0.138   3.205e+00   9.326e-01   7.778e-01   4.200e-01  12  sdss  5895  82S  2 
    0  53697.233973  3  22.015  0.240  0.078  0.097   5.508e+00   1.232e+00   4.050e-01   5.034e-01  12  sdss  5895  82S  2 
   32  53697.235632  4  21.866  0.611  0.313  0.336   5.360e+00   4.135e+00   2.154e+00   2.313e+00  11  sdss  5895  82S  2 
   36  53697.234802  0  22.636  0.725  0.040  0.916   3.331e+00   2.079e+00   1.272e-01   2.936e+00  7  sdss  5895  82S  2 
   32  53700.235093  1  22.841  0.271  0.073  0.313   2.564e+00   6.483e-01   1.787e-01   7.627e-01  12  sdss  5905  82S  2 
   32  53700.231776  2  22.299  0.234  0.076  0.164   4.306e+00   9.307e-01   3.073e-01   6.612e-01  12  sdss  5905  82S  2 
   32  53700.232605  3  22.002  0.255  0.152  0.151   5.576e+00   1.322e+00   7.993e-01   7.975e-01  12  sdss  5905  82S  2 
   32  53700.234263  4  21.318  0.466  0.352  0.320   1.003e+01   4.639e+00   3.635e+00   3.310e+00  11  sdss  5905  82S  2 
    8  53700.233434  0  22.017  0.385  0.311  0.741   5.983e+00   2.063e+00   1.731e+00   4.131e+00  7  sdss  5905  82S  2 
   32  53705.221511  1  22.565  0.197  0.090  0.202   3.326e+00   6.089e-01   2.816e-01   6.315e-01  12  sdss  5924  82S  2 
   32  53705.218195  2  23.532  0.640  0.166  0.428   1.263e+00   8.583e-01   2.337e-01   6.024e-01  12  sdss  5924  82S  2 
   32  53705.219024  3  22.347  0.314  0.134  0.176   4.010e+00   1.189e+00   5.189e-01   6.812e-01  12  sdss  5924  82S  2 
   32  53705.220682  4  22.056  0.574  0.366  0.383   4.119e+00   3.528e+00   2.249e+00   2.353e+00  11  sdss  5924  82S  2 
    8  53705.219853  0  22.131  0.391  0.293  0.703   5.377e+00   1.889e+00   1.473e+00   3.534e+00  7  sdss  5924  82S  2 
