# SDSS CID:  14691 IAU:          RA:  56.962036 DEC:  -0.959070  (J2000)
# GALAXY_SB [ugriz] = [ 23.99 23.18 22.58 21.87 21.36 ] +/- [  0.37  0.04  0.03  0.02  0.05 ] (asinh mag/square arcsec)
# GALAXY_SB_FLUX [ugriz] = [  6.640E-01  1.852E+00  3.299E+00  6.286E+00  9.581E+00 ] +/- [  4.182E-01  7.326E-02  8.873E-02  1.251E-01  5.162E-01 ] (microJy per square arcsec)
#FLAG  MJD       FILT  MAG     MERR  MSKYERR MGALERR  FLUX       FLUXERR    SKYERR     GALERR    NPRE TELE   RUN  STRIP  IDCCD
   33  53989.469016  1  23.836  1.275  0.200  0.267   9.427e-01   1.212e+00   2.079e-01   2.783e-01  21  sdss  6314  82N  1 
   33  53989.465699  2  22.607  0.403  0.072  0.090   3.217e+00   1.190e+00   2.198e-01   2.753e-01  23  sdss  6314  82N  1 
   33  53989.466528  3  22.865  0.626  0.195  0.150   2.391e+00   1.475e+00   4.886e-01   3.762e-01  23  sdss  6314  82N  1 
   32  53989.468187  4  21.928  0.580  0.172  0.294   4.943e+00   3.816e+00   1.147e+00   1.952e+00  23  sdss  6314  82N  1 
    1  53989.467357  0  26.614  1.303  0.146  0.680  -3.076e+00   2.906e+00   4.170e-01   1.944e+00  8  sdss  6314  82N  1 
   32  54008.456816  1  23.149  0.294  0.110  0.255   1.909e+00   5.292e-01   2.027e-01   4.679e-01  21  sdss  6418  82N  1 
   32  54008.453498  2  22.525  0.246  0.128  0.136   3.478e+00   8.019e-01   4.229e-01   4.510e-01  23  sdss  6418  82N  1 
   32  54008.454328  3  21.905  0.215  0.115  0.090   6.111e+00   1.227e+00   6.643e-01   5.216e-01  23  sdss  6418  82N  1 
   32  54008.455986  4  21.889  0.635  0.395  0.452   5.207e+00   4.260e+00   2.691e+00   3.082e+00  23  sdss  6418  82N  1 
  128  54008.455157  0  26.407  0.680  0.061  1.311  -2.510e+00   1.499e+00   1.466e-01   3.144e+00  8  sdss  6418  82N  1 
    0  54009.419842  1  22.997  0.225  0.087  0.121   2.211e+00   4.655e-01   1.817e-01   2.539e-01  21  sdss  6421  82N  1 
   32  54009.416525  2  22.695  0.242  0.082  0.084   2.957e+00   6.782e-01   2.340e-01   2.376e-01  23  sdss  6421  82N  1 
   32  54009.417354  3  22.231  0.253  0.099  0.073   4.485e+00   1.075e+00   4.268e-01   3.144e-01  23  sdss  6421  82N  1 
    0  54009.419013  4  23.211  0.592  0.392  0.318  -1.884e+00   3.170e+00   2.026e+00   1.644e+00  23  sdss  6421  82N  1 
   32  54009.418184  0  23.344  0.844  0.114  0.984   1.622e+00   1.348e+00   1.958e-01   1.689e+00  8  sdss  6421  82N  1 
    0  54011.484516  1  23.028  0.235  0.093  0.127   2.146e+00   4.737e-01   1.903e-01   2.592e-01  21  sdss  6430  82N  1 
    0  54011.481198  2  22.635  0.227  0.056  0.066   3.132e+00   6.707e-01   1.676e-01   1.972e-01  23  sdss  6430  82N  1 
   32  54011.482028  3  22.287  0.259  0.075  0.060   4.251e+00   1.046e+00   3.091e-01   2.477e-01  23  sdss  6430  82N  1 
   32  54011.483686  4  21.644  0.383  0.097  0.187   7.028e+00   3.039e+00   7.825e-01   1.511e+00  23  sdss  6430  82N  1 
  168  54011.482857  0  23.707  0.966  0.423  1.261   1.054e+00   1.280e+00   5.650e-01   1.686e+00  8  sdss  6430  82N  1 
    1  54019.479857  1  22.398  0.318  0.065  0.095   3.888e+00   1.109e+00   2.325e-01   3.413e-01  21  sdss  6444  82N  1 
   33  54019.476540  2  22.679  0.397  0.088  0.113   3.002e+00   1.103e+00   2.542e-01   3.244e-01  23  sdss  6444  82N  1 
   32  54019.477369  3  23.809  0.996  0.276  0.329   6.834e-01   1.441e+00   3.711e-01   4.417e-01  23  sdss  6444  82N  1 
   32  54019.479028  4  21.739  0.582  0.258  0.282   6.282e+00   4.265e+00   1.948e+00   2.125e+00  23  sdss  6444  82N  1 
  161  54019.478199  0  22.589  1.133  0.046  0.750   3.485e+00   2.891e+00   1.460e-01   2.398e+00  8  sdss  6444  82N  1 
   33  54021.488889  1  23.097  0.492  0.148  0.251   2.007e+00   8.939e-01   2.843e-01   4.814e-01  21  sdss  6450  82N  1 
   32  54021.485572  2  23.256  0.538  0.197  0.196   1.697e+00   8.989e-01   3.468e-01   3.441e-01  23  sdss  6450  82N  1 
   32  54021.486401  3  23.540  0.808  0.355  0.280   1.069e+00   1.247e+00   5.478e-01   4.319e-01  23  sdss  6450  82N  1 
   32  54021.488060  4  22.532  0.734  0.393  0.452   1.486e+00   3.957e+00   1.990e+00   2.288e+00  23  sdss  6450  82N  1 
  129  54021.487231  0  26.169  1.384  0.307  1.518  -1.968e+00   2.358e+00   6.064e-01   2.996e+00  8  sdss  6450  82N  1 
   32  54025.484294  1  22.914  0.274  0.097  0.230   2.393e+00   6.074e-01   2.184e-01   5.201e-01  21  sdss  6461  82N  1 
   32  54025.480977  2  23.011  0.448  0.248  0.229   2.173e+00   9.261e-01   5.353e-01   4.952e-01  23  sdss  6461  82N  1 
   32  54025.481806  3  23.978  0.942  0.522  0.470   4.647e-01   1.303e+00   6.575e-01   5.921e-01  23  sdss  6461  82N  1 
   32  54025.483465  4  22.455  0.782  0.648  0.589   1.878e+00   4.310e+00   3.351e+00   3.048e+00  23  sdss  6461  82N  1 
   32  54025.482635  0  24.022  1.468  0.259  3.627   6.604e-01   1.974e+00   2.918e-01   4.090e+00  8  sdss  6461  82N  1 
   32  54029.494183  1  22.754  0.249  0.132  0.257   2.783e+00   6.377e-01   3.430e-01   6.690e-01  21  sdss  6476  82N  1 
   32  54029.490865  2  23.188  0.555  0.329  0.329   1.820e+00   9.752e-01   6.112e-01   6.110e-01  23  sdss  6476  82N  1 
   32  54029.491694  3  22.554  0.484  0.314  0.251   3.277e+00   1.498e+00   1.021e+00   8.159e-01  23  sdss  6476  82N  1 
   32  54029.493353  4  22.775  0.848  0.213  0.535   2.796e-01   4.571e+00   1.038e+00   2.612e+00  23  sdss  6476  82N  1 
  160  54029.492524  0  22.539  0.667  0.067  1.235   3.653e+00   2.019e+00   2.238e-01   4.122e+00  8  sdss  6476  82N  1 
   32  54031.401667  1  23.513  0.395  0.242  0.320   1.328e+00   5.152e-01   3.252e-01   4.300e-01  21  sdss  6484  82N  1 
   32  54031.398350  2  22.692  0.286  0.105  0.132   2.965e+00   7.998e-01   2.991e-01   3.766e-01  23  sdss  6484  82N  1 
   32  54031.399180  3  22.474  0.363  0.155  0.137   3.545e+00   1.228e+00   5.400e-01   4.773e-01  23  sdss  6484  82N  1 
   32  54031.400838  4  21.459  0.444  0.183  0.250   8.641e+00   4.000e+00   1.703e+00   2.322e+00  23  sdss  6484  82N  1 
   32  54031.400009  0  23.543  1.047  0.071  1.680   1.292e+00   1.492e+00   1.052e-01   2.500e+00  8  sdss  6484  82N  1 
   32  54036.406618  1  22.969  0.267  0.071  0.279   2.270e+00   5.645e-01   1.527e-01   5.992e-01  21  sdss  6504  82N  1 
   32  54036.403301  2  23.631  0.679  0.271  0.362   1.128e+00   8.532e-01   3.547e-01   4.749e-01  23  sdss  6504  82N  1 
   32  54036.404130  3  22.274  0.343  0.260  0.161   4.304e+00   1.385e+00   1.080e+00   6.676e-01  23  sdss  6504  82N  1 
    0  54036.405789  4  22.993  0.851  0.694  0.644  -7.839e-01   4.620e+00   3.422e+00   3.174e+00  23  sdss  6504  82N  1 
   40  54036.404959  0  23.300  0.999  0.350  2.295   1.701e+00   1.614e+00   6.203e-01   4.073e+00  8  sdss  6504  82N  1 
   32  54039.405027  1  23.095  0.267  0.133  0.184   2.011e+00   5.047e-01   2.564e-01   3.539e-01  21  sdss  6513  82N  1 
   32  54039.401709  2  22.817  0.316  0.129  0.137   2.629e+00   7.879e-01   3.305e-01   3.504e-01  23  sdss  6513  82N  1 
   32  54039.402539  3  22.901  0.519  0.250  0.187   2.302e+00   1.210e+00   6.096e-01   4.565e-01  23  sdss  6513  82N  1 
   32  54039.404197  4  21.774  0.556  0.203  0.317   6.020e+00   3.999e+00   1.493e+00   2.331e+00  23  sdss  6513  82N  1 
   40  54039.403368  0  22.976  0.703  0.283  1.072   2.383e+00   1.481e+00   6.503e-01   2.461e+00  8  sdss  6513  82N  1 
   33  54041.375792  1  23.441  0.676  0.186  0.197   1.430e+00   8.891e-01   2.652e-01   2.812e-01  21  sdss  6524  82N  1 
   33  54041.372475  2  23.266  0.551  0.180  0.150   1.679e+00   9.112e-01   3.136e-01   2.619e-01  23  sdss  6524  82N  1 
   32  54041.373304  3  22.395  0.350  0.090  0.096   3.829e+00   1.272e+00   3.372e-01   3.568e-01  23  sdss  6524  82N  1 
   32  54041.374963  4  22.268  0.655  0.223  0.339   2.879e+00   3.727e+00   1.238e+00   1.876e+00  23  sdss  6524  82N  1 
    1  54041.374133  0  25.311  1.472  0.144  1.540  -6.624e-01   1.983e+00   1.624e-01   1.738e+00  8  sdss  6524  82N  1 
   33  54048.426450  1  24.023  1.348  0.287  0.415   7.598e-01   1.196e+00   2.610e-01   3.771e-01  21  sdss  6534  82N  1 
   33  54048.423133  2  22.969  0.503  0.120  0.129   2.266e+00   1.067e+00   2.676e-01   2.882e-01  23  sdss  6534  82N  1 
   32  54048.423962  3  22.408  0.353  0.096  0.082   3.782e+00   1.266e+00   3.550e-01   3.023e-01  23  sdss  6534  82N  1 
   32  54048.425621  4  22.431  0.679  0.172  0.320   2.004e+00   3.699e+00   8.945e-01   1.669e+00  23  sdss  6534  82N  1 
    1  54048.424791  0  26.306  1.656  0.239  1.179  -2.268e+00   3.022e+00   5.271e-01   2.602e+00  8  sdss  6534  82N  1 
   33  54052.404055  1  23.319  0.578  0.305  0.491   1.616e+00   8.563e-01   4.834e-01   7.785e-01  21  sdss  6552  82N  1 
   32  54052.400737  2  22.976  0.498  0.325  0.317   2.250e+00   1.051e+00   7.229e-01   7.057e-01  23  sdss  6552  82N  1 
   32  54052.401567  3  22.448  0.471  0.316  0.285   3.636e+00   1.597e+00   1.127e+00   1.016e+00  23  sdss  6552  82N  1 
    0  54052.403225  4  23.367  0.984  1.168  0.932  -2.713e+00   5.817e+00   6.390e+00   5.099e+00  23  sdss  6552  82N  1 
   10  54052.402396  0  22.266  0.670  0.419  1.335   4.736e+00   2.561e+00   1.783e+00   5.674e+00  8  sdss  6552  82N  1 
   32  54055.415306  1  23.967  0.782  0.532  0.977   8.123e-01   7.048e-01   5.029e-01   9.231e-01  21  sdss  6565  82N  1 
   32  54055.411989  2  22.543  0.322  0.224  0.230   3.419e+00   1.022e+00   7.276e-01   7.490e-01  23  sdss  6565  82N  1 
   32  54055.412818  3  22.672  0.525  0.343  0.297   2.913e+00   1.462e+00   1.008e+00   8.740e-01  23  sdss  6565  82N  1 
   32  54055.414477  4  22.578  0.908  0.318  0.841   1.254e+00   5.040e+00   1.593e+00   4.215e+00  23  sdss  6565  82N  1 
   42  54055.413647  0  22.408  0.690  0.705  1.757   4.142e+00   2.321e+00   2.642e+00   6.586e+00  8  sdss  6565  82N  1 
   32  54058.398409  1  23.166  0.385  0.364  0.489   1.878e+00   6.723e-01   6.588e-01   8.837e-01  21  sdss  6577  82N  1 
   32  54058.395092  2  22.806  0.404  0.252  0.290   2.657e+00   1.003e+00   6.484e-01   7.466e-01  23  sdss  6577  82N  1 
   32  54058.395921  3  22.867  0.667  0.680  0.393   2.386e+00   1.557e+00   1.702e+00   9.837e-01  23  sdss  6577  82N  1 
   32  54058.397579  4  22.715  1.055  1.708  1.002   5.752e-01   6.011e+00   8.376e+00   4.913e+00  23  sdss  6577  82N  1 
   42  54058.396750  0  23.200  1.250  0.676  2.938   1.894e+00   2.099e+00   1.297e+00   5.634e+00  8  sdss  6577  82N  1 
   32  54060.420065  1  23.054  0.301  0.124  0.256   2.092e+00   5.881e-01   2.476e-01   5.099e-01  21  sdss  6584  82N  1 
   32  54060.416748  2  22.734  0.329  0.157  0.165   2.848e+00   8.800e-01   4.308e-01   4.526e-01  23  sdss  6584  82N  1 
   32  54060.417577  3  23.024  0.643  0.331  0.265   2.017e+00   1.345e+00   7.310e-01   5.855e-01  23  sdss  6584  82N  1 
    0  54060.419236  4  23.621  0.639  0.264  0.299  -4.193e+00   3.968e+00   1.641e+00   1.857e+00  23  sdss  6584  82N  1 
   32  54060.418406  0  24.639  1.526  0.327  4.689   2.622e-02   2.015e+00   3.165e-01   4.545e+00  8  sdss  6584  82N  1 
   32  54065.396857  1  23.143  0.380  0.164  0.480   1.920e+00   6.778e-01   3.027e-01   8.845e-01  21  sdss  6609  82N  1 
   32  54065.393539  2  23.035  0.525  0.486  0.387   2.122e+00   1.048e+00   1.027e+00   8.178e-01  23  sdss  6609  82N  1 
   32  54065.394369  3  22.504  0.516  0.523  0.304   3.443e+00   1.655e+00   1.777e+00   1.033e+00  23  sdss  6609  82N  1 
    0  54065.396027  4  24.106  0.802  0.471  0.632  -7.733e+00   6.448e+00   4.050e+00   5.427e+00  23  sdss  6609  82N  1 
   42  54065.395198  0  22.365  0.636  0.907  1.913   4.315e+00   2.254e+00   3.530e+00   7.449e+00  8  sdss  6609  82N  1 
