# SDSS CID:  10404 IAU:          RA:  28.431335 DEC:   0.186667  (J2000)
# GALAXY_SB [ugriz] = [ 22.92 20.89 19.70 19.01 18.49 ] +/- [  0.14  0.01  0.00  0.00  0.01 ] (asinh mag/square arcsec)
# GALAXY_SB_FLUX [ugriz] = [  2.444E+00  1.563E+01  4.761E+01  8.884E+01  1.440E+02 ] +/- [  3.318E-01  1.127E-01  1.552E-01  2.272E-01  7.193E-01 ] (microJy per square arcsec)
#FLAG  MJD       FILT  MAG     MERR  MSKYERR MGALERR  FLUX       FLUXERR    SKYERR     GALERR    NPRE TELE   RUN  STRIP  IDCCD
   32  53622.406063  1  23.430  0.715  0.113  0.921   1.446e+00   9.425e-01   1.635e-01   1.331e+00  14  sdss  5582  82S  4 
   32  53622.402745  2  22.543  0.401  0.169  0.300   3.419e+00   1.249e+00   5.454e-01   9.706e-01  14  sdss  5582  82S  4 
    0  53622.403574  3  25.007  1.217  0.493  1.057  -8.099e-01   1.879e+00   6.889e-01   1.478e+00  13  sdss  5582  82S  4 
   32  53622.405233  4  20.875  0.391  0.083  0.257   1.563e+01   5.734e+00   1.255e+00   3.909e+00  13  sdss  5582  82S  4 
   32  53622.404404  0  22.523  0.575  0.094  0.808   3.709e+00   1.846e+00   3.254e-01   2.801e+00  7  sdss  5582  82S  4 
    0  53627.363702  1  27.515  0.284  0.118  0.266  -2.872e+00   7.475e-01   3.169e-01   7.156e-01  14  sdss  5607  82S  4 
   32  53627.360385  2  23.395  0.915  0.302  0.639   1.467e+00   1.298e+00   4.728e-01   1.001e+00  14  sdss  5607  82S  4 
   32  53627.361214  3  21.416  0.212  0.069  0.147   9.649e+00   1.867e+00   6.207e-01   1.317e+00  13  sdss  5607  82S  4 
   32  53627.362873  4  20.825  0.369  0.140  0.235   1.641e+01   5.677e+00   2.223e+00   3.725e+00  13  sdss  5607  82S  4 
  128  53627.362043  0  25.268  1.413  0.181  2.759  -6.143e-01   1.861e+00   2.020e-01   3.076e+00  7  sdss  5607  82S  4 
  161  53634.356172  1  22.379  0.734  0.366  0.400   3.957e+00   2.356e+00   1.340e+00   1.466e+00  14  sdss  5619  82S  4 
    1  53634.352855  2  25.350  1.711  1.046  1.381  -4.565e-01   2.051e+00   9.437e-01   1.246e+00  14  sdss  5619  82S  4 
   33  53634.353684  3  23.772  1.522  0.778  1.406   7.333e-01   2.536e+00   1.059e+00   1.915e+00  13  sdss  5619  82S  4 
    0  53634.355343  4  23.474  1.184  0.294  1.136  -3.312e+00   7.468e+00   1.693e+00   6.536e+00  13  sdss  5619  82S  4 
   33  53634.354513  0  22.949  2.396  0.648  1.965   2.449e+00   5.263e+00   1.556e+00   4.717e+00  7  sdss  5619  82S  4 
    1  53638.397721  1  26.425  0.699  0.253  0.434  -9.688e-01   7.007e-01   2.685e-01   4.610e-01  14  sdss  5637  82S  4 
   32  53638.394404  2  22.962  0.519  0.145  0.264   2.281e+00   1.099e+00   3.242e-01   5.908e-01  14  sdss  5637  82S  4 
   32  53638.395233  3  24.140  1.164  0.267  0.779   2.643e-01   1.670e+00   3.224e-01   9.414e-01  13  sdss  5637  82S  4 
   32  53638.396891  4  20.772  0.306  0.094  0.150   1.727e+01   4.981e+00   1.572e+00   2.503e+00  13  sdss  5637  82S  4 
   33  53638.396062  0  23.179  1.156  0.040  1.006   1.934e+00   2.001e+00   7.916e-02   2.001e+00  7  sdss  5637  82S  4 
   32  53640.361772  1  23.597  0.614  0.229  0.440   1.219e+00   7.267e-01   2.878e-01   5.537e-01  14  sdss  5646  82S  4 
   32  53640.358455  2  23.336  0.714  0.116  0.378   1.562e+00   1.086e+00   1.899e-01   6.206e-01  14  sdss  5646  82S  4 
   32  53640.359284  3  23.572  0.978  0.261  0.490   1.021e+00   1.509e+00   3.943e-01   7.397e-01  13  sdss  5646  82S  4 
   32  53640.360943  4  21.778  0.711  0.155  0.370   5.996e+00   5.071e+00   1.142e+00   2.729e+00  13  sdss  5646  82S  4 
    0  53640.360114  0  25.566  1.268  0.111  1.255  -9.762e-01   1.716e+00   1.453e-01   1.639e+00  7  sdss  5646  82S  4 
    0  53646.423653  1  25.777  1.075  0.424  0.628  -4.121e-01   8.033e-01   2.959e-01   4.388e-01  14  sdss  5681  82S  4 
   12  53646.420336  2  25.596  1.264  0.732  0.549  -6.918e-01   1.376e+00   7.471e-01   5.605e-01  14  sdss  5681  82S  4 
   40  53646.421165  3  23.006  0.742  0.318  0.287   2.057e+00   1.544e+00   7.085e-01   6.397e-01  13  sdss  5681  82S  4 
  164  53646.422823  4  21.793  0.928  0.299  0.275   5.886e+00   6.530e+00   2.177e+00   2.004e+00  13  sdss  5681  82S  4 
 1188  53646.421994  0  21.701  0.375  0.041  0.191   8.038e+00   2.627e+00   2.997e-01   1.390e+00  7  sdss  5681  82S  4 
   32  53655.334509  1  24.372  0.917  0.157  0.813   4.746e-01   6.872e-01   1.151e-01   5.941e-01  14  sdss  5713  82S  4 
   32  53655.331192  2  23.031  0.655  0.067  0.445   2.131e+00   1.273e+00   1.416e-01   9.391e-01  14  sdss  5713  82S  4 
   32  53655.332021  3  22.020  0.358  0.057  0.225   5.482e+00   1.791e+00   2.948e-01   1.161e+00  13  sdss  5713  82S  4 
   32  53655.333679  4  22.700  1.055  0.069  0.800   6.501e-01   6.011e+00   3.368e-01   3.932e+00  13  sdss  5713  82S  4 
  160  53655.332850  0  23.657  1.239  0.149  1.581   1.123e+00   1.726e+00   2.084e-01   2.210e+00  7  sdss  5713  82S  4 
    9  53664.359318  1  27.423  1.201  1.872  0.279  -2.632e+00   2.264e+00   4.631e+00   6.902e-01  14  sdss  5754  82S  4 
   25  53664.356000  2  25.236  1.816  7.769  0.871  -3.556e-01   2.254e+00   6.705e+00   7.517e-01  14  sdss  5754  82S  4 
   29  53664.356830  3  25.608  2.140  5.254  0.467  -1.823e+00   4.849e+00   1.076e+01   9.574e-01  13  sdss  5754  82S  4 
   45  53664.358488  4  22.233  1.323  0.975  0.591   3.078e+00   8.573e+00   5.496e+00   3.332e+00  13  sdss  5754  82S  4 
    5  53664.357659  0  27.184  1.300  0.307  0.445  -5.298e+00   4.580e+00   1.487e+00   2.158e+00  7  sdss  5754  82S  4 
   33  53665.424068  1  23.643  1.024  0.132  0.444   1.161e+00   1.097e+00   1.598e-01   5.385e-01  14  sdss  5760  82S  4 
   33  53665.420751  2  24.040  1.240  0.782  0.609   6.605e-01   1.333e+00   7.843e-01   6.109e-01  14  sdss  5760  82S  4 
 1081  53665.421580  3  21.777  0.289  2.457  0.116   6.890e+00   1.820e+00   1.581e+01   7.484e-01  13  sdss  5760  82S  4 
    9  53665.423239  4  23.408  1.041  1.814  0.469  -2.939e+00   6.285e+00   1.012e+01   2.616e+00  13  sdss  5760  82S  4 
  141  53665.422410  0  26.096  2.146  2.411  0.944  -1.822e+00   4.097e+00   4.580e+00   1.793e+00  7  sdss  5760  82S  4 
    0  53669.318778  1  25.891  0.958  0.339  0.857  -4.949e-01   7.280e-01   2.517e-01   6.363e-01  14  sdss  5776  82S  4 
   32  53669.315460  2  23.998  0.945  0.243  0.471   7.033e-01   9.859e-01   2.490e-01   4.836e-01  14  sdss  5776  82S  4 
   32  53669.316290  3  22.063  0.329  0.066  0.170   5.263e+00   1.590e+00   3.299e-01   8.455e-01  13  sdss  5776  82S  4 
   32  53669.317948  4  21.421  0.499  0.131  0.236   9.000e+00   4.617e+00   1.256e+00   2.265e+00  13  sdss  5776  82S  4 
   32  53669.317119  0  22.907  0.709  0.139  0.656   2.554e+00   1.605e+00   3.456e-01   1.633e+00  7  sdss  5776  82S  4 
   32  53671.403444  1  23.565  0.834  0.347  0.643   1.260e+00   9.711e-01   4.479e-01   8.303e-01  14  sdss  5786  82S  4 
   32  53671.400127  2  22.983  0.682  0.187  0.400   2.234e+00   1.369e+00   4.113e-01   8.808e-01  14  sdss  5786  82S  4 
   32  53671.400956  3  22.532  0.687  0.175  0.402   3.351e+00   2.062e+00   5.771e-01   1.323e+00  13  sdss  5786  82S  4 
   36  53671.402615  4  20.592  0.409  0.104  0.229   2.053e+01   7.663e+00   2.034e+00   4.474e+00  13  sdss  5786  82S  4 
   36  53671.401785  0  23.719  1.740  0.300  2.140   1.038e+00   2.674e+00   4.027e-01   2.875e+00  7  sdss  5786  82S  4 
   34  53674.302731  1  24.143  1.156  0.293  1.795   6.546e-01   9.639e-01   2.457e-01   1.506e+00  14  sdss  5797  82S  4 
   32  53674.299414  2  21.768  0.237  0.018  0.233   7.066e+00   1.525e+00   1.168e-01   1.523e+00  14  sdss  5797  82S  4 
   32  53674.300243  3  21.895  0.371  0.125  0.332   6.167e+00   2.068e+00   7.225e-01   1.922e+00  13  sdss  5797  82S  4 
   32  53674.301902  4  20.427  0.333  0.064  0.322   2.400e+01   7.319e+00   1.448e+00   7.289e+00  13  sdss  5797  82S  4 
   32  53674.301073  0  23.865  1.582  0.205  3.264   8.477e-01   2.260e+00   2.520e-01   4.020e+00  7  sdss  5797  82S  4 
   32  53676.392109  1  24.001  0.751  0.238  0.483   7.798e-01   6.659e-01   2.195e-01   4.464e-01  14  sdss  5807  82S  4 
    0  53676.388792  2  25.917  0.918  0.182  0.460  -1.056e+00   1.097e+00   2.292e-01   5.777e-01  14  sdss  5807  82S  4 
   32  53676.389621  3  23.787  1.051  0.265  0.548   7.128e-01   1.543e+00   3.582e-01   7.408e-01  13  sdss  5807  82S  4 
   32  53676.391280  4  22.374  0.839  0.119  0.431   2.306e+00   4.752e+00   6.322e-01   2.291e+00  13  sdss  5807  82S  4 
    0  53676.390451  0  26.114  1.030  0.056  0.738  -1.857e+00   1.766e+00   1.073e-01   1.422e+00  7  sdss  5807  82S  4 
    0  53679.363855  1  26.576  0.920  0.534  1.218  -1.141e+00   9.898e-01   6.382e-01   1.457e+00  14  sdss  5820  82S  4 
    0  53679.360538  2  28.406  0.156  0.028  0.182  -1.197e+01   1.708e+00   3.033e-01   2.005e+00  14  sdss  5820  82S  4 
    0  53679.361367  3  25.017  1.481  0.408  1.110  -8.240e-01   2.458e+00   5.736e-01   1.560e+00  13  sdss  5820  82S  4 
   32  53679.363026  4  20.976  0.598  0.196  0.475   1.416e+01   7.731e+00   2.727e+00   6.614e+00  13  sdss  5820  82S  4 
  160  53679.362197  0  22.729  0.945  0.240  1.444   3.042e+00   2.323e+00   6.965e-01   4.181e+00  7  sdss  5820  82S  4 
   32  53681.355264  1  24.185  0.806  0.063  0.560   6.195e-01   6.476e-01   5.168e-02   4.574e-01  14  sdss  5836  82S  4 
    0  53681.351947  2  25.863  0.879  0.170  0.405  -9.891e-01   1.023e+00   2.052e-01   4.903e-01  14  sdss  5836  82S  4 
   32  53681.352776  3  22.858  0.625  0.138  0.261   2.409e+00   1.472e+00   3.453e-01   6.554e-01  13  sdss  5836  82S  4 
   32  53681.354435  4  21.357  0.483  0.154  0.219   9.632e+00   4.700e+00   1.557e+00   2.213e+00  13  sdss  5836  82S  4 
   32  53681.353606  0  23.153  0.957  0.101  0.769   1.989e+00   1.727e+00   2.055e-01   1.561e+00  7  sdss  5836  82S  4 
   32  53684.316792  1  24.074  1.068  0.327  0.909   7.143e-01   9.086e-01   2.874e-01   7.986e-01  14  sdss  5847  82S  4 
  160  53684.313475  2  23.075  0.667  0.288  0.387   2.039e+00   1.248e+00   5.859e-01   7.874e-01  14  sdss  5847  82S  4 
   32  53684.314304  3  22.748  0.649  0.176  0.304   2.698e+00   1.655e+00   4.825e-01   8.346e-01  13  sdss  5847  82S  4 
   32  53684.315962  4  22.120  0.954  0.467  0.623   3.733e+00   5.894e+00   2.787e+00   3.717e+00  13  sdss  5847  82S  4 
   32  53684.315133  0  23.751  1.348  0.214  1.402   9.941e-01   1.858e+00   2.822e-01   1.847e+00  7  sdss  5847  82S  4 
   33  53697.311585  1  24.423  1.041  0.223  0.663   4.376e-01   7.813e-01   1.585e-01   4.718e-01  14  sdss  5895  82S  4 
   32  53697.308268  2  23.782  1.002  0.201  0.475   9.401e-01   1.144e+00   2.363e-01   5.590e-01  14  sdss  5895  82S  4 
   32  53697.309097  3  22.425  0.459  0.108  0.203   3.718e+00   1.582e+00   3.903e-01   7.335e-01  13  sdss  5895  82S  4 
   32  53697.310755  4  21.520  0.580  0.038  0.277   8.084e+00   4.941e+00   3.376e-01   2.466e+00  13  sdss  5895  82S  4 
   33  53697.309926  0  22.626  0.735  0.059  0.509   3.362e+00   2.077e+00   1.864e-01   1.614e+00  7  sdss  5895  82S  4 
   32  53700.310726  1  24.099  1.075  0.268  1.256   6.923e-01   9.059e-01   2.320e-01   1.085e+00  14  sdss  5905  82S  4 
    0  53700.307409  2  25.853  1.379  0.718  1.449  -9.770e-01   1.647e+00   8.624e-01   1.740e+00  14  sdss  5905  82S  4 
    0  53700.308239  3  26.268  0.722  0.363  0.616  -3.608e+00   2.285e+00   1.276e+00   2.168e+00  13  sdss  5905  82S  4 
   32  53700.309897  4  20.422  0.333  0.205  0.240   2.411e+01   7.350e+00   4.658e+00   5.456e+00  13  sdss  5905  82S  4 
   32  53700.309068  0  24.359  1.680  0.704  3.644   3.008e-01   2.375e+00   7.074e-01   3.664e+00  7  sdss  5905  82S  4 
   32  53705.296855  1  22.696  0.347  0.134  0.415   2.939e+00   9.250e-01   3.669e-01   1.141e+00  14  sdss  5924  82S  4 
   32  53705.293538  2  23.199  0.699  0.171  0.421   1.799e+00   1.180e+00   3.135e-01   7.720e-01  14  sdss  5924  82S  4 
   32  53705.294368  3  22.681  0.677  0.188  0.430   2.888e+00   1.807e+00   5.457e-01   1.247e+00  13  sdss  5924  82S  4 
   32  53705.296026  4  21.671  0.734  0.315  0.439   6.814e+00   5.569e+00   2.503e+00   3.486e+00  13  sdss  5924  82S  4 
  128  53705.295197  0  26.053  1.255  0.283  1.754  -1.741e+00   2.049e+00   5.211e-01   3.225e+00  7  sdss  5924  82S  4 
