# SDSS CID:   4888 IAU:          RA: 306.641022 DEC:   1.117729  (J2000)
# GALAXY_SB [ugriz] = [ 23.37 23.36 23.57 23.15 22.00 ] +/- [  0.33  0.11  0.17  0.17  0.19 ] (asinh mag/square arcsec)
# GALAXY_SB_FLUX [ugriz] = [  1.522E+00  1.540E+00  1.214E+00  1.760E+00  4.419E+00 ] +/- [  5.577E-01  1.747E-01  2.293E-01  3.379E-01  1.211E+00 ] (microJy per square arcsec)
#FLAG  MJD       FILT  MAG     MERR  MSKYERR MGALERR  FLUX       FLUXERR    SKYERR     GALERR    NPRE TELE   RUN  STRIP  IDCCD
    0  53623.156541  1  22.470  0.205  0.090  0.254   3.638e+00   6.857e-01   3.056e-01   8.601e-01  3  sdss  5590  82N  6 
    0  53623.153223  2  22.175  0.194  0.141  0.209   4.840e+00   8.741e-01   6.419e-01   9.485e-01  4  sdss  5590  82N  6 
    0  53623.154053  3  22.148  0.297  0.180  0.351   4.858e+00   1.353e+00   8.385e-01   1.630e+00  5  sdss  5590  82N  6 
   32  53623.155711  4  22.815  0.817  0.769  1.402   8.735e-02   4.371e+00   3.753e+00   6.838e+00  5  sdss  5590  82N  6 
   32  53623.154882  0  24.534  1.462  0.182  3.208   1.279e-01   1.888e+00   1.775e-01   3.129e+00  2  sdss  5590  82N  6 
    1  53626.142732  1  22.745  0.421  0.169  0.291   2.809e+00   1.063e+00   4.457e-01   7.682e-01  3  sdss  5603  82N  6 
    1  53626.139415  2  22.385  0.301  0.133  0.238   3.973e+00   1.107e+00   5.006e-01   8.942e-01  4  sdss  5603  82N  6 
    0  53626.140244  3  21.838  0.260  0.113  0.220   6.511e+00   1.567e+00   6.971e-01   1.352e+00  5  sdss  5603  82N  6 
    0  53626.141902  4  21.118  0.390  0.134  0.436   1.230e+01   4.666e+00   1.657e+00   5.389e+00  5  sdss  5603  82N  6 
    1  53626.141073  0  24.833  1.681  0.380  2.779  -1.632e-01   2.368e+00   3.721e-01   2.722e+00  2  sdss  5603  82N  6 
  129  53628.127169  1  21.944  0.323  0.171  0.247   5.928e+00   1.716e+00   9.355e-01   1.352e+00  3  sdss  5610  82N  6 
    1  53628.123854  2  22.781  0.671  0.326  0.592   2.722e+00   1.607e+00   8.609e-01   1.563e+00  4  sdss  5610  82N  6 
   33  53628.124684  3  22.374  0.584  0.481  0.638   3.911e+00   2.062e+00   1.833e+00   2.431e+00  5  sdss  5610  82N  6 
    0  53628.126340  4  23.393  1.028  0.600  1.714  -2.858e+00   6.170e+00   3.326e+00   9.502e+00  5  sdss  5610  82N  6 
   33  53628.125513  0  22.981  2.080  0.565  2.321   2.370e+00   4.121e+00   1.306e+00   5.366e+00  2  sdss  5610  82N  6 
    0  53635.135069  1  22.517  0.165  0.071  0.178   3.481e+00   5.325e-01   2.309e-01   5.762e-01  3  sdss  5622  82N  6 
    0  53635.131752  2  22.284  0.189  0.109  0.211   4.370e+00   7.704e-01   4.471e-01   8.685e-01  4  sdss  5622  82N  6 
    0  53635.132581  3  22.429  0.339  0.231  0.353   3.707e+00   1.198e+00   8.396e-01   1.280e+00  5  sdss  5622  82N  6 
    0  53635.134240  4  21.923  0.572  0.273  0.632   4.973e+00   3.781e+00   1.825e+00   4.232e+00  5  sdss  5622  82N  6 
   40  53635.133411  0  24.236  1.100  0.798  1.952   4.270e-01   1.296e+00   8.303e-01   2.030e+00  2  sdss  5622  82N  6 
  128  53637.128285  1  22.359  0.171  0.206  0.388   4.035e+00   6.339e-01   7.725e-01   1.453e+00  3  sdss  5633  82N  6 
    0  53637.124968  2  21.893  0.159  0.167  0.273   6.295e+00   9.288e-01   9.809e-01   1.602e+00  4  sdss  5633  82N  6 
    0  53637.125797  3  22.353  0.394  0.293  0.649   3.990e+00   1.474e+00   1.138e+00   2.519e+00  5  sdss  5633  82N  6 
    0  53637.127455  4  23.025  0.936  0.920  1.888  -9.410e-01   5.195e+00   4.558e+00   9.351e+00  5  sdss  5633  82N  6 
   32  53637.126626  0  23.086  1.224  0.163  2.675   2.131e+00   2.207e+00   3.467e-01   5.673e+00  2  sdss  5633  82N  6 
    0  53641.125172  1  22.430  0.158  0.099  0.199   3.776e+00   5.511e-01   3.472e-01   6.969e-01  3  sdss  5654  82N  6 
    0  53641.121855  2  22.368  0.206  0.124  0.227   4.038e+00   7.790e-01   4.731e-01   8.659e-01  4  sdss  5654  82N  6 
    0  53641.122684  3  22.197  0.277  0.187  0.319   4.636e+00   1.210e+00   8.321e-01   1.420e+00  5  sdss  5654  82N  6 
   32  53641.124343  4  22.428  0.697  0.334  0.994   2.020e+00   3.814e+00   1.742e+00   5.191e+00  5  sdss  5654  82N  6 
    0  53641.123513  0  22.010  0.322  0.132  0.409   6.024e+00   1.699e+00   7.168e-01   2.219e+00  2  sdss  5654  82N  6 
    0  53644.119978  1  22.523  0.180  0.123  0.305   3.462e+00   5.745e-01   3.985e-01   9.856e-01  3  sdss  5670  82N  6 
    0  53644.116660  2  22.336  0.215  0.180  0.302   4.161e+00   8.349e-01   7.088e-01   1.189e+00  4  sdss  5670  82N  6 
    0  53644.117490  3  22.131  0.290  0.194  0.349   4.937e+00   1.339e+00   9.160e-01   1.648e+00  5  sdss  5670  82N  6 
    0  53644.119148  4  21.797  0.647  0.263  0.857   5.851e+00   4.578e+00   1.914e+00   6.230e+00  5  sdss  5670  82N  6 
    0  53644.118319  0  25.587  1.268  0.137  2.475  -1.004e+00   1.723e+00   1.798e-01   3.254e+00  2  sdss  5670  82N  6 
 1152  53649.114577  1  22.593  0.232  0.472  0.616   3.242e+00   6.915e-01   1.428e+00   1.867e+00  3  sdss  5702  82N  6 
    0  53649.111260  2  22.339  0.246  0.286  0.524   4.150e+00   9.490e-01   1.122e+00   2.055e+00  4  sdss  5702  82N  6 
    0  53649.112089  3  22.153  0.313  0.208  0.547   4.835e+00   1.415e+00   9.614e-01   2.533e+00  5  sdss  5702  82N  6 
    0  53649.113748  4  21.113  0.410  0.324  0.803   1.237e+01   4.911e+00   4.018e+00   9.958e+00  5  sdss  5702  82N  6 
   40  53649.112918  0  22.942  0.844  0.798  2.098   2.466e+00   1.788e+00   1.906e+00   5.012e+00  2  sdss  5702  82N  6 
  129  53656.101431  1  22.478  0.475  0.182  0.387   3.610e+00   1.506e+00   6.109e-01   1.300e+00  3  sdss  5719  82N  6 
    1  53656.098114  2  22.690  0.615  0.452  0.662   2.970e+00   1.614e+00   1.295e+00   1.894e+00  4  sdss  5719  82N  6 
   33  53656.098944  3  22.468  0.684  0.850  0.903   3.568e+00   2.180e+00   2.983e+00   3.169e+00  5  sdss  5719  82N  6 
    0  53656.100602  4  24.112  0.723  0.264  1.090  -7.788e+00   5.911e+00   2.288e+00   9.460e+00  5  sdss  5719  82N  6 
   33  53656.099773  0  22.481  1.507  0.709  1.632   3.863e+00   3.829e+00   2.523e+00   5.802e+00  2  sdss  5719  82N  6 
  128  53668.103410  1  22.596  0.232  0.285  0.774   3.233e+00   6.900e-01   8.609e-01   2.337e+00  3  sdss  5770  82N  6 
    0  53668.100093  2  22.541  0.371  0.477  0.866   3.425e+00   1.172e+00   1.558e+00   2.830e+00  4  sdss  5770  82N  6 
   32  53668.100922  3  22.981  0.873  0.951  1.442   2.113e+00   1.823e+00   2.175e+00   3.297e+00  5  sdss  5770  82N  6 
   32  53668.102581  4  21.730  1.003  0.728  1.822   6.349e+00   7.277e+00   5.542e+00   1.388e+01  5  sdss  5770  82N  6 
   34  53668.101751  0  23.682  1.515  0.371  6.071   1.089e+00   2.197e+00   5.076e-01   8.301e+00  2  sdss  5770  82N  6 
    0  53670.107854  1  22.850  0.262  0.261  0.545   2.543e+00   6.191e-01   6.262e-01   1.311e+00  3  sdss  5781  82N  6 
    0  53670.104537  2  22.942  0.537  0.767  1.229   2.327e+00   1.160e+00   1.762e+00   2.822e+00  4  sdss  5781  82N  6 
    0  53670.105366  3  21.941  0.314  0.266  0.541   5.910e+00   1.715e+00   1.488e+00   3.026e+00  5  sdss  5781  82N  6 
   32  53670.107025  4  22.079  0.826  0.474  1.155   3.977e+00   5.111e+00   2.889e+00   7.047e+00  5  sdss  5781  82N  6 
   40  53670.106195  0  22.404  0.525  0.755  1.431   4.159e+00   1.874e+00   2.876e+00   5.450e+00  2  sdss  5781  82N  6 
    0  53673.075700  1  22.737  0.221  0.166  0.370   2.831e+00   5.813e-01   4.411e-01   9.853e-01  3  sdss  5792  82N  6 
    0  53673.072383  2  22.546  0.274  0.158  0.343   3.409e+00   8.739e-01   5.129e-01   1.115e+00  4  sdss  5792  82N  6 
   32  53673.073212  3  22.682  0.507  0.337  0.618   2.883e+00   1.408e+00   9.835e-01   1.805e+00  5  sdss  5792  82N  6 
    0  53673.074870  4  22.903  0.897  0.232  1.358  -3.418e-01   4.893e+00   1.131e+00   6.634e+00  5  sdss  5792  82N  6 
   32  53673.074041  0  23.224  1.018  0.073  1.484   1.845e+00   1.729e+00   1.390e-01   2.819e+00  2  sdss  5792  82N  6 
    0  53675.072285  1  22.863  0.252  0.242  0.476   2.512e+00   5.883e-01   5.764e-01   1.130e+00  3  sdss  5800  82N  6 
    0  53675.068968  2  22.331  0.259  0.304  0.462   4.180e+00   1.004e+00   1.201e+00   1.825e+00  4  sdss  5800  82N  6 
    0  53675.069797  3  21.897  0.273  0.290  0.464   6.160e+00   1.558e+00   1.688e+00   2.704e+00  5  sdss  5800  82N  6 
    0  53675.071455  4  23.273  0.826  0.529  1.434  -2.204e+00   4.652e+00   2.793e+00   7.578e+00  5  sdss  5800  82N  6 
   32  53675.070626  0  23.018  0.958  0.677  2.168   2.283e+00   1.877e+00   1.518e+00   4.859e+00  2  sdss  5800  82N  6 
    0  53677.093268  1  22.617  0.209  0.212  0.418   3.169e+00   6.115e-01   6.293e-01   1.238e+00  3  sdss  5813  82N  6 
    0  53677.089951  2  22.776  0.337  0.229  0.433   2.735e+00   8.711e-01   6.061e-01   1.149e+00  4  sdss  5813  82N  6 
    0  53677.090780  3  21.836  0.251  0.243  0.387   6.523e+00   1.517e+00   1.494e+00   2.383e+00  5  sdss  5813  82N  6 
   32  53677.092439  4  21.752  0.744  0.591  1.338   6.183e+00   5.376e+00   4.433e+00   1.004e+01  5  sdss  5813  82N  6 
   40  53677.091610  0  22.555  0.547  0.578  1.485   3.598e+00   1.702e+00   1.924e+00   4.947e+00  2  sdss  5813  82N  6 
    0  53680.079489  1  22.658  0.204  0.100  0.230   3.049e+00   5.773e-01   2.847e-01   6.561e-01  3  sdss  5823  82N  6 
    0  53680.076172  2  22.479  0.246  0.160  0.259   3.636e+00   8.375e-01   5.534e-01   8.953e-01  4  sdss  5823  82N  6 
    0  53680.077001  3  22.357  0.352  0.176  0.351   3.975e+00   1.320e+00   6.800e-01   1.357e+00  5  sdss  5823  82N  6 
  128  53680.078660  4  21.148  0.334  0.184  0.389   1.194e+01   3.929e+00   2.220e+00   4.681e+00  5  sdss  5823  82N  6 
   32  53680.077831  0  23.504  1.166  0.275  1.579   1.353e+00   1.704e+00   4.245e-01   2.433e+00  2  sdss  5823  82N  6 
    0  53693.080120  1  23.056  0.340  0.301  0.556   2.088e+00   6.627e-01   6.027e-01   1.114e+00  3  sdss  5878  82N  6 
    0  53693.076803  2  22.521  0.301  0.292  0.447   3.490e+00   9.787e-01   9.704e-01   1.486e+00  4  sdss  5878  82N  6 
    0  53693.077632  3  21.946  0.278  0.299  0.400   5.882e+00   1.520e+00   1.665e+00   2.232e+00  5  sdss  5878  82N  6 
   32  53693.079290  4  21.968  0.707  0.395  1.019   4.676e+00   4.568e+00   2.571e+00   6.633e+00  5  sdss  5878  82N  6 
   32  53693.078461  0  23.242  1.201  0.404  2.425   1.810e+00   1.990e+00   7.574e-01   4.542e+00  2  sdss  5878  82N  6 
  140  53698.077077  1  22.996  1.187  2.264  0.586   2.213e+00   1.951e+00   4.777e+00   1.237e+00  3  sdss  5898  82N  6 
 1165  53698.073760  2  22.837  2.775  6.137  0.607   2.578e+00   6.112e+00   1.544e+01   1.527e+00  4  sdss  5898  82N  6 
 1212  53698.074589  3  23.231  2.564 11.419  1.188   1.596e+00   6.940e+00   2.162e+01   2.250e+00  5  sdss  5898  82N  6 
 1156  53698.076248  4  21.371  2.477  3.575  0.693   9.491e+00   2.729e+01   3.581e+01   6.939e+00  5  sdss  5898  82N  6 
 1156  53698.075418  0  20.170  0.346  0.284  0.161   3.303e+01   9.791e+00   8.310e+00   4.720e+00  2  sdss  5898  82N  6 
    0  53699.100487  1  22.957  0.300  0.154  0.490   2.296e+00   6.419e-01   3.375e-01   1.071e+00  3  sdss  5902  82N  6 
    0  53699.097170  2  22.754  0.374  0.311  0.522   2.793e+00   9.795e-01   8.400e-01   1.413e+00  4  sdss  5902  82N  6 
    0  53699.097999  3  21.995  0.287  0.225  0.336   5.616e+00   1.498e+00   1.201e+00   1.790e+00  5  sdss  5902  82N  6 
    0  53699.099658  4  21.395  0.531  0.419  0.589   9.254e+00   4.992e+00   4.111e+00   5.792e+00  5  sdss  5902  82N  6 
    0  53699.098828  0  25.907  1.349  0.175  2.551  -1.483e+00   2.060e+00   2.848e-01   4.163e+00  2  sdss  5902  82N  6 
  162  53702.075092  1  22.837  0.416  0.745  1.580   2.574e+00   9.688e-01   1.813e+00   3.842e+00  3  sdss  5909  82N  6 
    2  53702.071775  2  22.576  0.460  0.901  1.264   3.313e+00   1.384e+00   2.853e+00   4.001e+00  4  sdss  5909  82N  6 
    2  53702.072604  3  21.918  0.394  0.944  0.996   6.039e+00   2.164e+00   5.393e+00   5.693e+00  5  sdss  5909  82N  6 
   34  53702.074263  4  21.551  1.071  1.301  2.772   7.804e+00   8.494e+00   1.131e+01   2.409e+01  5  sdss  5909  82N  6 
   34  53702.073433  0  22.107  0.617  0.486  2.662   5.500e+00   2.790e+00   2.412e+00   1.322e+01  2  sdss  5909  82N  6 
  160  53703.083964  1  23.191  0.426  0.482  1.052   1.832e+00   7.269e-01   8.588e-01   1.873e+00  3  sdss  5915  82N  6 
    2  53703.080647  2  22.454  0.348  0.479  0.835   3.722e+00   1.193e+00   1.691e+00   2.951e+00  4  sdss  5915  82N  6 
   34  53703.081476  3  22.614  0.628  0.768  1.399   3.086e+00   1.798e+00   2.377e+00   4.327e+00  5  sdss  5915  82N  6 
   32  53703.083135  4  22.413  0.997  0.940  2.307   2.098e+00   5.780e+00   4.930e+00   1.210e+01  5  sdss  5915  82N  6 
    2  53703.082305  0  21.904  0.422  0.361  1.343   6.652e+00   2.406e+00   2.158e+00   8.017e+00  2  sdss  5915  82N  6 
  160  53704.062449  1  23.278  0.462  0.580  1.198   1.682e+00   7.278e-01   9.565e-01   1.978e+00  3  sdss  5918  82N  6 
    0  53704.059132  2  22.755  0.386  0.365  0.684   2.791e+00   1.007e+00   9.867e-01   1.847e+00  4  sdss  5918  82N  6 
    0  53704.059961  3  21.837  0.260  0.225  0.437   6.517e+00   1.572e+00   1.384e+00   2.684e+00  5  sdss  5918  82N  6 
   32  53704.061620  4  22.312  0.834  0.580  1.349   2.637e+00   4.795e+00   3.161e+00   7.351e+00  5  sdss  5918  82N  6 
   40  53704.060791  0  24.450  1.499  2.260  5.716   2.105e-01   1.967e+00   2.230e+00   5.639e+00  2  sdss  5918  82N  6 
