
9,514.80	17.47 (0.02)	17.24 (0.02)	17.26 (0.02)	17.44 (0.02)
9,515.70	17.48 (0.04)	17.25 (0.04)	17.04 (0.04)	17.48 (0.04)
9,516.80	17.59 (0.05)	17.25 (0.05)	17.09 (0.05)	17.51 (0.05)
9,518.70	17.77 (0.05)	17.43 (0.05)	17.22 (0.05)	17.74 (0.05)
9,524.60	18.59 (0.03)	17.78 (0.03)	17.08 (0.03)	18.15 (0.03)
9,530.70	18.88 (0.04)	18.15 (0.04)	17.85 (0.04)	17.72 (0.04)
9,531.60	\ldots	18.21 (0.05)	\ldots	\ldots
9,537.70	\ldots	18.64 (0.08)	\ldots	\ldots
9,538.70	\ldots	18.82 (0.08)	\ldots	\ldots
9,541.70	20.35 (0.08)	19.14 (0.05)	18.59 (0.05)	18.31 (0.05)
9,545.70	\ldots	19.38 (0.10)	18.75 (0.10)	\ldots
9,546.70	\ldots	\ldots	\ldots	18.56 (0.10)
9,547.70	\ldots	\ldots	19.39 (0.12)	\ldots