
10,373.8	17.11 (0.02)	17.04 (0.02)	16.88 (0.02)	17.10 (0.03)
10,374.6	17.08 (0.02)	17.00 (0.02)	16.92 (0.02)	17.03 (0.03)
10,385.7	17.50 (0.03)	17.20 (0.02)	17.07 (0.02)	17.40 (0.03)
10,386.6	17.62 (0.02)	17.24 (0.02)	17.18 (0.02)	\ldots
10,394.7	18.50 (0.04)	17.68 (0.02)	17.59 (0.04)	17.78 (0.04)
10,395.7	18.65 (0.04)	17.81 (0.03)	\ldots	17.74 (0.03)
10,397.8	18.88 (0.03)	17.87 (0.03)	17.62 (0.03)	\ldots
10,398.7	18.94 (0.05)	17.94 (0.02)	\ldots	17.64 (0.03)
10,401.7	19.30 (0.03)	18.07 (0.02)	17.65 (0.02)	17.54 (0.03)
10,404.6	19.63 (0.04)	18.24 (0.03)	17.70 (0.03)	17.43 (0.04)
10,413.7	20.03 (0.06)	18.86 (0.03)	18.26 (0.03)	18.00 (0.03)
10,424.6	20.33 (0.06)	19.17 (0.03)	18.62 (0.03)	18.47 (0.05)