
10,130.94	\ldots	16.52 (0.05)	\ldots	\ldots
10,131.90	16.75 (0.03)	16.53 (0.05)	16.39 (0.06)	16.88 (0.03)
10,132.86	16.81 (0.03)	16.63 (0.04)	16.44 (0.06)	16.92 (0.03)
10,133.95	16.87 (0.03)	16.60 (0.04)	16.46 (0.06)	16.94 (0.03)
10,135.88	\ldots	16.66 (0.04)	16.54 (0.05)	17.06 (0.02)
10,136.98	17.01 (0.02)	16.75 (0.05)	16.65 (0.06)	\ldots
10,141.97	17.34 (0.03)	17.00 (0.05)	17.00 (0.06)	17.45 (0.03)
10,142.95	17.48 (0.03)	17.08 (0.04)	17.10 (0.06)	17.51 (0.03)
10,148.90	\ldots	17.40 (0.05)	\ldots	\ldots
10,150.93	18.32 (0.02)	17.47 (0.04)	17.24 (0.06)	17.36 (0.03)
10,151.75	18.50 (0.03)	17.57 (0.04)	17.21 (0.04)	17.41 (0.04)
10,154.01	18.66 (0.02)	17.64 (0.05)	17.27 (0.06)	17.32 (0.03)
10,159.86	19.13 (0.02)	17.99 (0.05)	17.45 (0.06)	17.29 (0.03)
10,165.91	19.53 (0.03)	18.40 (0.05)	17.91 (0.06)	17.70 (0.03)
10,172.85	19.65 (0.02)	18.58 (0.05)	18.16 (0.06)	18.06 (0.03)
10,182.83	19.77 (0.02)	18.90 (0.05)	18.55 (0.05)	18.54 (0.02)
10,202.84	20.04 (0.02)	19.44 (0.05)	19.18 (0.06)	19.46 (0.03)
10,216.75	20.36 (0.02)	19.66 (0.05)	19.59 (0.06)	19.79 (0.02)