Table 1
SN Ia Discovery Data

SN Ia	Position	Galaxy	z_helio	z_CMB	E(B - V)	dE(B - V)	Discovery Reference	
2006ct	12:09:56.851 +47:05:44.31	2MASX_J12095669+4705461	0.0315	0.0322	0.0191	0.0014	IAUC 8720	
2006ou	11:37:13.039 +15:26:06.59	UGC_6588	0.0135	0.0146	0.0334	0.0016	IAUC 8781	
2007A	00:25:16.681 +12:53:12.78	NGC_105	0.0177	0.0165	0.0736	0.0019	CBET 795	
2007aj	12:47:54.524 +54:00:38.08	CGCG_270-24	0.0110	0.0115	0.0163	0.0016	IAUC 8822	
2007bj	16:22:10.589 -01:30:51.33	NGC_6172	0.0167	0.0170	0.1177	0.0029	IAUC 8834	
2007cb	13:58:17.199 -23:22:21.68	ESO_510-G31	0.0366	0.0375	0.0719	0.0011	IAUC 8843	
2007cc	14:08:42.050 -21:35:47.50	ESO_578-G26	0.0291	0.0300	0.0794	0.0030	IAUC 8843	
2007cf	15:23:07.676 +08:31:45.79	CGCG_77-100	0.0329	0.0335	0.0343	0.0007	IAUC 8843	
2007cn	22:13:55.790 +13:45:23.45	UGC_11953	0.0253	0.0241	0.0621	0.0003	IAUC 8851	
2007cs	23:49:38.930 +29:55:52.61	UGC_12798	0.0176	0.0164	0.0662	0.0022	CBET 986	
2007ev	22:40:06.201 +24:41:56.67	AGC_320702	0.0427	0.0416	0.0490	0.0006	CBET 991	
2007fb	23:56:52.383 +05:30:31.90	UGC_12859	0.0180	0.0168	0.0556	0.0011	IAUC 8864	
2007fq	20:34:55.742 -23:06:15.38	MCG_-04-48-019	0.0425	0.0416	0.0420	 ... 	CBET 1001	
2007fs	22:01:40.450 -21:30:30.22	ESO_601-G5	0.0172	0.0162	0.0336	0.0007	IAUC 8864	
2007hg	04:08:32.676 +02:22:43.20	[ISI96]_0405+0214	0.0300	0.0297	0.3799	0.0106	CBET 1047	
2007hj	23:01:47.880 +15:35:11.23	NGC_7461	0.0141	0.0129	0.0883	0.0120	IAUC 8874	
2007hu	16:56:29.887 +27:58:39.75	NGC_6261	0.0354	0.0354	0.0458	0.0023	CBET 1056	
2007if	01:10:51.370 +15:27:39.63	[YQ2007]_J011051.37+152739.9	0.0742	0.0731	0.079	0.0066	CBET 1059	
2007ir	02:33:41.898 +37:40:08.12	UGC_2033	0.0352	0.0345	0.0495	0.0009	CBET 1067	
2007is	16:47:14.607 +40:14:36.40	UGC_10553	0.0297	0.0297	0.0201	0.0012	IAUC 8874	
2007jg	03:29:50.815 +00:03:24.55	SDSS_J032950.83+000316.0	0.0371	0.0366	0.1065	0.0023	CBET 1076	
2007kd	09:25:58.041 +34:38:00.11	MCG_+06-21-36	0.0242	0.0250	0.0217	0.0005	IAUC 8874	
2007kf	17:31:31.266 +69:18:39.59	[K2007]J173131.76+691840.1	0.0460	0.0458	0.0439	0.0011	IAUC 8875	
2007kg	23:58:37.493 +60:59:07.41	2MFGC_18005	0.0070	0.0063	0.9977	0.0238	IAUC 8875	
2007kh	03:15:12.049 +43:10:13.39	[YAA2007a]J031512.10+431013.0	0.0500	0.0495	0.1984	0.0030	CBET 1089	
2007kk	03:42:23.258 +39:14:30.30	UGC_2828	0.0410	0.0406	0.2291	0.0132	CBET 1096	
2007le	23:38:48.452 -06:31:21.83	NGC_7721	0.0067	0.0055	0.0334	0.0003	CBET 1100	
2007nq	00:57:33.721 -01:23:20.29	UGC_595	0.0450	0.0439	0.0354	0.0012	CBET 1106	
2007ob	23:12:25.988 +13:54:49.13	2MASX_J23122598+1354503	0.0339	0.0327	0.0681	0.0015	CBET 1112	
2007rx	23:40:11.782 +27:25:15.59	BATC_J234012.05+272512.23	0.0301	0.0289	0.0890	0.0078	CBET 1157	
2007ss	12:41:06.150 +50:23:28.51	NGC_4617	0.0155	0.0161	0.0149	0.0004	CBET 1175	
2007su	22:19:08.884 +13:10:39.89	SDSS_J221908.85+131040.5	0.0279	0.0267	0.0830	0.0006	CBET 1178	
2007sw	12:13:36.933 +46:29:36.56	UGC_7228	0.0252	0.0260	0.0186	0.0014	CBET 1185	
2007ux	10:09:19.939 +14:59:33.07	2MASX_J10091969+1459268	0.0309	0.0320	0.0448	0.0008	CBET 1187	
2008A	01:38:17.394 +35:22:13.06	NGC_634	0.0165	0.0156	0.0542	0.0024	CBET 1193	
2008C	06:57:11.469 +20:26:13.58	UGC_3611	0.0166	0.0171	0.0839	0.0026	CBET 1195	
2008Q	01:24:57.207 +09:33:01.30	NGC_524	0.0600	0.0590	0.0828	0.0010	CBET 1228	
2008Y	11:19:30.581 +54:27:46.21	MCG_+9-19-39	0.0697	0.0703	0.0129	0.0009	CBET 1240	
2008Z	09:43:15.258 +36:17:03.64	SDSS_J094315.36+361709.2	0.0210	0.0218	0.0114	0.0007	CBET 1243	
2008ac	11:53:45.200 +48:25:20.79	SDSS_J115345.22+482521.0	0.0528	0.0535	0.0190	0.0003	CBET 1245	
2008ad	12:49:37.071 +28:19:45.82	ROTSE_J124936.88+281944.8	0.0500	0.0509	0.0130	0.0010	CBET 1245	
2008ae	09:56:03.160 +10:29:58.52	IC_577	0.0301	0.0312	0.0277	0.0007	CBET 1247	
2008ai	10:57:39.957 +37:39:41.40	CGCG_184-39	0.0353	0.0361	0.0163	0.0010	CBET 1256	
2008ar	12:24:37.922 +10:50:16.74	IC_3284	0.0261	0.0272	0.0373	0.0013	CBET 1273	
2008at	10:27:12.469 +71:24:55.55	UGC05645	0.0350	0.0352	0.0912	0.0025	CBET 1277	
2008bi	08:35:53.388 +00:42:22.85	NGC_2618	0.0134	0.0144	0.0441	0.0014	CBET 1312	
2008bw	18:26:50.440 +51:08:16.42	UGC_11241	0.0331	0.0328	0.0399	0.0017	CBET 1346	
2008by	12:05:20.907 +40:56:44.43	SDSS_J120520.81+405644.4	0.0450	0.0458	0.0135	0.0002	CBET 1350	
2008bz	12:38:57.686 +11:07:45.60	2MASX_J12385810+1107502	0.0603	0.0614	0.0269	0.0021	CBET 1353	
2008cd	13:15:01.777 -15:57:06.70	NGC_5038	0.0074	0.0085	0.0688	0.0002	CBET 1360	
2008cf	14:07:32.585 -26:33:07.74	[WLF2008]_J140732.38-263305.6	0.0460	0.0469	0.0674	0.0017	CBET 1365	
2008cm	13:29:12.826 +11:16:20.65	NGC_2369	0.0111	0.0116	0.1139	0.0013	CBET 1384	
2008dr	22:10:51.664 +02:06:29.34	NGC_7222	0.0414	0.0403	0.0428	0.0009	CBET 1419	
2008ds	00:29:50.820 +31:23:33.88	UGC_299	0.0210	0.0200	0.0643	0.0028	CBET 1419	
2008dt	16:56:30.592 +27:58:33.83	NGC_6261	0.0354	0.0354	0.0458	0.0021	CBET 1423	
2008fr	01:11:49.224 +14:38:26.21	SDSS_J011149.19+143826.5	0.0490	0.0479	0.0449	0.0014	CBET 1513	
2008gb	02:57:57.141 +46:51:56.19	UGC_2427	0.0370	0.0364	0.1983	0.0041	CBET 1527	
2008gl	01:20:54.820 +04:48:19.22	UGC_881	0.0340	0.0330	0.0284	0.0009	CBET 1545	
2008hj	00:04:01.913 -11:10:08.35	MCG_-2-1-14	0.0379	0.0367	0.0361	0.0009	CBET 1579	
2008hm	03:27:10.889 +46:56:39.20	2MFGC_2845	0.0197	0.0192	0.4425	0.0099	CBET 1586	
2008hs	02:25:29.594 +41:50:34.92	NGC_910	0.0173	0.0166	0.0573	0.0004	CBET 1598	
2008hv	09:07:34.066 +03:23:32.18	NGC_2765	0.0125	0.0136	0.0321	0.0009	CBET 1601	
2009D	03:54:22.817 -19:10:54.56	MCG_-03-10-52	0.0250	0.0247	0.0529	0.0014	CBET 1647	
2009Y	14:42:24.563 -17:14:46.70	NGC_5728	0.0093	0.0101	0.1016	0.0006	CBET 1684	
2009ad	05:03:33.393 +06:39:35.82	UGC_3236	0.0284	0.0283	0.1120	0.0013	CBET 1694	
2009al	10:51:22.049 +08:34:41.98	NGC_3425	0.0221	0.0233	0.0246	0.0005	CBET 1705	
2009an	12:22:47.385 +65:51:04.60	NGC_4332	0.0092	0.0095	0.0186	0.0003	CBET 1707	
2009bv	13:07:20.517 +35:47:03.20	MCG_+6-29-39	0.0367	0.0375	0.0086	0.0009	CBET 1741	
2009dc	15:51:12.083 +25:42:28.43	UGC_10064	0.0214	0.0217	0.0696	0.0017	CBET 1762	
2009do	12:34:58.316 +50:51:03.81	NGC_4537	0.0397	0.0403	0.0149	0.0006	CBET 1778	
2009ds	11:49:04.025 -09:43:44.48	NGC_3905	0.0192	0.0204	0.0389	0.0007	CBET 1784	
2009fv	16:29:44.191 +40:48:41.44	NGC_6173	0.0293	0.0294	0.0063	0.0014	CBET 1834	
2009gf	14:15:37.127 +14:16:48.74	NGC_5525	0.0185	0.0193	0.0255	0.0007	CBET 1844	
2009hp	02:58:23.938 +06:35:34.64	MCG_+01-08-30	0.0211	0.0204	0.2300	 ... 	CBET 1888	
2009ig	02:38:11.613 -01:18:45.52	NGC_1015	0.0088	0.0080	0.0320	0.0009	CBET 1918	
2009jr	20:26:26.013 +02:54:31.73	IC_1320	0.0165	0.0156	0.1347	0.0035	CBET 1964	
2009kk	03:49:44.320 -03:15:52.66	2MFGC_3182	0.0129	0.0124	0.1376	0.0029	CBET 1991	
2009kq	08:36:15.148 +28:04:01.67	MCG_+5-21-1	0.0116	0.0124	0.0410	0.0006	CBET 2005	
2009le	02:09:17.160 -23:24:44.74	ESO_478-6	0.0178	0.0170	0.0164	0.0006	CBET 2022	
2009lf	02:01:39.616 +15:19:58.13	2MASX_J02014081+1519521	0.0450	0.0441	0.0525	0.0023	CBET 2023	
2009li	00:22:51.395 +06:58:11.35	IC_1549	0.0404	0.0392	0.0267	0.0010	CBET 2026	
2009na	10:47:01.444 +26:32:37.73	UGC_5884	0.0210	0.0220	0.0319	0.0018	CBET 2098	
2009nq	23:15:17.004 +19:01:21.58	NGC_7549	0.0158	0.0146	0.1455	0.0046	CBET 2110	
2010A	02:32:39.459 +00:37:09.90	UGC_2019	0.0207	0.0199	0.0291	0.0011	CBET 2109	
2010H	08:06:24.342 +01:02:09.01	IC_494	0.0152	0.0160	0.0308	0.0011	CBET 2130	
2010Y	10:51:03.994 +65:46:46.40	NGC_3392	0.0109	0.0113	0.0135	0.0015	CBET 2168	
2010ag	17:03:53.653 +31:30:06.70	UGC_10679	0.0338	0.0338	0.0309	0.0013	CBET 2195	
2010ai	12:59:24.005 +27:59:47.13	SDSS_J125925.04+275948.2	0.0184	0.0193	0.0094	0.0012	CBET 2200	
2010cr	13:29:25.082 +11:47:46.49	NGC_5177	0.0216	0.0225	0.0345	0.0014	CBET 2281	
2010dt	16:43:15.063 +32:40:27.56	CGCG_168-029	0.0529	0.0529	0.0341	0.0011	CBET 2307	
2010dw	15:22:40.279 -05:55:16.46	2MASX_J15224062-0555214	0.0381	0.0387	0.0933	0.0011	CBET 2310	
SNF20080522-000	13:36:47.592 +05:08:30.41	SDSS_J133647.59+050833.0	0.0472	0.0482	0.0265	0.0005	SNF site	
SNF20080522-011	15:19:58.920 +04:54:16.73	SDSS_J151959.16+045411.2	0.0397	0.0403	0.0427	0.0008	SNF site	
PTF10bjs	13:01:11.215 +53:48:57.49	MCG_+9-21-83	0.0300	0.0306	0.0176	0.003	ATEL 2453	

Notes. J2000 positions are calibrated against UCAC3 in all but a few cases where there was insufficient coverage and USNO-A2.0 or USNO-B1.0 was used instead. The positions are a weighted mean of our measured SN R.A. and decl., usually from r" but occasionally from V when insufficient r" data were available. These are usually an improvement over the positions reported by the discoverer. The Galaxy column lists the cross-identification object from NED with an underscore replacing any spaces in the name to facilitate the table's use in a columnated format. The redshifts, zhelio and zCMB, are primarily from NED with a few coming from IAUC/CBET/ATEL sources when none were available from NED. Milky Way E(B - V) values are taken from the NASA IPAC Web site, http://irsa.ipac.caltech.edu/applications/DUST/, except for SN 2007fq and SN 2009hp, which are from the Schlegel et al. (1998) values provided by NED. Finally, the SN discovery reference is listed. The majority are from CBET, IAUC, or ATEL, while two SNe come from the SNF Web site, http://snfactory.lbl.gov/snf/open_access/snlist.php.
