SURVEY:  PS1MD
PHOTOMETRY_VERSION: NewArmin46cxbf
SNTYPE: 1
SNID:  040198
IAUC:    UNKNOWN
RA:   161.289047  deg
DECL:    58.554623  deg
MWEBV:    0.00742600 MW E(B-V) (sch x sfd)
FILTERS: griz
REDSHIFT_HELIO:  0.25000000 +- 0.000500000  (Hel)
REDSHIFT_CMB:  0.25050617 +- 0.000500000  (CMB)
REDSHIFT_FINAL:  0.25050617 +- 0.000500000  (Coh. flow from Hud.)
SEARCH_PEAKMJD: 55326.000
NOBS: 170
NVAR:   7
VARLIST:  MJD  FLT FIELD   FLUXCAL   FLUXCALERR    MAG     MAGERR   FWHM
           OBS:     55173.59481122                g               md       -12.432800        12.764600          30.0000       -1.0266875             6.11
           OBS:     55182.59615019                g               md     -0.042899999        3.8853999          30.0000       -90.568765             5.62
           OBS:     55188.64656610                g               md        6.8152998        10.450800        25.416288        1.5334321             8.24
           OBS:     55191.55552715                g               md       -3.3701999        4.3766998          30.0000       -1.2986470             5.00
           OBS:     55203.54713464                g               md        3.0833999        5.8660998        26.277425        1.9024778             5.57
           OBS:     55206.62642550                g               md        22.329599        8.7656997        24.127798       0.39255965             6.36
           OBS:     55209.58517116                g               md        9.0213997        6.8351998        25.111815       0.75766511             7.45
           OBS:     55212.58214978                g               md       -7.4549997        12.677700          30.0000       -1.7005634             6.78
           OBS:     55221.52594543                g               md       0.26459999        5.4730998        28.943525        20.684429             5.40
           OBS:     55230.50334327                g               md        37.720199        27.826199        23.558565       0.73770022             8.19
           OBS:     55233.48627023                g               md       0.51549998        10.195600        28.219428        19.778080             9.15
           OBS:     55236.56658911                g               md        17.344399        11.670100        24.402102       0.67284541             8.29
           OBS:     55239.50931255                g               md       -10.740200        13.156200          30.0000       -1.2249493             6.08
           OBS:     55242.50645427                g               md        4.3434999        10.128800        25.905400        2.3319443             5.33
           OBS:     55248.49549175                g               md        1.6178999        5.9267998        26.977621        3.6632672             5.94
           OBS:     55251.41457517                g               md        18.287999        19.512799        24.344584        1.0669729             5.38
           OBS:     55275.44362464                g               md        7.4741997        12.805800        25.316088        1.7133339             5.86
           OBS:     55281.27703309                g               md       -14.762599        23.344299          30.0000       -1.5813136             5.61
           OBS:     55293.38006099                g               md       -19.034499        17.492299          30.0000      -0.91897870             9.57
           OBS:     55305.30704687                g               md        28.772799        18.875099        23.852545       0.65600498             9.74
           OBS:     55320.36447261                g               md        45.601098        13.113800        23.352562       0.28757640             8.41
           OBS:     55326.30501136                g               md        180.11189        10.850700        21.861144      0.060244215             6.01
           OBS:     55329.33610137                g               md        247.49999        11.295200        21.516062      0.045637172             6.28
           OBS:     55332.28470321                g               md        280.92269        11.020800        21.378533      0.039230721             5.57
           OBS:     55338.27269498                g               md        341.46029        28.377899        21.166649      0.083107465             8.80
           OBS:     55350.26578403                g               md        148.37889        12.311300        22.071570      0.082972040             6.06
           OBS:     55353.31825488                g               md        119.80990        9.9246997        22.303768      0.082837061             6.04
           OBS:     55563.61243650                g               md       -11.071600        19.484899          30.0000       -1.7598992             6.74
           OBS:     55572.58389769                g               md       -4.9189998        15.101299          30.0000       -3.0699939            11.12
           OBS:     55584.55980907                g               md       -2.3817999        16.082199          30.0000       -6.7521202             6.62
           OBS:     55587.62942001                g               md        15.949199        12.559300        24.493153       0.78745642             6.57
           OBS:     55590.56812643                g               md        2.5096999        8.0506997        26.500945        3.2078336             5.46
           OBS:     55593.60814954                g               md        1.6569999        12.356600        26.951694        7.4572118             6.56
           OBS:     55596.51397264                g               md        3.2913999        14.824999        26.206548        4.5041624             7.91
           OBS:     55602.42743649                g               md        8.4751997        21.924599        25.179625        2.5869124             5.85
           OBS:     55629.39258265                g               md       -3.4917999        10.765800          30.0000       -3.0831663             6.43
           OBS:     55632.50260081                g               md      0.092499997        9.4553997        30.084646        102.22054             6.92
           OBS:     55635.34389190                g               md       -27.907399        14.592299          30.0000      -0.52288282             5.40
           OBS:     55650.48254531                g               md        7.2191998        9.6339997        25.353777        1.3344969             6.68
           OBS:     55653.48064535                g               md        10.916800        12.226100        24.904762        1.1199344             7.39
           OBS:     55662.32740852                g               md       -14.826099        9.8684997          30.0000      -0.66561672             5.85
           OBS:     55665.28685360                g               md        9.5318997        18.135599        25.052051        1.9026217             5.27
           OBS:     55674.31294905                g               md       -7.2856998        5.2675998          30.0000      -0.72300534             4.88
           OBS:     55677.38248910                g               md       0.24729999        8.1624997        29.016940        33.006470             5.98
           OBS:     55680.25640445                g               md       -7.7735997        8.9269997          30.0000       -1.1483740             6.53
           OBS:     55692.27563848                g               md       -21.063199        8.8402997          30.0000      -0.41970356             5.34
           OBS:     55710.28532352                g               md        1.9740999        6.4922998        26.761577        3.2887392             5.58
           OBS:     55719.26884075                g               md      0.046499998        7.3751997        30.831368        158.60645             5.65
           OBS:     55722.27020581                g               md       -33.354899        26.347899          30.0000      -0.78992592             7.70
           OBS:     55182.61107325                r               md       0.61649998        5.2087998        28.025167        8.4489862             5.42
           OBS:     55188.66033837                r               md       -10.964500        12.314300          30.0000       -1.1231064             7.00
           OBS:     55191.57106452                r               md        1.4151000        5.1410998        27.123032        3.6330295             4.74
           OBS:     55203.56341536                r               md       -8.1896997        8.5465997          30.0000       -1.0435791             5.70
           OBS:     55206.64178268                r               md        1.2319000        8.9399997        27.273561        7.2570826             6.27
           OBS:     55209.60002226                r               md      -0.51839998        8.2129997          30.0000       -15.842978             6.94
           OBS:     55215.50401832                r               md        35.410099        13.513200        23.627182       0.38161993             5.04
           OBS:     55221.54242611                r               md       -9.6307997        6.7504998          30.0000      -0.70092827             5.01
           OBS:     55230.51775788                r               md       -37.145299        23.131899          30.0000      -0.62274097             8.19
           OBS:     55233.50139069                r               md       -8.1334997        11.773100          30.0000       -1.4474826             7.49
           OBS:     55236.58087214                r               md        2.6430999        9.9526997        26.444716        3.7655405             7.21
           OBS:     55239.52495257                r               md       -13.580600        12.083400          30.0000      -0.88975450             5.87
           OBS:     55242.52379721                r               md       -1.2138000        8.3954997          30.0000       -6.9167079             6.24
           OBS:     55248.50995063                r               md       -6.1052998        6.9066998          30.0000       -1.1312630             5.51
           OBS:     55251.42919722                r               md        11.370600        20.095999        24.860542        1.7673650             5.59
           OBS:     55266.52270828                r               md       -10.126400        31.701799          30.0000       -3.1306091            11.08
           OBS:     55275.45799089                r               md       -25.535599        14.240900          30.0000      -0.55768809             6.69
           OBS:     55281.29151559                r               md       -15.877999        19.505099          30.0000       -1.2284356             5.24
           OBS:     55305.32159710                r               md       -7.0949998        16.623599          30.0000       -2.3430021             7.87
           OBS:     55320.37800532                r               md        47.942098        16.707899        23.298207       0.34850163             7.86
           OBS:     55326.31991329                r               md        176.42909        11.049000        21.883574      0.062625723             5.57
           OBS:     55329.34942462                r               md        243.25729        19.250299        21.534835      0.079135549             6.15
           OBS:     55332.29841182                r               md        309.54999        14.454900        21.273173      0.046696495             5.19
           OBS:     55350.27980885                r               md        248.03529        15.224099        21.513716      0.061378763             6.58
           OBS:     55353.33295361                r               md        217.87589        13.642600        21.654477      0.062616379             5.99
           OBS:     55563.62580163                r               md       -2.8602999        20.446699          30.0000       -7.1484460             7.22
           OBS:     55572.59715120                r               md       -19.262999        14.875799          30.0000      -0.77224731             9.87
           OBS:     55584.57353509                r               md       -1.6796999        19.358599          30.0000       -11.525034             6.59
           OBS:     55587.64127520                r               md        12.495600        16.532899        24.758107        1.3230977             7.97
           OBS:     55590.58269281                r               md        2.8854999        7.2352998        26.349447        2.5074684             5.16
           OBS:     55593.62368690                r               md       -1.7494999        10.313600          30.0000       -5.8951700             5.87
           OBS:     55596.52847418                r               md       -5.6954998        11.130000          30.0000       -1.9541743             6.35
           OBS:     55602.44065388                r               md        16.765699        8.9088997        24.438946       0.53137656             5.45
           OBS:     55629.40536839                r               md        8.1976997        12.095700        25.215770        1.4754992             6.05
           OBS:     55632.51541556                r               md       -13.135700        10.177300          30.0000      -0.77478170             6.04
           OBS:     55635.35671001                r               md        13.662300        14.332600        24.661190        1.0490620             5.33
           OBS:     55650.49535872                r               md        1.5770999        13.552600        27.005352        8.5933676             6.84
           OBS:     55653.49347309                r               md       -7.8969997        13.120000          30.0000       -1.6613904             6.76
           OBS:     55662.34018070                r               md        13.101100        10.255800        24.706731       0.78281976             5.61
           OBS:     55665.29963648                r               md        10.149200        13.858700        24.983920        1.3654968             5.61
           OBS:     55674.32533626                r               md        9.4355997        5.4349998        25.063076       0.57601000             4.50
           OBS:     55677.39487712                r               md       -8.9527997        6.8543998          30.0000      -0.76561523             5.41
           OBS:     55680.27065406                r               md        11.635500        9.5523997        24.835537       0.82097031             5.93
           OBS:     55692.29139372                r               md        3.4350999        11.971200        26.160152        3.4849640             5.31
           OBS:     55710.29771936                r               md       0.37029999        13.379400        28.578616        36.131245             5.68
           OBS:     55719.28130739                r               md        2.2661999        13.954700        26.611754        6.1577531             5.18
           OBS:     55722.28300457                r               md        27.969999        23.286399        23.883269       0.83254916             7.31
           OBS:     55180.59387734                i               md        3.9183999        6.1747998        26.017228        1.5758473             6.38
           OBS:     55183.64082891                i               md       -16.128499        9.7421997          30.0000      -0.60403633             5.35
           OBS:     55204.54065936                i               md        8.6683997        6.0230998        25.155153       0.69483411             5.27
           OBS:     55207.60822147                i               md       -1.7919999        3.0962999          30.0000       -1.7278460             5.31
           OBS:     55210.57241646                i               md       -14.009200        8.0531997          30.0000      -0.57485081             8.73
           OBS:     55213.50793385                i               md        5.3604998        6.4704998        25.676987        1.2070702             5.99
           OBS:     55219.54095195                i               md       -4.7970998        13.512900          30.0000       -2.8168894             5.19
           OBS:     55222.47210111                i               md       -1.2458000        7.1718998          30.0000       -5.7568631             4.88
           OBS:     55231.46167087                i               md        5.5126998        6.2256998        25.646589        1.1293377             5.59
           OBS:     55234.53007533                i               md        7.1359998        8.7647997        25.366363        1.2282511             9.37
           OBS:     55237.52066213                i               md      0.075099997        3.6251999        30.310900        48.271638             4.47
           OBS:     55240.49720304                i               md        6.8374998        6.5400998        25.412757       0.95650457             5.16
           OBS:     55243.35567174                i               md        3.7181999        9.8048997        26.074168        2.6370018             6.90
           OBS:     55246.43506854                i               md        12.588400        7.9512997        24.750074       0.63163706             6.73
           OBS:     55249.53316373                i               md       -1.9310999        4.7752998          30.0000       -2.4728393             4.26
           OBS:     55252.45150104                i               md       -8.2542997        12.162000          30.0000       -1.4734139             5.75
           OBS:     55264.49998792                i               md       -21.426099        18.350099          30.0000      -0.85643678            10.30
           OBS:     55288.41664347                i               md      -0.15319999        14.638699          30.0000       -95.552872             8.74
           OBS:     55330.27824798                i               md        269.18889        7.8615997        21.424857      0.029204770             3.90
           OBS:     55339.25555112                i               md        371.47339        49.545298        21.075181       0.13337509            11.11
           OBS:     55348.31337766                i               md        246.25279        12.259600        21.521547      0.049784612             6.71
           OBS:     55561.60532529                i               md       -2.2227999        8.8309997          30.0000       -3.9729170             5.57
           OBS:     55570.55338048                i               md        9.1672997        12.777800        25.094396        1.3938455             7.00
           OBS:     55576.62304462                i               md        1.5811999        10.270800        27.002533        6.4955730             7.00
           OBS:     55585.44794971                i               md       -16.810199        13.624000          30.0000      -0.81046032             6.59
           OBS:     55588.63722531                i               md        5.3621998        8.9942997        25.676642        1.6773526             4.57
           OBS:     55594.45407996                i               md       0.60759998        7.1553998        28.040956        11.776498             5.10
           OBS:     55597.50790506                i               md       -10.456500        11.054500          30.0000       -1.0571893             6.39
           OBS:     55615.50495551                i               md        14.928599        30.160199        24.564952        2.0202966             5.34
           OBS:     55633.37631722                i               md       -2.2058999        5.5885998          30.0000       -2.5334784             3.79
           OBS:     55636.37799428                i               md       -6.4627998        18.228699          30.0000       -2.8205577             8.99
           OBS:     55645.45021481                i               md        8.7960997        6.5583998        25.139275       0.74560317             4.90
           OBS:     55651.46755340                i               md      -0.67319998        6.6987998          30.0000       -9.9506833             5.06
           OBS:     55663.31387400                i               md        4.5972998        7.1243998        25.843743        1.5496922             4.73
           OBS:     55666.31575161                i               md       -6.2320998        14.322700          30.0000       -2.2982141             6.65
           OBS:     55672.34598902                i               md     -0.055699998        6.9253998          30.0000       -124.33393             4.48
           OBS:     55675.32711946                i               md       -2.4953999        5.8394998          30.0000       -2.3401058             4.49
           OBS:     55681.26928013                i               md        2.4400999        7.5571997        26.531481        3.0970862             5.22
           OBS:     55705.26198888                i               md       -10.663100        6.2815998          30.0000      -0.58909698             4.18
           OBS:     55711.29062462                i               md      -0.78909997        5.0773998          30.0000       -6.4344190             4.31
           OBS:     55720.29633304                i               md       -92.484597        44.127998          30.0000      -0.47713890             4.18
           OBS:     55723.27501812                i               md       -2.2669999        10.452200          30.0000       -4.6105867             5.37
           OBS:     55181.59261668                z               md        5.4653998        10.047000        25.655945        1.8382918             5.77
           OBS:     55208.60521241                z               md       -9.5461997        10.043600          30.0000       -1.0521045             5.96
           OBS:     55214.51059975                z               md       -11.019400        13.063000          30.0000       -1.1854547             4.22
           OBS:     55223.47012690                z               md       -39.748199        22.776099          30.0000      -0.57300960             6.11
           OBS:     55235.56170137                z               md        2.2493999        20.345199        26.619833        9.0447230             8.10
           OBS:     55238.49442657                z               md       0.53169998        16.034799        28.185833        30.157608             5.36
           OBS:     55241.44292410                z               md       -36.467999        15.867599          30.0000      -0.43511023             5.48
           OBS:     55250.55276813                z               md       -23.090499        18.368199          30.0000      -0.79548732             3.89
           OBS:     55259.48052644                z               md       -30.305999        22.087999          30.0000      -0.72883257             8.01
           OBS:     55280.32757043                z               md        9.5083997        19.660499        25.054731        2.0676980             5.72
           OBS:     55289.42495010                z               md        12.057900        22.003799        24.796821        1.8248451             6.71
           OBS:     55298.36593887                z               md        12.700600        24.137399        24.740439        1.9004929             7.52
           OBS:     55304.29127148                z               md        5.6320998        12.824200        25.623324        2.2769837             4.59
           OBS:     55334.28137524                z               md        232.18349        11.224500        21.585422      0.048343229             3.88
           OBS:     55352.25899135                z               md        122.55900        16.265499        22.279137       0.13271567             3.79
           OBS:     55583.51939690                z               md        8.9732997        8.7629997        25.117620       0.97656381             4.02
           OBS:     55586.61263769                z               md       -6.5055998        9.4228997          30.0000       -1.4484290             4.41
           OBS:     55589.56060868                z               md        6.8609998        15.070199        25.409031        2.1965020             5.47
           OBS:     55592.58496579                z               md       -9.5964997        15.110499          30.0000       -1.5745845             5.46
           OBS:     55595.52386054                z               md        23.768299        12.340800        24.060005       0.51921256             4.10
           OBS:     55613.44262274                z               md        31.323099        18.401499        23.760338       0.58747378             4.21
           OBS:     55631.37592852                z               md       -7.4460997        20.001999          30.0000       -2.6862384             6.36
           OBS:     55634.32099116                z               md        4.1258999        12.980900        25.961203        3.1461984             3.74
           OBS:     55646.43270099                z               md       -15.234899        24.250999          30.0000       -1.5918057             4.31
           OBS:     55673.34315993                z               md        16.463099        15.869599        24.458721       0.96394968             4.25
           OBS:     55676.34360104                z               md        15.979999        29.435299        24.491058        1.8420088             4.88
           OBS:     55682.24783537                z               md       -6.4874998        15.455799          30.0000       -2.3823969             4.67
           OBS:     55694.27521839                z               md        12.071300        21.289399        24.795615        1.7636377             4.73
           OBS:     55703.27910935                z               md       -15.185199        27.316799          30.0000       -1.7989095             6.11
           OBS:     55706.25576630                z               md        15.954799        18.426499        24.492772        1.1549189             5.56
           OBS:     55712.25676746                z               md        6.4273998        10.537100        25.479912        1.6394032             4.29
           OBS:     55718.26114702                z               md       -19.084499        15.064799          30.0000      -0.78937358             4.64
END:
