SURVEY:  PS1MD
PHOTOMETRY_VERSION: NewArmin46cxbf
SNTYPE: 1
SNID:  100101
IAUC:    UNKNOWN
RA:   132.140976  deg
DECL:    43.985249  deg
MWEBV:     0.0270720 MW E(B-V) (sch x sfd)
FILTERS: griz
REDSHIFT_HELIO:  0.43000000 +- 0.000500000  (Hel)
REDSHIFT_CMB:  0.43060929 +- 0.000500000  (CMB)
REDSHIFT_FINAL:  0.43060929 +- 0.000500000  (Coh. flow from Hud.)
SEARCH_PEAKMJD: 55502.000
NOBS: 162
NVAR:   7
VARLIST:  MJD  FLT FIELD   FLUXCAL   FLUXCALERR    MAG     MAGERR   FWHM
           OBS:     55161.52349391                g               md        2.1553999        10.200600        26.666180        4.7325786             9.23
           OBS:     55173.50255851                g               md       -5.2432998        11.653300          30.0000       -2.2225125             6.62
           OBS:     55179.52244540                g               md        1.9847999        5.1585998        26.755708        2.5990528             7.35
           OBS:     55182.49146070                g               md       -3.6516999        4.9333998          30.0000       -1.3509872             6.87
           OBS:     55188.55103570                g               md        18.649499        10.531600        24.323332       0.56471219             8.86
           OBS:     55191.48338290                g               md       -3.4348999        6.2859998          30.0000       -1.8300387             5.20
           OBS:     55203.44060806                g               md       -3.1543999        4.6045998          30.0000       -1.4597388             6.56
           OBS:     55206.50065410                g               md        1.9611999        8.1668997        26.768695        4.1642362             5.27
           OBS:     55210.54826750                g               md       0.42499999        3.7135999        28.429028        8.7378824             4.20
           OBS:     55212.43403868                g               md      -0.96029997        4.7315998          30.0000       -4.9272102             5.52
           OBS:     55215.40722420                g               md       -1.6567999        5.3479998          30.0000       -3.2279092             4.13
           OBS:     55221.43824497                g               md        8.0074997        17.288499        25.241258        2.1590384             6.76
           OBS:     55230.45219344                g               md       -3.8035999        21.190099          30.0000       -5.5710643             8.06
           OBS:     55233.40639098                g               md        8.7877997        11.583600        25.140300        1.3181456             6.78
           OBS:     55236.32722461                g               md       -17.532499        11.640000          30.0000      -0.66390988             9.06
           OBS:     55239.39887508                g               md        14.354300        8.5061997        24.607545       0.59258898             5.45
           OBS:     55242.33430487                g               md      -0.47389998        6.1391998          30.0000       -12.954632             4.53
           OBS:     55248.39359422                g               md        19.383999        10.075500        24.281391       0.51978436             6.83
           OBS:     55275.36458474                g               md       -24.425699        13.258000          30.0000      -0.54278895             8.36
           OBS:     55482.60855024                g               md        4.9443998        6.6841998        25.764716        1.3518728             5.60
           OBS:     55485.60429665                g               md        8.0101997        8.6145997        25.240892        1.0754538             6.24
           OBS:     55503.58234943                g               md        4.5713998        5.5210998        25.849877        1.2077482             5.00
           OBS:     55509.60721982                g               md        63.532698        12.229800        22.992507       0.19249615             5.56
           OBS:     55515.59233911                g               md        63.712898        7.0459998        22.989432       0.11058985             5.86
           OBS:     55518.58724540                g               md        36.999599        8.8291997        23.579507       0.23862961             4.40
           OBS:     55530.58730300                g               md        9.8237997        17.378099        25.019301        1.7689794             6.71
           OBS:     55545.48034586                g               md        18.982899        8.5902997        24.304094       0.45252833             5.43
           OBS:     55548.61667025                g               md        14.958899        9.4524997        24.562751       0.63189807             6.77
           OBS:     55560.39222505                g               md       0.75829997        11.961300        27.800397        15.773836             7.25
           OBS:     55563.55894039                g               md        1.3261000        25.650899        27.193559        19.343111             7.81
           OBS:     55566.58100859                g               md        3.6115999        24.266499        26.105751        6.7190442             8.91
           OBS:     55584.47647166                g               md       0.64659998        18.177699        27.973411        28.112744             5.82
           OBS:     55587.56805280                g               md        27.441099        16.277099        23.903996       0.59316500             6.73
           OBS:     55590.53879249                g               md        3.0788999        5.2611998        26.279011        1.7087921             4.93
           OBS:     55593.55601046                g               md        25.571399        13.722300        23.980614       0.53662686             7.14
           OBS:     55596.33099006                g               md      -0.41269999        8.5385997          30.0000       -20.689605             6.04
           OBS:     55602.30621950                g               md       -26.603199        14.174700          30.0000      -0.53281936             6.16
           OBS:     55632.25536870                g               md       -19.876999        12.637500          30.0000      -0.63578508             6.13
           OBS:     55650.33931544                g               md        5.1536998        10.136900        25.719702        1.9669170             5.87
           OBS:     55653.25392699                g               md        1.3166000        10.405100        27.201365        7.9030077             5.22
           OBS:     55665.25790591                g               md        36.493499        18.441999        23.594461       0.50535027             6.37
           OBS:     55161.54083829                r               md        4.6590998        11.951100        25.829245        2.5651091             9.40
           OBS:     55173.51782364                r               md        4.3894998        8.4601997        25.893962        1.9273721             6.11
           OBS:     55179.53662666                r               md        1.9918999        5.1825998        26.751831        2.6018374             6.45
           OBS:     55182.50680542                r               md        7.1431998        6.1934998        25.365268       0.86704838             6.14
           OBS:     55188.56569540                r               md        17.133899        9.8126997        24.415359       0.57270674             9.27
           OBS:     55191.50322302                r               md        2.9475999        4.2980999        26.326329        1.4581694             4.79
           OBS:     55203.45920688                r               md       -2.1347999        5.3371998          30.0000       -2.5000937             5.54
           OBS:     55206.51542745                r               md       -3.5304999        5.2128998          30.0000       -1.4765331             4.74
           OBS:     55212.44874214                r               md       -7.8475997        4.8071998          30.0000      -0.61256945             5.52
           OBS:     55221.45174662                r               md       -2.2488999        10.783400          30.0000       -4.7949664             5.93
           OBS:     55230.46643657                r               md        24.024499        16.330599        24.048364       0.67974776             6.87
           OBS:     55233.42320899                r               md        5.8629998        8.7930997        25.579700        1.4997612             7.02
           OBS:     55236.34202803                r               md       0.69579998        12.257500        27.893789        17.616413             7.60
           OBS:     55239.41582081                r               md       -11.632000        6.3185998          30.0000      -0.54320839             6.00
           OBS:     55242.34910805                r               md       0.67809998        6.9691998        27.921766        10.277540             4.31
           OBS:     55248.40816510                r               md       -5.8524998        7.0662998          30.0000       -1.2073985             6.21
           OBS:     55275.37905332                r               md        7.0003998        8.5383997        25.387193        1.2197017             6.42
           OBS:     55482.62290676                r               md       -7.5541997        8.7612997          30.0000       -1.1597919             5.05
           OBS:     55485.61733072                r               md      -0.71389998        11.822100          30.0000       -16.559882             5.60
           OBS:     55503.59542170                r               md        43.468899        11.816600        23.404553       0.27184033             4.55
           OBS:     55509.62003338                r               md        97.511997        8.7641997        22.527355      0.089878169             4.20
           OBS:     55515.60520053                r               md        131.15970        8.4497997        22.205499      0.064423752             5.15
           OBS:     55518.60115015                r               md        113.57310        18.709099        22.361811       0.16473179             4.48
           OBS:     55530.59943791                r               md        101.48360        12.308600        22.484010       0.12128659             6.34
           OBS:     55545.49600077                r               md        27.505099        6.8186998        23.901467       0.24790675             4.54
           OBS:     55548.62888364                r               md        22.630699        10.677300        24.113255       0.47180600             5.47
           OBS:     55560.40521507                r               md        5.1798998        8.1563997        25.714197        1.5746250             6.61
           OBS:     55563.57292371                r               md        9.1413997        19.490399        25.097468        2.1321023             6.90
           OBS:     55566.59253422                r               md        2.9931999        8.9896997        26.309661        3.0033743             7.06
           OBS:     55584.49071303                r               md        21.759399        16.003699        24.155883       0.73548443             5.28
           OBS:     55587.56470660                r               md        16.688799        14.089200        24.443937       0.84423086             6.02
           OBS:     55590.55238935                r               md        8.9208997        8.2591997        25.123978       0.92582587             5.05
           OBS:     55593.56889055                r               md       -12.445300        12.025900          30.0000      -0.96630053             6.19
           OBS:     55596.34499303                r               md       -1.0974000        8.3148997          30.0000       -7.5769091             5.20
           OBS:     55602.32085138                r               md        15.613699        13.607600        24.516235       0.87151668             4.60
           OBS:     55632.26901431                r               md        3.5870999        8.5493997        26.113141        2.3833738             4.81
           OBS:     55650.35210654                r               md       -2.3204999        7.8478997          30.0000       -3.3819866             5.36
           OBS:     55653.26669688                r               md        24.022499        7.4220997        24.048454       0.30896451             4.87
           OBS:     55665.27069657                r               md        22.518099        13.511700        24.118671       0.60003730             5.46
           OBS:     55180.51602174                i               md        4.6488998        6.9830998        25.831624        1.5020973             6.68
           OBS:     55183.48929370                i               md        8.1599997        7.2681998        25.220775       0.89071078             6.51
           OBS:     55189.51267347                i               md        1.0343000        3.7191999        27.463384        3.5958619             5.46
           OBS:     55204.48507296                i               md       -3.6101999        5.0174998          30.0000       -1.3898122             4.93
           OBS:     55207.49824230                i               md        4.1482999        4.7753998        25.955325        1.1511704             5.32
           OBS:     55210.35464358                i               md       -12.628000        32.988899          30.0000       -2.6123614             9.79
           OBS:     55213.40325117                i               md       -3.3947999        6.2912998          30.0000       -1.8532167             6.20
           OBS:     55219.46226337                i               md       -4.1487999        12.000300          30.0000       -2.8924749             7.16
           OBS:     55222.40917649                i               md       -3.4825999        5.5353998          30.0000       -1.5894447             4.10
           OBS:     55231.43481739                i               md       -12.125200        9.6732997          30.0000      -0.79778478             6.38
           OBS:     55234.42161448                i               md        5.7250998        8.7336997        25.605542        1.5255105             7.60
           OBS:     55237.45862372                i               md        5.0599998        8.2734997        25.739624        1.6350791             5.29
           OBS:     55240.42059862                i               md       -9.3543997        6.8273998          30.0000      -0.72985975             5.12
           OBS:     55243.26095334                i               md        13.274000        10.748200        24.692495       0.80971825             5.92
           OBS:     55246.27775075                i               md       -2.8797999        14.007600          30.0000       -4.8640878             7.85
           OBS:     55249.45269177                i               md       -13.948900        12.855500          30.0000      -0.92161389             4.81
           OBS:     55264.44875626                i               md        26.162399        26.537899        23.955806        1.0143527            10.13
           OBS:     55267.32251596                i               md       -7.3171997        9.8425997          30.0000       -1.3451320             7.04
           OBS:     55477.61430734                i               md        3.1581999        6.7007998        26.251401        2.1217149             4.81
           OBS:     55480.61479980                i               md        1.6095999        12.523200        26.983205        7.7803181             6.37
           OBS:     55483.61102810                i               md        3.9694999        10.524300        26.003160        2.6512911             5.80
           OBS:     55501.58658207                i               md        40.009399        6.9612998        23.494595       0.17399161             4.70
           OBS:     55507.61038508                i               md        52.325598        8.6511997        23.203214       0.16533399             3.91
           OBS:     55510.62607271                i               md        73.085997        6.6549998        22.840415      0.091057111             4.26
           OBS:     55516.56525481                i               md        89.236197        7.7825997        22.623647      0.087213485             4.43
           OBS:     55534.61737233                i               md        109.15700        23.089399        22.404871       0.21152468             9.30
           OBS:     55546.48743053                i               md        36.224999        9.8645997        23.602479       0.27231470             5.57
           OBS:     55561.45755225                i               md        17.171699        6.8288998        24.412967       0.39768340             4.64
           OBS:     55567.56022993                i               md        13.243600        10.463300        24.694985       0.79006463             7.23
           OBS:     55570.51409415                i               md        42.518499        14.268400        23.428555       0.33558098             6.95
           OBS:     55576.52160848                i               md        17.514999        17.681599        24.391475        1.0095118             7.25
           OBS:     55585.34193020                i               md        17.033699        11.763800        24.421728       0.69061918             5.88
           OBS:     55588.50875024                i               md        14.273700        9.5782997        24.613659       0.67104535             5.39
           OBS:     55594.42288247                i               md        11.947000        6.0009998        24.806853       0.50230183             4.70
           OBS:     55597.34234737                i               md       -5.8137998        11.790600          30.0000       -2.0280367             5.21
           OBS:     55615.47923110                i               md        4.6328998        15.926799        25.835368        3.4377604             5.41
           OBS:     55633.25273359                i               md        1.7740999        8.0593997        26.877555        4.5428104             4.53
           OBS:     55645.41082526                i               md      -0.64399998        11.007100          30.0000       -17.091770             4.62
           OBS:     55648.33663825                i               md        24.977599        17.273399        24.006123       0.69155563             5.25
           OBS:     55651.34138123                i               md        11.765700        9.0804997        24.823456       0.77177728             4.65
           OBS:     55666.28588351                i               md       -2.6080999        13.750600          30.0000       -5.2722672             6.66
           OBS:     55672.32169067                i               md       -8.7142997        7.4133997          30.0000      -0.85071664             4.75
           OBS:     55181.53256896                z               md       -4.3891998        12.919700          30.0000       -2.9435205             5.61
           OBS:     55202.46373177                z               md        12.325700        7.9647997        24.772971       0.64619454             4.76
           OBS:     55205.46349183                z               md       -1.0792000        11.790100          30.0000       -10.924852             5.44
           OBS:     55211.43674293                z               md       0.63129998        11.356100        27.999411        17.988437             5.71
           OBS:     55220.43503902                z               md        4.6625998        17.276999        25.828430        3.7054433             6.50
           OBS:     55232.32829109                z               md        24.679799        15.877899        24.019146       0.64335610             6.50
           OBS:     55235.48106911                z               md        4.5834998        13.894400        25.847007        3.0313952             8.09
           OBS:     55238.41638669                z               md        4.4097998        10.059400        25.888953        2.2811465             5.22
           OBS:     55241.31490516                z               md      -0.33999999        9.0522997          30.0000       -26.624412             5.02
           OBS:     55244.25136195                z               md       -1.8606999        18.887699          30.0000       -10.150857             8.14
           OBS:     55247.31990936                z               md        12.035300        14.517400        24.798858        1.2062350             5.83
           OBS:     55250.44200380                z               md       -18.449599        15.170499          30.0000      -0.82226715             4.56
           OBS:     55259.40592055                z               md       -23.122499        22.821899          30.0000      -0.98699968             8.42
           OBS:     55268.25815267                z               md       -8.3696997        14.222600          30.0000       -1.6992963             6.14
           OBS:     55475.60480725                z               md       -24.688199        13.146000          30.0000      -0.53248110             6.10
           OBS:     55478.61389099                z               md        7.0526998        10.504600        25.379111        1.4894438             4.60
           OBS:     55481.61489345                z               md      -0.43069999        20.443399          30.0000       -47.465521             6.83
           OBS:     55484.60762172                z               md       -1.1714000        12.551800          30.0000       -10.715213             4.84
           OBS:     55487.63955339                z               md       -25.712099        27.564199          30.0000       -1.0720322             4.76
           OBS:     55502.62088444                z               md        49.365798        14.032400        23.266435       0.28425347             4.30
           OBS:     55508.59917094                z               md        39.729799        15.474399        23.502209       0.38949101             5.06
           OBS:     55511.59842101                z               md        87.069197        12.231000        22.650339       0.14047447             4.11
           OBS:     55517.56084218                z               md        92.814297        14.183400        22.580963       0.15281481             4.41
           OBS:     55547.46862922                z               md        44.874498        17.854199        23.370001       0.39786961             4.10
           OBS:     55562.47276930                z               md       -7.2654998        13.519300          30.0000       -1.8607529             4.36
           OBS:     55565.57769392                z               md        45.823498        22.505799        23.347279       0.49114101             9.39
           OBS:     55577.54373479                z               md       -25.737799        20.840299          30.0000      -0.80971567             6.99
           OBS:     55583.36920731                z               md        1.6972999        9.5708997        26.925603        5.6388971             4.43
           OBS:     55586.40746497                z               md       -22.788299        17.747799          30.0000      -0.77881193             5.19
           OBS:     55589.50722171                z               md        43.887198        22.912199        23.394155       0.52207022             6.02
           OBS:     55592.41916304                z               md        56.649898        22.430499        23.117002       0.39594951             5.53
           OBS:     55595.31654424                z               md        7.4983997        9.2137997        25.312578        1.2287688             4.90
           OBS:     55613.40556429                z               md        3.1255999        10.515500        26.262667        3.3643141             4.48
           OBS:     55631.24542600                z               md        3.6568999        15.869299        26.092217        4.3395499             4.78
           OBS:     55646.39432269                z               md       -22.628699        14.677999          30.0000      -0.64864530             4.40
           OBS:     55652.29385078                z               md       -4.0644999        17.036199          30.0000       -4.1914627             6.41
           OBS:     55673.31891139                z               md        3.8082999        13.340700        26.048172        3.5030591             4.79
           OBS:     55159.65270410                z               md       -20.474499        20.906199          30.0000       -1.0210848             6.05
           OBS:     55160.56630624                z               md       -2.8542999        12.275900          30.0000       -4.3008443             7.03
           OBS:     55163.50710533                z               md       -9.3491997        10.677200          30.0000       -1.1420442             5.99
END:
