SURVEY:  PS1MD
PHOTOMETRY_VERSION: NewArmin46cxbf
SNTYPE: 1
SNID:  080735
IAUC:    UNKNOWN
RA:   333.873627  deg
DECL:    0.541908  deg
MWEBV:      0.101566 MW E(B-V) (sch x sfd)
FILTERS: griz
REDSHIFT_HELIO:  0.63500000 +- 0.000500000  (Hel)
REDSHIFT_CMB:  0.63380876 +- 0.000500000  (CMB)
REDSHIFT_FINAL:  0.63380876 +- 0.000500000  (Coh. flow from Hud.)
SEARCH_PEAKMJD: 55468.000
NOBS: 156
NVAR:   7
VARLIST:  MJD  FLT FIELD   FLUXCAL   FLUXCALERR    MAG     MAGERR   FWHM
           OBS:     55389.49552729                g               md       -2.0658999        7.7454997          30.0000       -3.7492134             5.18
           OBS:     55398.46945929                g               md       -3.2045999        23.781199          30.0000       -7.4209574             6.46
           OBS:     55410.52133196                g               md       -2.5011999        14.469900          30.0000       -5.7851831             7.20
           OBS:     55413.45167061                g               md        21.226299        12.649800        24.182814       0.59594936             6.47
           OBS:     55416.50789758                g               md        1.8555999        6.6678998        26.828789        3.5933930             5.55
           OBS:     55422.52356556                g               md        18.072899        10.241400        24.357430       0.56667165             6.23
           OBS:     55425.40072476                g               md       -8.3088997        9.3315997          30.0000       -1.1230849             5.74
           OBS:     55428.53360369                g               md       -17.779299        9.6892997          30.0000      -0.54497646             6.05
           OBS:     55437.50912886                g               md       -24.898599        24.619399          30.0000      -0.98878652             8.26
           OBS:     55440.50994750                g               md        10.208700        11.055900        24.977574        1.0829880             5.09
           OBS:     55443.47664413                g               md        15.167699        7.3186997        24.547701       0.48251877             5.68
           OBS:     55446.49434165                g               md        2.3025999        11.502000        26.594454        4.9952228             7.03
           OBS:     55449.42138646                g               md        6.1436998        10.296800        25.528925        1.6759933             5.30
           OBS:     55452.39927130                g               md        25.060999        7.9960997        24.002504       0.31906548             5.76
           OBS:     55455.38196910                g               md        10.070000        13.687000        24.992426        1.3591857             4.98
           OBS:     55458.27937493                g               md        62.211798        42.759699        23.015318       0.68732459             8.94
           OBS:     55467.33968321                g               md        24.835299        12.596300        24.012326       0.50719339             6.43
           OBS:     55473.28927929                g               md        29.151099        11.404700        23.838363       0.39122709             7.86
           OBS:     55479.23586052                g               md       -16.193499        10.238400          30.0000      -0.63225368             6.62
           OBS:     55482.24065379                g               md        8.1043997        11.184700        25.228198        1.3800775             6.18
           OBS:     55500.23106281                g               md       -2.9041999        13.333000          30.0000       -4.5909373             6.41
           OBS:     55503.31288857                g               md       0.12520000        11.661200        29.755989        93.140575             6.02
           OBS:     55512.31884358                g               md       -41.983299        30.452999          30.0000      -0.72535985            11.40
           OBS:     55530.22295564                g               md        46.065598        19.266199        23.341558       0.41823400            10.70
           OBS:     55536.25658008                g               md        13.292700        17.186899        24.690967        1.2929578             7.56
           OBS:     55743.55815009                g               md       -12.109400        8.0152997          30.0000      -0.66190728             7.71
           OBS:     55764.57349868                g               md       -11.585700        12.235600          30.0000       -1.0560950             6.97
           OBS:     55767.55417789                g               md        6.9204998        9.0523997        25.399656        1.3080558             6.06
           OBS:     55770.53648670                g               md       -2.8937999        5.8059998          30.0000       -2.0063584             5.74
           OBS:     55773.56189919                g               md        1.1775000        7.8773997        27.322598        6.6899363             6.21
           OBS:     55776.55498587                g               md       -2.8637999        6.6414998          30.0000       -2.3191214             5.59
           OBS:     55779.56402917                g               md        2.8061999        5.5259998        26.379703        1.9692110             4.92
           OBS:     55782.42977711                g               md        14.862399        21.742099        24.569778        1.4628929             8.11
           OBS:     55791.58054310                g               md        2.8680999        30.814899        26.356014        10.744012             8.54
           OBS:     55794.52841937                g               md       -3.5504999        7.5086997          30.0000       -2.1148289             5.18
           OBS:     55797.53291310                g               md        2.7018999        6.3355998        26.420827        2.3448684             4.68
           OBS:     55803.53405175                g               md        5.7554998        6.9859998        25.599792        1.2137955             5.91
           OBS:     55806.38485524                g               md      -0.55719998        13.049700          30.0000       -23.420136            10.51
           OBS:     55809.30592786                g               md        7.8260997        10.436700        25.266137        1.3335761             5.35
           OBS:     55812.44659941                g               md       -8.3025997        15.018699          30.0000       -1.8089153             4.79
           OBS:     55014.56297159                g               md       -21.595199        16.880699          30.0000      -0.78168760             8.37
           OBS:     55029.59984516                g               md       -19.508099        9.7917997          30.0000      -0.50193509             6.56
           OBS:     55074.44696118                g               md       -35.373299        47.565298          30.0000       -1.3446667             8.91
           OBS:     55389.50927591                r               md        2.7905999        9.0433997        26.385756        3.2406651             5.00
           OBS:     55398.48312028                r               md        14.985299        16.954099        24.560836        1.1313821             5.66
           OBS:     55410.53533484                r               md       -9.4980997        21.366699          30.0000       -2.2495762             6.75
           OBS:     55413.43861172                r               md       -1.8668999        8.0800997          30.0000       -4.3280840             5.69
           OBS:     55416.52093179                r               md        1.2852000        6.7872998        27.227573        5.2811236             4.96
           OBS:     55425.41390149                r               md        2.6861999        9.9102997        26.427154        3.6893381             5.67
           OBS:     55428.54671386                r               md        8.5366997        9.1667997        25.171775        1.0738107             6.37
           OBS:     55437.49330355                r               md       -9.1061997        21.583199          30.0000       -2.3701654             9.38
           OBS:     55440.49232078                r               md        2.4937999        9.4703997        26.507846        3.7975780             4.68
           OBS:     55443.48957207                r               md        8.5564997        7.4432997        25.169260       0.86990008             5.27
           OBS:     55446.50805356                r               md       -12.335300        18.691199          30.0000       -1.5152611             8.28
           OBS:     55449.44835265                r               md        19.917399        9.8283997        24.251918       0.49345798             5.09
           OBS:     55452.41305199                r               md        46.695298        9.5867997        23.326817       0.20530546             5.08
           OBS:     55455.39489756                r               md        58.944298        10.447100        23.073895       0.17723682             4.81
           OBS:     55467.35259854                r               md        93.680597        14.238300        22.570876       0.15198771             5.17
           OBS:     55473.30224159                r               md        46.994598        11.411800        23.319880       0.24283216             5.75
           OBS:     55479.24872677                r               md        38.454499        10.468700        23.537632       0.27223602             6.11
           OBS:     55482.25393061                r               md        36.132999        10.713900        23.605240       0.29651288             6.08
           OBS:     55500.24458594                r               md        17.006099        10.667000        24.423488       0.62724552             4.94
           OBS:     55503.32541289                r               md        13.221400        13.956500        24.696806        1.0555993             6.08
           OBS:     55530.23586089                r               md      -0.88869997        28.443999          30.0000       -32.006301             9.72
           OBS:     55536.24307703                r               md        8.8779997        9.3212997        25.129212        1.0499324             6.09
           OBS:     55743.57059135                r               md        12.280500        8.3599997        24.776960       0.68075404             7.25
           OBS:     55764.58590928                r               md        7.5493997        10.835100        25.305219        1.4352266             5.44
           OBS:     55767.56735301                r               md        2.3573999        8.7782997        26.568917        3.7237210             5.21
           OBS:     55770.54888933                r               md       -4.2436999        7.2275998          30.0000       -1.7031364             5.73
           OBS:     55773.57429437                r               md       -6.4100998        7.9258997          30.0000       -1.2364706             6.79
           OBS:     55776.56747512                r               md       -4.7534998        7.0273998          30.0000       -1.4783633             5.50
           OBS:     55779.57644285                r               md       -4.1794999        6.0989998          30.0000       -1.4592655             4.95
           OBS:     55782.44217990                r               md        3.0885999        19.941999        26.275596        6.4566470             7.59
           OBS:     55014.57901532                r               md       -3.7295999        12.853600          30.0000       -3.4463749             8.66
           OBS:     55029.61520676                r               md       -5.6312998        9.1057997          30.0000       -1.6169979             6.01
           OBS:     55074.45609420                r               md        22.034799        27.713899        24.142227        1.2577332             9.05
           OBS:     55083.49504298                r               md        7.7782997        15.144699        25.272788        1.9470450             8.35
           OBS:     55086.43352365                r               md       -5.1034998        9.2940997          30.0000       -1.8211228             7.02
           OBS:     55089.41533486                r               md       -4.6606998        7.0722998          30.0000       -1.5174330             7.19
           OBS:     55098.36112135                r               md       -2.7074999        9.9357997          30.0000       -3.6697322             8.59
           OBS:     55408.50798891                i               md        20.577799        19.012799        24.216503       0.92394717             8.28
           OBS:     55411.54500231                i               md        19.524999        14.741499        24.273522       0.75500640             6.07
           OBS:     55414.53371295                i               md       -1.1048000        9.7915997          30.0000       -8.8627806             4.85
           OBS:     55417.53949968                i               md       -7.6423997        9.1080997          30.0000       -1.1917853             5.31
           OBS:     55423.53644698                i               md      -0.44369998        7.9449997          30.0000       -17.906243             4.72
           OBS:     55426.54634546                i               md       -4.1118999        7.6925997          30.0000       -1.8708140             5.78
           OBS:     55438.50030393                i               md        10.886000        17.171099        24.907829        1.5773562             5.73
           OBS:     55441.46392047                i               md        7.8250997        13.607000        25.266275        1.7388915             4.52
           OBS:     55444.40355315                i               md       -5.6822998        11.982000          30.0000       -2.1086532             5.02
           OBS:     55447.39950235                i               md        24.242099        7.8967997        24.038574       0.32574736             3.89
           OBS:     55450.37307794                i               md        39.734399        15.080399        23.502083       0.37953008             7.73
           OBS:     55453.43503908                i               md        34.355099        8.3395997        23.660022       0.24274707             4.84
           OBS:     55456.39460644                i               md        49.225598        11.580900        23.269522       0.23526173             4.30
           OBS:     55465.47265270                i               md        49.768198        16.531499        23.257620       0.33216994             5.64
           OBS:     55468.27256178                i               md        66.545998        8.1360997        22.942195       0.12226280             4.67
           OBS:     55480.24009052                i               md        48.169398        16.235399        23.293072       0.33704800             6.73
           OBS:     55483.23913859                i               md        41.503799        4.8410998        23.454780       0.11664233             3.66
           OBS:     55486.25071326                i               md        56.724498        20.945299        23.115573       0.36924609             4.92
           OBS:     55498.23313198                i               md        23.962099        13.654500        24.051188       0.56983737             4.67
           OBS:     55501.36089495                i               md        25.676499        20.404199        23.976160       0.79466438             6.10
           OBS:     55507.26117904                i               md        15.376999        10.819700        24.532821       0.70362880             6.09
           OBS:     55510.24974142                i               md        19.012799        10.410600        24.302385       0.54755743             4.51
           OBS:     55534.27682572                i               md        16.901299        18.749399        24.430200        1.1093466             5.83
           OBS:     55738.57965316                i               md       -3.5627999        20.514799          30.0000       -5.7580555             7.46
           OBS:     55741.58000426                i               md       -8.5110997        11.459000          30.0000       -1.3463595             4.10
           OBS:     55747.57088012                i               md        8.2296997        12.250300        25.211540        1.4885476             5.08
           OBS:     55768.56709133                i               md       -5.4894998        6.9413998          30.0000       -1.2644867             4.49
           OBS:     55774.56776240                i               md       0.68299998        5.7442998        27.913948        8.4103953             4.42
           OBS:     55777.40568377                i               md       -14.333900        12.254000          30.0000      -0.85489643             4.57
           OBS:     55792.55754726                i               md       -16.065599        11.863900          30.0000      -0.73846604             5.57
           OBS:     55801.34519017                i               md       -9.7978997        14.862999          30.0000       -1.5169577             6.79
           OBS:     55804.52505801                i               md       -10.839400        7.5875997          30.0000      -0.70000185             5.55
           OBS:     55810.30635217                i               md      -0.37609999        11.157600          30.0000       -29.666578             4.26
           OBS:     54985.59356390                i               md       -8.6226997        9.4378997          30.0000       -1.0945412             5.03
           OBS:     54986.60193919                i               md        18.232899        14.952999        24.347861       0.82011090             6.08
           OBS:     55012.53308131                i               md       -10.852100        16.604499          30.0000       -1.5300725             6.34
           OBS:     55072.48788607                i               md       -2.9644999        14.705499          30.0000       -4.9605330             9.59
           OBS:     55087.47117738                i               md       -1.8096999        15.370499          30.0000       -8.4933967             9.35
           OBS:     55090.41618034                i               md        3.4650999        12.524300        26.150711        3.6144123             6.85
           OBS:     55093.45468741                i               md        20.708699        15.554999        24.209618       0.75113358            10.16
           OBS:     55096.42316959                i               md        12.996700        10.647100        24.715417       0.81921565             6.23
           OBS:     55388.56681847                z               md        9.5340997        15.190599        25.051801        1.5932914             4.87
           OBS:     55400.61560993                z               md       -51.617398        76.759897          30.0000       -1.4870935             5.78
           OBS:     55409.52263215                z               md       -1.5676999        10.811000          30.0000       -6.8960898             5.03
           OBS:     55412.50712272                z               md       -7.0104998        10.008300          30.0000       -1.4276157             4.16
           OBS:     55415.58857352                z               md        3.0023999        17.805599        26.306329        5.9304556             7.68
           OBS:     55424.46960099                z               md       0.90029997        14.138100        27.614032        15.703765             3.88
           OBS:     55427.54506235                z               md       -27.277299        13.571700          30.0000      -0.49754558             4.33
           OBS:     55436.43047885                z               md        26.223499        20.317899        23.953273       0.77479741             4.44
           OBS:     55439.34766593                z               md       -12.378300        8.7214997          30.0000      -0.70457979             4.16
           OBS:     55442.53079535                z               md        16.703599        19.331799        24.442975        1.1573433             5.16
           OBS:     55445.43015953                z               md        6.8001998        12.386600        25.418696        1.8215052             4.98
           OBS:     55448.43456268                z               md        21.494699        12.718600        24.169172       0.59170865             3.68
           OBS:     55451.45936843                z               md       -5.1615998        26.560399          30.0000       -5.1457688             6.58
           OBS:     55454.39521748                z               md        45.258198        9.0449997        23.360757       0.19985329             3.85
           OBS:     55457.31896378                z               md        49.055098        20.718599        23.273290       0.42235364             4.73
           OBS:     55466.38720579                z               md        85.824697        14.128700        22.665969       0.16462277             4.87
           OBS:     55475.24350029                z               md        73.158197        17.486899        22.839342       0.23902857             5.28
           OBS:     55478.23541302                z               md        54.718198        26.278499        23.154670       0.48025154             4.17
           OBS:     55481.21640780                z               md        42.939699        18.991099        23.417852       0.44227370             5.85
           OBS:     55484.21161741                z               md        56.210498        23.976299        23.125456       0.42654486             3.99
           OBS:     55496.25576270                z               md        103.37370        72.428998        22.463975       0.70065210            10.24
           OBS:     55499.23240244                z               md        25.423199        31.647999        23.986924        1.2448472             5.84
           OBS:     55502.25723999                z               md        27.016499        19.747899        23.920927       0.73095701             6.14
           OBS:     55508.22987192                z               md       -7.5868997        25.682499          30.0000       -3.3851112             6.18
           OBS:     55535.20255254                z               md        9.5161997        21.309399        25.053841        2.2392762             6.22
           OBS:     55547.22329231                z               md        11.631200        15.771499        24.835939        1.3559650             3.80
           OBS:     55739.52161591                z               md        5.3213998        24.665499        25.684935        4.6351524             7.41
           OBS:     55742.55789736                z               md        19.889999        9.7152997        24.253413       0.48845148             4.04
           OBS:     54998.60518557                z               md       -14.925499        25.929199          30.0000       -1.7372416             4.92
           OBS:     55013.61313396                z               md       -21.570099        37.440199          30.0000       -1.7357453             5.37
           OBS:     55016.61029194                z               md       -5.6591998        17.448799          30.0000       -3.0832627             5.87
           OBS:     55034.45545702                z               md        19.902199        26.914399        24.252747        1.3523329             7.06
           OBS:     55082.30262931                z               md        21.030999        22.313699        24.192850        1.0609909             5.04
           OBS:     55091.33812159                z               md       -31.436399        22.370099          30.0000      -0.71159866             7.00
           OBS:     55097.26473909                z               md        17.051599        26.135099        24.420587        1.5327066             5.75
END:
