%!PS-Adobe-3.0
%%BoundingBox: 54 54 558 738
%%Title: Graphics produced by IDL
%%For: ariess@salmo, /lobo/ariess/beast/spectra/kcor
%%Creator: IDL Version 5.0 (sunos sparc)
%%CreationDate: Tue Oct  6 14:45:52 1998
%%DocumentData: Clean7bit
%%LanguageLevel: 1
%%PageOrder: Ascend
%%Pages: (atend)
%%DocumentNeededResources: (atend)
%%EndComments
%%BeginProlog
%+ prolog.ps -- Prolog for IDL generated PostScript files
%+ Copyright (c) 1988-1997 Research Systems, Inc. All Rights Reserved.
%v 3
save /$IDL_DICT 40 dict def $IDL_DICT begin /bdef { bind def } bind def /C
{currentpoint newpath moveto} bdef /CP {currentpoint} bdef /D {currentpoint
stroke moveto} bdef /F {closepath fill} bdef /K { setgray } bdef /M {moveto}
bdef /N {rmoveto} bdef /P {lineto} bdef /R {rlineto} bdef /S {gsave show
grestore} bdef /X {currentpoint pop} bdef /Z {gsave currentpoint lineto 20
setlinewidth 1 setlinecap stroke grestore} bdef /L0 {[] 0 setdash} bdef /L1
{[40 100] 0 setdash} bdef /L2 {[200 200] 0 setdash} bdef /L3 {[200 100 50
100] 0 setdash} bdef /L4 {[300 100 50 100 50 100 50 100] 0 setdash} bdef /L5
{[400 200] 0 setdash} bdef /STDFONT { findfont exch scalefont setfont } bdef
/ISOFONT { findfont dup length dict begin { 1 index /FID ne {def} {pop pop}
ifelse } forall /Encoding ISOLatin1Encoding def currentdict end /idltmpfont
exch definefont exch scalefont setfont } bdef /ISOBULLET { gsave /Helvetica
findfont exch scalefont setfont (\267) show currentpoint grestore moveto}
bdef end 2.5 setmiterlimit
%%EndProlog
%%Page: 0 1
%%PageResources: (atend)
%%PageOrientation: Landscape
%%PageBoundingBox: 54 54 558 738
%%BeginPageSetup
save $IDL_DICT begin 54 738 translate 0.0283465 dup scale 270 rotate
%%IncludeResource: font Times-Roman
423.333 /Times-Roman STDFONT
%%EndPageSetup
30 setlinewidth L0 0.000 K 3885 3520 M 18580 0 R D 5949 3520 M 0 250 R D
gsave 5949 2200 translate 0 0 M 2.5 dup scale -423.333 0 N
(4000) show grestore 10079 3520 M 0 250 R D gsave 10079 2200 translate 0 0 M
2.5 dup scale -423.333 0 N
(6000) show grestore 14208 3520 M 0 250 R D gsave 14208 2200 translate 0 0 M
2.5 dup scale -423.333 0 N
(8000) show grestore 18337 3520 M 0 250 R D gsave 18337 2200 translate 0 0 M
2.5 dup scale -529.167 0 N
(10000) show grestore 3885 3520 M 0 125 R D 4917 3520 M 0 125 R D
6982 3520 M 0 125 R D 8014 3520 M 0 125 R D 9046 3520 M 0 125 R D
11111 3520 M 0 125 R D 12143 3520 M 0 125 R D 13176 3520 M 0 125 R D
15240 3520 M 0 125 R D 16273 3520 M 0 125 R D 17305 3520 M 0 125 R D
19370 3520 M 0 125 R D 20402 3520 M 0 125 R D 21434 3520 M 0 125 R D
gsave 13175 1056 translate 0 0 M 2.5 dup scale -929.005 0 N
(Angstroms) show grestore 3885 16020 M 18580 0 R D 5949 16020 M 0 -250 R D
10079 16020 M 0 -250 R D 14208 16020 M 0 -250 R D 18337 16020 M 0 -250 R D
3885 16020 M 0 -125 R D 4917 16020 M 0 -125 R D 6982 16020 M 0 -125 R D
8014 16020 M 0 -125 R D 9046 16020 M 0 -125 R D 11111 16020 M 0 -125 R D
12143 16020 M 0 -125 R D 13176 16020 M 0 -125 R D 15240 16020 M 0 -125 R D
16273 16020 M 0 -125 R D 17305 16020 M 0 -125 R D 19370 16020 M 0 -125 R D
20402 16020 M 0 -125 R D 21434 16020 M 0 -125 R D 3885 3520 M 0 12500 R D
3885 3520 M 371 0 R D gsave 3607 3520 translate 0 0 M 2.5 dup scale
-529.167 0 N
(0.0) show grestore 3885 5443 M 371 0 R D gsave 3607 5091 translate 0 0 M
2.5 dup scale -529.167 0 N
(0.2) show grestore 3885 7366 M 371 0 R D gsave 3607 7014 translate 0 0 M
2.5 dup scale -529.167 0 N
(0.4) show grestore 3885 9289 M 371 0 R D gsave 3607 8937 translate 0 0 M
2.5 dup scale -529.167 0 N
(0.6) show grestore 3885 11212 M 371 0 R D gsave 3607 10860 translate 0 0 M
2.5 dup scale -529.167 0 N
(0.8) show grestore 3885 13135 M 371 0 R D gsave 3607 12783 translate 0 0 M
2.5 dup scale -529.167 0 N
(1.0) show grestore 3885 15058 M 371 0 R D gsave 3607 14706 translate 0 0 M
2.5 dup scale -529.167 0 N
(1.2) show grestore 3885 4000 M 185 0 R D 3885 4481 M 185 0 R D 3885 4962 M
185 0 R D 3885 5923 M 185 0 R D 3885 6404 M 185 0 R D 3885 6885 M 185 0 R D
3885 7847 M 185 0 R D 3885 8327 M 185 0 R D 3885 8808 M 185 0 R D
3885 9770 M 185 0 R D 3885 10250 M 185 0 R D 3885 10731 M 185 0 R D
3885 11693 M 185 0 R D 3885 12173 M 185 0 R D 3885 12654 M 185 0 R D
3885 13616 M 185 0 R D 3885 14097 M 185 0 R D 3885 14577 M 185 0 R D
3885 15539 M 185 0 R D 3885 16020 M 185 0 R D
gsave 1453 9770 translate 0 0 M 90 rotate 2.5 dup scale -1070.19 0 N
(transmission) show grestore 22465 3520 M 0 12500 R D 22465 3520 M -372 0 R
D 22465 5443 M -372 0 R D 22465 7366 M -372 0 R D 22465 9289 M -372 0 R D
22465 11212 M -372 0 R D 22465 13135 M -372 0 R D 22465 15058 M -372 0 R D
22465 4000 M -186 0 R D 22465 4481 M -186 0 R D 22465 4962 M -186 0 R D
22465 5923 M -186 0 R D 22465 6404 M -186 0 R D 22465 6885 M -186 0 R D
22465 7847 M -186 0 R D 22465 8327 M -186 0 R D 22465 8808 M -186 0 R D
22465 9770 M -186 0 R D 22465 10250 M -186 0 R D 22465 10731 M -186 0 R D
22465 11693 M -186 0 R D 22465 12173 M -186 0 R D 22465 12654 M -186 0 R D
22465 13616 M -186 0 R D 22465 14097 M -186 0 R D 22465 14577 M -186 0 R D
22465 15539 M -186 0 R D 22465 16020 M -186 0 R D 10 setlinewidth
4979 3520 M Z 5000 3521 M -21 -1 R D 5020 3523 M -20 -2 R D 5041 3529 M
-21 -6 R D 5061 3537 M -20 -8 R D 5082 3553 M -21 -16 R D 5103 3574 M
-21 -21 R D 5123 3608 M -20 -34 R D 5144 3652 M -21 -44 R D 5165 3713 M
-21 -61 R D 5185 3788 M -20 -75 R D 5206 3882 M -21 -94 R D 5227 3994 M
-21 -112 R D 5247 4127 M -20 -133 R D 5268 4278 M -21 -151 R D 5289 4446 M
-21 -168 R D 5309 4634 M -20 -188 R D 5330 4837 M -21 -203 R D 5351 5056 M
-21 -219 R D 5371 5284 M -20 -228 R D 5392 5522 M -21 -238 R D 5412 5766 M
-20 -244 R D 5433 6020 M -21 -254 R D 5454 6284 M -21 -264 R D 5474 6538 M
-20 -254 R D 5495 6796 M -21 -258 R D 5516 7079 M -21 -283 R D 5536 7344 M
-20 -265 R D 5557 7605 M -21 -261 R D 5578 7870 M -21 -265 R D 5598 8126 M
-20 -256 R D 5619 8368 M -21 -242 R D 5640 8612 M -21 -244 R D 5660 8852 M
-20 -240 R D 5681 9085 M -21 -233 R D 5702 9311 M -21 -226 R D 5722 9533 M
-20 -222 R D 5743 9740 M -21 -207 R D 5763 9944 M -20 -204 R D 5784 10143 M
-21 -199 R D 5805 10323 M -21 -180 R D 5825 10507 M -20 -184 R D
5846 10676 M -21 -169 R D 5867 10845 M -21 -169 R D 5887 10992 M -20 -147 R
D 5908 11148 M -21 -156 R D 5929 11292 M -21 -144 R D 5949 11427 M
-20 -135 R D 5970 11545 M -21 -118 R D 5991 11668 M -21 -123 R D
6011 11782 M -20 -114 R D 6032 11890 M -21 -108 R D 6053 11990 M -21 -100 R
D 6073 12088 M -20 -98 R D 6094 12184 M -21 -96 R D 6114 12266 M -20 -82 R D
6135 12350 M -21 -84 R D 6156 12427 M -21 -77 R D 6176 12496 M -20 -69 R D
6197 12557 M -21 -61 R D 6218 12620 M -21 -63 R D 6238 12686 M -20 -66 R D
6259 12739 M -21 -53 R D 6280 12781 M -21 -42 R D 6300 12834 M -20 -53 R D
6321 12888 M -21 -54 R D 6342 12937 M -21 -49 R D 6362 12979 M -20 -42 R D
6383 13008 M -21 -29 R D 6404 13044 M -21 -36 R D 6424 13067 M -20 -23 R D
6445 13075 M -21 -8 R D 6465 13093 M -20 -18 R D 6486 13102 M -21 -9 R D
6507 13115 M -21 -13 R D 6527 13124 M -20 -9 R D 6548 13135 M -21 -11 R D
6569 13134 M -21 1 R D 6589 13131 M -20 3 R D 6610 13129 M -21 2 R D
6631 13121 M -21 8 R D 6651 13111 M -20 10 R D 6672 13105 M -21 6 R D
6693 13086 M -21 19 R D 6713 13072 M -20 14 R D 6734 13054 M -21 18 R D
6755 13039 M -21 15 R D 6775 13025 M -20 14 R D 6796 13002 M -21 23 R D
6816 12980 M -20 22 R D 6837 12950 M -21 30 R D 6858 12929 M -21 21 R D
6878 12885 M -20 44 R D 6899 12839 M -21 46 R D 6920 12787 M -21 52 R D
6940 12740 M -20 47 R D 6961 12681 M -21 59 R D 6982 12622 M -21 59 R D
7002 12605 M -20 17 R D 7023 12568 M -21 37 R D 7044 12547 M -21 21 R D
7064 12522 M -20 25 R D 7085 12485 M -21 37 R D 7106 12450 M -21 35 R D
7126 12403 M -20 47 R D 7147 12349 M -21 54 R D 7167 12293 M -20 56 R D
7188 12224 M -21 69 R D 7209 12147 M -21 77 R D 7229 12069 M -20 78 R D
7250 11982 M -21 87 R D 7271 11883 M -21 99 R D 7291 11765 M -20 118 R D
7312 11634 M -21 131 R D 7333 11499 M -21 135 R D 7353 11346 M -20 153 R D
7374 11189 M -21 157 R D 7395 11018 M -21 171 R D 7415 10839 M -20 179 R D
7436 10652 M -21 187 R D 7457 10470 M -21 182 R D 7477 10279 M -20 191 R D
7498 10087 M -21 192 R D 7518 9896 M -20 191 R D 7539 9699 M -21 197 R D
7560 9497 M -21 202 R D 7580 9296 M -20 201 R D 7601 9090 M -21 206 R D
7622 8876 M -21 214 R D 7642 8667 M -20 209 R D 7663 8458 M -21 209 R D
7684 8249 M -21 209 R D 7704 8044 M -20 205 R D 7725 7838 M -21 206 R D
7746 7650 M -21 188 R D 7766 7457 M -20 193 R D 7787 7279 M -21 178 R D
7808 7099 M -21 180 R D 7828 6934 M -20 165 R D 7849 6778 M -21 156 R D
7869 6622 M -20 156 R D 7890 6484 M -21 138 R D 7911 6354 M -21 130 R D
7931 6236 M -20 118 R D 7952 6124 M -21 112 R D 7973 6017 M -21 107 R D
7993 5912 M -20 105 R D 8014 5806 M -21 106 R D 8035 5698 M -21 108 R D
8055 5586 M -20 112 R D 8076 5467 M -21 119 R D 8097 5346 M -21 121 R D
8117 5225 M -20 121 R D 8138 5103 M -21 122 R D 8158 4993 M -20 110 R D
8179 4887 M -21 106 R D 8200 4790 M -21 97 R D 8220 4700 M -20 90 R D
8241 4618 M -21 82 R D 8262 4543 M -21 75 R D 8282 4471 M -20 72 R D
8303 4404 M -21 67 R D 8324 4338 M -21 66 R D 8344 4275 M -20 63 R D
8365 4213 M -21 62 R D 8386 4155 M -21 58 R D 8406 4102 M -20 53 R D
8427 4048 M -21 54 R D 8448 3999 M -21 49 R D 8468 3954 M -20 45 R D
8489 3914 M -21 40 R D 8509 3874 M -20 40 R D 8530 3839 M -21 35 R D
8551 3809 M -21 30 R D 8571 3781 M -20 28 R D 8592 3756 M -21 25 R D
8613 3736 M -21 20 R D 8633 3717 M -20 19 R D 8654 3701 M -21 16 R D
8675 3689 M -21 12 R D 8695 3677 M -20 12 R D 8716 3668 M -21 9 R D
8737 3660 M -21 8 R D 8757 3654 M -20 6 R D 8778 3650 M -21 4 R D
8799 3646 M -21 4 R D 8819 3644 M -20 2 R D 8840 3642 M -21 2 R D
8860 3641 M -20 1 R D 8881 3642 M -21 -1 R D 8902 3644 M -21 -2 R D
8922 3647 M -20 -3 R D 8943 3652 M -21 -5 R D 8964 3656 M -21 -4 R D
8984 3663 M -20 -7 R D 9005 3673 M -21 -10 R D 9026 3682 M -21 -9 R D
9046 3693 M -20 -11 R D 9067 3705 M -21 -12 R D 9088 3719 M -21 -14 R D
9108 3732 M -20 -13 R D 9129 3746 M -21 -14 R D 9150 3759 M -21 -13 R D
9170 3771 M -20 -12 R D 9191 3782 M -21 -11 R D 9211 3789 M -20 -7 R D
9232 3794 M -21 -5 R D 9253 3796 M -21 -2 R D 9273 3795 M -20 1 R D
9294 3791 M -21 4 R D 9315 3784 M -21 7 R D 9335 3777 M -20 7 R D
9356 3766 M -21 11 R D 9377 3753 M -21 13 R D 9397 3739 M -20 14 R D
9418 3724 M -21 15 R D 9439 3707 M -21 17 R D 9459 3690 M -20 17 R D
9480 3672 M -21 18 R D 9501 3656 M -21 16 R D 9521 3640 M -20 16 R D
9542 3624 M -21 16 R D 9562 3610 M -20 14 R D 9583 3595 M -21 15 R D
9604 3584 M -21 11 R D 9624 3573 M -20 11 R D 9645 3564 M -21 9 R D
9666 3557 M -21 7 R D 9686 3549 M -20 8 R D 9707 3544 M -21 5 R D
9728 3539 M -21 5 R D 9748 3535 M -20 4 R D 9769 3532 M -21 3 R D
9790 3530 M -21 2 R D 9810 3527 M -20 3 R D 9831 3526 M -21 1 R D
9852 3525 M -21 1 R D 9872 3524 M -20 1 R D 9893 3524 M -21 0 R D
9913 3523 M -20 1 R D 9934 3523 M -21 0 R D 9955 3523 M -21 0 R D
9975 3523 M -20 0 R D 9996 3523 M -21 0 R D 10017 3523 M -21 0 R D
10037 3523 M -20 0 R D 10058 3523 M -21 0 R D 10079 3523 M -21 0 R D
10099 3523 M -20 0 R D 10120 3523 M -21 0 R D 10141 3523 M -21 0 R D
10161 3523 M -20 0 R D 10182 3523 M -21 0 R D 10203 3522 M -21 1 R D
10223 3522 M -20 0 R D 10244 3522 M -21 0 R D 10264 3522 M -20 0 R D
10285 3523 M -21 -1 R D 10306 3523 M -21 0 R D 10326 3522 M -20 1 R D
10347 3522 M -21 0 R D 10368 3522 M -21 0 R D 10388 3522 M -20 0 R D
10409 3522 M -21 0 R D 10430 3521 M -21 1 R D 10450 3522 M -20 -1 R D
10471 3521 M -21 1 R D 10492 3521 M -21 0 R D 10512 3520 M -20 1 R D
10533 3520 M -21 0 R D 10554 3521 M -21 -1 R D 10574 3521 M -20 0 R D
10595 3520 M -21 1 R D 10615 3520 M -20 0 R D 10636 3520 M -21 0 R D
10657 3520 M -21 0 R D 10677 3520 M -20 0 R D 10677 3520 M Z 10719 3520 M Z
10739 3520 M -20 0 R D 10739 3520 M Z 11379 3520 M Z 11586 3520 M Z
11627 3520 M Z 11668 3520 M Z 11813 3520 M Z 11834 3520 M -21 0 R D
11834 3520 M Z 11875 3520 M Z 11896 3520 M -21 0 R D 11916 3520 M -20 0 R D
11916 3520 M Z 11999 3520 M Z 12061 3520 M Z 12081 3520 M -20 0 R D
12081 3520 M Z 12143 3520 M Z 14353 3520 M Z 14394 3520 M Z 14414 3520 M
-20 0 R D 14414 3520 M Z 14518 3520 M Z 14662 3520 M Z 14683 3520 M -21 0 R
D 14704 3520 M -21 0 R D 14704 3520 M Z 14765 3520 M Z 14807 3520 M Z
14827 3520 M -20 0 R D 14827 3520 M Z 14889 3520 M Z 14910 3520 M -21 0 R D
14931 3520 M -21 0 R D 14951 3520 M -20 0 R D 14972 3520 M -21 0 R D
14993 3520 M -21 0 R D 15013 3520 M -20 0 R D 15034 3520 M -21 0 R D
15034 3520 M Z 15075 3520 M Z 15096 3520 M -21 0 R D 15116 3520 M -20 0 R D
15116 3520 M Z 15158 3520 M Z 15178 3520 M -20 0 R D 15199 3520 M -21 0 R D
15220 3520 M -21 0 R D 15240 3520 M -20 0 R D 15261 3520 M -21 0 R D
15282 3520 M -21 0 R D 15282 3520 M Z 15323 3520 M Z 15344 3520 M -21 0 R D
15364 3520 M -20 0 R D 15385 3520 M -21 0 R D 15406 3520 M -21 0 R D
15426 3520 M -20 0 R D 15447 3520 M -21 0 R D 15447 3520 M Z 15550 3527 M
-9 -7 R D 15550 3527 M 12 -7 R D 15695 3522 M -4 -2 R D 15695 3522 M 4 -2 R
D 15736 3524 M -8 -4 R D 15736 3524 M 13 -4 R D 15798 3524 M -6 -4 R D
15818 3525 M -20 -1 R D 15818 3525 M 17 -5 R D 15901 3529 M -12 -9 R D
15901 3529 M 14 -9 R D 16025 3524 M -6 -4 R D 16025 3524 M 10 -4 R D
16087 3532 M -15 -12 R D 16087 3532 M 17 -12 R D 16149 3531 M -11 -11 R D
16149 3531 M 16 -11 R D 16500 3526 M -11 -6 R D 16500 3526 M 8 -6 R D
16686 3521 M -6 -1 R D 16686 3521 M 2 -1 R D 16748 3521 M -3 -1 R D
16768 3520 M -20 1 R D 16768 3520 M Z 16809 3520 M Z 16851 3527 M -19 -7 R D
16851 3527 M 10 -7 R D 16913 3520 M Z 16975 3520 M Z 17099 3526 M -12 -6 R D
17099 3526 M 13 -6 R D 17140 3524 M -12 -4 R D 17140 3524 M 16 -4 R D
17202 3526 M -14 -6 R D 17202 3526 M 17 -6 R D 17615 3524 M -12 -4 R D
17615 3524 M 16 -4 R D 17739 3522 M -9 -2 R D 17739 3522 M 6 -2 R D
17924 3520 M Z 18028 3521 M -6 -1 R D 18028 3521 M 10 -1 R D 18110 3520 M Z
18317 3520 M Z 18358 3520 M Z 18441 3521 M -11 -1 R D 18441 3521 M 10 -1 R D
18482 3520 M Z 18709 3520 M Z 18833 3520 M Z 18895 3520 M Z 19039 3520 M Z
19081 3520 M Z 19122 3520 M Z 19163 3520 M Z 19184 3520 M -21 0 R D
19205 3520 M -21 0 R D 19205 3520 M Z 19287 3520 M Z 19308 3520 M -21 0 R D
19328 3520 M -20 0 R D 19349 3520 M -21 0 R D 19370 3520 M -21 0 R D
19390 3520 M -20 0 R D 19411 3520 M -21 0 R D 19432 3520 M -21 0 R D
19452 3520 M -20 0 R D 19473 3520 M -21 0 R D 19494 3520 M -21 0 R D
19514 3520 M -20 0 R D 19535 3520 M -21 0 R D 19555 3520 M -20 0 R D
19576 3520 M -21 0 R D 19597 3520 M -21 0 R D 19617 3520 M -20 0 R D
19638 3520 M -21 0 R D 19659 3520 M -21 0 R D 19659 3520 M Z 19721 3520 M Z
19741 3520 M -20 0 R D 19762 3520 M -21 0 R D 19783 3520 M -21 0 R D
19803 3520 M -20 0 R D 19824 3520 M -21 0 R D 19845 3520 M -21 0 R D
19865 3520 M -20 0 R D 19886 3520 M -21 0 R D 19906 3521 M -20 -1 R D
19927 3520 M -21 1 R D 19948 3520 M -21 0 R D 19968 3520 M -20 0 R D
19989 3520 M -21 0 R D 20010 3520 M -21 0 R D 20030 3520 M -20 0 R D
20051 3521 M -21 -1 R D 20051 3521 M 10 -1 R D 20113 3520 M Z 20134 3520 M
-21 0 R D 20134 3520 M Z 20175 3521 M -7 -1 R D 20196 3521 M -21 0 R D
20196 3521 M 10 -1 R D 20237 3520 M Z 20278 3520 M Z 20299 3520 M -21 0 R D
20319 3521 M -20 -1 R D 20340 3520 M -21 1 R D 20361 3522 M -21 -2 R D
20381 3522 M -20 0 R D 20402 3520 M -21 2 R D 20423 3522 M -21 -2 R D
20443 3520 M -20 2 R D 20464 3520 M -21 0 R D 20464 3520 M Z 20505 3521 M
-10 -1 R D 20526 3522 M -21 -1 R D 20547 3521 M -21 1 R D 20547 3521 M
10 -1 R D 20588 3523 M -16 -3 R D 20608 3520 M -20 3 R D 20629 3522 M
-21 -2 R D 20629 3522 M 14 -2 R D 20670 3521 M -10 -1 R D 20691 3520 M
-21 1 R D 20712 3521 M -21 -1 R D 20732 3521 M -20 0 R D 20753 3520 M
-21 1 R D 20774 3522 M -21 -2 R D 20774 3522 M 13 -2 R D 20815 3520 M Z
20856 3520 M Z 20877 3520 M -21 0 R D 20898 3520 M -21 0 R D 20918 3521 M
-20 -1 R D 20939 3522 M -21 -1 R D 20959 3521 M -20 1 R D 20959 3521 M
5 -1 R D 21001 3521 M -6 -1 R D 21021 3523 M -20 -2 R D 21042 3522 M -21 1 R
D 21042 3522 M 14 -2 R D 21104 3523 M -16 -3 R D 21125 3522 M -21 1 R D
21145 3521 M -20 1 R D 21166 3522 M -21 -1 R D 21166 3522 M 14 -2 R D
21207 3523 M -15 -3 R D 21228 3520 M -21 3 R D 21228 3520 M Z 21269 3520 M Z
21290 3521 M -21 -1 R D 21290 3521 M 6 -1 R D 21331 3522 M -11 -2 R D
21331 3522 M 14 -2 R D 21372 3523 M -15 -3 R D 21393 3527 M -21 -4 R D
21393 3527 M 14 -7 R D 21455 3520 M Z 21517 3520 M Z 21579 3520 M Z
21600 3520 M -21 0 R D 21620 3525 M -20 -5 R D 21641 3524 M -21 1 R D
21661 3521 M -20 3 R D 21682 3523 M -21 -2 R D 21703 3524 M -21 -1 R D
21723 3521 M -20 3 R D 21744 3521 M -21 0 R D 21765 3520 M -21 1 R D
21785 3524 M -20 -4 R D 21806 3521 M -21 3 R D 21827 3521 M -21 0 R D
21847 3521 M -20 0 R D 21847 3521 M 3 -1 R D 21889 3523 M -8 -3 R D
21909 3525 M -20 -2 R D 21930 3523 M -21 2 R D 21951 3520 M -21 3 R D
21971 3520 M -20 0 R D 21992 3521 M -21 -1 R D 22012 3524 M -20 -3 R D
22033 3522 M -21 2 R D 22033 3522 M 14 -2 R D 22074 3520 M Z 22116 3520 M Z
22136 3520 M -20 0 R D 22157 3525 M -21 -5 R D 22178 3525 M -21 0 R D
22198 3524 M -20 1 R D 22219 3525 M -21 -1 R D 22240 3532 M -21 -7 R D
22260 3529 M -20 3 R D 22260 3529 M 17 -9 R D 22302 3520 M Z 22322 3523 M
-20 -3 R D 22343 3526 M -21 -3 R D 22363 3523 M -20 3 R D 22384 3524 M
-21 -1 R D 22405 3521 M -21 3 R D 22405 3521 M 10 -1 R D 22446 3523 M
-16 -3 R D 22446 3523 M 15 -3 R D 40 setlinewidth 5020 3523 M Z L1
4942 3520 M 78 3 R D L0 5123 3607 M Z L1 5020 3523 M 103 84 R D L0
5227 3984 M Z L1 5123 3607 M 104 377 R D L0 5330 4802 M Z L1 5227 3984 M
103 818 R D L0 5433 5942 M Z L1 5330 4802 M 103 1140 R D L0 5536 7205 M Z L1
5433 5942 M 103 1263 R D L0 5640 8402 M Z L1 5536 7205 M 104 1197 R D L0
5743 9453 M Z L1 5640 8402 M 103 1051 R D L0 5846 10310 M Z L1 5743 9453 M
103 857 R D L0 5949 10984 M Z L1 5846 10310 M 103 674 R D L0 6053 11585 M Z
L1 5949 10984 M 104 601 R D L0 6156 12076 M Z L1 6053 11585 M 103 491 R D L0
6259 12452 M Z L1 6156 12076 M 103 376 R D L0 6362 12764 M Z L1 6259 12452 M
103 312 R D L0 6465 12957 M Z L1 6362 12764 M 103 193 R D L0 6569 13079 M Z
L1 6465 12957 M 104 122 R D L0 6672 13133 M Z L1 6569 13079 M 103 54 R D L0
6775 13135 M Z L1 6672 13133 M 103 2 R D L0 6878 13075 M Z L1 6775 13135 M
103 -60 R D L0 6982 12887 M Z L1 6878 13075 M 104 -188 R D L0 7085 12650 M Z
L1 6982 12887 M 103 -237 R D L0 7188 12294 M Z L1 7085 12650 M 103 -356 R D
L0 7291 11748 M Z L1 7188 12294 M 103 -546 R D L0 7395 10929 M Z L1
7291 11748 M 104 -819 R D L0 7498 9946 M Z L1 7395 10929 M 103 -983 R D L0
7601 8918 M Z L1 7498 9946 M 103 -1028 R D L0 7704 7864 M Z L1 7601 8918 M
103 -1054 R D L0 7808 6924 M Z L1 7704 7864 M 104 -940 R D L0 7911 6191 M Z
L1 7808 6924 M 103 -733 R D L0 8014 5655 M Z L1 7911 6191 M 103 -536 R D L0
8117 5089 M Z L1 8014 5655 M 103 -566 R D L0 8220 4591 M Z L1 8117 5089 M
103 -498 R D L0 8324 4252 M Z L1 8220 4591 M 104 -339 R D L0 8427 3986 M Z
L1 8324 4252 M 103 -266 R D L0 8530 3798 M Z L1 8427 3986 M 103 -188 R D L0
8633 3689 M Z L1 8530 3798 M 103 -109 R D L0 8737 3639 M Z L1 8633 3689 M
104 -50 R D L0 8840 3622 M Z L1 8737 3639 M 103 -17 R D L0 8943 3629 M Z L1
8840 3622 M 103 7 R D L0 9046 3661 M Z L1 8943 3629 M 103 32 R D L0
9150 3713 M Z L1 9046 3661 M 104 52 R D L0 9253 3741 M Z L1 9150 3713 M
103 28 R D L0 9356 3715 M Z L1 9253 3741 M 103 -26 R D L0 9459 3653 M Z L1
9356 3715 M 103 -62 R D L0 9562 3590 M Z L1 9459 3653 M 103 -63 R D L0
9666 3548 M Z L1 9562 3590 M 104 -42 R D L0 9769 3529 M Z L1 9666 3548 M
103 -19 R D L0 9872 3523 M Z L1 9769 3529 M 103 -6 R D L0 9975 3522 M Z L1
9872 3523 M 103 -1 R D L0 10079 3522 M Z L1 9975 3522 M 104 0 R D L0
10182 3522 M Z L1 10079 3522 M 103 0 R D L0 10285 3522 M Z L1 10182 3522 M
103 0 R D L0 10388 3521 M Z L1 10285 3522 M 103 -1 R D L0 10492 3520 M Z L1
10388 3521 M 104 -1 R D L0 10595 3520 M Z L1 10492 3520 M 103 0 R D L0
11627 3520 M Z L1 11627 3520 M Z L0 11834 3520 M Z L1 11834 3520 M Z L0
12143 3520 M Z L1 12143 3520 M Z L0 14414 3520 M Z L1 14414 3520 M Z L0
14518 3520 M Z L1 14414 3520 M 104 0 R D L0 14827 3520 M Z L1 14827 3520 M Z
L0 14931 3520 M Z L1 14827 3520 M 104 0 R D L0 15034 3520 M Z L1
14931 3520 M 103 0 R D L0 15240 3520 M Z L1 15240 3520 M Z L0 15344 3520 M Z
L1 15240 3520 M 104 0 R D L0 15447 3520 M Z L1 15344 3520 M 103 0 R D L0
15550 3525 M Z L1 15447 3520 M 103 5 R 64 -5 R D L0 16686 3521 M Z L1
16668 3520 M 18 1 R 14 -1 R D L0 17099 3525 M Z L1 17012 3520 M 87 5 R D L0
17202 3526 M Z L1 17099 3525 M 103 1 R 61 -6 R D L0 17615 3525 M Z L1
17550 3520 M 65 5 R 64 -5 R D L0 17924 3520 M Z L1 17924 3520 M Z L0
18028 3521 M Z L1 17924 3520 M 104 1 R 51 -1 R D L0 18441 3522 M Z L1
18399 3520 M 42 2 R 51 -2 R D L0 19679 3521 M Z L1 19627 3520 M 52 1 R
52 -1 R D L0 19886 3520 M Z L1 19886 3520 M Z L0 20092 3520 M Z L1
20092 3520 M Z L0 20299 3520 M Z L1 20299 3520 M Z L0 20402 3520 M Z L1
20299 3520 M 103 0 R D L0 20505 3520 M Z L1 20402 3520 M 103 0 R D L0
20608 3520 M Z L1 20505 3520 M 103 0 R D L0 20712 3520 M Z L1 20608 3520 M
104 0 R D L0 20815 3520 M Z L1 20712 3520 M 103 0 R D L0 20918 3520 M Z L1
20815 3520 M 103 0 R D L0 21021 3520 M Z L1 20918 3520 M 103 0 R D L0
21125 3520 M Z L1 21021 3520 M 104 0 R D L0 21228 3520 M Z L1 21125 3520 M
103 0 R D L0 21331 3520 M Z L1 21228 3520 M 103 0 R D L0 21641 3521 M Z L1
21589 3520 M 52 1 R D L0 21744 3520 M Z L1 21641 3521 M 103 -1 R D L0
21847 3520 M Z L1 21744 3520 M 103 0 R D L0 21951 3520 M Z L1 21847 3520 M
104 0 R D L0 22157 3522 M Z L1 22088 3520 M 69 2 R D L0 22260 3524 M Z L1
22157 3522 M 103 2 R D L0 22363 3521 M Z L1 22260 3524 M 103 -3 R D
30 setlinewidth L0 4710 3520 M Z 4917 3520 M Z L2 4710 3520 M 207 0 R D L0
5123 3520 M Z L2 4917 3520 M 206 0 R D L0 5330 3808 M Z L2 5123 3520 M
207 288 R D L0 5536 4808 M Z L2 5330 3808 M 206 1000 R D L0 5743 8972 M Z L2
5536 4808 M 207 4164 R D L0 5949 12366 M Z L2 5743 8972 M 206 3394 R D L0
6156 12923 M Z L2 5949 12366 M 207 557 R D L0 6362 13135 M Z L2 6156 12923 M
206 212 R D L0 6569 12923 M Z L2 6362 13135 M 207 -212 R D L0 6775 12510 M Z
L2 6569 12923 M 206 -413 R D L0 6982 11722 M Z L2 6775 12510 M 207 -788 R D
L0 7188 10635 M Z L2 6982 11722 M 206 -1087 R D L0 7395 9673 M Z L2
7188 10635 M 207 -962 R D L0 7601 8673 M Z L2 7395 9673 M 206 -1000 R D L0
7808 7597 M Z L2 7601 8673 M 207 -1076 R D L0 8014 6645 M Z L2 7808 7597 M
206 -952 R D L0 8220 5779 M Z L2 8014 6645 M 206 -866 R D L0 8427 4962 M Z
L2 8220 5779 M 207 -817 R D L0 8633 4433 M Z L2 8427 4962 M 206 -529 R D L0
8840 3933 M Z L2 8633 4433 M 207 -500 R D L0 9046 3606 M Z L2 8840 3933 M
206 -327 R D L0 9253 3520 M Z L2 9046 3606 M 207 -86 R D L0 9459 3520 M Z L2
9253 3520 M 206 0 R D L0 9666 3520 M Z L2 9459 3520 M 207 0 R D
10 setlinewidth L0 7560 3520 M Z 7580 3522 M -20 -2 R D 7601 3527 M -21 -5 R
D 7622 3541 M -21 -14 R D 7642 3571 M -20 -30 R D 7663 3629 M -21 -58 R D
7684 3731 M -21 -102 R D 7704 3894 M -20 -163 R D 7725 4128 M -21 -234 R D
7746 4440 M -21 -312 R D 7766 4836 M -20 -396 R D 7787 5298 M -21 -462 R D
7808 5822 M -21 -524 R D 7828 6372 M -20 -550 R D 7849 6930 M -21 -558 R D
7869 7484 M -20 -554 R D 7890 8010 M -21 -526 R D 7911 8512 M -21 -502 R D
7931 8963 M -20 -451 R D 7952 9380 M -21 -417 R D 7973 9760 M -21 -380 R D
7993 10094 M -20 -334 R D 8014 10393 M -21 -299 R D 8035 10668 M -21 -275 R
D 8055 10913 M -20 -245 R D 8076 11133 M -21 -220 R D 8097 11327 M
-21 -194 R D 8117 11502 M -20 -175 R D 8138 11655 M -21 -153 R D
8158 11796 M -20 -141 R D 8179 11920 M -21 -124 R D 8200 12037 M -21 -117 R
D 8220 12139 M -20 -102 R D 8241 12234 M -21 -95 R D 8262 12323 M -21 -89 R
D 8282 12399 M -20 -76 R D 8303 12474 M -21 -75 R D 8324 12539 M -21 -65 R D
8344 12601 M -20 -62 R D 8365 12661 M -21 -60 R D 8386 12707 M -21 -46 R D
8406 12760 M -20 -53 R D 8427 12801 M -21 -41 R D 8448 12848 M -21 -47 R D
8468 12888 M -20 -40 R D 8489 12918 M -21 -30 R D 8509 12956 M -20 -38 R D
8530 12983 M -21 -27 R D 8551 13009 M -21 -26 R D 8571 13040 M -20 -31 R D
8592 13058 M -21 -18 R D 8613 13077 M -21 -19 R D 8633 13084 M -20 -7 R D
8654 13109 M -21 -25 R D 8675 13119 M -21 -10 R D 8695 13124 M -20 -5 R D
8716 13129 M -21 -5 R D 8737 13135 M -21 -6 R D 8757 13135 M -20 0 R D
8778 13124 M -21 11 R D 8799 13122 M -21 2 R D 8819 13111 M -20 11 R D
8840 13099 M -21 12 R D 8860 13088 M -20 11 R D 8881 13057 M -21 31 R D
8902 13045 M -21 12 R D 8922 13024 M -20 21 R D 8943 12989 M -21 35 R D
8964 12953 M -21 36 R D 8984 12927 M -20 26 R D 9005 12883 M -21 44 R D
9026 12843 M -21 40 R D 9046 12795 M -20 48 R D 9067 12738 M -21 57 R D
9088 12693 M -21 45 R D 9108 12638 M -20 55 R D 9129 12575 M -21 63 R D
9150 12506 M -21 69 R D 9170 12439 M -20 67 R D 9191 12370 M -21 69 R D
9211 12292 M -20 78 R D 9232 12212 M -21 80 R D 9253 12124 M -21 88 R D
9273 12041 M -20 83 R D 9294 11936 M -21 105 R D 9315 11844 M -21 92 R D
9335 11749 M -20 95 R D 9356 11638 M -21 111 R D 9377 11539 M -21 99 R D
9397 11426 M -20 113 R D 9418 11320 M -21 106 R D 9439 11200 M -21 120 R D
9459 11079 M -20 121 R D 9480 10961 M -21 118 R D 9501 10832 M -21 129 R D
9521 10704 M -20 128 R D 9542 10577 M -21 127 R D 9562 10444 M -20 133 R D
9583 10302 M -21 142 R D 9604 10166 M -21 136 R D 9624 10023 M -20 143 R D
9645 9881 M -21 142 R D 9666 9737 M -21 144 R D 9686 9588 M -20 149 R D
9707 9443 M -21 145 R D 9728 9290 M -21 153 R D 9748 9144 M -20 146 R D
9769 8994 M -21 150 R D 9790 8846 M -21 148 R D 9810 8692 M -20 154 R D
9831 8542 M -21 150 R D 9852 8392 M -21 150 R D 9872 8236 M -20 156 R D
9893 8087 M -21 149 R D 9913 7936 M -20 151 R D 9934 7790 M -21 146 R D
9955 7636 M -21 154 R D 9975 7492 M -20 144 R D 9996 7349 M -21 143 R D
10017 7204 M -21 145 R D 10037 7059 M -20 145 R D 10058 6923 M -21 136 R D
10079 6780 M -21 143 R D 10099 6637 M -20 143 R D 10120 6494 M -21 143 R D
10141 6357 M -21 137 R D 10161 6222 M -20 135 R D 10182 6090 M -21 132 R D
10203 5964 M -21 126 R D 10223 5841 M -20 123 R D 10244 5721 M -21 120 R D
10264 5603 M -20 118 R D 10285 5491 M -21 112 R D 10306 5380 M -21 111 R D
10326 5279 M -20 101 R D 10347 5176 M -21 103 R D 10368 5079 M -21 97 R D
10388 4988 M -20 91 R D 10409 4896 M -21 92 R D 10430 4810 M -21 86 R D
10450 4730 M -20 80 R D 10471 4653 M -21 77 R D 10492 4579 M -21 74 R D
10512 4506 M -20 73 R D 10533 4439 M -21 67 R D 10554 4374 M -21 65 R D
10574 4314 M -20 60 R D 10595 4258 M -21 56 R D 10615 4203 M -20 55 R D
10636 4152 M -21 51 R D 10657 4103 M -21 49 R D 10677 4059 M -20 44 R D
10698 4017 M -21 42 R D 10719 3977 M -21 40 R D 10739 3940 M -20 37 R D
10760 3906 M -21 34 R D 10781 3873 M -21 33 R D 10801 3843 M -20 30 R D
10822 3815 M -21 28 R D 10843 3790 M -21 25 R D 10863 3765 M -20 25 R D
10884 3742 M -21 23 R D 10905 3722 M -21 20 R D 10925 3702 M -20 20 R D
10946 3686 M -21 16 R D 10966 3670 M -20 16 R D 10987 3654 M -21 16 R D
11008 3641 M -21 13 R D 11028 3629 M -20 12 R D 11049 3619 M -21 10 R D
11070 3608 M -21 11 R D 11090 3599 M -20 9 R D 11111 3590 M -21 9 R D
11132 3583 M -21 7 R D 11152 3576 M -20 7 R D 11173 3570 M -21 6 R D
11194 3564 M -21 6 R D 11214 3560 M -20 4 R D 11235 3555 M -21 5 R D
11256 3550 M -21 5 R D 11276 3546 M -20 4 R D 11297 3544 M -21 2 R D
11317 3540 M -20 4 R D 11338 3538 M -21 2 R D 11359 3535 M -21 3 R D
11379 3533 M -20 2 R D 11400 3531 M -21 2 R D 11421 3530 M -21 1 R D
11441 3528 M -20 2 R D 11462 3527 M -21 1 R D 11483 3526 M -21 1 R D
11503 3525 M -20 1 R D 11524 3525 M -21 0 R D 11545 3524 M -21 1 R D
11565 3524 M -20 0 R D 11586 3522 M -21 2 R D 11607 3522 M -21 0 R D
11627 3521 M -20 1 R D 11648 3521 M -21 0 R D 11668 3521 M -20 0 R D
11689 3520 M -21 1 R D 11710 3520 M -21 0 R D 11730 3520 M -20 0 R D
11751 3520 M -21 0 R D 11772 3520 M -21 0 R D 11792 3520 M -20 0 R D
11813 3520 M -21 0 R D 11834 3520 M -21 0 R D 11854 3520 M -20 0 R D
11875 3520 M -21 0 R D 11896 3520 M -21 0 R D 11916 3520 M -20 0 R D
11937 3520 M -21 0 R D 11937 3520 M Z 11999 3520 M Z 12019 3520 M -20 0 R D
12040 3520 M -21 0 R D 12040 3520 M Z 12164 3520 M Z 12185 3520 M -21 0 R D
12185 3520 M Z 12432 3520 M Z 12680 3520 M Z 12825 3520 M Z 12928 3520 M Z
13010 3520 M Z 13279 3520 M Z 13465 3520 M Z 13609 3520 M Z 13857 3520 M Z
14002 3520 M Z 14084 3520 M Z 14105 3520 M -21 0 R D 14105 3520 M Z
14187 3520 M Z 14229 3520 M Z 14249 3520 M -20 0 R D 14270 3520 M -21 0 R D
14270 3520 M Z 14332 3520 M Z 14353 3520 M -21 0 R D 14373 3520 M -20 0 R D
14394 3520 M -21 0 R D 14414 3520 M -20 0 R D 14435 3520 M -21 0 R D
14456 3520 M -21 0 R D 14456 3520 M Z 14518 3520 M Z 14538 3520 M -20 0 R D
14559 3520 M -21 0 R D 14580 3520 M -21 0 R D 14600 3520 M -20 0 R D
14621 3520 M -21 0 R D 14642 3520 M -21 0 R D 14662 3520 M -20 0 R D
14662 3520 M Z 14745 3520 M Z 14765 3520 M -20 0 R D 14765 3520 M Z
14827 3520 M Z 14848 3520 M -21 0 R D 14869 3520 M -21 0 R D 14889 3520 M
-20 0 R D 14910 3520 M -21 0 R D 14931 3520 M -21 0 R D 14951 3520 M -20 0 R
D 14972 3520 M -21 0 R D 14993 3520 M -21 0 R D 15013 3520 M -20 0 R D
15034 3520 M -21 0 R D 15055 3520 M -21 0 R D 15075 3520 M -20 0 R D
15096 3520 M -21 0 R D 15116 3520 M -20 0 R D 15137 3520 M -21 0 R D
15158 3520 M -21 0 R D 15178 3520 M -20 0 R D 15199 3520 M -21 0 R D
15220 3520 M -21 0 R D 15240 3520 M -20 0 R D 15261 3520 M -21 0 R D
15282 3520 M -21 0 R D 15302 3521 M -20 -1 R D 15323 3520 M -21 1 R D
15344 3520 M -21 0 R D 15364 3520 M -20 0 R D 15385 3520 M -21 0 R D
15406 3520 M -21 0 R D 15406 3520 M Z 15447 3520 M Z 15467 3520 M -20 0 R D
15488 3520 M -21 0 R D 15488 3520 M Z 15571 3520 M Z 15612 3521 M -11 -1 R D
15612 3521 M 3 -1 R D 15674 3526 M -12 -6 R D 15674 3526 M 12 -6 R D
15736 3520 M Z 15798 3521 M -7 -1 R D 15798 3521 M 2 -1 R D 15839 3521 M
-3 -1 R D 15839 3521 M 4 -1 R D 15922 3521 M -4 -1 R D 15922 3521 M 2 -1 R D
16004 3522 M -8 -2 R D 16004 3522 M 6 -2 R D 16066 3520 M Z 16087 3520 M
-21 0 R D 16087 3520 M Z 16169 3522 M -6 -2 R D 16169 3522 M 14 -2 R D
16211 3523 M -16 -3 R D 16211 3523 M 7 -3 R D 16397 3527 M -15 -7 R D
16417 3520 M -20 7 R D 16417 3520 M Z 16500 3521 M -11 -1 R D 16500 3521 M
4 -1 R D 16644 3520 M Z 16706 3526 M -15 -6 R D 16706 3526 M 12 -6 R D
16748 3522 M -7 -2 R D 16748 3522 M 13 -2 R D 16809 3520 M Z 16830 3521 M
-21 -1 R D 16830 3521 M 7 -1 R D 16933 3520 M Z 17264 3520 M Z 17511 3521 M
-4 -1 R D 17532 3520 M -21 1 R D 17532 3520 M Z 17573 3520 M Z 17635 3521 M
-4 -1 R D 17635 3521 M 10 -1 R D 17697 3521 M -7 -1 R D 17697 3521 M 10 -1 R
D 17739 3523 M -16 -3 R D 17759 3521 M -20 2 R D 17780 3522 M -21 -1 R D
17780 3522 M 10 -2 R D 17821 3521 M -7 -1 R D 17842 3520 M -21 1 R D
17862 3520 M -20 0 R D 17862 3520 M Z 17924 3523 M -15 -3 R D 17924 3523 M
15 -3 R D 18069 3520 M Z 18296 3520 M Z 18337 3520 M Z 18379 3520 M Z
18441 3520 M Z 18544 3520 M Z 18585 3520 M Z 18626 3520 M Z 18688 3520 M Z
18709 3520 M -21 0 R D 18709 3520 M Z 18771 3520 M Z 18854 3520 M Z
18915 3520 M Z 18977 3520 M Z 18998 3520 M -21 0 R D 19019 3520 M -21 0 R D
19039 3520 M -20 0 R D 19039 3520 M Z 19163 3520 M Z 19184 3520 M -21 0 R D
19184 3520 M Z 19225 3520 M Z 19246 3520 M -21 0 R D 19266 3520 M -20 0 R D
19287 3520 M -21 0 R D 19308 3520 M -21 0 R D 19328 3520 M -20 0 R D
19349 3520 M -21 0 R D 19370 3520 M -21 0 R D 19390 3520 M -20 0 R D
19411 3520 M -21 0 R D 19432 3520 M -21 0 R D 19452 3520 M -20 0 R D
19473 3520 M -21 0 R D 19494 3520 M -21 0 R D 19514 3520 M -20 0 R D
19535 3520 M -21 0 R D 19555 3520 M -20 0 R D 19576 3520 M -21 0 R D
19597 3520 M -21 0 R D 19617 3520 M -20 0 R D 19638 3520 M -21 0 R D
19638 3520 M Z 19679 3520 M Z 19700 3520 M -21 0 R D 19721 3520 M -21 0 R D
19721 3520 M Z 19762 3520 M Z 19783 3520 M -21 0 R D 19803 3520 M -20 0 R D
19824 3520 M -21 0 R D 19845 3520 M -21 0 R D 19845 3520 M Z 19886 3520 M Z
19906 3520 M -20 0 R D 19927 3520 M -21 0 R D 19948 3520 M -21 0 R D
19968 3520 M -20 0 R D 19968 3520 M Z 20030 3520 M Z 20072 3520 M Z
20092 3520 M -20 0 R D 20113 3521 M -21 -1 R D 20113 3521 M 10 -1 R D
20154 3520 M Z 20196 3520 M Z 20216 3521 M -20 -1 R D 20237 3520 M -21 1 R D
20237 3520 M Z 20278 3520 M Z 20299 3520 M -21 0 R D 20319 3520 M -20 0 R D
20319 3520 M Z 20361 3520 M Z 20381 3520 M -20 0 R D 20402 3521 M -21 -1 R D
20423 3521 M -21 0 R D 20443 3521 M -20 0 R D 20464 3520 M -21 1 R D
20485 3521 M -21 -1 R D 20505 3520 M -20 1 R D 20526 3520 M -21 0 R D
20547 3520 M -21 0 R D 20547 3520 M Z 20588 3520 M Z 20608 3520 M -20 0 R D
20629 3521 M -21 -1 R D 20650 3521 M -21 0 R D 20670 3520 M -20 1 R D
20670 3520 M Z 20712 3520 M Z 20732 3522 M -20 -2 R D 20732 3522 M 8 -2 R D
20774 3521 M -6 -1 R D 20794 3520 M -20 1 R D 20815 3520 M -21 0 R D
20836 3520 M -21 0 R D 20836 3520 M Z 20877 3521 M -11 -1 R D 20877 3521 M
10 -1 R D 20918 3521 M -10 -1 R D 20939 3521 M -21 0 R D 20939 3521 M
10 -1 R D 20980 3520 M Z 21001 3521 M -21 -1 R D 21021 3521 M -20 0 R D
21042 3521 M -21 0 R D 21042 3521 M 10 -1 R D 21083 3520 M Z 21104 3520 M
-21 0 R D 21125 3521 M -21 -1 R D 21145 3521 M -20 0 R D 21145 3521 M
10 -1 R D 21187 3520 M Z 21207 3522 M -20 -2 R D 21228 3522 M -21 0 R D
21228 3522 M 14 -2 R D 21290 3520 M Z 21310 3520 M -20 0 R D 21310 3520 M Z
21372 3520 M Z 21455 3521 M -11 -1 R D 21476 3522 M -21 -1 R D 21496 3521 M
-20 1 R D 21496 3521 M 10 -1 R D 21538 3520 M Z 21579 3520 M Z 21600 3522 M
-21 -2 R D 21620 3522 M -20 0 R D 21641 3522 M -21 0 R D 21661 3522 M
-20 0 R D 21682 3521 M -21 1 R D 21703 3521 M -21 0 R D 21723 3522 M
-20 -1 R D 21744 3523 M -21 -1 R D 21765 3520 M -21 3 R D 21785 3522 M
-20 -2 R D 21806 3522 M -21 0 R D 21827 3520 M -21 2 R D 21847 3521 M
-20 -1 R D 21847 3521 M 10 -1 R D 21889 3524 M -17 -4 R D 21889 3524 M
11 -4 R D 21930 3522 M -9 -2 R D 21951 3520 M -21 2 R D 21951 3520 M Z
21992 3521 M -11 -1 R D 22012 3521 M -20 0 R D 22033 3521 M -21 0 R D
22054 3524 M -21 -3 R D 22054 3524 M 10 -4 R D 22116 3521 M -7 -1 R D
22116 3521 M 10 -1 R D 22157 3520 M Z 22178 3520 M -21 0 R D 22198 3521 M
-20 -1 R D 22219 3524 M -21 -3 R D 22240 3528 M -21 -4 R D 22260 3527 M
-20 1 R D 22260 3527 M 18 -7 R D 22302 3524 M -17 -4 R D 22322 3523 M
-20 1 R D 22343 3522 M -21 1 R D 22363 3520 M -20 2 R D 22384 3522 M
-21 -2 R D 22405 3520 M -21 2 R D 22405 3520 M Z 22446 3520 M Z
40 setlinewidth 7601 3528 M Z L1 7509 3520 M 92 8 R D L0 7704 3939 M Z L1
7601 3528 M 103 411 R D L0 7808 6074 M Z L1 7704 3939 M 104 2135 R D L0
7911 9009 M Z L1 7808 6074 M 103 2935 R D L0 8014 11010 M Z L1 7911 9009 M
103 2001 R D L0 8117 12091 M Z L1 8014 11010 M 103 1081 R D L0 8220 12643 M
Z L1 8117 12091 M 103 552 R D L0 8324 12934 M Z L1 8220 12643 M 104 291 R D
L0 8427 13077 M Z L1 8324 12934 M 103 143 R D L0 8530 13135 M Z L1
8427 13077 M 103 58 R D L0 8633 13112 M Z L1 8530 13135 M 103 -23 R D L0
8737 13041 M Z L1 8633 13112 M 104 -71 R D L0 8840 12889 M Z L1 8737 13041 M
103 -152 R D L0 8943 12670 M Z L1 8840 12889 M 103 -219 R D L0 9046 12377 M
Z L1 8943 12670 M 103 -293 R D L0 9150 12001 M Z L1 9046 12377 M 104 -376 R
D L0 9253 11549 M Z L1 9150 12001 M 103 -452 R D L0 9356 11012 M Z L1
9253 11549 M 103 -537 R D L0 9459 10420 M Z L1 9356 11012 M 103 -592 R D L0
9562 9773 M Z L1 9459 10420 M 103 -647 R D L0 9666 9076 M Z L1 9562 9773 M
104 -697 R D L0 9769 8363 M Z L1 9666 9076 M 103 -713 R D L0 9872 7651 M Z
L1 9769 8363 M 103 -712 R D L0 9975 6965 M Z L1 9872 7651 M 103 -686 R D L0
10079 6320 M Z L1 9975 6965 M 104 -645 R D L0 10182 5724 M Z L1 10079 6320 M
103 -596 R D L0 10285 5208 M Z L1 10182 5724 M 103 -516 R D L0 10388 4776 M
Z L1 10285 5208 M 103 -432 R D L0 10492 4425 M Z L1 10388 4776 M 104 -351 R
D L0 10595 4149 M Z L1 10492 4425 M 103 -276 R D L0 10698 3944 M Z L1
10595 4149 M 103 -205 R D L0 10801 3795 M Z L1 10698 3944 M 103 -149 R D L0
10905 3691 M Z L1 10801 3795 M 104 -104 R D L0 11008 3623 M Z L1
10905 3691 M 103 -68 R D L0 11111 3580 M Z L1 11008 3623 M 103 -43 R D L0
11214 3553 M Z L1 11111 3580 M 103 -27 R D L0 11317 3537 M Z L1 11214 3553 M
103 -16 R D L0 11421 3528 M Z L1 11317 3537 M 104 -9 R D L0 11524 3524 M Z
L1 11421 3528 M 103 -4 R D L0 11627 3521 M Z L1 11524 3524 M 103 -3 R D L0
11730 3520 M Z L1 11627 3521 M 103 -1 R D L0 11834 3520 M Z L1 11730 3520 M
104 0 R D L0 11937 3520 M Z L1 11834 3520 M 103 0 R D L0 12040 3520 M Z L1
11937 3520 M 103 0 R D L0 13279 3520 M Z L1 13279 3520 M Z L0 14002 3520 M Z
L1 14002 3520 M Z L0 14105 3520 M Z L1 14002 3520 M 103 0 R D L0
14414 3520 M Z L1 14414 3520 M Z L0 14518 3520 M Z L1 14414 3520 M 104 0 R D
L0 14621 3520 M Z L1 14518 3520 M 103 0 R D L0 14827 3520 M Z L1
14827 3520 M Z L0 14931 3520 M Z L1 14827 3520 M 104 0 R D L0 15034 3520 M Z
L1 14931 3520 M 103 0 R D L0 15137 3520 M Z L1 15034 3520 M 103 0 R D L0
15240 3520 M Z L1 15137 3520 M 103 0 R D L0 15344 3520 M Z L1 15240 3520 M
104 0 R D L0 15447 3520 M Z L1 15344 3520 M 103 0 R D L0 16066 3520 M Z L1
16066 3520 M Z L0 16169 3522 M Z L1 16066 3520 M 103 2 R 41 -2 R D L0
17511 3522 M Z L1 17459 3520 M 52 2 R 29 -2 R D L0 17821 3521 M Z L1
17786 3520 M 35 1 R D L0 17924 3525 M Z L1 17821 3521 M 103 4 R 86 -5 R D L0
18337 3521 M Z L1 18285 3520 M 52 1 R D L0 18441 3521 M Z L1 18337 3521 M
104 0 R D L0 18544 3521 M Z L1 18441 3521 M 103 0 R 51 -1 R D L0
18854 3521 M Z L1 18802 3520 M 52 1 R 34 -1 R D L0 19163 3520 M Z L1
19163 3520 M Z L0 19989 3520 M Z L1 19989 3520 M Z L0 20299 3520 M Z L1
20299 3520 M Z L0 20402 3520 M Z L1 20299 3520 M 103 0 R D L0 20505 3520 M Z
L1 20402 3520 M 103 0 R D L0 20608 3520 M Z L1 20505 3520 M 103 0 R D L0
20712 3520 M Z L1 20608 3520 M 104 0 R D L0 20815 3520 M Z L1 20712 3520 M
103 0 R D L0 20918 3520 M Z L1 20815 3520 M 103 0 R D L0 21021 3520 M Z L1
20918 3520 M 103 0 R D L0 21125 3520 M Z L1 21021 3520 M 104 0 R D L0
21228 3520 M Z L1 21125 3520 M 103 0 R D L0 21434 3520 M Z L1 21434 3520 M Z
L0 21538 3520 M Z L1 21434 3520 M 104 0 R D L0 21641 3521 M Z L1
21538 3520 M 103 1 R D L0 21744 3521 M Z L1 21641 3521 M 103 0 R D L0
21847 3520 M Z L1 21744 3521 M 103 -1 R D L0 21951 3520 M Z L1 21847 3520 M
104 0 R D L0 22054 3522 M Z L1 21951 3520 M 103 2 R D L0 22157 3520 M Z L1
22054 3522 M 103 -2 R D L0 22260 3523 M Z L1 22157 3520 M 103 3 R D L0
22363 3520 M Z L1 22260 3523 M 103 -3 R D 30 setlinewidth L0 7395 3520 M Z
L2 7395 3520 M Z L0 7601 3808 M Z L2 7395 3520 M 206 288 R D L0 7808 5087 M
Z L2 7601 3808 M 207 1279 R D L0 8014 7923 M Z L2 7808 5087 M 206 2836 R D
L0 8220 11020 M Z L2 8014 7923 M 206 3097 R D L0 8427 12818 M Z L2
8220 11020 M 207 1798 R D L0 8633 13135 M Z L2 8427 12818 M 206 317 R D L0
8840 12875 M Z L2 8633 13135 M 207 -260 R D L0 9046 12154 M Z L2
8840 12875 M 206 -721 R D L0 9253 11135 M Z L2 9046 12154 M 207 -1019 R D L0
9459 10097 M Z L2 9253 11135 M 206 -1038 R D L0 9666 9039 M Z L2
9459 10097 M 207 -1058 R D L0 9872 7952 M Z L2 9666 9039 M 206 -1087 R D L0
10079 6972 M Z L2 9872 7952 M 207 -980 R D L0 10285 6116 M Z L2 10079 6972 M
206 -856 R D L0 10492 5414 M Z L2 10285 6116 M 207 -702 R D L0 10698 4818 M
Z L2 10492 5414 M 206 -596 R D L0 10905 4298 M Z L2 10698 4818 M 207 -520 R
D L0 11111 3952 M Z L2 10905 4298 M 206 -346 R D L0 11317 3760 M Z L2
11111 3952 M 206 -192 R D L0 11524 3683 M Z L2 11317 3760 M 207 -77 R D L0
11730 3645 M Z L2 11524 3683 M 206 -38 R D L0 11937 3606 M Z L2 11730 3645 M
207 -39 R D L0 12143 3520 M Z L2 11937 3606 M 206 -86 R D L0 12164 3520 M Z
L2 12164 3520 M Z L0 12185 3520 M Z L2 12164 3520 M 21 0 R D L0 12432 3520 M
Z L2 12432 3520 M Z L0 12680 3520 M Z L2 12680 3520 M Z L0 12825 3520 M Z L2
12825 3520 M Z L0 12928 3520 M Z L2 12928 3520 M Z L0 13010 3520 M Z L2
13010 3520 M Z L0 13279 3520 M Z L2 13279 3520 M Z L0 13465 3520 M Z L2
13465 3520 M Z L0 13609 3520 M Z L2 13609 3520 M Z L0 13857 3520 M Z L2
13857 3520 M Z L0 14002 3520 M Z L2 14002 3520 M Z L0 14084 3520 M Z L2
14084 3520 M Z L0 14105 3520 M Z L2 14084 3520 M 21 0 R D L0 14187 3520 M Z
L2 14187 3520 M Z L0 14229 3520 M Z L2 14229 3520 M Z L0 14249 3520 M Z L2
14229 3520 M 20 0 R D L0 14270 3520 M Z L2 14249 3520 M 21 0 R D L0
14332 3520 M Z L2 14332 3520 M Z L0 14353 3520 M Z L2 14332 3520 M 21 0 R D
L0 14373 3520 M Z L2 14353 3520 M 20 0 R D L0 14394 3520 M Z L2 14373 3520 M
21 0 R D L0 14414 3568 M Z L2 14394 3520 M 20 48 R D L0 14435 3520 M Z L2
14414 3568 M 21 -48 R D L0 14456 3520 M Z L2 14435 3520 M 21 0 R D L0
14518 3520 M Z L2 14518 3520 M Z L0 14538 3520 M Z L2 14518 3520 M 20 0 R D
L0 14559 3520 M Z L2 14538 3520 M 21 0 R D L0 14580 3520 M Z L2 14559 3520 M
21 0 R D L0 14600 3520 M Z L2 14580 3520 M 20 0 R D L0 14621 3520 M Z L2
14600 3520 M 21 0 R D L0 14642 3520 M Z L2 14621 3520 M 21 0 R D L0
14662 3520 M Z L2 14642 3520 M 20 0 R D L0 14745 3520 M Z L2 14745 3520 M Z
L0 14765 3520 M Z L2 14745 3520 M 20 0 R D L0 14827 3520 M Z L2 14827 3520 M
Z L0 14848 3520 M Z L2 14827 3520 M 21 0 R D L0 14869 3520 M Z L2
14848 3520 M 21 0 R D L0 14889 3520 M Z L2 14869 3520 M 20 0 R D L0
14910 3520 M Z L2 14889 3520 M 21 0 R D L0 14931 3520 M Z L2 14910 3520 M
21 0 R D L0 14951 3520 M Z L2 14931 3520 M 20 0 R D L0 14972 3520 M Z L2
14951 3520 M 21 0 R D L0 14993 3520 M Z L2 14972 3520 M 21 0 R D L0
15013 3520 M Z L2 14993 3520 M 20 0 R D L0 15736 3520 M Z L2 15013 3520 M
723 0 R D L0 16417 3520 M Z L2 15736 3520 M 681 0 R D L0 16933 3520 M Z L2
16417 3520 M 516 0 R D L0 17532 3520 M Z L2 16933 3520 M 599 0 R D L0
18172 3520 M Z L2 17532 3520 M 640 0 R D L0 19349 3520 M Z L2 18172 3520 M
1177 0 R D L0 20010 3520 M Z L2 19349 3520 M 661 0 R D L0 20691 3520 M Z L2
20010 3520 M 681 0 R D 10 setlinewidth L0 4236 3520 M Z 4896 3520 M Z
6755 3520 M Z 8964 3520 M Z 8984 3520 M -20 0 R D 9005 3521 M -21 -1 R D
9026 3523 M -21 -2 R D 9046 3527 M -20 -4 R D 9067 3535 M -21 -8 R D
9088 3552 M -21 -17 R D 9108 3582 M -20 -30 R D 9129 3636 M -21 -54 R D
9150 3727 M -21 -91 R D 9170 3864 M -20 -137 R D 9191 4066 M -21 -202 R D
9211 4339 M -20 -273 R D 9232 4689 M -21 -350 R D 9253 5116 M -21 -427 R D
9273 5599 M -20 -483 R D 9294 6120 M -21 -521 R D 9315 6683 M -21 -563 R D
9335 7254 M -20 -571 R D 9356 7818 M -21 -564 R D 9377 8364 M -21 -546 R D
9397 8886 M -20 -522 R D 9418 9371 M -21 -485 R D 9439 9811 M -21 -440 R D
9459 10213 M -20 -402 R D 9480 10580 M -21 -367 R D 9501 10897 M -21 -317 R
D 9521 11179 M -20 -282 R D 9542 11433 M -21 -254 R D 9562 11649 M
-20 -216 R D 9583 11843 M -21 -194 R D 9604 12023 M -21 -180 R D
9624 12172 M -20 -149 R D 9645 12295 M -21 -123 R D 9666 12416 M -21 -121 R
D 9686 12510 M -20 -94 R D 9707 12594 M -21 -84 R D 9728 12681 M -21 -87 R D
9748 12752 M -20 -71 R D 9769 12803 M -21 -51 R D 9790 12863 M -21 -60 R D
9810 12894 M -20 -31 R D 9831 12948 M -21 -54 R D 9852 12973 M -21 -25 R D
9872 13000 M -20 -27 R D 9893 13028 M -21 -28 R D 9913 13052 M -20 -24 R D
9934 13070 M -21 -18 R D 9955 13088 M -21 -18 R D 9975 13101 M -20 -13 R D
9996 13117 M -21 -16 R D 10017 13127 M -21 -10 R D 10037 13123 M -20 4 R D
10058 13130 M -21 -7 R D 10079 13135 M -21 -5 R D 10099 13109 M -20 26 R D
10120 13083 M -21 26 R D 10141 13058 M -21 25 R D 10161 13027 M -20 31 R D
10182 13002 M -21 25 R D 10203 12969 M -21 33 R D 10223 12933 M -20 36 R D
10244 12897 M -21 36 R D 10264 12867 M -20 30 R D 10285 12829 M -21 38 R D
10306 12797 M -21 32 R D 10326 12762 M -20 35 R D 10347 12718 M -21 44 R D
10368 12668 M -21 50 R D 10388 12635 M -20 33 R D 10409 12590 M -21 45 R D
10430 12547 M -21 43 R D 10450 12510 M -20 37 R D 10471 12466 M -21 44 R D
10492 12422 M -21 44 R D 10512 12372 M -20 50 R D 10533 12324 M -21 48 R D
10554 12276 M -21 48 R D 10574 12227 M -20 49 R D 10595 12180 M -21 47 R D
10615 12132 M -20 48 R D 10636 12081 M -21 51 R D 10657 12032 M -21 49 R D
10677 11978 M -20 54 R D 10698 11929 M -21 49 R D 10719 11881 M -21 48 R D
10739 11819 M -20 62 R D 10760 11768 M -21 51 R D 10781 11717 M -21 51 R D
10801 11658 M -20 59 R D 10822 11609 M -21 49 R D 10843 11554 M -21 55 R D
10863 11506 M -20 48 R D 10884 11439 M -21 67 R D 10905 11389 M -21 50 R D
10925 11329 M -20 60 R D 10946 11277 M -21 52 R D 10966 11213 M -20 64 R D
10987 11155 M -21 58 R D 11008 11098 M -21 57 R D 11028 11043 M -20 55 R D
11049 10981 M -21 62 R D 11070 10927 M -21 54 R D 11090 10872 M -20 55 R D
11111 10816 M -21 56 R D 11132 10751 M -21 65 R D 11152 10690 M -20 61 R D
11173 10630 M -21 60 R D 11194 10579 M -21 51 R D 11214 10524 M -20 55 R D
11235 10455 M -21 69 R D 11256 10400 M -21 55 R D 11276 10343 M -20 57 R D
11297 10287 M -21 56 R D 11317 10221 M -20 66 R D 11338 10164 M -21 57 R D
11359 10099 M -21 65 R D 11379 10044 M -20 55 R D 11400 9981 M -21 63 R D
11421 9931 M -21 50 R D 11441 9865 M -20 66 R D 11462 9803 M -21 62 R D
11483 9737 M -21 66 R D 11503 9688 M -20 49 R D 11524 9623 M -21 65 R D
11545 9567 M -21 56 R D 11565 9496 M -20 71 R D 11586 9438 M -21 58 R D
11607 9379 M -21 59 R D 11627 9318 M -20 61 R D 11648 9251 M -21 67 R D
11668 9192 M -20 59 R D 11689 9122 M -21 70 R D 11710 9060 M -21 62 R D
11730 8996 M -20 64 R D 11751 8924 M -21 72 R D 11772 8857 M -21 67 R D
11792 8800 M -20 57 R D 11813 8731 M -21 69 R D 11834 8656 M -21 75 R D
11854 8600 M -20 56 R D 11875 8532 M -21 68 R D 11896 8467 M -21 65 R D
11916 8397 M -20 70 R D 11937 8337 M -21 60 R D 11957 8265 M -20 72 R D
11978 8206 M -21 59 R D 11999 8139 M -21 67 R D 12019 8076 M -20 63 R D
12040 8006 M -21 70 R D 12061 7945 M -21 61 R D 12081 7885 M -20 60 R D
12102 7821 M -21 64 R D 12123 7761 M -21 60 R D 12143 7693 M -20 68 R D
12164 7634 M -21 59 R D 12185 7570 M -21 64 R D 12205 7509 M -20 61 R D
12226 7449 M -21 60 R D 12247 7384 M -21 65 R D 12267 7325 M -20 59 R D
12288 7274 M -21 51 R D 12308 7216 M -20 58 R D 12329 7150 M -21 66 R D
12350 7091 M -21 59 R D 12370 7034 M -20 57 R D 12391 6974 M -21 60 R D
12412 6920 M -21 54 R D 12432 6865 M -20 55 R D 12453 6801 M -21 64 R D
12474 6749 M -21 52 R D 12494 6698 M -20 51 R D 12515 6643 M -21 55 R D
12536 6593 M -21 50 R D 12556 6536 M -20 57 R D 12577 6480 M -21 56 R D
12598 6417 M -21 63 R D 12618 6361 M -20 56 R D 12639 6310 M -21 51 R D
12659 6248 M -20 62 R D 12680 6192 M -21 56 R D 12701 6141 M -21 51 R D
12721 6088 M -20 53 R D 12742 6035 M -21 53 R D 12763 5983 M -21 52 R D
12783 5931 M -20 52 R D 12804 5878 M -21 53 R D 12825 5833 M -21 45 R D
12845 5777 M -20 56 R D 12866 5730 M -21 47 R D 12887 5679 M -21 51 R D
12907 5635 M -20 44 R D 12928 5590 M -21 45 R D 12949 5543 M -21 47 R D
12969 5495 M -20 48 R D 12990 5452 M -21 43 R D 13010 5411 M -20 41 R D
13031 5367 M -21 44 R D 13052 5323 M -21 44 R D 13072 5282 M -20 41 R D
13093 5242 M -21 40 R D 13114 5201 M -21 41 R D 13134 5159 M -20 42 R D
13155 5122 M -21 37 R D 13176 5080 M -21 42 R D 13196 5043 M -20 37 R D
13217 5006 M -21 37 R D 13238 4971 M -21 35 R D 13258 4931 M -20 40 R D
13279 4896 M -21 35 R D 13300 4866 M -21 30 R D 13320 4827 M -20 39 R D
13341 4792 M -21 35 R D 13361 4758 M -20 34 R D 13382 4730 M -21 28 R D
13403 4696 M -21 34 R D 13423 4668 M -20 28 R D 13444 4634 M -21 34 R D
13465 4604 M -21 30 R D 13485 4577 M -20 27 R D 13506 4548 M -21 29 R D
13527 4520 M -21 28 R D 13547 4495 M -20 25 R D 13568 4470 M -21 25 R D
13589 4440 M -21 30 R D 13609 4416 M -20 24 R D 13630 4390 M -21 26 R D
13651 4366 M -21 24 R D 13671 4343 M -20 23 R D 13692 4320 M -21 23 R D
13712 4294 M -20 26 R D 13733 4271 M -21 23 R D 13754 4254 M -21 17 R D
13774 4232 M -20 22 R D 13795 4210 M -21 22 R D 13816 4188 M -21 22 R D
13836 4171 M -20 17 R D 13857 4149 M -21 22 R D 13878 4128 M -21 21 R D
13898 4112 M -20 16 R D 13919 4098 M -21 14 R D 13940 4080 M -21 18 R D
13960 4063 M -20 17 R D 13981 4047 M -21 16 R D 14002 4027 M -21 20 R D
14022 4016 M -20 11 R D 14043 3998 M -21 18 R D 14063 3985 M -20 13 R D
14084 3970 M -21 15 R D 14105 3954 M -21 16 R D 14125 3941 M -20 13 R D
14146 3928 M -21 13 R D 14167 3915 M -21 13 R D 14187 3904 M -20 11 R D
14208 3889 M -21 15 R D 14229 3878 M -21 11 R D 14249 3862 M -20 16 R D
14270 3853 M -21 9 R D 14291 3842 M -21 11 R D 14311 3830 M -20 12 R D
14332 3819 M -21 11 R D 14353 3809 M -21 10 R D 14373 3799 M -20 10 R D
14394 3788 M -21 11 R D 14414 3780 M -20 8 R D 14435 3771 M -21 9 R D
14456 3763 M -21 8 R D 14476 3753 M -20 10 R D 14497 3743 M -21 10 R D
14518 3735 M -21 8 R D 14538 3727 M -20 8 R D 14559 3720 M -21 7 R D
14580 3713 M -21 7 R D 14600 3706 M -20 7 R D 14621 3699 M -21 7 R D
14642 3693 M -21 6 R D 14662 3687 M -20 6 R D 14683 3684 M -21 3 R D
14704 3675 M -21 9 R D 14724 3671 M -20 4 R D 14745 3663 M -21 8 R D
14765 3658 M -20 5 R D 14786 3650 M -21 8 R D 14807 3648 M -21 2 R D
14827 3643 M -20 5 R D 14848 3636 M -21 7 R D 14869 3633 M -21 3 R D
14889 3629 M -20 4 R D 14910 3625 M -21 4 R D 14931 3618 M -21 7 R D
14951 3617 M -20 1 R D 14972 3613 M -21 4 R D 14993 3611 M -21 2 R D
15013 3605 M -20 6 R D 15034 3602 M -21 3 R D 15055 3598 M -21 4 R D
15075 3596 M -20 2 R D 15096 3593 M -21 3 R D 15116 3590 M -20 3 R D
15137 3586 M -21 4 R D 15158 3584 M -21 2 R D 15178 3581 M -20 3 R D
15199 3580 M -21 1 R D 15220 3578 M -21 2 R D 15240 3575 M -20 3 R D
15261 3574 M -21 1 R D 15282 3569 M -21 5 R D 15302 3568 M -20 1 R D
15323 3567 M -21 1 R D 15344 3563 M -21 4 R D 15364 3564 M -20 -1 R D
15385 3561 M -21 3 R D 15406 3558 M -21 3 R D 15426 3557 M -20 1 R D
15447 3553 M -21 4 R D 15467 3562 M -20 -9 R D 15488 3557 M -21 5 R D
15509 3550 M -21 7 R D 15529 3553 M -20 -3 R D 15550 3552 M -21 1 R D
15571 3550 M -21 2 R D 15591 3547 M -20 3 R D 15612 3548 M -21 -1 R D
15633 3546 M -21 2 R D 15653 3542 M -20 4 R D 15674 3544 M -21 -2 R D
15695 3548 M -21 -4 R D 15715 3533 M -20 15 R D 15736 3541 M -21 -8 R D
15756 3541 M -20 0 R D 15777 3538 M -21 3 R D 15798 3537 M -21 1 R D
15818 3544 M -20 -7 R D 15839 3537 M -21 7 R D 15860 3534 M -21 3 R D
15880 3534 M -20 0 R D 15901 3533 M -21 1 R D 15922 3533 M -21 0 R D
15942 3532 M -20 1 R D 15963 3530 M -21 2 R D 15984 3530 M -21 0 R D
16004 3534 M -20 -4 R D 16025 3537 M -21 -3 R D 16046 3530 M -21 7 R D
16066 3530 M -20 0 R D 16087 3529 M -21 1 R D 16107 3526 M -20 3 R D
16128 3536 M -21 -10 R D 16149 3530 M -21 6 R D 16169 3528 M -20 2 R D
16190 3527 M -21 1 R D 16211 3528 M -21 -1 R D 16231 3529 M -20 -1 R D
16252 3530 M -21 -1 R D 16273 3525 M -21 5 R D 16293 3526 M -20 -1 R D
16314 3526 M -21 0 R D 16335 3522 M -21 4 R D 16335 3522 M 10 -2 R D
16376 3524 M -14 -4 R D 16397 3530 M -21 -6 R D 16417 3530 M -20 0 R D
16438 3524 M -21 6 R D 16458 3521 M -20 3 R D 16479 3521 M -21 0 R D
16500 3520 M -21 1 R D 16520 3522 M -20 -2 R D 16541 3523 M -21 -1 R D
16562 3525 M -21 -2 R D 16562 3525 M 16 -5 R D 16603 3521 M -11 -1 R D
16624 3521 M -21 0 R D 16644 3522 M -20 -1 R D 16665 3522 M -21 0 R D
16665 3522 M 10 -2 R D 16706 3527 M -16 -7 R D 16727 3521 M -21 6 R D
16748 3521 M -21 0 R D 16768 3522 M -20 -1 R D 16768 3522 M 14 -2 R D
16809 3520 M Z 16830 3520 M -21 0 R D 16830 3520 M Z 16892 3525 M -15 -5 R D
16892 3525 M 17 -5 R D 16933 3520 M Z 16954 3521 M -21 -1 R D 16975 3521 M
-21 0 R D 16975 3521 M 5 -1 R D 17016 3521 M -6 -1 R D 17016 3521 M 5 -1 R D
17057 3520 M Z 17078 3521 M -21 -1 R D 17099 3520 M -21 1 R D 17099 3520 M Z
17181 3520 M Z 17264 3523 M -13 -3 R D 17264 3523 M 15 -3 R D 17367 3520 M Z
17388 3520 M -21 0 R D 17388 3520 M Z 17429 3520 M Z 17511 3520 M Z
17594 3520 M Z 17656 3520 M Z 17759 3520 M Z 17821 3520 M Z 17842 3520 M
-21 0 R D 17862 3521 M -20 -1 R D 17883 3521 M -21 0 R D 17904 3520 M
-21 1 R D 17904 3520 M Z 18028 3520 M Z 18048 3522 M -20 -2 R D 18048 3522 M
10 -2 R D 18110 3520 M Z 18172 3520 M Z 18213 3520 M Z 18379 3520 M Z
18441 3520 M Z 18482 3520 M Z 18523 3520 M Z 18544 3520 M -21 0 R D
18544 3520 M Z 18626 3520 M Z 18647 3520 M -21 0 R D 18647 3520 M Z
18709 3520 M Z 18750 3520 M Z 18771 3520 M -21 0 R D 18771 3520 M Z
18812 3520 M Z 18833 3520 M -21 0 R D 18833 3520 M Z 18895 3520 M Z
19019 3520 M Z 19060 3520 M Z 19081 3520 M -21 0 R D 19101 3520 M -20 0 R D
19122 3520 M -21 0 R D 19122 3520 M Z 19163 3520 M Z 19205 3520 M Z
19225 3520 M -20 0 R D 19246 3520 M -21 0 R D 19266 3520 M -20 0 R D
19266 3520 M Z 19308 3520 M Z 19328 3520 M -20 0 R D 19349 3520 M -21 0 R D
19370 3520 M -21 0 R D 19390 3520 M -20 0 R D 19411 3520 M -21 0 R D
19432 3520 M -21 0 R D 19452 3520 M -20 0 R D 19473 3520 M -21 0 R D
19494 3520 M -21 0 R D 19514 3520 M -20 0 R D 19535 3520 M -21 0 R D
19535 3520 M Z 19576 3520 M Z 19597 3520 M -21 0 R D 19597 3520 M Z
19638 3520 M Z 19679 3520 M Z 19700 3520 M -21 0 R D 19721 3520 M -21 0 R D
19741 3520 M -20 0 R D 19762 3520 M -21 0 R D 19783 3520 M -21 0 R D
19803 3520 M -20 0 R D 19824 3520 M -21 0 R D 19845 3520 M -21 0 R D
19865 3520 M -20 0 R D 19886 3520 M -21 0 R D 19906 3520 M -20 0 R D
19906 3520 M Z 19948 3520 M Z 19989 3521 M -11 -1 R D 19989 3521 M 10 -1 R D
20030 3520 M Z 20051 3520 M -21 0 R D 20072 3520 M -21 0 R D 20092 3520 M
-20 0 R D 20113 3520 M -21 0 R D 20134 3520 M -21 0 R D 20154 3520 M -20 0 R
D 20154 3520 M Z 20216 3520 M Z 20237 3520 M -21 0 R D 20237 3520 M Z
20278 3520 M Z 20299 3520 M -21 0 R D 20319 3521 M -20 -1 R D 20340 3520 M
-21 1 R D 20340 3520 M Z 20381 3520 M Z 20402 3520 M -21 0 R D 20423 3520 M
-21 0 R D 20443 3520 M -20 0 R D 20443 3520 M Z 20505 3520 M Z 20526 3520 M
-21 0 R D 20547 3521 M -21 -1 R D 20567 3520 M -20 1 R D 20588 3520 M
-21 0 R D 20608 3520 M -20 0 R D 20629 3520 M -21 0 R D 20650 3520 M -21 0 R
D 20670 3521 M -20 -1 R D 20691 3520 M -21 1 R D 20712 3521 M -21 -1 R D
20732 3520 M -20 1 R D 20753 3520 M -21 0 R D 20774 3520 M -21 0 R D
20794 3520 M -20 0 R D 20815 3520 M -21 0 R D 20836 3520 M -21 0 R D
20856 3521 M -20 -1 R D 20856 3521 M 10 -1 R D 20898 3520 M Z 20918 3520 M
-20 0 R D 20918 3520 M Z 20959 3521 M -10 -1 R D 20980 3520 M -21 1 R D
20980 3520 M Z 21021 3520 M Z 21042 3520 M -21 0 R D 21042 3520 M Z
21104 3520 M Z 21125 3521 M -21 -1 R D 21145 3522 M -20 -1 R D 21145 3522 M
14 -2 R D 21187 3520 M Z 21207 3521 M -20 -1 R D 21228 3520 M -21 1 R D
21249 3520 M -21 0 R D 21269 3520 M -20 0 R D 21290 3520 M -21 0 R D
21310 3520 M -20 0 R D 21331 3521 M -21 -1 R D 21352 3522 M -21 -1 R D
21372 3521 M -20 1 R D 21372 3521 M 10 -1 R D 21476 3521 M -11 -1 R D
21476 3521 M 10 -1 R D 21538 3520 M Z 21579 3520 M Z 21600 3520 M -21 0 R D
21620 3523 M -20 -3 R D 21641 3523 M -21 0 R D 21661 3523 M -20 0 R D
21682 3520 M -21 3 R D 21703 3523 M -21 -3 R D 21703 3523 M 10 -3 R D
21744 3521 M -6 -1 R D 21744 3521 M 7 -1 R D 21785 3521 M -7 -1 R D
21806 3520 M -21 1 R D 21827 3522 M -21 -2 R D 21827 3522 M 8 -2 R D
21868 3520 M Z 21889 3522 M -21 -2 R D 21909 3520 M -20 2 R D 21909 3520 M Z
21951 3520 M Z 21971 3521 M -20 -1 R D 21992 3520 M -21 1 R D 22012 3520 M
-20 0 R D 22033 3521 M -21 -1 R D 22054 3522 M -21 -1 R D 22054 3522 M
13 -2 R D 22136 3520 M Z 22157 3522 M -21 -2 R D 22178 3520 M -21 2 R D
22198 3522 M -20 -2 R D 22219 3524 M -21 -2 R D 22240 3526 M -21 -2 R D
22260 3524 M -20 2 R D 22281 3522 M -21 2 R D 22302 3521 M -21 1 R D
22322 3521 M -20 0 R D 22343 3522 M -21 -1 R D 22363 3523 M -20 -1 R D
22384 3524 M -21 -1 R D 22384 3524 M 16 -4 R D 22425 3520 M Z 22446 3521 M
-21 -1 R D 22446 3521 M 19 0 R D 40 setlinewidth 9046 3528 M Z L1
8954 3520 M 92 8 R D L0 9150 3746 M Z L1 9046 3528 M 104 218 R D L0
9253 5244 M Z L1 9150 3746 M 103 1498 R D L0 9356 8109 M Z L1 9253 5244 M
103 2865 R D L0 9459 10589 M Z L1 9356 8109 M 103 2480 R D L0 9562 12015 M Z
L1 9459 10589 M 103 1426 R D L0 9666 12720 M Z L1 9562 12015 M 104 705 R D
L0 9769 13023 M Z L1 9666 12720 M 103 303 R D L0 9872 13127 M Z L1
9769 13023 M 103 104 R D L0 9975 13135 M Z L1 9872 13127 M 103 8 R D L0
10079 13077 M Z L1 9975 13135 M 104 -58 R D L0 10182 12932 M Z L1
10079 13077 M 103 -145 R D L0 10285 12747 M Z L1 10182 12932 M 103 -185 R D
L0 10388 12543 M Z L1 10285 12747 M 103 -204 R D L0 10492 12319 M Z L1
10388 12543 M 104 -224 R D L0 10595 12068 M Z L1 10492 12319 M 103 -251 R D
L0 10698 11809 M Z L1 10595 12068 M 103 -259 R D L0 10801 11531 M Z L1
10698 11809 M 103 -278 R D L0 10905 11255 M Z L1 10801 11531 M 104 -276 R D
L0 11008 10959 M Z L1 10905 11255 M 103 -296 R D L0 11111 10672 M Z L1
11008 10959 M 103 -287 R D L0 11214 10377 M Z L1 11111 10672 M 103 -295 R D
L0 11317 10071 M Z L1 11214 10377 M 103 -306 R D L0 11421 9779 M Z L1
11317 10071 M 104 -292 R D L0 11524 9471 M Z L1 11421 9779 M 103 -308 R D L0
11627 9165 M Z L1 11524 9471 M 103 -306 R D L0 11730 8844 M Z L1
11627 9165 M 103 -321 R D L0 11834 8507 M Z L1 11730 8844 M 104 -337 R D L0
11937 8191 M Z L1 11834 8507 M 103 -316 R D L0 12040 7864 M Z L1
11937 8191 M 103 -327 R D L0 12143 7555 M Z L1 12040 7864 M 103 -309 R D L0
12247 7251 M Z L1 12143 7555 M 104 -304 R D L0 12350 6963 M Z L1
12247 7251 M 103 -288 R D L0 12453 6680 M Z L1 12350 6963 M 103 -283 R D L0
12556 6420 M Z L1 12453 6680 M 103 -260 R D L0 12659 6152 M Z L1
12556 6420 M 103 -268 R D L0 12763 5905 M Z L1 12659 6152 M 104 -247 R D L0
12866 5668 M Z L1 12763 5905 M 103 -237 R D L0 12969 5446 M Z L1
12866 5668 M 103 -222 R D L0 13072 5244 M Z L1 12969 5446 M 103 -202 R D L0
13176 5052 M Z L1 13072 5244 M 104 -192 R D L0 13279 4877 M Z L1
13176 5052 M 103 -175 R D L0 13382 4717 M Z L1 13279 4877 M 103 -160 R D L0
13485 4570 M Z L1 13382 4717 M 103 -147 R D L0 13589 4438 M Z L1
13485 4570 M 104 -132 R D L0 13692 4320 M Z L1 13589 4438 M 103 -118 R D L0
13795 4214 M Z L1 13692 4320 M 103 -106 R D L0 13898 4118 M Z L1
13795 4214 M 103 -96 R D L0 14002 4034 M Z L1 13898 4118 M 104 -84 R D L0
14105 3962 M Z L1 14002 4034 M 103 -72 R D L0 14208 3897 M Z L1 14105 3962 M
103 -65 R D L0 14311 3838 M Z L1 14208 3897 M 103 -59 R D L0 14414 3787 M Z
L1 14311 3838 M 103 -51 R D L0 14518 3742 M Z L1 14414 3787 M 104 -45 R D L0
14621 3706 M Z L1 14518 3742 M 103 -36 R D L0 14724 3677 M Z L1 14621 3706 M
103 -29 R D L0 14827 3649 M Z L1 14724 3677 M 103 -28 R D L0 14931 3624 M Z
L1 14827 3649 M 104 -25 R D L0 15034 3607 M Z L1 14931 3624 M 103 -17 R D L0
15137 3590 M Z L1 15034 3607 M 103 -17 R D L0 15240 3578 M Z L1 15137 3590 M
103 -12 R D L0 15344 3566 M Z L1 15240 3578 M 104 -12 R D L0 15447 3556 M Z
L1 15344 3566 M 103 -10 R D L0 15550 3555 M Z L1 15447 3556 M 103 -1 R D L0
15653 3544 M Z L1 15550 3555 M 103 -11 R D L0 15756 3543 M Z L1 15653 3544 M
103 -1 R D L0 15860 3535 M Z L1 15756 3543 M 104 -8 R D L0 15963 3532 M Z L1
15860 3535 M 103 -3 R D L0 16066 3532 M Z L1 15963 3532 M 103 0 R D L0
16169 3529 M Z L1 16066 3532 M 103 -3 R D L0 16273 3526 M Z L1 16169 3529 M
104 -3 R D L0 16376 3524 M Z L1 16273 3526 M 103 -2 R D L0 16479 3521 M Z L1
16376 3524 M 103 -3 R 51 -1 R D L0 16892 3526 M Z L1 16803 3520 M 89 6 R
61 -6 R D L0 17099 3520 M Z L1 17099 3520 M Z L0 17511 3520 M Z L1
17511 3520 M Z L0 17821 3520 M Z L1 17821 3520 M Z L0 18028 3520 M Z L1
18028 3520 M Z L0 18441 3520 M Z L1 18441 3520 M Z L0 18544 3520 M Z L1
18441 3520 M 103 0 R D L0 18647 3522 M Z L1 18544 3520 M 103 2 R D L0
18750 3520 M Z L1 18647 3522 M 103 -2 R D L0 19679 3520 M Z L1 19679 3520 M
Z L0 19886 3520 M Z L1 19886 3520 M Z L0 20196 3520 M Z L1 20196 3520 M Z L0
20299 3520 M Z L1 20196 3520 M 103 0 R D L0 20402 3520 M Z L1 20299 3520 M
103 0 R D L0 20505 3520 M Z L1 20402 3520 M 103 0 R D L0 20608 3520 M Z L1
20505 3520 M 103 0 R D L0 20712 3520 M Z L1 20608 3520 M 104 0 R D L0
20815 3520 M Z L1 20712 3520 M 103 0 R D L0 20918 3520 M Z L1 20815 3520 M
103 0 R D L0 21021 3520 M Z L1 20918 3520 M 103 0 R D L0 21125 3520 M Z L1
21021 3520 M 104 0 R D L0 21228 3520 M Z L1 21125 3520 M 103 0 R D L0
21331 3520 M Z L1 21228 3520 M 103 0 R D L0 21538 3520 M Z L1 21538 3520 M Z
L0 21641 3521 M Z L1 21538 3520 M 103 1 R D L0 21744 3520 M Z L1
21641 3521 M 103 -1 R D L0 21951 3520 M Z L1 21951 3520 M Z L0 22054 3521 M
Z L1 21951 3520 M 103 1 R D L0 22157 3521 M Z L1 22054 3521 M 103 0 R D L0
22260 3522 M Z L1 22157 3521 M 103 1 R D L0 22363 3522 M Z L1 22260 3522 M
103 0 R D 30 setlinewidth L0 8220 3520 M Z 8427 3520 M Z L2 8220 3520 M
207 0 R D L0 8633 3520 M Z L2 8427 3520 M 206 0 R D L0 8840 3520 M Z L2
8633 3520 M 207 0 R D L0 9046 3520 M Z L2 8840 3520 M 206 0 R D L0
9253 5731 M Z L2 9046 3520 M 207 2211 R D L0 9459 10635 M Z L2 9253 5731 M
206 4904 R D L0 9666 12270 M Z L2 9459 10635 M 207 1635 R D L0 9872 12943 M
Z L2 9666 12270 M 206 673 R D L0 10079 13135 M Z L2 9872 12943 M 207 192 R D
L0 10285 12943 M Z L2 10079 13135 M 206 -192 R D L0 10492 12750 M Z L2
10285 12943 M 207 -193 R D L0 10698 12462 M Z L2 10492 12750 M 206 -288 R D
L0 10905 12173 M Z L2 10698 12462 M 207 -289 R D L0 11111 11789 M Z L2
10905 12173 M 206 -384 R D L0 11317 11308 M Z L2 11111 11789 M 206 -481 R D
L0 11524 11020 M Z L2 11317 11308 M 207 -288 R D L0 11730 10443 M Z L2
11524 11020 M 206 -577 R D L0 11937 9962 M Z L2 11730 10443 M 207 -481 R D
L0 12143 9385 M Z L2 11937 9962 M 206 -577 R D L0 12350 8904 M Z L2
12143 9385 M 207 -481 R D L0 12556 8423 M Z L2 12350 8904 M 206 -481 R D L0
12763 7943 M Z L2 12556 8423 M 207 -480 R D L0 12969 7366 M Z L2
12763 7943 M 206 -577 R D L0 13176 6885 M Z L2 12969 7366 M 207 -481 R D L0
13382 6500 M Z L2 13176 6885 M 206 -385 R D L0 14208 4866 M Z L2
13382 6500 M 826 -1634 R D L0 15240 3808 M Z L2 14208 4866 M 1032 -1058 R D
L0 16273 3520 M Z L2 15240 3808 M 1033 -288 R D L0 17305 3520 M Z L2
16273 3520 M 1032 0 R D L0 18337 3520 M Z L2 17305 3520 M 1032 0 R D L0
19370 3520 M Z L2 18337 3520 M 1033 0 R D L0 20402 3520 M Z L2 19370 3520 M
1032 0 R 2063 0 R D 10 setlinewidth L0 3988 3520 M Z 4132 3520 M Z
4174 3520 M Z 4236 3520 M Z 4649 3520 M Z 4669 3520 M -20 0 R D 4690 3520 M
-21 0 R D 4690 3520 M Z 4731 3520 M Z 4896 3520 M Z 4917 3520 M -21 0 R D
4917 3520 M Z 4979 3520 M Z 5020 3520 M Z 5082 3520 M Z 5123 3520 M Z
5268 3520 M Z 5330 3520 M Z 5371 3520 M Z 5392 3520 M -21 0 R D 5392 3520 M
Z 5433 3520 M Z 5454 3520 M -21 0 R D 5474 3520 M -20 0 R D 5474 3520 M Z
5578 3520 M Z 5598 3520 M -20 0 R D 5619 3520 M -21 0 R D 5619 3520 M Z
5887 3520 M Z 5991 3520 M Z 6011 3520 M -20 0 R D 6011 3520 M Z 6053 3520 M
Z 6094 3520 M Z 6218 3520 M Z 6259 3520 M Z 6342 3520 M Z 6610 3520 M Z
6672 3520 M Z 6713 3520 M Z 6734 3520 M -21 0 R D 6755 3520 M -21 0 R D
6755 3520 M Z 7167 3520 M Z 7229 3520 M Z 7312 3520 M Z 7333 3520 M -21 0 R
D 7333 3520 M Z 7374 3520 M Z 7395 3520 M -21 0 R D 7395 3520 M Z
7539 3520 M Z 7952 3520 M Z 7973 3520 M -21 0 R D 7973 3520 M Z 8055 3520 M
Z 8241 3520 M Z 8324 3520 M Z 8448 3520 M Z 8551 3520 M Z 8716 3520 M Z
8943 3520 M Z 9026 3520 M Z 9067 3520 M Z 9108 3520 M Z 9253 3520 M Z
9480 3520 M Z 9521 3520 M Z 9810 3520 M Z 9934 3520 M Z 9955 3520 M -21 0 R
D 9975 3520 M -20 0 R D 9975 3520 M Z 10120 3520 M Z 10306 3520 M Z
10326 3520 M -20 0 R D 10326 3520 M Z 10471 3520 M Z 10739 3520 M Z
10946 3520 M Z 10966 3520 M -20 0 R D 10966 3520 M Z 11049 3520 M Z
11214 3520 M Z 11379 3520 M Z 11400 3520 M -21 0 R D 11400 3520 M Z
11441 3520 M Z 11483 3520 M Z 11524 3520 M Z 11545 3520 M -21 0 R D
11545 3520 M Z 11607 3520 M Z 11689 3520 M Z 11710 3520 M -21 0 R D
11710 3520 M Z 11792 3520 M Z 11875 3520 M Z 11896 3520 M -21 0 R D
11916 3520 M -20 0 R D 11937 3520 M -21 0 R D 11937 3520 M Z 11978 3520 M Z
11999 3520 M -21 0 R D 12019 3521 M -20 -1 R D 12040 3522 M -21 -1 R D
12061 3524 M -21 -2 R D 12081 3528 M -20 -4 R D 12102 3533 M -21 -5 R D
12123 3542 M -21 -9 R D 12143 3555 M -20 -13 R D 12164 3574 M -21 -19 R D
12185 3599 M -21 -25 R D 12205 3636 M -20 -37 R D 12226 3684 M -21 -48 R D
12247 3745 M -21 -61 R D 12267 3822 M -20 -77 R D 12288 3917 M -21 -95 R D
12308 4030 M -20 -113 R D 12329 4163 M -21 -133 R D 12350 4321 M -21 -158 R
D 12370 4499 M -20 -178 R D 12391 4700 M -21 -201 R D 12412 4922 M
-21 -222 R D 12432 5162 M -20 -240 R D 12453 5418 M -21 -256 R D
12474 5691 M -21 -273 R D 12494 5979 M -20 -288 R D 12515 6281 M -21 -302 R
D 12536 6587 M -21 -306 R D 12556 6910 M -20 -323 R D 12577 7236 M
-21 -326 R D 12598 7545 M -21 -309 R D 12618 7867 M -20 -322 R D
12639 8196 M -21 -329 R D 12659 8492 M -20 -296 R D 12680 8807 M -21 -315 R
D 12701 9091 M -21 -284 R D 12721 9391 M -20 -300 R D 12742 9657 M
-21 -266 R D 12763 9933 M -21 -276 R D 12783 10185 M -20 -252 R D
12804 10415 M -21 -230 R D 12825 10640 M -21 -225 R D 12845 10862 M
-20 -222 R D 12866 11062 M -21 -200 R D 12887 11253 M -21 -191 R D
12907 11433 M -20 -180 R D 12928 11606 M -21 -173 R D 12949 11753 M
-21 -147 R D 12969 11917 M -20 -164 R D 12990 12039 M -21 -122 R D
13010 12152 M -20 -113 R D 13031 12286 M -21 -134 R D 13052 12374 M
-21 -88 R D 13072 12453 M -20 -79 R D 13093 12550 M -21 -97 R D
13114 12621 M -21 -71 R D 13134 12710 M -20 -89 R D 13155 12778 M -21 -68 R
D 13176 12809 M -21 -31 R D 13196 12854 M -20 -45 R D 13217 12910 M
-21 -56 R D 13238 12958 M -21 -48 R D 13258 12995 M -20 -37 R D
13279 13010 M -21 -15 R D 13300 13040 M -21 -30 R D 13320 13063 M -20 -23 R
D 13341 13069 M -21 -6 R D 13361 13093 M -20 -24 R D 13382 13103 M -21 -10 R
D 13403 13121 M -21 -18 R D 13423 13118 M -20 3 R D 13444 13098 M -21 20 R D
13465 13115 M -21 -17 R D 13485 13135 M -20 -20 R D 13506 13115 M -21 20 R D
13527 13109 M -21 6 R D 13547 13119 M -20 -10 R D 13568 13115 M -21 4 R D
13589 13102 M -21 13 R D 13609 13097 M -20 5 R D 13630 13090 M -21 7 R D
13651 13052 M -21 38 R D 13671 13058 M -20 -6 R D 13692 13047 M -21 11 R D
13712 13009 M -20 38 R D 13733 13022 M -21 -13 R D 13754 13001 M -21 21 R D
13774 12971 M -20 30 R D 13795 12955 M -21 16 R D 13816 12933 M -21 22 R D
13836 12923 M -20 10 R D 13857 12875 M -21 48 R D 13878 12876 M -21 -1 R D
13898 12849 M -20 27 R D 13919 12815 M -21 34 R D 13940 12817 M -21 -2 R D
13960 12795 M -20 22 R D 13981 12797 M -21 -2 R D 14002 12741 M -21 56 R D
14022 12747 M -20 -6 R D 14043 12716 M -21 31 R D 14063 12698 M -20 18 R D
14084 12674 M -21 24 R D 14105 12655 M -21 19 R D 14125 12655 M -20 0 R D
14146 12624 M -21 31 R D 14167 12593 M -21 31 R D 14187 12555 M -20 38 R D
14208 12580 M -21 -25 R D 14229 12488 M -21 92 R D 14249 12456 M -20 32 R D
14270 12412 M -21 44 R D 14291 12385 M -21 27 R D 14311 12337 M -20 48 R D
14332 12296 M -21 41 R D 14353 12248 M -21 48 R D 14373 12210 M -20 38 R D
14394 12141 M -21 69 R D 14414 12109 M -20 32 R D 14435 12102 M -21 7 R D
14456 12037 M -21 65 R D 14476 11971 M -20 66 R D 14497 11956 M -21 15 R D
14518 11900 M -21 56 R D 14538 11831 M -20 69 R D 14559 11801 M -21 30 R D
14580 11778 M -21 23 R D 14600 11735 M -20 43 R D 14621 11672 M -21 63 R D
14642 11644 M -21 28 R D 14662 11566 M -20 78 R D 14683 11558 M -21 8 R D
14704 11515 M -21 43 R D 14724 11455 M -20 60 R D 14745 11407 M -21 48 R D
14765 11362 M -20 45 R D 14786 11314 M -21 48 R D 14807 11295 M -21 19 R D
14827 11253 M -20 42 R D 14848 11198 M -21 55 R D 14869 11150 M -21 48 R D
14889 11130 M -20 20 R D 14910 11072 M -21 58 R D 14931 11001 M -21 71 R D
14951 10975 M -20 26 R D 14972 10896 M -21 79 R D 14993 10892 M -21 4 R D
15013 10851 M -20 41 R D 15034 10799 M -21 52 R D 15055 10737 M -21 62 R D
15075 10698 M -20 39 R D 15096 10632 M -21 66 R D 15116 10580 M -20 52 R D
15137 10577 M -21 3 R D 15158 10536 M -21 41 R D 15178 10457 M -20 79 R D
15199 10414 M -21 43 R D 15220 10368 M -21 46 R D 15240 10369 M -20 -1 R D
15261 10327 M -21 42 R D 15282 10216 M -21 111 R D 15302 10219 M -20 -3 R D
15323 10155 M -21 64 R D 15344 10086 M -21 69 R D 15364 10066 M -20 20 R D
15385 9986 M -21 80 R D 15406 9978 M -21 8 R D 15426 9926 M -20 52 R D
15447 9844 M -21 82 R D 15467 9897 M -20 -53 R D 15488 9851 M -21 46 R D
15509 9807 M -21 44 R D 15529 9759 M -20 48 R D 15550 9707 M -21 52 R D
15571 9667 M -21 40 R D 15591 9622 M -20 45 R D 15612 9577 M -21 45 R D
15633 9532 M -21 45 R D 15653 9487 M -20 45 R D 15674 9444 M -21 43 R D
15695 9394 M -21 50 R D 15715 9350 M -20 44 R D 15736 9306 M -21 44 R D
15756 9263 M -20 43 R D 15777 9218 M -21 45 R D 15798 9174 M -21 44 R D
15818 9127 M -20 47 R D 15839 9084 M -21 43 R D 15860 9039 M -21 45 R D
15880 8993 M -20 46 R D 15901 8947 M -21 46 R D 15922 8900 M -21 47 R D
15942 8856 M -20 44 R D 15963 8809 M -21 47 R D 15984 8764 M -21 45 R D
16004 8720 M -20 44 R D 16025 8673 M -21 47 R D 16046 8635 M -21 38 R D
16066 8586 M -20 49 R D 16087 8545 M -21 41 R D 16107 8498 M -20 47 R D
16128 8452 M -21 46 R D 16149 8410 M -21 42 R D 16169 8363 M -20 47 R D
16190 8320 M -21 43 R D 16211 8275 M -21 45 R D 16231 8233 M -20 42 R D
16252 8187 M -21 46 R D 16273 8141 M -21 46 R D 16293 8096 M -20 45 R D
16314 8047 M -21 49 R D 16335 8004 M -21 43 R D 16355 7958 M -20 46 R D
16376 7916 M -21 42 R D 16397 7872 M -21 44 R D 16417 7827 M -20 45 R D
16438 7784 M -21 43 R D 16458 7742 M -20 42 R D 16479 7696 M -21 46 R D
16500 7656 M -21 40 R D 16520 7612 M -20 44 R D 16541 7567 M -21 45 R D
16562 7522 M -21 45 R D 16582 7482 M -20 40 R D 16603 7438 M -21 44 R D
16624 7394 M -21 44 R D 16644 7350 M -20 44 R D 16665 7305 M -21 45 R D
16686 7264 M -21 41 R D 16706 7219 M -20 45 R D 16727 7178 M -21 41 R D
16748 7131 M -21 47 R D 16768 7089 M -20 42 R D 16789 7047 M -21 42 R D
16809 7003 M -20 44 R D 16830 6961 M -21 42 R D 16851 6918 M -21 43 R D
16871 6876 M -20 42 R D 16892 6835 M -21 41 R D 16913 6793 M -21 42 R D
16933 6749 M -20 44 R D 16954 6707 M -21 42 R D 16975 6662 M -21 45 R D
16995 6622 M -20 40 R D 17016 6582 M -21 40 R D 17037 6540 M -21 42 R D
17057 6498 M -20 42 R D 17078 6457 M -21 41 R D 17099 6415 M -21 42 R D
17119 6373 M -20 42 R D 17140 6330 M -21 43 R D 17160 6290 M -20 40 R D
17181 6249 M -21 41 R D 17202 6208 M -21 41 R D 17222 6166 M -20 42 R D
17243 6124 M -21 42 R D 17264 6083 M -21 41 R D 17284 6041 M -20 42 R D
17305 6001 M -21 40 R D 17326 5962 M -21 39 R D 17346 5919 M -20 43 R D
17367 5881 M -21 38 R D 17388 5840 M -21 41 R D 17408 5798 M -20 42 R D
17429 5762 M -21 36 R D 17450 5720 M -21 42 R D 17470 5682 M -20 38 R D
17491 5642 M -21 40 R D 17511 5601 M -20 41 R D 17532 5560 M -21 41 R D
17553 5520 M -21 40 R D 17573 5482 M -20 38 R D 17594 5445 M -21 37 R D
17615 5404 M -21 41 R D 17635 5365 M -20 39 R D 17656 5328 M -21 37 R D
17677 5290 M -21 38 R D 17697 5251 M -20 39 R D 17718 5213 M -21 38 R D
17739 5176 M -21 37 R D 17759 5138 M -20 38 R D 17780 5100 M -21 38 R D
17801 5062 M -21 38 R D 17821 5025 M -20 37 R D 17842 4989 M -21 36 R D
17862 4951 M -20 38 R D 17883 4915 M -21 36 R D 17904 4878 M -21 37 R D
17924 4842 M -20 36 R D 17945 4805 M -21 37 R D 17966 4769 M -21 36 R D
17986 4734 M -20 35 R D 18007 4698 M -21 36 R D 18028 4662 M -21 36 R D
18048 4627 M -20 35 R D 18069 4592 M -21 35 R D 18090 4557 M -21 35 R D
18110 4524 M -20 33 R D 18131 4489 M -21 35 R D 18152 4455 M -21 34 R D
18172 4422 M -20 33 R D 18193 4388 M -21 34 R D 18213 4353 M -20 35 R D
18234 4321 M -21 32 R D 18255 4289 M -21 32 R D 18275 4256 M -20 33 R D
18296 4224 M -21 32 R D 18317 4193 M -21 31 R D 18337 4160 M -20 33 R D
18358 4143 M -21 17 R D 18379 4126 M -21 17 R D 18399 4110 M -20 16 R D
18420 4094 M -21 16 R D 18441 4079 M -21 15 R D 18461 4062 M -20 17 R D
18482 4047 M -21 15 R D 18503 4032 M -21 15 R D 18523 4017 M -20 15 R D
18544 4001 M -21 16 R D 18564 3986 M -20 15 R D 18585 3971 M -21 15 R D
18606 3957 M -21 14 R D 18626 3942 M -20 15 R D 18647 3927 M -21 15 R D
18668 3913 M -21 14 R D 18688 3898 M -20 15 R D 18709 3884 M -21 14 R D
18730 3870 M -21 14 R D 18750 3856 M -20 14 R D 18771 3842 M -21 14 R D
18792 3829 M -21 13 R D 18812 3815 M -20 14 R D 18833 3802 M -21 13 R D
18854 3789 M -21 13 R D 18874 3776 M -20 13 R D 18895 3763 M -21 13 R D
18915 3751 M -20 12 R D 18936 3738 M -21 13 R D 18957 3726 M -21 12 R D
18977 3714 M -20 12 R D 18998 3702 M -21 12 R D 19019 3690 M -21 12 R D
19039 3679 M -20 11 R D 19060 3667 M -21 12 R D 19081 3656 M -21 11 R D
19101 3645 M -20 11 R D 19122 3634 M -21 11 R D 19143 3624 M -21 10 R D
19163 3613 M -20 11 R D 19184 3603 M -21 10 R D 19205 3593 M -21 10 R D
19225 3583 M -20 10 R D 19246 3573 M -21 10 R D 19266 3564 M -20 9 R D
19287 3555 M -21 9 R D 19308 3546 M -21 9 R D 19328 3537 M -20 9 R D
19349 3528 M -21 9 R D 19370 3520 M -21 8 R D 19370 3520 M Z 40 setlinewidth
3988 3520 M Z L1 3988 3520 M Z L0 4917 3520 M Z L1 4917 3520 M Z L0
5020 3520 M Z L1 4917 3520 M 103 0 R D L0 5123 3520 M Z L1 5020 3520 M
103 0 R D L0 5330 3520 M Z L1 5330 3520 M Z L0 5433 3520 M Z L1 5330 3520 M
103 0 R D L0 6053 3520 M Z L1 6053 3520 M Z L0 6259 3520 M Z L1 6259 3520 M
Z L0 6672 3520 M Z L1 6672 3520 M Z L0 7395 3520 M Z L1 7395 3520 M Z L0
8324 3520 M Z L1 8324 3520 M Z L0 8943 3520 M Z L1 8943 3520 M Z L0
9253 3520 M Z L1 9253 3520 M Z L0 9975 3520 M Z L1 9975 3520 M Z L0
11214 3520 M Z L1 11214 3520 M Z L0 11524 3520 M Z L1 11524 3520 M Z L0
11937 3520 M Z L1 11937 3520 M Z L0 12040 3522 M Z L1 11937 3520 M 103 2 R D
L0 12143 3554 M Z L1 12040 3522 M 103 32 R D L0 12247 3739 M Z L1
12143 3554 M 104 185 R D L0 12350 4297 M Z L1 12247 3739 M 103 558 R D L0
12453 5360 M Z L1 12350 4297 M 103 1063 R D L0 12556 6801 M Z L1
12453 5360 M 103 1441 R D L0 12659 8348 M Z L1 12556 6801 M 103 1547 R D L0
12763 9768 M Z L1 12659 8348 M 104 1420 R D L0 12866 10895 M Z L1
12763 9768 M 103 1127 R D L0 12969 11759 M Z L1 12866 10895 M 103 864 R D L0
13072 12316 M Z L1 12969 11759 M 103 557 R D L0 13176 12700 M Z L1
13072 12316 M 104 384 R D L0 13279 12934 M Z L1 13176 12700 M 103 234 R D L0
13382 13062 M Z L1 13279 12934 M 103 128 R D L0 13485 13130 M Z L1
13382 13062 M 103 68 R D L0 13589 13135 M Z L1 13485 13130 M 104 5 R D L0
13692 13118 M Z L1 13589 13135 M 103 -17 R D L0 13795 13063 M Z L1
13692 13118 M 103 -55 R D L0 13898 12994 M Z L1 13795 13063 M 103 -69 R D L0
14002 12924 M Z L1 13898 12994 M 104 -70 R D L0 14105 12876 M Z L1
14002 12924 M 103 -48 R D L0 14208 12839 M Z L1 14105 12876 M 103 -37 R D L0
14311 12623 M Z L1 14208 12839 M 103 -216 R D L0 14414 12420 M Z L1
14311 12623 M 103 -203 R D L0 14518 12238 M Z L1 14414 12420 M 104 -182 R D
L0 14621 12036 M Z L1 14518 12238 M 103 -202 R D L0 14724 11844 M Z L1
14621 12036 M 103 -192 R D L0 14827 11669 M Z L1 14724 11844 M 103 -175 R D
L0 14931 11441 M Z L1 14827 11669 M 104 -228 R D L0 15034 11265 M Z L1
14931 11441 M 103 -176 R D L0 15137 11068 M Z L1 15034 11265 M 103 -197 R D
L0 15240 10886 M Z L1 15137 11068 M 103 -182 R D L0 15344 10623 M Z L1
15240 10886 M 104 -263 R D L0 15447 10403 M Z L1 15344 10623 M 103 -220 R D
L0 15550 10297 M Z L1 15447 10403 M 103 -106 R D L0 15653 10101 M Z L1
15550 10297 M 103 -196 R D L0 15756 9899 M Z L1 15653 10101 M 103 -202 R D
L0 15860 9698 M Z L1 15756 9899 M 104 -201 R D L0 15963 9489 M Z L1
15860 9698 M 103 -209 R D L0 16066 9287 M Z L1 15963 9489 M 103 -202 R D L0
16169 9085 M Z L1 16066 9287 M 103 -202 R D L0 16273 8883 M Z L1
16169 9085 M 104 -202 R D L0 16376 8676 M Z L1 16273 8883 M 103 -207 R D L0
16479 8475 M Z L1 16376 8676 M 103 -201 R D L0 16582 8280 M Z L1
16479 8475 M 103 -195 R D L0 16686 8079 M Z L1 16582 8280 M 104 -201 R D L0
16789 7878 M Z L1 16686 8079 M 103 -201 R D L0 16892 7682 M Z L1
16789 7878 M 103 -196 R D L0 16995 7483 M Z L1 16892 7682 M 103 -199 R D L0
17099 7290 M Z L1 16995 7483 M 104 -193 R D L0 17202 7096 M Z L1
17099 7290 M 103 -194 R D L0 17305 6899 M Z L1 17202 7096 M 103 -197 R D L0
17408 6706 M Z L1 17305 6899 M 103 -193 R D L0 17511 6519 M Z L1
17408 6706 M 103 -187 R D L0 17615 6329 M Z L1 17511 6519 M 104 -190 R D L0
17718 6144 M Z L1 17615 6329 M 103 -185 R D L0 17821 5959 M Z L1
17718 6144 M 103 -185 R D L0 17924 5779 M Z L1 17821 5959 M 103 -180 R D L0
18028 5599 M Z L1 17924 5779 M 104 -180 R D L0 18131 5425 M Z L1
18028 5599 M 103 -174 R D L0 18234 5252 M Z L1 18131 5425 M 103 -173 R D L0
18337 5086 M Z L1 18234 5252 M 103 -166 R D L0 18441 4948 M Z L1
18337 5086 M 104 -138 R D L0 18544 4816 M Z L1 18441 4948 M 103 -132 R D L0
18647 4688 M Z L1 18544 4816 M 103 -128 R D L0 18750 4563 M Z L1
18647 4688 M 103 -125 R D L0 18854 4442 M Z L1 18750 4563 M 104 -121 R D L0
18957 4328 M Z L1 18854 4442 M 103 -114 R D L0 19060 4218 M Z L1
18957 4328 M 103 -110 R D L0 19163 4116 M Z L1 19060 4218 M 103 -102 R D L0
19266 4019 M Z L1 19163 4116 M 103 -97 R D L0 19370 3930 M Z L1 19266 4019 M
104 -89 R D L0 19473 3867 M Z L1 19370 3930 M 103 -63 R D L0 19576 3809 M Z
L1 19473 3867 M 103 -58 R D L0 19679 3756 M Z L1 19576 3809 M 103 -53 R D L0
19783 3707 M Z L1 19679 3756 M 104 -49 R D L0 19886 3664 M Z L1 19783 3707 M
103 -43 R D L0 19989 3626 M Z L1 19886 3664 M 103 -38 R D L0 20092 3592 M Z
L1 19989 3626 M 103 -34 R D L0 20196 3564 M Z L1 20092 3592 M 104 -28 R D L0
20299 3539 M Z L1 20196 3564 M 103 -25 R D L0 20402 3520 M Z L1 20299 3539 M
103 -19 R D 30 setlinewidth L0 12143 3520 M Z 12350 3750 M Z L2 12143 3520 M
207 230 R D L0 12556 5750 M Z L2 12350 3750 M 206 2000 R D L0 12763 8856 M Z
L2 12556 5750 M 207 3106 R D L0 12969 11068 M Z L2 12763 8856 M 206 2212 R D
L0 13176 12270 M Z L2 12969 11068 M 207 1202 R D L0 13382 12798 M Z L2
13176 12270 M 206 528 R D L0 13589 12991 M Z L2 13382 12798 M 207 193 R D L0
13795 13039 M Z L2 13589 12991 M 206 48 R D L0 14002 13087 M Z L2
13795 13039 M 207 48 R D L0 14208 13135 M Z L2 14002 13087 M 206 48 R D L0
14414 13135 M Z L2 14208 13135 M 206 0 R D L0 14621 13039 M Z L2
14414 13135 M 207 -96 R D L0 14827 12943 M Z L2 14621 13039 M 206 -96 R D L0
15034 12654 M Z L2 14827 12943 M 207 -289 R D L0 15240 12270 M Z L2
15034 12654 M 206 -384 R D L0 15447 11789 M Z L2 15240 12270 M 207 -481 R D
L0 15653 10731 M Z L2 15447 11789 M 206 -1058 R D L0 15860 8904 M Z L2
15653 10731 M 207 -1827 R D L0 16066 6693 M Z L2 15860 8904 M 206 -2211 R D
L0 16273 4962 M Z L2 16066 6693 M 207 -1731 R D L0 16479 3808 M Z L2
16273 4962 M 206 -1154 R D L0 16686 3520 M Z L2 16479 3808 M 207 -288 R D
gsave 6465 14097 translate 0 0 M 2 dup scale
(B) show grestore gsave 8427 14097 translate 0 0 M 2 dup scale
(V) show grestore gsave 10079 14097 translate 0 0 M 2 dup scale
(R) show grestore gsave 14621 14097 translate 0 0 M 2 dup scale
(I) show grestore 10 setlinewidth L0 16273 13808 M Z 17718 13808 M -1445 0 R
D 40 setlinewidth 16273 13135 M Z 17718 13135 M Z L1 16273 13135 M 1445 0 R
D 30 setlinewidth L0 16273 14866 M Z 17718 14866 M Z L2 16273 14866 M
1445 0 R D gsave 18131 13616 translate 0 0 M 2 dup scale
(FLWO) show grestore gsave 20505 13616 translate 0 0 M 1.5 dup scale
(\(thick\)) show grestore gsave 18131 12750 translate 0 0 M 2 dup scale
(FLWO) show grestore gsave 20505 12750 translate 0 0 M 1.5 dup scale
(\(thin\)) show grestore gsave 18131 15058 translate 0 0 M 2 dup scale
(Bessell) show grestore gsave 18337 14481 translate 0 0 M 1.5 dup scale
(\(1990\)) show grestore
%%PageTrailer
showpage
end restore
%%PageResources: font Times-Roman
%%Trailer
restore
%%Pages: 1
%%DocumentNeededResources: font Times-Roman
%%EOF
