4700.0    0.0                  
4750.0    0.0                  
4800.0    0.000868994182815    
4850.0    0.0345955914362      
4900.0    0.21091287965        
4950.0    0.454245717804       
5000.0    0.621891499936       
5050.0    0.713674173842       
5100.0    0.762454465193       
5150.0    0.789767911958       
5200.0    0.805231983231       
5250.0    0.812951691058       
5300.0    0.814002067866       
5350.0    0.810310453796       
5400.0    0.799817799144       
5450.0    0.7838805417         
5500.0    0.760154774197       
5550.0    0.728647646432       
5600.0    0.689086912795       
5650.0    0.642328669095       
5700.0    0.590178533642       
5750.0    0.533900690509       
5800.0    0.474071427943       
5850.0    0.413938169616       
5900.0    0.352923341227       
5950.0    0.292775594279       
6000.0    0.237201030885       
6050.0    0.187718095661       
6100.0    0.144487443053       
6150.0    0.10824601916        
6200.0    0.0780922207689      
6250.0    0.0546942999242      
6300.0    0.0372440798867      
6350.0    0.0242331958724      
6400.0    0.0148973002327      
6450.0    0.00918111621476     
6500.0    0.00562557838196     
6550.0    0.00279954060686     
6600.0    0.00139276515677     
6650.0    0.000692489197405    
6700.0    0.00068919130008     
6750.0    0.0                  
6800.0    0.0                  
6850.0    0.0                  
6900.0    0.0                  

