4700.0    0.0                  
4750.0    0.0                  
4800.0    0.000868994182815    
4850.0    0.0371902607939      
4900.0    0.223825913098       
4950.0    0.480764771009       
5000.0    0.654175484905       
5050.0    0.745768397044       
5100.0    0.79100452226        
5150.0    0.813978556194       
5200.0    0.822646887091       
5250.0    0.822825598237       
5300.0    0.816451422133       
5350.0    0.805448591073       
5400.0    0.78855275972        
5450.0    0.76630116156        
5500.0    0.737937306893       
5550.0    0.701864922131       
5600.0    0.660179638675       
5650.0    0.611335729694       
5700.0    0.558671606716       
5750.0    0.502629364351       
5800.0    0.44448937084        
5850.0    0.385989789551       
5900.0    0.326641815816       
5950.0    0.270426312273       
6000.0    0.217988486327       
6050.0    0.170852798004       
6100.0    0.131352220957       
6150.0    0.0973487689089      
6200.0    0.0701383834684      
6250.0    0.0489370051954      
6300.0    0.0329466860536      
6350.0    0.0213822316521      
6400.0    0.0134785097344      
6450.0    0.00776863679711     
6500.0    0.00492238108422     
6550.0    0.00279954060686     
6600.0    0.00139276515677     
6650.0    0.000692489197405    
6700.0    0.0                  
6750.0    0.0                  
6800.0    0.0                  
6850.0    0.0                  
6900.0    0.0                  

