5421.83035686    0.0120116400405    
5430.25004598    0.0118291080941    
5438.6697351     0.0119134485568    
5447.08942422    0.0120516789885    
5455.50911334    0.0120516789885    
5463.92880246    0.0125378666524    
5472.34849158    0.0142116025819    
5480.7681807     0.0146617674989    
5489.18786982    0.0149591403046    
5497.60755894    0.0170598784777    
5506.02724806    0.0191940599051    
5514.44693718    0.0224547959135    
5522.86662629    0.0279260707597    
5531.28631541    0.0339863845751    
5539.70600453    0.0431752703801    
5548.12569365    0.0551473544713    
5556.54538277    0.0712511113654    
5564.96507189    0.0918033491047    
5573.38476101    0.11607092346      
5581.80445013    0.143677311471     
5590.22413925    0.175874117756     
5598.64382837    0.210274664264     
5607.06351749    0.249614958174     
5615.48320661    0.288784877871     
5623.90289572    0.33034547658      
5632.32258484    0.372613210505     
5640.74227396    0.416331739816     
5649.16196308    0.459527126252     
5657.5816522     0.501075055783     
5666.00134132    0.541146949785     
5674.42103044    0.578206041661     
5682.84071956    0.614071848739     
5691.26040868    0.645144211407     
5699.6800978     0.678313147617     
5708.09978692    0.704136592129     
5716.51947604    0.732670501487     
5724.93916515    0.754930959248     
5733.35885427    0.779107072399     
5741.77854339    0.797700285215     
5750.19823251    0.817953080352     
5758.61792163    0.833577327452     
5767.03761075    0.847501809326     
5775.45729987    0.862661286898     
5783.87698899    0.871318705708     
5792.29667811    0.881569200656     
5800.71636723    0.893630247457     
5809.13605635    0.903588955392     
5817.55574547    0.911638846763     
5825.97543458    0.917540740334     
5834.3951237     0.923941138809     
5842.81481282    0.930664174609     
5851.23450194    0.935240289521     
5859.65419106    0.941933034097     
5868.07388018    0.943832780317     
5876.4935693     0.94697335258      
5884.91325842    0.949957726773     
5893.33294754    0.952850356553     
5901.75263666    0.950780426231     
5910.17232578    0.949115767938     
5918.5920149     0.950673753115     
5927.01170401    0.952593078055     
5935.43139313    0.953597073921     
5943.85108225    0.953177228761     
5952.27077137    0.952243946097     
5960.69046049    0.954166181039     
5969.11014961    0.957737163801     
5977.52983873    0.960136018484     
5985.94952785    0.96236281154      
5994.36921697    0.965865670996     
6002.78890609    0.965900799105     
6011.20859521    0.968781325041     
6019.62828433    0.968811741987     
6028.04797344    0.969408403963     
6036.46766256    0.970652829227     
6044.88735168    0.972671757482     
6053.3070408     0.974738437407     
6061.72672992    0.978951241657     
6070.14641904    0.977026377936     
6078.56610816    0.978222438174     
6086.98579728    0.980639732302     
6095.4054864     0.982092747359     
6103.82517552    0.982573902137     
6112.24486464    0.983979288539     
6120.66455376    0.973398543135     
6129.08424287    0.978627160793     
6137.50393199    0.987970781699     
6145.92362111    0.983258166947     
6154.34331023    0.980388640733     
6162.76299935    0.981440834216     
6171.18268847    0.978837054061     
6179.60237759    0.980270235049     
6188.02206671    0.981795411393     
6196.44175583    0.982450592121     
6204.86144495    0.982574516414     
6213.28113407    0.980368306114     
6221.70082319    0.980956702228     
6230.1205123     0.977544587292     
6238.54020142    0.974202626567     
6246.95989054    0.974868857196     
6255.37957966    0.97163026329      
6263.79926878    0.969217969404     
6272.2189579     0.969497208645     
6280.63864702    0.96708362872      
6289.05833614    0.967016369364     
6297.47802526    0.963753959303     
6305.89771438    0.963338406673     
6314.3174035     0.963197761822     
6322.73709262    0.964922554252     
6331.15678173    0.96386200517      
6339.57647085    0.962007681568     
6347.99615997    0.960944149022     
6356.41584909    0.962297600825     
6364.83553821    0.962291404483     
6373.25522733    0.961588042966     
6381.67491645    0.962219372364     
6390.09460557    0.96016494872      
6398.51429469    0.961665201486     
6406.93398381    0.963290710594     
6415.35367293    0.961261786008     
6423.77336205    0.960781981596     
6432.19305116    0.959375577829     
6440.61274028    0.958741213036     
6449.0324294     0.959178153445     
6457.45211852    0.956143886727     
6465.87180764    0.953139573957     
6474.29149676    0.947331140629     
6482.71118588    0.943013829295     
6491.130875      0.937471960467     
6499.55056412    0.934997644815     
6507.97025324    0.930820647089     
6516.38994236    0.927986340305     
6524.80963148    0.925523880873     
6533.22932059    0.921167177226     
6541.64900971    0.917776177299     
6550.06869883    0.915382458366     
6558.48838795    0.915928060301     
6566.90807707    0.91855227372      
6575.32776619    0.917512349314     
6583.74745531    0.918164422953     
6592.16714443    0.921414006471     
6600.58683355    0.925147642462     
6609.00652267    0.927545522332     
6617.42621179    0.927699596326     
6625.84590091    0.928491836791     
6634.26559002    0.927308713317     
6642.68527914    0.92614484351      
6651.10496826    0.926515390223     
6659.52465738    0.926475958718     
6667.9443465     0.926461778195     
6676.36403562    0.924650240401     
6684.78372474    0.923455449603     
6693.20341386    0.924431525937     
6701.62310298    0.920421595426     
6710.0427921     0.918133097145     
6718.46248122    0.916484540142     
6726.88217034    0.913605541129     
6735.30185945    0.910926134625     
6743.72154857    0.910187587626     
6752.14123769    0.907207267685     
6760.56092681    0.904939477017     
6768.98061593    0.904242658593     
6777.40030505    0.900556997995     
6785.81999417    0.898206548095     
6794.23968329    0.896837497277     
6802.65937241    0.893985133924     
6811.07906153    0.893318964503     
6819.49875065    0.891289686672     
6827.91843977    0.889436543725     
6836.33812888    0.88609636811      
6844.757818      0.878585407172     
6853.17750712    0.861858612841     
6861.59719624    0.838886167917     
6870.01688536    0.811183965045     
6878.43657448    0.79367237432      
6886.8562636     0.790260409016     
6895.27595272    0.801713950471     
6903.69564184    0.811886164526     
6912.11533096    0.8123872012       
6920.53502008    0.804651529205     
6928.9547092     0.796653698539     
6937.37439832    0.796195767694     
6945.79408743    0.800545209888     
6954.21377655    0.796947475351     
6962.63346567    0.792604177081     
6971.05315479    0.794688190814     
6979.47284391    0.794920140893     
6987.89253303    0.795024342137     
6996.31222215    0.792936162112     
7004.73191127    0.78967250785      
7013.15160039    0.788772050822     
7021.57128951    0.78757524597      
7029.99097863    0.786710095147     
7038.41066775    0.784835123992     
7046.83035686    0.783635293752     
7055.25004598    0.781160131756     
7063.6697351     0.777446505367     
7072.08942422    0.77458366905      
7080.50911334    0.771664320494     
7088.92880246    0.771314137183     
7097.34849158    0.770076009572     
7105.7681807     0.76649112522      
7114.18786982    0.762803811658     
7122.60755894    0.755622996133     
7131.02724806    0.751696352114     
7139.44693718    0.75101408426      
7147.86662629    0.742250485129     
7156.28631541    0.72385708878      
7164.70600453    0.697530176739     
7173.12569365    0.659102344486     
7181.54538277    0.632919745464     
7189.96507189    0.612821209613     
7198.38476101    0.617806712431     
7206.80445013    0.634606783895     
7215.22413925    0.655185525989     
7223.64382837    0.662972930893     
7232.06351749    0.647907294968     
7240.48320661    0.630115393549     
7248.90289572    0.62048279494      
7257.32258484    0.619063892642     
7265.74227396    0.61577919871      
7274.16196308    0.613492109414     
7282.5816522     0.616497602237     
7291.00134132    0.620159087349     
7299.42103044    0.624433513822     
7307.84071956    0.627371192862     
7316.26040868    0.626391497604     
7324.6800978     0.630767144592     
7333.09978692    0.635193367517     
7341.51947604    0.635595478838     
7349.93916515    0.637029646796     
7358.35885427    0.639234937014     
7366.77854339    0.642120946505     
7375.19823251    0.643961323032     
7383.61792163    0.641035251075     
7392.03761075    0.639966607514     
7400.45729987    0.640208244832     
7408.87698899    0.63977022463      
7417.29667811    0.639540319801     
7425.71636723    0.638548934136     
7434.13605635    0.63965749005      
7442.55574547    0.635541445238     
7450.97543458    0.635182324066     
7459.3951237     0.645832728138     
7467.81481282    0.629963537348     
7476.23450194    0.610372619673     
7484.65419106    0.611274848194     
7493.07388018    0.618792130797     
7501.4935693     0.614329284015     
7509.91325842    0.609347007327     
7518.33294754    0.607013628926     
7526.75263666    0.603277931521     
7535.17232578    0.596898435309     
7543.5920149     0.590460015861     
7552.01170401    0.584151402359     
7560.43139313    0.581126970669     
7568.85108225    0.583167586073     
7577.27077137    0.575261471154     
7585.69046049    0.569891884907     
7594.11014961    0.534568056812     
7602.52983873    0.440903586641     
7610.94952785    0.381544557973     
7619.36921697    0.334315554408     
7627.78890609    0.347545694541     
7636.20859521    0.361299229676     
7644.62828433    0.372950450201     
7653.04797344    0.387530955592     
7661.46766256    0.41274578177      
7669.88735168    0.44474214273      
7678.3070408     0.479480011901     
7686.72672992    0.506865711917     
7695.14641904    0.521650361218     
7703.56610816    0.525665718687     
7711.98579728    0.528483202868     
7720.4054864     0.528909193715     
7728.82517552    0.520321253088     
7737.24486464    0.510735587546     
7745.66455376    0.504715511629     
7754.08424287    0.502807512895     
7762.50393199    0.500439612305     
7770.92362111    0.497152935755     
7779.34331023    0.49129679705      
7787.76299935    0.486931444381     
7796.18268847    0.484399626822     
7804.60237759    0.483297951621     
7813.02206671    0.477977590355     
7821.44175583    0.472684199116     
7829.86144495    0.465249963601     
7838.28113407    0.46055100086      
7846.70082319    0.461549088661     
7855.1205123     0.459423667618     
7863.54020142    0.453791280531     
7871.95989054    0.448410121936     
7880.37957966    0.443203978862     
7888.79926878    0.439349605914     
7897.2189579     0.430831085337     
7905.63864702    0.423361377696     
7914.05833614    0.416133794247     
7922.47802526    0.413076715899     
7930.89771438    0.417470713325     
7939.3174035     0.41779640088      
7947.73709262    0.414215257284     
7956.15678173    0.408538810876     
7964.57647085    0.40322516666      
7972.99615997    0.397776055929     
7981.41584909    0.393756044022     
7989.83553821    0.390376282564     
7998.25522733    0.390827872009     
8006.67491645    0.38738467363      
8015.09460557    0.380943208973     
8023.51429469    0.375289348853     
8031.93398381    0.369312787263     
8040.35367293    0.369047707835     
8048.77336205    0.369720187666     
8057.19305116    0.367362689992     
8065.61274028    0.359772909921     
8074.0324294     0.355989739492     
8082.45211852    0.35000555923      
8090.87180764    0.347159181911     
8099.29149676    0.345535959969     
8107.71118588    0.341315168789     
8116.130875      0.333151227997     
8124.55056412    0.324561344171     
8132.97025324    0.31689950037      
8141.38994236    0.307716914123     
8149.80963148    0.298993172331     
8158.22932059    0.291440865701     
8166.64900971    0.283076493798     
8175.06869883    0.275275968986     
8183.48838795    0.269413977863     
8191.90807707    0.272533656691     
8200.32776619    0.278238936604     
8208.74745531    0.27954349946      
8217.16714443    0.273159307914     
8225.58683355    0.266573670421     
8234.00652267    0.259029646457     
8242.42621179    0.256534579074     
8250.84590091    0.256749983374     
8259.26559002    0.256876459806     
8267.68527914    0.256035234787     
8276.10496826    0.252891259948     
8284.52465738    0.248011604453     
8292.9443465     0.244288439228     
8301.36403562    0.243775722744     
8309.78372474    0.242246047608     
8318.20341386    0.239692095669     
8326.62310298    0.238068345937     
8335.0427921     0.236742809159     
8343.46248122    0.236296719988     
8351.88217034    0.23641476741      
8360.30185945    0.235381068391     
8368.72154857    0.231997497201     
8377.14123769    0.228169267854     
8385.56092681    0.225704028028     
8393.98061593    0.223679596872     
8402.40030505    0.223392431576     
8410.81999417    0.224813684918     
8419.23968329    0.221446321817     
8427.65937241    0.21738833966      
8436.07906153    0.212605862012     
8444.49875065    0.212255899064     
8452.91843977    0.212573703009     
8461.33812888    0.210499162564     
8469.757818      0.206366683107     
8478.17750712    0.202821447579     
8486.59719624    0.199755480842     
8495.01688536    0.198459064343     
8503.43657448    0.196557563578     
8511.8562636     0.194428089264     
8520.27595272    0.190459553933     
8528.69564184    0.186488475126     
8537.11533096    0.185043644124     
8545.53502008    0.187127410692     
8553.9547092     0.184731542118     
8562.37439831    0.182059346831     
8570.79408743    0.1793352481       
8579.21377655    0.178523509985     
8587.63346567    0.177356164039     
8596.05315479    0.174716968066     
8604.47284391    0.172369735467     
8612.89253303    0.169972266024     
8621.31222215    0.166051574868     
8629.73191127    0.163052738734     
8638.15160039    0.164163898652     
8646.57128951    0.164985845415     
8654.99097863    0.1637702198       
8663.41066775    0.161782724646     
8671.83035686    0.161641219898     
8680.25004598    0.158964648313     
8688.6697351     0.152697230308     
8697.08942422    0.150024549721     
8705.50911334    0.147940204923     
8713.92880246    0.147172541271     
8722.34849158    0.145176896965     
8730.7681807     0.142756490455     
8739.18786982    0.139927839899     
8747.60755894    0.138588134797     
8756.02724806    0.13688576257      
8764.44693718    0.135304376258     
8772.86662629    0.133139952835     
8781.28631541    0.132279567695     
8789.70600453    0.131758638997     
8798.12569365    0.13067247578      
8806.54538277    0.127813624288     
8814.96507189    0.124338809524     
8823.38476101    0.123282900623     
8831.80445013    0.122424213398     
8840.22413925    0.121773844375     
8848.64382837    0.120319696629     
8857.06351749    0.117699997761     
8865.48320661    0.115258386066     
8873.90289572    0.113387567594     
8882.32258484    0.112024723184     
8890.74227396    0.111359263486     
8899.16196308    0.109121088234     
8907.5816522     0.107426564704     
8916.00134132    0.111566533679     
8924.42103044    0.110415190704     
8932.84071956    0.104868248174     
8941.26040868    0.0970325087723    
8949.6800978     0.0944320910059    
8958.09978692    0.0909715504654    
8966.51947604    0.08790357561      
8974.93916515    0.0839016958507    
8983.35885427    0.0811583646585    
8991.77854339    0.0785254916234    
9000.19823251    0.0743194906402    
9008.61792163    0.0720610727219    
9017.03761075    0.0699697605779    
9025.45729987    0.0734135632505    
9033.87698899    0.0753784349213    
9042.29667811    0.0760768935525    
9050.71636723    0.0747614707033    
9059.13605635    0.0722581039135    
9067.55574547    0.0687698675321    
9075.97543458    0.0653356188378    
9084.3951237     0.0621416940957    
9092.81481282    0.0612862492169    
9101.23450194    0.0614333115734    
9109.65419106    0.0596844126345    
9118.07388018    0.0578908518604    
9126.4935693     0.0563567719143    
9134.91325842    0.0548171032162    
9143.33294754    0.0542722203787    
9151.75263666    0.0556605351379    
9160.17232578    0.0564231836652    
9168.5920149     0.0561191775669    
9177.01170401    0.0562849532335    
9185.43139313    0.056919318026     
9193.85108225    0.0564231836652    
9202.27077137    0.0564231836652    
9210.69046049    0.0564231836652    
9219.11014961    0.0561191775669    
9227.52983873    0.0549799089783    
9235.94952785    0.0536748647231    
9244.36921697    0.0534381863417    
9252.78890609    0.0530086472415    
9261.20859521    0.0509910291127    
9269.62828433    0.0488469168992    
9278.04797344    0.0470080198492    
9286.46766256    0.0445395549367    
9294.88735168    0.044162421914     
9303.3070408     0.041833068709     
9311.72672992    0.0389371589157    
9320.14641904    0.0332469057004    
9328.56610816    0.0280662020911    
9336.98579728    0.0215386747071    
9345.4054864     0.0196616048243    
9353.82517552    0.0193679561817    

