6642.68527914    0.00338470208193    
6651.10496826    0.00338470208193    
6659.52465738    0.00338470208193    
6667.9443465     0.00338470208193    
6676.36403562    0.00419307967339    
6684.78372474    0.00528346195722    
6693.20341386    0.00419307967339    
6701.62310298    0.00341789208532    
6710.0427921     0.00454983559891    
6718.46248122    0.00528346195722    
6726.88217034    0.00528346195722    
6735.30185945    0.00528346195722    
6743.72154857    0.00528346195722    
6752.14123769    0.00528346195722    
6760.56092681    0.00528346195722    
6768.98061593    0.00528346195722    
6777.40030505    0.00528346195722    
6785.81999417    0.00528346195722    
6794.23968329    0.00528346195722    
6802.65937241    0.00528346195722    
6811.07906153    0.00528346195722    
6819.49875065    0.00528346195722    
6827.91843977    0.00528346195722    
6836.33812888    0.00528346195722    
6844.757818      0.00528346195722    
6853.17750712    0.00528346195722    
6861.59719624    0.00528346195722    
6870.01688536    0.00528346195722    
6878.43657448    0.00528346195722    
6886.8562636     0.00538816102987    
6895.27595272    0.00565586040745    
6903.69564184    0.00571496911589    
6912.11533096    0.00571496911589    
6920.53502008    0.00571496911589    
6928.9547092     0.00571496911589    
6937.37439832    0.00571496911589    
6945.79408743    0.00571496911589    
6954.21377655    0.00571496911589    
6962.63346567    0.00585300048459    
6971.05315479    0.0063178399393     
6979.47284391    0.00665418300212    
6987.89253303    0.0076581477384     
6996.31222215    0.00824076442498    
7004.73191127    0.00887817979063    
7013.15160039    0.0104421411443     
7021.57128951    0.0113941213785     
7029.99097863    0.0136284012072     
7038.41066775    0.0160855139035     
7046.83035686    0.0191547698813     
7055.25004598    0.0229749741403     
7063.6697351     0.0276419911432     
7072.08942422    0.0333679812977     
7080.50911334    0.039422608206      
7088.92880246    0.0472930894676     
7097.34849158    0.0554516957331     
7105.7681807     0.065719170547      
7114.18786982    0.0759270663087     
7122.60755894    0.0883973362245     
7131.02724806    0.101328024762      
7139.44693718    0.115951168391      
7147.86662629    0.130568736016      
7156.28631541    0.144441611986      
7164.70600453    0.156220587763      
7173.12569365    0.165521832957      
7181.54538277    0.176699844516      
7189.96507189    0.190380796046      
7198.38476101    0.210949127848      
7206.80445013    0.238223192361      
7215.22413925    0.265782969871      
7223.64382837    0.288889608897      
7232.06351749    0.307181320742      
7240.48320661    0.321775834509      
7248.90289572    0.339539533525      
7257.32258484    0.360428892346      
7265.74227396    0.380365664281      
7274.16196308    0.404720262573      
7282.5816522     0.427401468999      
7291.00134132    0.454629581846      
7299.42103044    0.478938354808      
7307.84071956    0.50243014558       
7316.26040868    0.525890600764      
7324.6800978     0.551172669632      
7333.09978692    0.575474580496      
7341.51947604    0.601653492772      
7349.93916515    0.622968500534      
7358.35885427    0.647092963756      
7366.77854339    0.669347685613      
7375.19823251    0.688842021428      
7383.61792163    0.709030716912      
7392.03761075    0.729042336254      
7400.45729987    0.745727831153      
7408.87698899    0.768311862895      
7417.29667811    0.781940193921      
7425.71636723    0.802341792326      
7434.13605635    0.811516395839      
7442.55574547    0.82546681269       
7450.97543458    0.83810681974       
7459.3951237     0.848064707454      
7467.81481282    0.858943845489      
7476.23450194    0.870076044089      
7484.65419106    0.876944048221      
7493.07388018    0.889079017863      
7501.4935693     0.896334465981      
7509.91325842    0.902700532581      
7518.33294754    0.90309015231       
7526.75263666    0.906694841436      
7535.17232578    0.916425037087      
7543.5920149     0.920678875357      
7552.01170401    0.922086476229      
7560.43139313    0.930341855386      
7568.85108225    0.93881784795       
7577.27077137    0.944260655924      
7585.69046049    0.940063001081      
7594.11014961    0.889757282041      
7602.52983873    0.753614531839      
7610.94952785    0.666511481712      
7619.36921697    0.576030502478      
7627.78890609    0.597956651354      
7636.20859521    0.628642023647      
7644.62828433    0.657646890539      
7653.04797344    0.683623479697      
7661.46766256    0.736903846613      
7669.88735168    0.800546972398      
7678.3070408     0.870053361476      
7686.72672992    0.918799465777      
7695.14641904    0.952792373037      
7703.56610816    0.964347726234      
7711.98579728    0.980531016138      
7720.4054864     0.978803559735      
7728.82517552    0.975533940194      
7737.24486464    0.973561728023      
7745.66455376    0.973017831676      
7754.08424287    0.97813841691       
7762.50393199    0.987611220829      
7770.92362111    0.987875561107      
7779.34331023    0.982656305116      
7787.76299935    0.97976024558       
7796.18268847    0.986900798029      
7804.60237759    0.993793930516      
7813.02206671    0.99283478352       
7821.44175583    0.984229724587      
7829.86144495    0.9759620528        
7838.28113407    0.97352331256       
7846.70082319    0.979774081422      
7855.1205123     0.986899802855      
7863.54020142    0.979776865386      
7871.95989054    0.968972570692      
7880.37957966    0.964358796137      
7888.79926878    0.967357676748      
7897.2189579     0.970857565605      
7905.63864702    0.964112504369      
7914.05833614    0.950218449281      
7922.47802526    0.950732777314      
7930.89771438    0.956804797539      
7939.3174035     0.96591336883       
7947.73709262    0.963278048108      
7956.15678173    0.953454309886      
7964.57647085    0.944293960399      
7972.99615997    0.941967347626      
7981.41584909    0.946710353619      
7989.83553821    0.951300694796      
7998.25522733    0.954643318542      
8006.67491645    0.954176657282      
8015.09460557    0.941215668837      
8023.51429469    0.930564046668      
8031.93398381    0.926940666995      
8040.35367293    0.937355313511      
8048.77336205    0.95080885944       
8057.19305116    0.953255421653      
8065.61274028    0.946269861775      
8074.0324294     0.92682211044       
8082.45211852    0.924562083772      
8090.87180764    0.924143953537      
8099.29149676    0.926809536992      
8107.71118588    0.920668207318      
8116.130875      0.903096006951      
8124.55056412    0.888577358501      
8132.97025324    0.871651328211      
8141.38994236    0.854918292371      
8149.80963148    0.837267428131      
8158.22932059    0.822445202762      
8166.64900971    0.806601044398      
8175.06869883    0.797712737769      
8183.48838795    0.786458393148      
8191.90807707    0.801365488433      
8200.32776619    0.816809979721      
8208.74745531    0.833841235465      
8217.16714443    0.820815188764      
8225.58683355    0.802604487479      
8234.00652267    0.789491795882      
8242.42621179    0.789109044763      
8250.84590091    0.799020996565      
8259.26559002    0.811581001921      
8267.68527914    0.809667237669      
8276.10496826    0.798512609889      
8284.52465738    0.789870507885      
8292.9443465     0.788266191519      
8301.36403562    0.794069150276      
8309.78372474    0.799966438432      
8318.20341386    0.796150929696      
8326.62310298    0.793401282741      
8335.0427921     0.796564541402      
8343.46248122    0.80251053917       
8351.88217034    0.810861707059      
8360.30185945    0.812230490032      
8368.72154857    0.806770409352      
8377.14123769    0.79730366698       
8385.56092681    0.792326022398      
8393.98061593    0.792406944934      
8402.40030505    0.798633193217      
8410.81999417    0.806674338553      
8419.23968329    0.807190248756      
8427.65937241    0.800417775023      
8436.07906153    0.791898635374      
8444.49875065    0.796356431145      
8452.91843977    0.804852199373      
8461.33812888    0.804063924677      
8469.757818      0.796693319896      
8478.17750712    0.786509506011      
8486.59719624    0.782358462314      
8495.01688536    0.784518690671      
8503.43657448    0.794254515965      
8511.8562636     0.790742701114      
8520.27595272    0.779777803634      
8528.69564184    0.768995368576      
8537.11533096    0.768467518277      
8545.53502008    0.7826392832        
8553.9547092     0.795843736277      
8562.37439831    0.786194498938      
8570.79408743    0.76690960698       
8579.21377655    0.768415813573      
8587.63346567    0.77237567298       
8596.05315479    0.767159287803      
8604.47284391    0.760119314521      
8612.89253303    0.753305113826      
8621.31222215    0.751204124251      
8629.73191127    0.74329616444       
8638.15160039    0.747650293092      
8646.57128951    0.757533749849      
8654.99097863    0.763642646913      
8663.41066775    0.760117980018      
8671.83035686    0.773875716523      
8680.25004598    0.766310886477      
8688.6697351     0.75197844915       
8697.08942422    0.727547553244      
8705.50911334    0.721037050249      
8713.92880246    0.721580200898      
8722.34849158    0.726721447441      
8730.7681807     0.72499869403       
8739.18786982    0.715815641876      
8747.60755894    0.708986775829      
8756.02724806    0.710297100715      
8764.44693718    0.707794058409      
8772.86662629    0.703760260424      
8781.28631541    0.706516396362      
8789.70600453    0.71161998263       
8798.12569365    0.715424174139      
8806.54538277    0.708138573692      
8814.96507189    0.692585327045      
8823.38476101    0.685482911241      
8831.80445013    0.684615658493      
8840.22413925    0.69414939579       
8848.64382837    0.697430269693      
8857.06351749    0.694717151398      
8865.48320661    0.687271168199      
8873.90289572    0.676110760359      
8882.32258484    0.66937366916       
8890.74227396    0.662561168337      
8899.16196308    0.656459216981      
8907.5816522     0.65230228283       
8916.00134132    0.656834980815      
8924.42103044    0.648856863387      
8932.84071956    0.629190716889      
8941.26040868    0.613764003809      
8949.6800978     0.595655653274      
8958.09978692    0.578479811442      
8966.51947604    0.562055442263      
8974.93916515    0.546902230693      
8983.35885427    0.530555315877      
8991.77854339    0.516515603406      
9000.19823251    0.499595758339      
9008.61792163    0.486245939068      
9017.03761075    0.482522263716      
9025.45729987    0.495285636461      
9033.87698899    0.517808954983      
9042.29667811    0.531933341316      
9050.71636723    0.531506882929      
9059.13605635    0.511029247882      
9067.55574547    0.488349615297      
9075.97543458    0.464688334287      
9084.3951237     0.452613310698      
9092.81481282    0.452557709735      
9101.23450194    0.456451802163      
9109.65419106    0.449871294852      
9118.07388018    0.438941327254      
9126.4935693     0.427423567926      
9134.91325842    0.42021097928       
9143.33294754    0.422792293705      
9151.75263666    0.43082894068       
9160.17232578    0.438946890234      
9168.5920149     0.448115149843      
9177.01170401    0.447407807226      
9185.43139313    0.451347536581      
9193.85108225    0.457743298913      
9202.27077137    0.463204769432      
9210.69046049    0.467670751568      
9219.11014961    0.468762431184      
9227.52983873    0.462633048042      
9235.94952785    0.453711981919      
9244.36921697    0.444694760267      
9252.78890609    0.439384977139      
9261.20859521    0.435562162592      
9269.62828433    0.427899110953      
9278.04797344    0.417927829162      
9286.46766256    0.402458277828      
9294.88735168    0.383552806022      
9303.3070408     0.365132309991      
9311.72672992    0.339902396322      
9320.14641904    0.295504965823      
9328.56610816    0.248559338417      
9336.98579728    0.20552494069       
9345.4054864     0.182172639467      
9353.82517552    0.178062244187      
9362.24486464    0.183248554718      
9370.66455376    0.197803443808      
9379.08424287    0.209845520626      
9387.50393199    0.233405592884      
9395.92362111    0.250923064457      
9404.34331023    0.26088462009       
9412.76299935    0.258059930733      
9421.18268847    0.247103191582      
9429.60237759    0.233055911946      
9438.02206671    0.221783754251      
9446.44175583    0.211257665795      
9454.86144495    0.206266686192      
9463.28113407    0.206959128254      
9471.70082319    0.212849811198      
9480.1205123     0.217374221933      
9488.54020142    0.219556869832      
9496.95989054    0.22124269372       
9505.37957966    0.219858975345      
9513.79926878    0.219123661297      
9522.2189579     0.219755340968      
9530.63864702    0.219360832104      
9539.05833614    0.221198270987      
9547.47802526    0.224730702182      
9555.89771438    0.230770090825      
9564.3174035     0.238298531445      
9572.73709262    0.247975564789      
9581.15678173    0.251067943941      
9589.57647085    0.245741290013      
9597.99615997    0.240266690644      
9606.41584909    0.235998254496      
9614.83553821    0.235090138918      
9623.25522733    0.236664110333      
9631.67491645    0.239805238715      
9640.09460557    0.243347273915      
9648.51429469    0.241829753402      
9656.93398381    0.239987703973      
9665.35367293    0.238158951697      
9673.77336205    0.240226231787      
9682.19305116    0.241588733911      
9690.61274028    0.247304431199      
9699.0324294     0.256191307405      
9707.45211852    0.260039014424      
9715.87180764    0.257178722617      
9724.29149676    0.251245408758      
9732.71118588    0.246072083094      
9741.130875      0.240953486892      
9749.55056412    0.237580012589      
9757.97025324    0.237246811607      
9766.38994236    0.236817611637      
9774.80963148    0.235480129726      
9783.22932059    0.234008069023      
9791.64900971    0.235799139146      
9800.06869883    0.237192831252      
9808.48838795    0.235990983584      
9816.90807707    0.234589803894      
9825.32776619    0.233829396609      
9833.74745531    0.232663761845      
9842.16714443    0.232932151943      
9850.58683355    0.233720608049      
9859.00652267    0.232743833123      
9867.42621179    0.230071001719      
9875.84590091    0.227407772965      
9884.26559002    0.224972392656      
9892.68527914    0.222699926391      
9901.10496826    0.219274909994      
9909.52465738    0.216594343446      
9917.9443465     0.21357114806       
9926.36403562    0.210406965633      
9934.78372474    0.207686795881      
9943.20341386    0.202670635458      
9951.62310298    0.199954153244      
9960.0427921     0.198074923505      
9968.46248122    0.194811908907      
9976.88217034    0.190992812637      
9985.30185945    0.18727218431       
9993.72154857    0.185239534221      
10002.1412377    0.18324310005       
10010.5609268    0.178850865913      
10018.9806159    0.17448983467       
10027.4003051    0.169996517469      
10035.8199942    0.166372156254      
10044.2396833    0.163212887285      
10052.6593724    0.160224934535      
10061.0790615    0.156495391612      
10069.4987506    0.15338412846       
10077.9184398    0.150060176061      
10086.3381289    0.14756508333       
10094.757818     0.144022621481      
10103.1775071    0.140738901036      
10111.5971962    0.138327438385      
10120.0168854    0.135494393829      
10128.4365745    0.132847680955      
10136.8562636    0.129288691561      
10145.2759527    0.125778313081      
10153.6956418    0.122703300453      
10162.115331     0.119228345538      
10170.5350201    0.116622015767      
10178.9547092    0.114158775391      
10187.3743983    0.111626514662      
10195.7940874    0.108479962086      
10204.2137766    0.105751848749      
10212.6334657    0.103526302821      
10221.0531548    0.100657635653      
10229.4728439    0.0978471501738     
10237.892533     0.0947999509507     
10246.3122221    0.0915917623991     
10254.7319113    0.0894785891642     
10263.1516004    0.0874898066894     
10271.5712895    0.0848041927519     
10279.9909786    0.0817650252049     
10288.4106677    0.0795895796418     
10296.8303569    0.0763274681807     
10305.250046     0.0746232635045     
10313.6697351    0.0721940872266     
10322.0894242    0.0693816783971     
10330.5091133    0.0669391788027     
10338.9288025    0.0644179614715     
10347.3484916    0.0624040213217     
10355.7681807    0.0597160892395     
10364.1878698    0.0578722225467     
10372.6075589    0.0554469070384     
10381.0272481    0.0529218408741     
10389.4469372    0.0507721982921     
10397.8666263    0.0485343773452     
10406.2863154    0.0462511119405     
10414.7060045    0.0448314324548     

