JD	U	B	V	R	I
2097.50	15.297 (0.045)	15.740 (0.037)	15.682 (0.034)	15.489 (0.040)	15.474 (0.037)	1
2101.53	\ldots	15.465 (0.012)	15.307 (0.006)	15.202 (0.015)	15.304 (0.013)	2
2104.47	\ldots	15.436 (0.016)	15.240 (0.010)	15.136 (0.018)	15.378 (0.017)	2
2106.47	\ldots	15.474 (0.010)	15.264 (0.006)	15.160 (0.014)	15.432 (0.013)	2
2112.53	\ldots	15.843 (0.022)	15.449 (0.013)	15.450 (0.028)	15.767 (0.028)	2
2114.48	\ldots	15.957 (0.018)	15.535 (0.012)	15.555 (0.023)	15.885 (0.022)	2
2117.48	\ldots	16.237 (0.014)	15.735 (0.006)	15.721 (0.018)	16.081 (0.017)	2
2123.47	\ldots	16.944 (0.021)	16.061 (0.009)	15.855 (0.022)	15.973 (0.025)	2
2128.48	\ldots	17.488 (0.070)	16.291 (0.019)	15.931 (0.033)	15.872 (0.032)	2
2130.49	\ldots	17.694 (0.040)	16.432 (0.024)	16.008 (0.039)	15.826 (0.036)	2
2137.49	\ldots	18.203 (0.085)	16.858 (0.012)	\ldots	\ldots	2
2144.48	\ldots	18.462 (0.041)	17.195 (0.008)	16.767 (0.033)	16.462 (0.025)	2
2151.49	\ldots	18.608 (0.040)	17.457 (0.018)	17.136 (0.031)	16.801 (0.033)	2
2155.51	\ldots	18.623 (0.164)	17.591 (0.045)	\ldots	\ldots	2
